masses:        e= 9.109e-31; ions in proton mass units:    2.000e+00  1.820e+02 ...
charges:       e=-1.602e-19; charges in elementary units:  1.000e+00  2.000e+00
n:             e:  1.000e+00                           i:  1.000e+00  1.000e-07
thermal T (K): e= 2.321e+07 i= 1.160e+07  1.160e+07. Normalization grid 0: v_0= 1.876e+07 ( 6.256e-02c) n_0= 1.000e+20 t_0= 1.909e-05 128 batched, view batch 0
Domain radius (AMR levels) grid 0: par= 5.000e+00 perp= 5.000e+00 (2) , 1: par= 5.835e-02 perp= 5.835e-02 (2) , 2: par= 6.117e-03 perp= 6.117e-03 (2) 
0) FormLandau 9720 IPs, 360 cells total, Nb=27, Nq=27, dim=3, Tab: Nb=27 Nf=10 Np=27 cdim=3 N=1337600 nnz=72193280
0 TS dt 0.5 time 0.
    0 SNES Function norm 2.115267581789e-01
      Linear solve converged due to CONVERGED_RTOL iterations 18
    1 SNES Function norm 7.050807614468e-03
      Linear solve converged due to CONVERGED_RTOL iterations 16
    2 SNES Function norm 1.256570309162e-03
      Linear solve converged due to CONVERGED_RTOL iterations 16
    3 SNES Function norm 2.770050523748e-04
      Linear solve converged due to CONVERGED_RTOL iterations 14
    4 SNES Function norm 6.310106074754e-05
      Linear solve converged due to CONVERGED_RTOL iterations 15
    5 SNES Function norm 1.451483042202e-05
      Linear solve converged due to CONVERGED_RTOL iterations 15
    6 SNES Function norm 3.350699912432e-06
      Linear solve converged due to CONVERGED_RTOL iterations 15
    7 SNES Function norm 7.746070096792e-07
      Linear solve converged due to CONVERGED_RTOL iterations 15
    8 SNES Function norm 1.791794478208e-07
      Linear solve converged due to CONVERGED_RTOL iterations 15
    9 SNES Function norm 4.145776119727e-08
      Linear solve converged due to CONVERGED_RTOL iterations 15
   10 SNES Function norm 9.593370467626e-09
      Linear solve converged due to CONVERGED_RTOL iterations 15
   11 SNES Function norm 2.220013036662e-09
      Linear solve converged due to CONVERGED_RTOL iterations 16
   12 SNES Function norm 5.137573753442e-10
      Linear solve converged due to CONVERGED_RTOL iterations 16
   13 SNES Function norm 1.188966866204e-10
      Linear solve converged due to CONVERGED_RTOL iterations 14
   14 SNES Function norm 2.751264647423e-11
      Linear solve converged due to CONVERGED_RTOL iterations 15
   15 SNES Function norm 6.367080791295e-12
    Nonlinear solve converged due to CONVERGED_SNORM_RELATIVE iterations 15
      TSAdapt none beuler 0: step   0 accepted t=0          + 5.000e-01 dt=5.000e-01 
1 TS dt 0.5 time 0.5
TS Object: 1 MPI process
  type: beuler
  maximum steps=1
  maximum time=100.
  total number of I function evaluations=16
  total number of I Jacobian evaluations=15
  total number of RHS function evaluations=16
  total number of nonlinear solver iterations=15
  total number of linear solver iterations=230
  total number of nonlinear solve failures=0
  total number of rejected steps=0
  using relative error tolerance of 0.01,   using absolute error tolerance of 0.0001
  TSAdapt Object: 1 MPI process
    type: none
  SNES Object: 1 MPI process
    type: newtonls
    maximum iterations=50, maximum function evaluations=10000
    tolerances: relative=1e-14, absolute=1e-50, solution=1e-14
    total number of linear solver iterations=230
    total number of function evaluations=16
    norm schedule ALWAYS
    SNESLineSearch Object: 1 MPI process
      type: basic
      maxstep=1.000000e+08, minlambda=1.000000e-12
      tolerances: relative=1.000000e-08, absolute=1.000000e-15, lambda=1.000000e-08
      maximum iterations=40
    KSP Object: 1 MPI process
      type: tfqmr
      maximum iterations=100, initial guess is zero
      tolerances: relative=1e-08, absolute=1e-50, divergence=10000.
      left preconditioning
      using PRECONDITIONED norm type for convergence test
    PC Object: 1 MPI process
      type: jacobi
        type DIAGONAL
      linear system matrix = precond matrix:
      Mat Object: Jacobian 1 MPI process
        type: seqaijkokkos
        rows=1337600, cols=1337600
        total: nonzeros=72193280, allocated nonzeros=72193280
        total number of mallocs used during MatSetValues calls=0
          not using I-node routines
0 TS dt 0.5 time 0.
    0 SNES Function norm 2.115267581789e-01
      Linear solve converged due to CONVERGED_RTOL iterations 18
    1 SNES Function norm 7.050807614468e-03
      Linear solve converged due to CONVERGED_RTOL iterations 16
    2 SNES Function norm 1.256570309162e-03
      Linear solve converged due to CONVERGED_RTOL iterations 16
    3 SNES Function norm 2.770050523748e-04
      Linear solve converged due to CONVERGED_RTOL iterations 14
    4 SNES Function norm 6.310106074754e-05
      Linear solve converged due to CONVERGED_RTOL iterations 15
    5 SNES Function norm 1.451483042202e-05
      Linear solve converged due to CONVERGED_RTOL iterations 15
    6 SNES Function norm 3.350699912432e-06
      Linear solve converged due to CONVERGED_RTOL iterations 15
    7 SNES Function norm 7.746070096792e-07
      Linear solve converged due to CONVERGED_RTOL iterations 15
    8 SNES Function norm 1.791794478208e-07
      Linear solve converged due to CONVERGED_RTOL iterations 15
    9 SNES Function norm 4.145776119727e-08
      Linear solve converged due to CONVERGED_RTOL iterations 15
   10 SNES Function norm 9.593370467626e-09
      Linear solve converged due to CONVERGED_RTOL iterations 15
   11 SNES Function norm 2.220013036662e-09
      Linear solve converged due to CONVERGED_RTOL iterations 16
   12 SNES Function norm 5.137573753442e-10
      Linear solve converged due to CONVERGED_RTOL iterations 16
   13 SNES Function norm 1.188966866204e-10
      Linear solve converged due to CONVERGED_RTOL iterations 14
   14 SNES Function norm 2.751264647423e-11
      Linear solve converged due to CONVERGED_RTOL iterations 15
   15 SNES Function norm 6.367080791295e-12
    Nonlinear solve converged due to CONVERGED_SNORM_RELATIVE iterations 15
      TSAdapt none beuler 0: step   0 accepted t=0          + 5.000e-01 dt=5.000e-01 
1 TS dt 0.5 time 0.5
    0 SNES Function norm 2.660609551346e-02
      Linear solve converged due to CONVERGED_RTOL iterations 18
    1 SNES Function norm 3.247199998149e-03
      Linear solve converged due to CONVERGED_RTOL iterations 16
    2 SNES Function norm 7.410201724793e-04
      Linear solve converged due to CONVERGED_RTOL iterations 16
    3 SNES Function norm 1.710327801866e-04
      Linear solve converged due to CONVERGED_RTOL iterations 15
    4 SNES Function norm 3.947821056433e-05
      Linear solve converged due to CONVERGED_RTOL iterations 15
    5 SNES Function norm 9.113369120566e-06
      Linear solve converged due to CONVERGED_RTOL iterations 16
    6 SNES Function norm 2.104162965717e-06
      Linear solve converged due to CONVERGED_RTOL iterations 17
    7 SNES Function norm 4.858839446210e-07
      Linear solve converged due to CONVERGED_RTOL iterations 17
    8 SNES Function norm 1.122040377981e-07
      Linear solve converged due to CONVERGED_RTOL iterations 17
    9 SNES Function norm 2.591171282647e-08
      Linear solve converged due to CONVERGED_RTOL iterations 17
   10 SNES Function norm 5.983975887944e-09
      Linear solve converged due to CONVERGED_RTOL iterations 17
   11 SNES Function norm 1.381947917095e-09
      Linear solve converged due to CONVERGED_RTOL iterations 16
   12 SNES Function norm 3.191497111075e-10
      Linear solve converged due to CONVERGED_RTOL iterations 14
   13 SNES Function norm 7.370128882787e-11
      Linear solve converged due to CONVERGED_RTOL iterations 15
   14 SNES Function norm 1.702288343897e-11
      Linear solve converged due to CONVERGED_RTOL iterations 16
   15 SNES Function norm 3.927497974520e-12
    Nonlinear solve converged due to CONVERGED_SNORM_RELATIVE iterations 15
      TSAdapt none beuler 0: step   1 accepted t=0.5        + 5.000e-01 dt=5.000e-01 
2 TS dt 0.5 time 1.
    0 SNES Function norm 1.449890720085e-02
      Linear solve converged due to CONVERGED_RTOL iterations 17
    1 SNES Function norm 2.538365724246e-03
      Linear solve converged due to CONVERGED_RTOL iterations 16
    2 SNES Function norm 6.025967454736e-04
      Linear solve converged due to CONVERGED_RTOL iterations 16
    3 SNES Function norm 1.404028027281e-04
      Linear solve converged due to CONVERGED_RTOL iterations 15
    4 SNES Function norm 3.246649048816e-05
      Linear solve converged due to CONVERGED_RTOL iterations 15
    5 SNES Function norm 7.485973206529e-06
      Linear solve converged due to CONVERGED_RTOL iterations 15
    6 SNES Function norm 1.724211903846e-06
      Linear solve converged due to CONVERGED_RTOL iterations 18
    7 SNES Function norm 3.969623783903e-07
      Linear solve converged due to CONVERGED_RTOL iterations 18
    8 SNES Function norm 9.137545003766e-08
      Linear solve converged due to CONVERGED_RTOL iterations 18
    9 SNES Function norm 2.103188484415e-08
      Linear solve converged due to CONVERGED_RTOL iterations 18
   10 SNES Function norm 4.840745972158e-09
      Linear solve converged due to CONVERGED_RTOL iterations 15
   11 SNES Function norm 1.114157370376e-09
      Linear solve converged due to CONVERGED_RTOL iterations 14
   12 SNES Function norm 2.564294233794e-10
      Linear solve converged due to CONVERGED_RTOL iterations 14
   13 SNES Function norm 5.902061299243e-11
      Linear solve converged due to CONVERGED_RTOL iterations 18
   14 SNES Function norm 1.358196011362e-11
      Linear solve converged due to CONVERGED_RTOL iterations 16
   15 SNES Function norm 3.119973341095e-12
    Nonlinear solve converged due to CONVERGED_SNORM_RELATIVE iterations 15
      TSAdapt none beuler 0: step   2 accepted t=1          + 5.000e-01 dt=5.000e-01 
3 TS dt 0.5 time 1.5
    0 SNES Function norm 1.153201899518e-02
      Linear solve converged due to CONVERGED_RTOL iterations 16
    1 SNES Function norm 2.320324028289e-03
      Linear solve converged due to CONVERGED_RTOL iterations 16
    2 SNES Function norm 5.501131388650e-04
      Linear solve converged due to CONVERGED_RTOL iterations 16
    3 SNES Function norm 1.279376293374e-04
      Linear solve converged due to CONVERGED_RTOL iterations 15
    4 SNES Function norm 2.950826300396e-05
      Linear solve converged due to CONVERGED_RTOL iterations 15
    5 SNES Function norm 6.782712475448e-06
      Linear solve converged due to CONVERGED_RTOL iterations 18
    6 SNES Function norm 1.556887424354e-06
      Linear solve converged due to CONVERGED_RTOL iterations 15
    7 SNES Function norm 3.571723365698e-07
      Linear solve converged due to CONVERGED_RTOL iterations 15
    8 SNES Function norm 8.192028096535e-08
      Linear solve converged due to CONVERGED_RTOL iterations 15
    9 SNES Function norm 1.878712870797e-08
      Linear solve converged due to CONVERGED_RTOL iterations 17
   10 SNES Function norm 4.308242658470e-09
      Linear solve converged due to CONVERGED_RTOL iterations 18
   11 SNES Function norm 9.879394253491e-10
      Linear solve converged due to CONVERGED_RTOL iterations 14
   12 SNES Function norm 2.265517042416e-10
      Linear solve converged due to CONVERGED_RTOL iterations 15
   13 SNES Function norm 5.194992827317e-11
      Linear solve converged due to CONVERGED_RTOL iterations 15
   14 SNES Function norm 1.191033442065e-11
      Linear solve converged due to CONVERGED_RTOL iterations 14
   15 SNES Function norm 2.735055234966e-12
    Nonlinear solve converged due to CONVERGED_SNORM_RELATIVE iterations 15
      TSAdapt none beuler 0: step   3 accepted t=1.5        + 5.000e-01 dt=5.000e-01 
4 TS dt 0.5 time 2.
    0 SNES Function norm 1.035541653252e-02
      Linear solve converged due to CONVERGED_RTOL iterations 17
    1 SNES Function norm 2.187681377000e-03
      Linear solve converged due to CONVERGED_RTOL iterations 16
    2 SNES Function norm 5.156277128767e-04
      Linear solve converged due to CONVERGED_RTOL iterations 16
    3 SNES Function norm 1.194203868044e-04
      Linear solve converged due to CONVERGED_RTOL iterations 15
    4 SNES Function norm 2.744226611937e-05
      Linear solve converged due to CONVERGED_RTOL iterations 15
    5 SNES Function norm 6.285203187803e-06
      Linear solve converged due to CONVERGED_RTOL iterations 17
    6 SNES Function norm 1.437541745907e-06
      Linear solve converged due to CONVERGED_RTOL iterations 15
    7 SNES Function norm 3.286066586155e-07
      Linear solve converged due to CONVERGED_RTOL iterations 15
    8 SNES Function norm 7.509729601188e-08
      Linear solve converged due to CONVERGED_RTOL iterations 15
    9 SNES Function norm 1.716036195907e-08
      Linear solve converged due to CONVERGED_RTOL iterations 15
   10 SNES Function norm 3.921115083420e-09
      Linear solve converged due to CONVERGED_RTOL iterations 15
   11 SNES Function norm 8.959556582185e-10
      Linear solve converged due to CONVERGED_RTOL iterations 18
   12 SNES Function norm 2.047171374713e-10
      Linear solve converged due to CONVERGED_RTOL iterations 14
   13 SNES Function norm 4.678129766825e-11
      Linear solve converged due to CONVERGED_RTOL iterations 17
   14 SNES Function norm 1.068498031165e-11
      Linear solve converged due to CONVERGED_RTOL iterations 15
   15 SNES Function norm 2.441210488800e-12
    Nonlinear solve converged due to CONVERGED_SNORM_RELATIVE iterations 15
      TSAdapt none beuler 0: step   4 accepted t=2          + 5.000e-01 dt=5.000e-01 
5 TS dt 0.5 time 2.5
    0 SNES Function norm 9.603585091159e-03
      Linear solve converged due to CONVERGED_RTOL iterations 17
    1 SNES Function norm 2.058691435932e-03
      Linear solve converged due to CONVERGED_RTOL iterations 16
    2 SNES Function norm 4.824088898393e-04
      Linear solve converged due to CONVERGED_RTOL iterations 16
    3 SNES Function norm 1.112350804566e-04
      Linear solve converged due to CONVERGED_RTOL iterations 15
    4 SNES Function norm 2.546504902712e-05
      Linear solve converged due to CONVERGED_RTOL iterations 15
    5 SNES Function norm 5.811798289652e-06
      Linear solve converged due to CONVERGED_RTOL iterations 15
    6 SNES Function norm 1.324719512867e-06
      Linear solve converged due to CONVERGED_RTOL iterations 15
    7 SNES Function norm 3.017822866283e-07
      Linear solve converged due to CONVERGED_RTOL iterations 14
    8 SNES Function norm 6.873271300393e-08
      Linear solve converged due to CONVERGED_RTOL iterations 15
    9 SNES Function norm 1.565270915114e-08
      Linear solve converged due to CONVERGED_RTOL iterations 14
   10 SNES Function norm 3.564487962068e-09
      Linear solve converged due to CONVERGED_RTOL iterations 18
   11 SNES Function norm 8.116928547383e-10
      Linear solve converged due to CONVERGED_RTOL iterations 14
   12 SNES Function norm 1.848385906175e-10
      Linear solve converged due to CONVERGED_RTOL iterations 14
   13 SNES Function norm 4.208650520005e-11
      Linear solve converged due to CONVERGED_RTOL iterations 14
   14 SNES Function norm 9.578440656060e-12
      Linear solve converged due to CONVERGED_RTOL iterations 15
   15 SNES Function norm 2.181748432707e-12
    Nonlinear solve converged due to CONVERGED_SNORM_RELATIVE iterations 15
      TSAdapt none beuler 0: step   5 accepted t=2.5        + 5.000e-01 dt=5.000e-01 
6 TS dt 0.5 time 3.
    0 SNES Function norm 8.949674701435e-03
      Linear solve converged due to CONVERGED_RTOL iterations 17
    1 SNES Function norm 1.919096589652e-03
      Linear solve converged due to CONVERGED_RTOL iterations 15
    2 SNES Function norm 4.473112280955e-04
      Linear solve converged due to CONVERGED_RTOL iterations 15
    3 SNES Function norm 1.027162405942e-04
      Linear solve converged due to CONVERGED_RTOL iterations 15
    4 SNES Function norm 2.343168509698e-05
      Linear solve converged due to CONVERGED_RTOL iterations 15
    5 SNES Function norm 5.330129739291e-06
      Linear solve converged due to CONVERGED_RTOL iterations 14
    6 SNES Function norm 1.211051471865e-06
      Linear solve converged due to CONVERGED_RTOL iterations 14
    7 SNES Function norm 2.750171403122e-07
      Linear solve converged due to CONVERGED_RTOL iterations 14
    8 SNES Function norm 6.244000823937e-08
      Linear solve converged due to CONVERGED_RTOL iterations 14
    9 SNES Function norm 1.417509752767e-08
      Linear solve converged due to CONVERGED_RTOL iterations 14
   10 SNES Function norm 3.217891274729e-09
      Linear solve converged due to CONVERGED_RTOL iterations 14
   11 SNES Function norm 7.304838580280e-10
      Linear solve converged due to CONVERGED_RTOL iterations 16
   12 SNES Function norm 1.658228263901e-10
      Linear solve converged due to CONVERGED_RTOL iterations 14
   13 SNES Function norm 3.764184181253e-11
      Linear solve converged due to CONVERGED_RTOL iterations 14
   14 SNES Function norm 8.544527587562e-12
      Linear solve converged due to CONVERGED_RTOL iterations 16
   15 SNES Function norm 1.943780313553e-12
    Nonlinear solve converged due to CONVERGED_SNORM_RELATIVE iterations 15
      TSAdapt none beuler 0: step   6 accepted t=3          + 5.000e-01 dt=5.000e-01 
7 TS dt 0.5 time 3.5
    0 SNES Function norm 8.314803821103e-03
      Linear solve converged due to CONVERGED_RTOL iterations 18
    1 SNES Function norm 1.770654609913e-03
      Linear solve converged due to CONVERGED_RTOL iterations 15
    2 SNES Function norm 4.107316347396e-04
      Linear solve converged due to CONVERGED_RTOL iterations 15
    3 SNES Function norm 9.396182198416e-05
      Linear solve converged due to CONVERGED_RTOL iterations 15
    4 SNES Function norm 2.136516351789e-05
      Linear solve converged due to CONVERGED_RTOL iterations 15
    5 SNES Function norm 4.845457298158e-06
      Linear solve converged due to CONVERGED_RTOL iterations 14
    6 SNES Function norm 1.097716093015e-06
      Linear solve converged due to CONVERGED_RTOL iterations 14
    7 SNES Function norm 2.485617378836e-07
      Linear solve converged due to CONVERGED_RTOL iterations 14
    8 SNES Function norm 5.627176040925e-08
      Linear solve converged due to CONVERGED_RTOL iterations 14
    9 SNES Function norm 1.273821329501e-08
      Linear solve converged due to CONVERGED_RTOL iterations 14
   10 SNES Function norm 2.883444180315e-09
      Linear solve converged due to CONVERGED_RTOL iterations 14
   11 SNES Function norm 6.526855125832e-10
      Linear solve converged due to CONVERGED_RTOL iterations 15
   12 SNES Function norm 1.477463943075e-10
      Linear solve converged due to CONVERGED_RTOL iterations 15
   13 SNES Function norm 3.344262172806e-11
      Linear solve converged due to CONVERGED_RTOL iterations 20
   14 SNES Function norm 7.567989682590e-12
    Nonlinear solve converged due to CONVERGED_SNORM_RELATIVE iterations 14
      TSAdapt none beuler 0: step   7 accepted t=3.5        + 5.000e-01 dt=5.000e-01 
8 TS dt 0.5 time 4.
    0 SNES Function norm 7.686189767467e-03
      Linear solve converged due to CONVERGED_RTOL iterations 19
    1 SNES Function norm 1.618154821363e-03
      Linear solve converged due to CONVERGED_RTOL iterations 15
    2 SNES Function norm 3.737268115012e-04
      Linear solve converged due to CONVERGED_RTOL iterations 15
    3 SNES Function norm 8.520522927103e-05
      Linear solve converged due to CONVERGED_RTOL iterations 15
    4 SNES Function norm 1.931760970945e-05
      Linear solve converged due to CONVERGED_RTOL iterations 16
    5 SNES Function norm 4.369204212295e-06
      Linear solve converged due to CONVERGED_RTOL iterations 15
    6 SNES Function norm 9.872190841738e-07
      Linear solve converged due to CONVERGED_RTOL iterations 15
    7 SNES Function norm 2.229609462805e-07
      Linear solve converged due to CONVERGED_RTOL iterations 15
    8 SNES Function norm 5.034558587923e-08
      Linear solve converged due to CONVERGED_RTOL iterations 15
    9 SNES Function norm 1.136733374206e-08
      Linear solve converged due to CONVERGED_RTOL iterations 15
   10 SNES Function norm 2.566487559194e-09
      Linear solve converged due to CONVERGED_RTOL iterations 18
   11 SNES Function norm 5.794474325918e-10
      Linear solve converged due to CONVERGED_RTOL iterations 14
   12 SNES Function norm 1.308241643728e-10
      Linear solve converged due to CONVERGED_RTOL iterations 14
   13 SNES Function norm 2.953089046445e-11
      Linear solve converged due to CONVERGED_RTOL iterations 14
   14 SNES Function norm 6.670376671085e-12
    Nonlinear solve converged due to CONVERGED_SNORM_RELATIVE iterations 14
      TSAdapt none beuler 0: step   8 accepted t=4          + 5.000e-01 dt=5.000e-01 
9 TS dt 0.5 time 4.5
    0 SNES Function norm 7.068628917512e-03
      Linear solve converged due to CONVERGED_RTOL iterations 16
    1 SNES Function norm 1.465935267516e-03
      Linear solve converged due to CONVERGED_RTOL iterations 17
    2 SNES Function norm 3.372247550038e-04
      Linear solve converged due to CONVERGED_RTOL iterations 14
    3 SNES Function norm 7.664809063764e-05
      Linear solve converged due to CONVERGED_RTOL iterations 15
    4 SNES Function norm 1.733188873235e-05
      Linear solve converged due to CONVERGED_RTOL iterations 16
    5 SNES Function norm 3.910555540960e-06
      Linear solve converged due to CONVERGED_RTOL iterations 15
    6 SNES Function norm 8.815099140303e-07
      Linear solve converged due to CONVERGED_RTOL iterations 18
    7 SNES Function norm 1.986312994705e-07
      Linear solve converged due to CONVERGED_RTOL iterations 18
    8 SNES Function norm 4.474915818517e-08
      Linear solve converged due to CONVERGED_RTOL iterations 18
    9 SNES Function norm 1.008065869113e-08
      Linear solve converged due to CONVERGED_RTOL iterations 18
   10 SNES Function norm 2.270736719857e-09
      Linear solve converged due to CONVERGED_RTOL iterations 15
   11 SNES Function norm 5.114865710945e-10
      Linear solve converged due to CONVERGED_RTOL iterations 14
   12 SNES Function norm 1.152234077563e-10
      Linear solve converged due to CONVERGED_RTOL iterations 14
   13 SNES Function norm 2.595232462265e-11
      Linear solve converged due to CONVERGED_RTOL iterations 17
   14 SNES Function norm 5.845465709220e-12
    Nonlinear solve converged due to CONVERGED_SNORM_RELATIVE iterations 14
      TSAdapt none beuler 0: step   9 accepted t=4.5        + 5.000e-01 dt=5.000e-01 
10 TS dt 0.5 time 5.
TS Object: 1 MPI process
  type: beuler
  maximum steps=10
  maximum time=100.
  total number of I function evaluations=173
  total number of I Jacobian evaluations=162
  total number of RHS function evaluations=173
  total number of nonlinear solver iterations=147
  total number of linear solver iterations=2284
  total number of nonlinear solve failures=0
  total number of rejected steps=0
  using relative error tolerance of 0.01,   using absolute error tolerance of 0.0001
  TSAdapt Object: 1 MPI process
    type: none
  SNES Object: 1 MPI process
    type: newtonls
    maximum iterations=50, maximum function evaluations=10000
    tolerances: relative=1e-14, absolute=1e-50, solution=1e-14
    total number of linear solver iterations=225
    total number of function evaluations=15
    norm schedule ALWAYS
    SNESLineSearch Object: 1 MPI process
      type: basic
      maxstep=1.000000e+08, minlambda=1.000000e-12
      tolerances: relative=1.000000e-08, absolute=1.000000e-15, lambda=1.000000e-08
      maximum iterations=40
    KSP Object: 1 MPI process
      type: tfqmr
      maximum iterations=100, initial guess is zero
      tolerances: relative=1e-08, absolute=1e-50, divergence=10000.
      left preconditioning
      using PRECONDITIONED norm type for convergence test
    PC Object: 1 MPI process
      type: jacobi
        type DIAGONAL
      linear system matrix = precond matrix:
      Mat Object: Jacobian 1 MPI process
        type: seqaijkokkos
        rows=1337600, cols=1337600
        total: nonzeros=72193280, allocated nonzeros=72193280
        total number of mallocs used during MatSetValues calls=0
          not using I-node routines
****************************************************************************************************************************************************************
***                                WIDEN YOUR WINDOW TO 160 CHARACTERS.  Use 'enscript -r -fCourier9' to print this document                                 ***
****************************************************************************************************************************************************************

------------------------------------------------------------------ PETSc Performance Summary: ------------------------------------------------------------------



      ##########################################################
      #                                                        #
      #                       WARNING!!!                       #
      #                                                        #
      #   This code was run with -log_view_gpu_time            #
      #   This provides accurate timing within the GPU kernels #
      #   but can slow down the entire computation by a        #
      #   measurable amount. For fastest runs we recommend     #
      #   not using this option.                               #
      #                                                        #
      ##########################################################


/global/u2/m/madams/batch_gmres_paper/landau_throughput_nsight/perlmutter/./ex2-3 on a arch-perlmutter-opt-gcc-kokkos-cuda-3d named nid200277 with 4 processes and CUDA architecture 80, by madams on Thu Jun 27 16:03:41 2024
Using Petsc Development GIT revision: v3.21.2-329-g0f40c42b27c  GIT Date: 2024-06-27 15:17:08 -0400

                         Max       Max/Min     Avg       Total
Time (sec):           4.354e+02     1.000   4.354e+02
Objects:              0.000e+00     0.000   0.000e+00
Flops:                8.726e+11     1.000   8.726e+11  3.491e+12
Flops/sec:            2.004e+09     1.000   2.004e+09  8.017e+09
MPI Msg Count:        0.000e+00     0.000   0.000e+00  0.000e+00
MPI Msg Len (bytes):  0.000e+00     0.000   0.000e+00  0.000e+00
MPI Reductions:       2.100e+01     1.000

Flop counting convention: 1 flop = 1 real number operation of type (multiply/divide/add/subtract)
                            e.g., VecAXPY() for real vectors of length N --> 2N flops
                            and VecAXPY() for complex vectors of length N --> 8N flops

Summary of Stages:   ----- Time ------  ----- Flop ------  --- Messages ---  -- Message Lengths --  -- Reductions --
                        Avg     %Total     Avg     %Total    Count   %Total     Avg         %Total    Count   %Total
 0:      Main Stage: 3.0580e+02  70.2%  1.7126e+09   0.0%  0.000e+00   0.0%  0.000e+00        0.0%  2.000e+00   9.5%
 1:          Warmup: 1.2668e+01   2.9%  3.1943e+11   9.2%  0.000e+00   0.0%  0.000e+00        0.0%  0.000e+00   0.0%
 2:           Solve: 1.1693e+02  26.9%  3.1694e+12  90.8%  0.000e+00   0.0%  0.000e+00        0.0%  0.000e+00   0.0%

------------------------------------------------------------------------------------------------------------------------
See the 'Profiling' chapter of the users' manual for details on interpreting output.
Phase summary info:
   Count: number of times phase was executed
   Time and Flop: Max - maximum over all processors
                  Ratio - ratio of maximum to minimum over all processors
   Mess: number of messages sent
   AvgLen: average message length (bytes)
   Reduct: number of global reductions
   Global: entire computation
   Stage: stages of a computation. Set stages with PetscLogStagePush() and PetscLogStagePop().
      %T - percent time in this phase         %F - percent flop in this phase
      %M - percent messages in this phase     %L - percent message lengths in this phase
      %R - percent reductions in this phase
   Total Mflop/s: 10e-6 * (sum of flop over all processors)/(max time over all processors)
   GPU Mflop/s: 10e-6 * (sum of flop on GPU over all processors)/(max GPU time over all processors)
   CpuToGpu Count: total number of CPU to GPU copies per processor
   CpuToGpu Size (Mbytes): 10e-6 * (total size of CPU to GPU copies per processor)
   GpuToCpu Count: total number of GPU to CPU copies per processor
   GpuToCpu Size (Mbytes): 10e-6 * (total size of GPU to CPU copies per processor)
   GPU %F: percent flops on GPU in this event
------------------------------------------------------------------------------------------------------------------------
Event                Count      Time (sec)     Flop                              --- Global ---  --- Stage ----  Total   GPU    - CpuToGpu -   - GpuToCpu - GPU
                   Max Ratio  Max     Ratio   Max  Ratio  Mess   AvgLen  Reduct  %T %F %M %L %R  %T %F %M %L %R Mflop/s Mflop/s Count   Size   Count   Size  %F
---------------------------------------------------------------------------------------------------------------------------------------------------------------

--- Event Stage 0: Main Stage

BuildTwoSided       1575 1.0 1.7071e-03 1.2 0.00e+00 0.0 0.0e+00 0.0e+00 0.0e+00  0  0  0  0  0   0  0  0  0  0     0       0      0 0.00e+00    0 0.00e+00  0
DMConvert             18 1.0 4.7967e-03 1.0 0.00e+00 0.0 0.0e+00 0.0e+00 0.0e+00  0  0  0  0  0   0  0  0  0  0     0       0      0 0.00e+00    0 0.00e+00  0
DMCreateMat            8 1.0 1.4836e+02 1.0 0.00e+00 0.0 0.0e+00 0.0e+00 0.0e+00 34  0  0  0  0  48  0  0  0  0     0       0      0 0.00e+00    0 0.00e+00  0
DMProjectFunc        393 1.0 3.8390e+00 1.0 2.94e+08 1.0 0.0e+00 0.0e+00 0.0e+00  1  0  0  0  0   1 69  0  0  0   307       0      0 0.00e+00    0 0.00e+00  0
DMPlexInterp         204 1.0 5.8764e-03 1.1 0.00e+00 0.0 0.0e+00 0.0e+00 0.0e+00  0  0  0  0  0   0  0  0  0  0     0       0      0 0.00e+00    0 0.00e+00  0
DMPlexStratify       318 1.0 5.8339e-03 1.1 0.00e+00 0.0 0.0e+00 0.0e+00 0.0e+00  0  0  0  0  0   0  0  0  0  0     0       0      0 0.00e+00    0 0.00e+00  0
DMPlexSymmetrize     318 1.0 4.7570e-04 1.1 0.00e+00 0.0 0.0e+00 0.0e+00 0.0e+00  0  0  0  0  0   0  0  0  0  0     0       0      0 0.00e+00    0 0.00e+00  0
DMPlexPrealloc       774 1.0 1.3595e+02 1.0 0.00e+00 0.0 0.0e+00 0.0e+00 0.0e+00 31  0  0  0  0  44  0  0  0  0     0       0      0 0.00e+00    0 0.00e+00  0
DMPlexJacobianFE       6 1.0 4.5126e+00 1.1 1.08e+08 1.0 0.0e+00 0.0e+00 0.0e+00  1  0  0  0  0   1 25  0  0  0    96       0      0 0.00e+00    0 0.00e+00  0
DMPlexGenerate         3 1.0 7.1224e-04 1.4 0.00e+00 0.0 0.0e+00 0.0e+00 0.0e+00  0  0  0  0  0   0  0  0  0  0     0       0      0 0.00e+00    0 0.00e+00  0
SFSetGraph          3132 1.0 4.5273e-04 1.0 0.00e+00 0.0 0.0e+00 0.0e+00 0.0e+00  0  0  0  0  0   0  0  0  0  0     0       0      0 0.00e+00    0 0.00e+00  0
SFSetUp             1575 1.0 6.4178e-03 1.1 0.00e+00 0.0 0.0e+00 0.0e+00 0.0e+00  0  0  0  0  0   0  0  0  0  0     0       0      0 0.00e+00    0 0.00e+00  0
SFBcastBegin        3162 1.0 7.5376e-03 1.1 0.00e+00 0.0 0.0e+00 0.0e+00 0.0e+00  0  0  0  0  0   0  0  0  0  0     0       0      0 0.00e+00    0 0.00e+00  0
SFBcastEnd          3162 1.0 5.1653e-04 1.1 0.00e+00 0.0 0.0e+00 0.0e+00 0.0e+00  0  0  0  0  0   0  0  0  0  0     0       0      0 0.00e+00    0 0.00e+00  0
SFReduceBegin         54 1.0 7.2802e-05 1.1 0.00e+00 0.0 0.0e+00 0.0e+00 0.0e+00  0  0  0  0  0   0  0  0  0  0     0       0      0 0.00e+00    0 0.00e+00  0
SFReduceEnd           54 1.0 7.8050e-06 1.2 0.00e+00 0.0 0.0e+00 0.0e+00 0.0e+00  0  0  0  0  0   0  0  0  0  0     0       0      0 0.00e+00    0 0.00e+00  0
SFCreateEmbed       1548 1.0 1.6978e-02 1.0 0.00e+00 0.0 0.0e+00 0.0e+00 0.0e+00  0  0  0  0  0   0  0  0  0  0     0       0      0 0.00e+00    0 0.00e+00  0
SFSectionSF         1548 1.0 6.8688e-03 1.1 0.00e+00 0.0 0.0e+00 0.0e+00 0.0e+00  0  0  0  0  0   0  0  0  0  0     0       0      0 0.00e+00    0 0.00e+00  0
SFRemoteOff         1548 1.0 3.9030e-02 1.0 0.00e+00 0.0 0.0e+00 0.0e+00 0.0e+00  0  0  0  0  0   0  0  0  0  0     0       0      0 0.00e+00    0 0.00e+00  0
SFPack              3216 1.0 3.2882e-04 1.1 0.00e+00 0.0 0.0e+00 0.0e+00 0.0e+00  0  0  0  0  0   0  0  0  0  0     0       0      0 0.00e+00    0 0.00e+00  0
Landau Create          1 1.0 2.2162e+02 1.0 3.59e+08 1.0 0.0e+00 0.0e+00 0.0e+00 51  0  0  0  0  72 84  0  0  0     6       0      0 0.00e+00    0 0.00e+00  0
 GPU ass. setup        1 1.0 1.3166e+02 1.0 3.23e+06 1.0 0.0e+00 0.0e+00 0.0e+00 30  0  0  0  0  43  1  0  0  0     0       0      0 0.00e+00    0 0.00e+00  0
 Build matrix          1 1.0 1.0457e+01 1.1 3.87e+07 1.0 0.0e+00 0.0e+00 0.0e+00  2  0  0  0  0   3  9  0  0  0    15       0      0 0.00e+00    0 0.00e+00  0
 Assembly maps         1 1.0 7.9903e+01 1.0 3.06e+08 1.0 0.0e+00 0.0e+00 0.0e+00 18  0  0  0  0  26 71  0  0  0    15       0      0 0.00e+00    0 0.00e+00  0
Landau Mass mat        1 1.0 8.4588e+01 1.0 6.93e+07 1.0 0.0e+00 0.0e+00 0.0e+00 19  0  0  0  0  27 16  0  0  0     3       0      0 0.00e+00    0 0.00e+00  0
 static IP Data        1 1.0 3.0103e-02 1.2 1.11e+07 1.0 0.0e+00 0.0e+00 0.0e+00  0  0  0  0  0   0  3  0  0  0  1468       0      0 0.00e+00    0 0.00e+00  0
VecCopy                1 1.0 7.4842e-04 1.2 0.00e+00 0.0 0.0e+00 0.0e+00 0.0e+00  0  0  0  0  0   0  0  0  0  0     0       0      0 0.00e+00    0 0.00e+00  0
VecSet               765 1.0 1.4668e-02 1.1 0.00e+00 0.0 0.0e+00 0.0e+00 0.0e+00  0  0  0  0  0   0  0  0  0  0     0       0      0 0.00e+00    0 0.00e+00  0
DualSpaceSetUp        52 1.0 4.3501e-02 1.0 2.36e+04 1.0 0.0e+00 0.0e+00 0.0e+00  0  0  0  0  0   0  0  0  0  0     2       0      0 0.00e+00    0 0.00e+00  0
FESetUp               52 1.0 1.6660e-03 1.1 0.00e+00 0.0 0.0e+00 0.0e+00 0.0e+00  0  0  0  0  0   0  0  0  0  0     0       0      0 0.00e+00    0 0.00e+00  0
MatMult          1531800 1.0 1.4277e-01 1.0 1.20e+07 1.0 0.0e+00 0.0e+00 0.0e+00  0  0  0  0  0   0  3  0  0  0   335       0      0 0.00e+00    0 0.00e+00  0
MatLUFactor           30 1.0 5.5465e-04 1.0 3.94e+05 1.0 0.0e+00 0.0e+00 0.0e+00  0  0  0  0  0   0  0  0  0  0  2839       0      0 0.00e+00    0 0.00e+00  0
MatCopy              240 1.0 1.4704e-04 1.0 0.00e+00 0.0 0.0e+00 0.0e+00 0.0e+00  0  0  0  0  0   0  0  0  0  0     0       0      0 0.00e+00    0 0.00e+00  0
MatConvert            60 1.0 5.2375e-04 1.0 0.00e+00 0.0 0.0e+00 0.0e+00 0.0e+00  0  0  0  0  0   0  0  0  0  0     0       0      0 0.00e+00    0 0.00e+00  0
MatAssemblyBegin    1746 1.0 3.2824e-04 1.2 0.00e+00 0.0 0.0e+00 0.0e+00 0.0e+00  0  0  0  0  0   0  0  0  0  0     0       0      0 0.00e+00    0 0.00e+00  0
MatAssemblyEnd      1746 1.0 1.2917e+00 1.1 0.00e+00 0.0 0.0e+00 0.0e+00 0.0e+00  0  0  0  0  0   0  0  0  0  0     0       0      0 0.00e+00    0 0.00e+00  0
MatGetRowIJ            9 1.0 4.3880e-06 1.5 0.00e+00 0.0 0.0e+00 0.0e+00 0.0e+00  0  0  0  0  0   0  0  0  0  0     0       0      0 0.00e+00    0 0.00e+00  0
MatZeroEntries         6 1.0 1.7708e-04 1.2 0.00e+00 0.0 0.0e+00 0.0e+00 0.0e+00  0  0  0  0  0   0  0  0  0  0     0       0      0 0.00e+00    0 0.00e+00  0
MatMatSolve          240 1.0 1.6721e-03 1.0 9.27e+06 1.0 0.0e+00 0.0e+00 0.0e+00  0  0  0  0  0   0  2  0  0  0 22183       0      0 0.00e+00    0 0.00e+00  0
MatSetPreallCOO      175 1.0 4.7094e+01 1.0 0.00e+00 0.0 0.0e+00 0.0e+00 0.0e+00 11  0  0  0  0  15  0  0  0  0     0       0      0 0.00e+00    0 0.00e+00  0
MatSetValuesCOO      174 1.0 2.5124e-04 1.1 0.00e+00 0.0 0.0e+00 0.0e+00 0.0e+00  0  0  0  0  0   0  0  0  0  0     0       0      0 0.00e+00    0 0.00e+00  0
DCtxCreate             1 1.0 2.2633e-05 1.7 0.00e+00 0.0 0.0e+00 0.0e+00 0.0e+00  0  0  0  0  0   0  0  0  0  0     0       0      0 0.00e+00    0 0.00e+00  0
DCtxDestroy            1 1.0 3.3003e-05 1.1 0.00e+00 0.0 0.0e+00 0.0e+00 0.0e+00  0  0  0  0  0   0  0  0  0  0     0       0      0 0.00e+00    0 0.00e+00  0
DCtxSetUp              1 1.0 4.5638e-05 1.7 0.00e+00 0.0 0.0e+00 0.0e+00 0.0e+00  0  0  0  0  0   0  0  0  0  0     0       0      0 0.00e+00    0 0.00e+00  0
DCtxSetDevice          1 1.0 4.1309e-05 1.7 0.00e+00 0.0 0.0e+00 0.0e+00 0.0e+00  0  0  0  0  0   0  0  0  0  0     0       0      0 0.00e+00    0 0.00e+00  0

--- Event Stage 1: Warmup

Landau Operator       31 1.0 1.2143e+01 1.0 4.62e+09 1.0 0.0e+00 0.0e+00 0.0e+00  3  1  0  0  0  96  6  0  0  0  1522    1526      0 0.00e+00    0 0.00e+00  100
Landau Jacobian       16 1.0 1.1339e+01 1.0 4.62e+09 1.0 0.0e+00 0.0e+00 0.0e+00  3  1  0  0  0  89  6  0  0  0  1630    1635      0 0.00e+00    0 0.00e+00  100
Landau Mass           15 1.0 8.0536e-01 1.0 0.00e+00 0.0 0.0e+00 0.0e+00 0.0e+00  0  0  0  0  0   6  0  0  0  0     0       0      0 0.00e+00    0 0.00e+00  0
 Preamble             31 1.0 1.6156e-04 1.1 0.00e+00 0.0 0.0e+00 0.0e+00 0.0e+00  0  0  0  0  0   0  0  0  0  0     0       0      0 0.00e+00    0 0.00e+00  0
 dynamic IP-Jac       32 1.0 2.4486e-05 1.1 0.00e+00 0.0 0.0e+00 0.0e+00 0.0e+00  0  0  0  0  0   0  0  0  0  0     0       0      0 0.00e+00    0 0.00e+00  0
 Kernel-init          31 1.0 4.7343e-03 1.0 0.00e+00 0.0 0.0e+00 0.0e+00 0.0e+00  0  0  0  0  0   0  0  0  0  0     0       0      0 0.00e+00    0 0.00e+00  0
 Jac-f-df (GPU)       16 1.0 7.6442e-02 1.0 0.00e+00 0.0 0.0e+00 0.0e+00 0.0e+00  0  0  0  0  0   1  0  0  0  0     0       0      0 0.00e+00    0 0.00e+00  0
 J Kernel (GPU)       16 1.0 1.0744e+01 1.0 0.00e+00 0.0 0.0e+00 0.0e+00 0.0e+00  2  0  0  0  0  85  0  0  0  0     0       0      0 0.00e+00    0 0.00e+00  0
 M Kernel (GPU)       15 1.0 4.2627e-01 1.0 0.00e+00 0.0 0.0e+00 0.0e+00 0.0e+00  0  0  0  0  0   3  0  0  0  0     0       0      0 0.00e+00    0 0.00e+00  0
VecDot               460 1.0 2.2992e-02 1.0 1.23e+09 1.0 0.0e+00 0.0e+00 0.0e+00  0  0  0  0  0   0  2  0  0  0 214086   263673      0 0.00e+00    0 0.00e+00  100
VecNorm              246 1.0 9.2687e-03 1.0 6.58e+08 1.0 0.0e+00 0.0e+00 0.0e+00  0  0  0  0  0   0  1  0  0  0 284009   375620      0 0.00e+00    0 0.00e+00  100
VecCopy               94 1.0 6.2808e-03 1.1 0.00e+00 0.0 0.0e+00 0.0e+00 0.0e+00  0  0  0  0  0   0  0  0  0  0     0       0      0 0.00e+00    0 0.00e+00  0
VecSet                31 1.0 9.1195e-04 1.1 0.00e+00 0.0 0.0e+00 0.0e+00 0.0e+00  0  0  0  0  0   0  0  0  0  0     0       0      0 0.00e+00    0 0.00e+00  0
VecAXPY              919 1.0 2.6733e-02 1.0 2.46e+09 1.0 0.0e+00 0.0e+00 0.0e+00  0  0  0  0  0   0  3  0  0  0 367865   546810      0 0.00e+00    0 0.00e+00  100
VecAYPX              442 1.0 1.3643e-02 1.0 1.18e+09 1.0 0.0e+00 0.0e+00 0.0e+00  0  0  0  0  0   0  1  0  0  0 346685   498028      0 0.00e+00    0 0.00e+00  100
VecAXPBYCZ            17 1.0 7.9842e-03 1.1 1.14e+08 1.0 0.0e+00 0.0e+00 0.0e+00  0  0  0  0  0   0  0  0  0  0 56961   58560      0 0.00e+00    0 0.00e+00  100
VecWAXPY             905 1.0 2.8573e-02 1.0 2.42e+09 1.0 0.0e+00 0.0e+00 0.0e+00  0  0  0  0  0   0  3  0  0  0 338929   483355      0 0.00e+00    0 0.00e+00  100
VecPointwiseMult     475 1.0 2.4976e-02 1.0 6.35e+08 1.0 0.0e+00 0.0e+00 0.0e+00  0  0  0  0  0   0  1  0  0  0 101755   124922      0 0.00e+00    0 0.00e+00  100
VecReduceArith        45 1.0 1.9298e-03 1.0 1.20e+08 1.0 0.0e+00 0.0e+00 0.0e+00  0  0  0  0  0   0  0  0  0  0 249526   317596      0 0.00e+00    0 0.00e+00  100
VecReduceComm         15 1.0 6.4320e-06 1.3 0.00e+00 0.0 0.0e+00 0.0e+00 0.0e+00  0  0  0  0  0   0  0  0  0  0     0       0      0 0.00e+00    0 0.00e+00  0
MatMult              476 1.0 3.7400e-01 1.0 6.87e+10 1.0 0.0e+00 0.0e+00 0.0e+00  0  8  0  0  0   3 86  0  0  0 735050   744389      0 0.00e+00    0 0.00e+00  100
MatMultAdd            16 1.0 7.1479e-02 1.3 2.31e+09 1.0 0.0e+00 0.0e+00 0.0e+00  0  0  0  0  0   0  3  0  0  0 129278   129592      0 0.00e+00    0 0.00e+00  100
MatAssemblyBegin      62 1.0 1.1834e-05 1.3 0.00e+00 0.0 0.0e+00 0.0e+00 0.0e+00  0  0  0  0  0   0  0  0  0  0     0       0      0 0.00e+00    0 0.00e+00  0
MatAssemblyEnd        62 1.0 2.5825e-02 1.5 0.00e+00 0.0 0.0e+00 0.0e+00 0.0e+00  0  0  0  0  0   0  0  0  0  0     0       0      0 0.00e+00    0 0.00e+00  0
MatZeroEntries        16 1.0 2.0861e-04 1.3 0.00e+00 0.0 0.0e+00 0.0e+00 0.0e+00  0  0  0  0  0   0  0  0  0  0     0       0      0 0.00e+00    0 0.00e+00  0
MatView                1 0.0 5.7371e-05 0.0 0.00e+00 0.0 0.0e+00 0.0e+00 0.0e+00  0  0  0  0  0   0  0  0  0  0     0       0      0 0.00e+00    0 0.00e+00  0
MatSetValuesCOO       31 1.0 8.1438e-01 1.0 0.00e+00 0.0 0.0e+00 0.0e+00 0.0e+00  0  0  0  0  0   6  0  0  0  0     0       0      0 0.00e+00    0 0.00e+00  0
TSStep                 1 1.0 1.2706e+01 1.0 7.99e+10 1.0 0.0e+00 0.0e+00 0.0e+00  3  9  0  0  0 100 100  0  0  0 25140   25408      0 0.00e+00    0 0.00e+00  100
TSFunctionEval        16 1.0 1.1344e+01 1.0 4.66e+09 1.0 0.0e+00 0.0e+00 0.0e+00  3  1  0  0  0  89  6  0  0  0  1644    1649      0 0.00e+00    0 0.00e+00  100
TSJacobianEval        15 1.0 8.0538e-01 1.0 0.00e+00 0.0 0.0e+00 0.0e+00 0.0e+00  0  0  0  0  0   6  0  0  0  0     0       0      0 0.00e+00    0 0.00e+00  0
KSPSetUp              15 1.0 2.0460e-02 2.2 0.00e+00 0.0 0.0e+00 0.0e+00 0.0e+00  0  0  0  0  0   0  0  0  0  0     0       0      0 0.00e+00    0 0.00e+00  0
KSPSolve              15 1.0 4.9363e-01 1.0 7.49e+10 1.0 0.0e+00 0.0e+00 0.0e+00  0  9  0  0  0   4 94  0  0  0 607064   666578      0 0.00e+00    0 0.00e+00  100
SNESSolve              1 1.0 1.2701e+01 1.0 7.98e+10 1.0 0.0e+00 0.0e+00 0.0e+00  3  9  0  0  0 100 100  0  0  0 25147   25410      0 0.00e+00    0 0.00e+00  100
SNESSetUp              1 1.0 1.6286e-03 1.6 0.00e+00 0.0 0.0e+00 0.0e+00 0.0e+00  0  0  0  0  0   0  0  0  0  0     0       0      0 0.00e+00    0 0.00e+00  0
SNESFunctionEval      16 1.0 1.1351e+01 1.0 4.77e+09 1.0 0.0e+00 0.0e+00 0.0e+00  3  1  0  0  0  89  6  0  0  0  1681    1686      0 0.00e+00    0 0.00e+00  100
SNESJacobianEval      15 1.0 8.0541e-01 1.0 0.00e+00 0.0 0.0e+00 0.0e+00 0.0e+00  0  0  0  0  0   6  0  0  0  0     0       0      0 0.00e+00    0 0.00e+00  0
SNESLineSearch        15 1.0 1.0555e+01 1.0 4.63e+09 1.0 0.0e+00 0.0e+00 0.0e+00  2  1  0  0  0  83  6  0  0  0  1756    1757      0 0.00e+00    0 0.00e+00  100
PCSetUp               15 1.0 2.6988e-02 1.1 0.00e+00 0.0 0.0e+00 0.0e+00 0.0e+00  0  0  0  0  0   0  0  0  0  0     0       0      0 0.00e+00    0 0.00e+00  0
PCApply              475 1.0 3.2029e-02 1.1 6.35e+08 1.0 0.0e+00 0.0e+00 0.0e+00  0  0  0  0  0   0  1  0  0  0 79347   124807      0 0.00e+00    0 0.00e+00  100

--- Event Stage 2: Solve

Landau Operator      304 1.0 1.1202e+02 1.0 4.53e+10 1.0 0.0e+00 0.0e+00 0.0e+00 26  5  0  0  0  96  6  0  0  0  1619    1620      0 0.00e+00    0 0.00e+00  100
Landau Jacobian      157 1.0 1.0414e+02 1.0 4.53e+10 1.0 0.0e+00 0.0e+00 0.0e+00 24  5  0  0  0  89  6  0  0  0  1741    1742      0 0.00e+00    0 0.00e+00  100
Landau Mass          147 1.0 7.8906e+00 1.0 0.00e+00 0.0 0.0e+00 0.0e+00 0.0e+00  2  0  0  0  0   7  0  0  0  0     0       0      0 0.00e+00    0 0.00e+00  0
 Preamble            295 1.0 1.4261e-03 1.2 0.00e+00 0.0 0.0e+00 0.0e+00 0.0e+00  0  0  0  0  0   0  0  0  0  0     0       0      0 0.00e+00    0 0.00e+00  0
 dynamic IP-Jac      296 1.0 1.6919e-04 1.1 0.00e+00 0.0 0.0e+00 0.0e+00 0.0e+00  0  0  0  0  0   0  0  0  0  0     0       0      0 0.00e+00    0 0.00e+00  0
 Kernel-init         295 1.0 4.4002e-02 1.0 0.00e+00 0.0 0.0e+00 0.0e+00 0.0e+00  0  0  0  0  0   0  0  0  0  0     0       0      0 0.00e+00    0 0.00e+00  0
 Jac-f-df (GPU)      148 1.0 7.0232e-01 1.0 0.00e+00 0.0 0.0e+00 0.0e+00 0.0e+00  0  0  0  0  0   1  0  0  0  0     0       0      0 0.00e+00    0 0.00e+00  0
 J Kernel (GPU)      148 1.0 9.9402e+01 1.0 0.00e+00 0.0 0.0e+00 0.0e+00 0.0e+00 23  0  0  0  0  85  0  0  0  0     0       0      0 0.00e+00    0 0.00e+00  0
 M Kernel (GPU)      147 1.0 4.1765e+00 1.0 0.00e+00 0.0 0.0e+00 0.0e+00 0.0e+00  1  0  0  0  0   4  0  0  0  0     0       0      0 0.00e+00    0 0.00e+00  0
VecDot              4568 1.0 2.2499e-01 1.0 1.22e+10 1.0 0.0e+00 0.0e+00 0.0e+00  0  1  0  0  0   0  2  0  0  0 217262   268178      0 0.00e+00    0 0.00e+00  100
VecNorm             2441 1.0 9.0094e-02 1.0 6.53e+09 1.0 0.0e+00 0.0e+00 0.0e+00  0  1  0  0  0   0  1  0  0  0 289926   386807      0 0.00e+00    0 0.00e+00  100
VecCopy              912 1.0 3.0781e-02 1.0 0.00e+00 0.0 0.0e+00 0.0e+00 0.0e+00  0  0  0  0  0   0  0  0  0  0     0       0      0 0.00e+00    0 0.00e+00  0
VecSet               294 1.0 7.9204e-03 1.1 0.00e+00 0.0 0.0e+00 0.0e+00 0.0e+00  0  0  0  0  0   0  0  0  0  0     0       0      0 0.00e+00    0 0.00e+00  0
VecAXPY             9108 1.0 2.5347e-01 1.0 2.44e+10 1.0 0.0e+00 0.0e+00 0.0e+00  0  3  0  0  0   0  3  0  0  0 384513   586388      0 0.00e+00    0 0.00e+00  100
VecAYPX             4373 1.0 1.3522e-01 1.0 1.17e+10 1.0 0.0e+00 0.0e+00 0.0e+00  0  1  0  0  0   0  1  0  0  0 346060   498880      0 0.00e+00    0 0.00e+00  100
VecAXPBYCZ           167 1.0 8.5807e-03 1.1 1.12e+09 1.0 0.0e+00 0.0e+00 0.0e+00  0  0  0  0  0   0  0  0  0  0 520656   668973      0 0.00e+00    0 0.00e+00  100
VecWAXPY            8989 1.0 2.8359e-01 1.0 2.40e+10 1.0 0.0e+00 0.0e+00 0.0e+00  0  3  0  0  0   0  3  0  0  0 339184   484170      0 0.00e+00    0 0.00e+00  100
VecPointwiseMult    4715 1.0 2.4723e-01 1.0 6.31e+09 1.0 0.0e+00 0.0e+00 0.0e+00  0  1  0  0  0   0  1  0  0  0 102039   126197      0 0.00e+00    0 0.00e+00  100
VecReduceArith       441 1.0 1.8788e-02 1.0 1.18e+09 1.0 0.0e+00 0.0e+00 0.0e+00  0  0  0  0  0   0  0  0  0  0 251171   321155      0 0.00e+00    0 0.00e+00  100
VecReduceComm        147 1.0 6.4998e-05 1.3 0.00e+00 0.0 0.0e+00 0.0e+00 0.0e+00  0  0  0  0  0   0  0  0  0  0     0       0      0 0.00e+00    0 0.00e+00  0
MatMult             4725 1.0 3.7098e+00 1.0 6.82e+11 1.0 0.0e+00 0.0e+00 0.0e+00  1 78  0  0  0   3 86  0  0  0 735603   745067      0 0.00e+00    0 0.00e+00  100
MatMultAdd           157 1.0 1.3794e-01 1.0 2.27e+10 1.0 0.0e+00 0.0e+00 0.0e+00  0  3  0  0  0   0  3  0  0  0 657339   665409      0 0.00e+00    0 0.00e+00  100
MatAssemblyBegin     590 1.0 7.8874e-05 1.1 0.00e+00 0.0 0.0e+00 0.0e+00 0.0e+00  0  0  0  0  0   0  0  0  0  0     0       0      0 0.00e+00    0 0.00e+00  0
MatAssemblyEnd       590 1.0 3.5240e-04 1.1 0.00e+00 0.0 0.0e+00 0.0e+00 0.0e+00  0  0  0  0  0   0  0  0  0  0     0       0      0 0.00e+00    0 0.00e+00  0
MatZeroEntries       148 1.0 1.5789e-03 1.2 0.00e+00 0.0 0.0e+00 0.0e+00 0.0e+00  0  0  0  0  0   0  0  0  0  0     0       0      0 0.00e+00    0 0.00e+00  0
MatView                1 0.0 3.2092e-05 0.0 0.00e+00 0.0 0.0e+00 0.0e+00 0.0e+00  0  0  0  0  0   0  0  0  0  0     0       0      0 0.00e+00    0 0.00e+00  0
MatSetValuesCOO      295 1.0 7.4523e+00 1.0 0.00e+00 0.0 0.0e+00 0.0e+00 0.0e+00  2  0  0  0  0   6  0  0  0  0     0       0      0 0.00e+00    0 0.00e+00  0
TSStep                10 1.0 1.1715e+02 1.0 7.92e+11 1.0 0.0e+00 0.0e+00 0.0e+00 27 91  0  0  0 100 100  0  0  0 27055   27221      0 0.00e+00    0 0.00e+00  100
TSFunctionEval       157 1.0 1.0415e+02 1.0 4.58e+10 1.0 0.0e+00 0.0e+00 0.0e+00 24  5  0  0  0  89  6  0  0  0  1757    1758      0 0.00e+00    0 0.00e+00  100
TSJacobianEval       147 1.0 7.8907e+00 1.0 0.00e+00 0.0 0.0e+00 0.0e+00 0.0e+00  2  0  0  0  0   7  0  0  0  0     0       0      0 0.00e+00    0 0.00e+00  0
KSPSetUp             147 1.0 3.9823e-05 1.1 0.00e+00 0.0 0.0e+00 0.0e+00 0.0e+00  0  0  0  0  0   0  0  0  0  0     0       0      0 0.00e+00    0 0.00e+00  0
KSPSolve             147 1.0 4.8560e+00 1.0 7.44e+11 1.0 0.0e+00 0.0e+00 0.0e+00  1 85  0  0  0   4 94  0  0  0 612732   667120      0 0.00e+00    0 0.00e+00  100
SNESSolve             10 1.0 1.1714e+02 1.0 7.92e+11 1.0 0.0e+00 0.0e+00 0.0e+00 27 91  0  0  0 100 100  0  0  0 27053   27219      0 0.00e+00    0 0.00e+00  100
SNESFunctionEval     157 1.0 1.0416e+02 1.0 4.68e+10 1.0 0.0e+00 0.0e+00 0.0e+00 24  5  0  0  0  89  6  0  0  0  1798    1799      0 0.00e+00    0 0.00e+00  100
SNESJacobianEval     147 1.0 7.8910e+00 1.0 0.00e+00 0.0 0.0e+00 0.0e+00 0.0e+00  2  0  0  0  0   7  0  0  0  0     0       0      0 0.00e+00    0 0.00e+00  0
SNESLineSearch       147 1.0 1.0347e+02 1.0 4.54e+10 1.0 0.0e+00 0.0e+00 0.0e+00 24  5  0  0  0  88  6  0  0  0  1755    1756      0 0.00e+00    0 0.00e+00  100
PCSetUp              147 1.0 2.8387e-01 1.1 0.00e+00 0.0 0.0e+00 0.0e+00 0.0e+00  0  0  0  0  0   0  0  0  0  0     0       0      0 0.00e+00    0 0.00e+00  0
PCApply             4715 1.0 2.4922e-01 1.0 6.31e+09 1.0 0.0e+00 0.0e+00 0.0e+00  0  1  0  0  0   0  1  0  0  0 101225   126197      0 0.00e+00    0 0.00e+00  100
---------------------------------------------------------------------------------------------------------------------------------------------------------------

Object Type          Creations   Destructions. Reports information only for process 0.

--- Event Stage 0: Main Stage

           Container   497            497
    Distributed Mesh   798            798
            DM Label  1849           1849
          Quadrature  2398           2398
           Index Set 22848          22848
   IS L to G Mapping  2363           2363
             Section  6361           6361
   Star Forest Graph  5108           5108
     Discrete System  1277           1277
           Weak Form  1277           1277
    GraphPartitioner   327            327
              Vector   458            478
       p4est logging     1              1
        Linear Space   104            104
          Dual Space   366            366
            FE Space    76             76
              Matrix  1824           1824
  PetscDeviceContext     1              0
       Field over DM    18             18
             TSAdapt     1              1
                  TS     1              1
                DMTS     1              1
                SNES     1              1
              DMSNES     3              3
      SNESLineSearch     1              1
       Krylov Solver     1              1
     DMKSP interface     0              1
      Preconditioner     1              1
              Viewer     1              1

--- Event Stage 1: Warmup

              Vector    20              0
     DMKSP interface     1              0

--- Event Stage 2: Solve

========================================================================================================================
Average time to get PetscTime(): 3.41e-08
Average time for MPI_Barrier(): 1.5088e-06
Average time for zero size MPI_Send(): 1.561e-05
#PETSc Option Table entries:
-dim 3 # (source: command line)
-dm_landau_amr_levels_max 2,2,2 # (source: command line)
-dm_landau_batch_size 128 # (source: command line)
-dm_landau_device_type kokkos # (source: file)
-dm_landau_Ez 0 # (source: file)
-dm_landau_ion_charges 1,2,3,4,5,6,7,8,9 # (source: file)
-dm_landau_ion_masses 2,182,182,182,182,182,182,182,182 # (source: file)
-dm_landau_n 1.0000044,1,1e-7,1e-7,1e-7,1e-7,1e-7,1e-7,1e-7,1e-7 # (source: file)
-dm_landau_num_species_grid 1,1,8 # (source: file)
-dm_landau_thermal_temps 2,1,1,1,1,1,1,1,1,1 # (source: file)
-dm_landau_type p8est # (source: command line)
-dm_landau_verbose 1 # (source: command line)
-dm_mat_type aijkokkos # (source: file)
-dm_preallocate_only false # (source: code)
-dm_vec_type kokkos # (source: file)
-ex2_test_type none # (source: file)
-ksp_converged_reason # (source: command line)
-ksp_max_it 100 # (source: command line)
-ksp_rtol 1.e-8 # (source: command line)
-ksp_type tfqmr # (source: command line)
-log_view # (source: command line)
-log_view_gpu_time # (source: command line)
-options_left # (source: command line)
-pc_type jacobi # (source: command line)
-petscspace_degree 2 # (source: command line)
-snes_converged_reason # (source: file)
-snes_linesearch_type basic # (source: file)
-snes_max_it 50 # (source: file)
-snes_monitor # (source: file)
-snes_rtol 1e-14 # (source: file)
-snes_stol 1e-14 # (source: file)
-ts_adapt_clip .5,1.1 # (source: file)
-ts_adapt_dt_max 1 # (source: file)
-ts_adapt_monitor # (source: file)
-ts_adapt_scale_solve_failed 0.5 # (source: file)
-ts_adapt_time_step_increase_delay 5 # (source: file)
-ts_dt .5 # (source: file)
-ts_exact_final_time stepover # (source: file)
-ts_max_snes_failures -1 # (source: file)
-ts_max_steps 10 # (source: file)
-ts_max_time 100 # (source: file)
-ts_monitor # (source: file)
-ts_rtol 1e-2 # (source: file)
-ts_type beuler # (source: file)
-ts_view # (source: command line)
-use_gpu_aware_mpi 0 # (source: file)
#End of PETSc Option Table entries
Compiled without FORTRAN kernels
Compiled with full precision matrices (default)
sizeof(short) 2 sizeof(int) 4 sizeof(long) 8 sizeof(void*) 8 sizeof(PetscScalar) 8 sizeof(PetscInt) 4
Configure options: --CFLAGS="   -g -DPETSC_HAVE_CUDA_NVTX" --CXXFLAGS=" -g -DPETSC_HAVE_CUDA_NVTX" --CUDAFLAGS="-g -Xcompiler -rdynamic" --LIBS=-lnvToolsExt --with-cc=cc --with-cxx=CC --with-fc=ftn --with-fortran-bindings=0 --COPTFLAGS="   -O" --CXXOPTFLAGS=" -O" --FOPTFLAGS="   -O" --with-dmlandau-3d --with-debugging=0 --with-x=0 --with-cuda=1 --with-cuda-arch=80 --with-mpiexec=srun --with-batch=0 --download-p4est=1 --with-zlib=1 --download-kokkos --download-kokkos-kernels --with-kokkos-kernels-tpl=0 --with-make-np=8 PETSC_ARCH=arch-perlmutter-opt-gcc-kokkos-cuda-3d
-----------------------------------------
Libraries compiled on 2024-06-27 20:01:11 on login19 
Machine characteristics: Linux-5.14.21-150400.24.81_12.0.87-cray_shasta_c-x86_64-with-glibc2.3.4
Using PETSc directory: /global/u2/m/madams/petsc
Using PETSc arch: arch-perlmutter-opt-gcc-kokkos-cuda-3d
-----------------------------------------

Using C compiler: cc -g -DPETSC_HAVE_CUDA_NVTX -fPIC -O  
Using Fortran compiler: ftn  -fPIC -Wall -ffree-line-length-none -ffree-line-length-0 -Wno-lto-type-mismatch -Wno-unused-dummy-argument -O    
-----------------------------------------

Using include paths: -I/global/u2/m/madams/petsc/include -I/global/u2/m/madams/petsc/arch-perlmutter-opt-gcc-kokkos-cuda-3d/include -I/opt/nvidia/hpc_sdk/Linux_x86_64/23.9/cuda/12.2/include -I/opt/nvidia/hpc_sdk/Linux_x86_64/23.9/math_libs/12.2/include
-----------------------------------------

Using C linker: cc
Using Fortran linker: ftn
Using libraries: -Wl,-rpath,/global/u2/m/madams/petsc/arch-perlmutter-opt-gcc-kokkos-cuda-3d/lib -L/global/u2/m/madams/petsc/arch-perlmutter-opt-gcc-kokkos-cuda-3d/lib -lpetsc -Wl,-rpath,/global/u2/m/madams/petsc/arch-perlmutter-opt-gcc-kokkos-cuda-3d/lib -L/global/u2/m/madams/petsc/arch-perlmutter-opt-gcc-kokkos-cuda-3d/lib -Wl,-rpath,/opt/nvidia/hpc_sdk/Linux_x86_64/23.9/math_libs/12.2/lib64 -L/opt/nvidia/hpc_sdk/Linux_x86_64/23.9/math_libs/12.2/lib64 -Wl,-rpath,/opt/nvidia/hpc_sdk/Linux_x86_64/23.9/cuda/12.2/lib64 -L/opt/nvidia/hpc_sdk/Linux_x86_64/23.9/cuda/12.2/lib64 -L/opt/nvidia/hpc_sdk/Linux_x86_64/23.9/cuda/12.2/lib64/stubs -Wl,-rpath,/opt/cray/pe/mpich/8.1.28/ofi/gnu/12.3/lib -L/opt/cray/pe/mpich/8.1.28/ofi/gnu/12.3/lib -Wl,-rpath,/opt/cray/pe/mpich/8.1.28/gtl/lib -L/opt/cray/pe/mpich/8.1.28/gtl/lib -Wl,-rpath,/opt/cray/pe/libsci/23.12.5/GNU/12.3/x86_64/lib -L/opt/cray/pe/libsci/23.12.5/GNU/12.3/x86_64/lib -Wl,-rpath,/opt/cray/pe/hdf5-parallel/1.12.2.9/gnu/12.3/lib -L/opt/cray/pe/hdf5-parallel/1.12.2.9/gnu/12.3/lib -Wl,-rpath,/opt/nvidia/hpc_sdk/Linux_x86_64/23.9/cuda/12.2/lib64/stubs -Wl,-rpath,/opt/nvidia/hpc_sdk/Linux_x86_64/23.9/cuda/12.2/nvvm/lib64 -L/opt/nvidia/hpc_sdk/Linux_x86_64/23.9/cuda/12.2/nvvm/lib64 -Wl,-rpath,/opt/nvidia/hpc_sdk/Linux_x86_64/23.9/cuda/12.2/extras/CUPTI/lib64 -L/opt/nvidia/hpc_sdk/Linux_x86_64/23.9/cuda/12.2/extras/CUPTI/lib64 -Wl,-rpath,/opt/nvidia/hpc_sdk/Linux_x86_64/23.9/cuda/12.2/extras/Debugger/lib64 -L/opt/nvidia/hpc_sdk/Linux_x86_64/23.9/cuda/12.2/extras/Debugger/lib64 -Wl,-rpath,/opt/cray/pe/dsmml/0.2.2/dsmml/lib -L/opt/cray/pe/dsmml/0.2.2/dsmml/lib -Wl,-rpath,/opt/cray/xpmem/2.6.2-2.5_2.38__gd067c3f.shasta/lib64 -L/opt/cray/xpmem/2.6.2-2.5_2.38__gd067c3f.shasta/lib64 -Wl,-rpath,/usr/lib64/gcc/x86_64-suse-linux/12 -L/usr/lib64/gcc/x86_64-suse-linux/12 -Wl,-rpath,/usr/x86_64-suse-linux/lib -L/usr/x86_64-suse-linux/lib -lkokkoskernels -lkokkoscontainers -lkokkoscore -lkokkossimd -lp4est -lsc -lz -lcufft -lcublas -lcusparse -lcusolver -lcurand -lcudart -lnvToolsExt -lcuda -lnvToolsExt -lcuda -lmpi_gtl_cuda -ldl -lxpmem -lgfortran -lm -lhdf5_hl_parallel -lhdf5_parallel -lcupti -lcudart -lhdf5hl_fortran_parallel -lhdf5_fortran_parallel -lmpifort_gnu_123 -lsci_gnu_123_mpi -lmpi_gnu_123 -lsci_gnu_123 -ldsmml -lgfortran -lquadmath -lpthread -lm -lgcc_s -lstdc++ -lquadmath -lnvToolsExt
-----------------------------------------

#PETSc Option Table entries:
-dim 3 # (source: command line)
-dm_landau_amr_levels_max 2,2,2 # (source: command line)
-dm_landau_batch_size 128 # (source: command line)
-dm_landau_device_type kokkos # (source: file)
-dm_landau_Ez 0 # (source: file)
-dm_landau_ion_charges 1,2,3,4,5,6,7,8,9 # (source: file)
-dm_landau_ion_masses 2,182,182,182,182,182,182,182,182 # (source: file)
-dm_landau_n 1.0000044,1,1e-7,1e-7,1e-7,1e-7,1e-7,1e-7,1e-7,1e-7 # (source: file)
-dm_landau_num_species_grid 1,1,8 # (source: file)
-dm_landau_thermal_temps 2,1,1,1,1,1,1,1,1,1 # (source: file)
-dm_landau_type p8est # (source: command line)
-dm_landau_verbose 1 # (source: command line)
-dm_mat_type aijkokkos # (source: file)
-dm_preallocate_only false # (source: code)
-dm_vec_type kokkos # (source: file)
-ex2_test_type none # (source: file)
-ksp_converged_reason # (source: command line)
-ksp_max_it 100 # (source: command line)
-ksp_rtol 1.e-8 # (source: command line)
-ksp_type tfqmr # (source: command line)
-log_view # (source: command line)
-log_view_gpu_time # (source: command line)
-options_left # (source: command line)
-pc_type jacobi # (source: command line)
-petscspace_degree 2 # (source: command line)
-snes_converged_reason # (source: file)
-snes_linesearch_type basic # (source: file)
-snes_max_it 50 # (source: file)
-snes_monitor # (source: file)
-snes_rtol 1e-14 # (source: file)
-snes_stol 1e-14 # (source: file)
-ts_adapt_clip .5,1.1 # (source: file)
-ts_adapt_dt_max 1 # (source: file)
-ts_adapt_monitor # (source: file)
-ts_adapt_scale_solve_failed 0.5 # (source: file)
-ts_adapt_time_step_increase_delay 5 # (source: file)
-ts_dt .5 # (source: file)
-ts_exact_final_time stepover # (source: file)
-ts_max_snes_failures -1 # (source: file)
-ts_max_steps 10 # (source: file)
-ts_max_time 100 # (source: file)
-ts_monitor # (source: file)
-ts_rtol 1e-2 # (source: file)
-ts_type beuler # (source: file)
-ts_view # (source: command line)
-use_gpu_aware_mpi 0 # (source: file)
#End of PETSc Option Table entries
There are no unused options.
