masses:        e= 9.109e-31; ions in proton mass units:    2.000e+00  1.820e+02 ...
charges:       e=-1.602e-19; charges in elementary units:  1.000e+00  2.000e+00
n:             e:  1.000e+00                           i:  1.000e+00  1.000e-07
thermal T (K): e= 2.321e+07 i= 1.160e+07  1.160e+07. Normalization grid 0: v_0= 1.876e+07 ( 6.256e-02c) n_0= 1.000e+20 t_0= 1.909e-05 16 batched, view batch 0
Domain radius (AMR levels) grid 0: par= 5.000e+00 perp= 5.000e+00 (2) , 1: par= 5.835e-02 perp= 5.835e-02 (2) , 2: par= 6.117e-03 perp= 6.117e-03 (2) 
0) FormLandau 672 IPs, 42 cells total, Nb=16, Nq=16, dim=2, Tab: Nb=16 Nf=10 Np=16 cdim=2 N=22720 nnz=504640
0 TS dt 0.5 time 0.
    0 SNES Function norm 2.376363642836e-02
      Linear solve converged due to CONVERGED_RTOL iterations 24
    1 SNES Function norm 2.500544962122e-04
      Linear solve converged due to CONVERGED_RTOL iterations 20
    2 SNES Function norm 3.508118634282e-05
      Linear solve converged due to CONVERGED_RTOL iterations 22
    3 SNES Function norm 8.869872907898e-06
      Linear solve converged due to CONVERGED_RTOL iterations 23
    4 SNES Function norm 2.138941517847e-06
      Linear solve converged due to CONVERGED_RTOL iterations 23
    5 SNES Function norm 5.069087910700e-07
      Linear solve converged due to CONVERGED_RTOL iterations 27
    6 SNES Function norm 1.194422678810e-07
      Linear solve converged due to CONVERGED_RTOL iterations 25
    7 SNES Function norm 2.808705388540e-08
      Linear solve converged due to CONVERGED_RTOL iterations 25
    8 SNES Function norm 6.599517626665e-09
      Linear solve converged due to CONVERGED_RTOL iterations 24
    9 SNES Function norm 1.550162026821e-09
      Linear solve converged due to CONVERGED_RTOL iterations 24
   10 SNES Function norm 3.640695104890e-10
      Linear solve converged due to CONVERGED_RTOL iterations 24
   11 SNES Function norm 8.549530517550e-11
      Linear solve converged due to CONVERGED_RTOL iterations 24
   12 SNES Function norm 2.008489874831e-11
      Linear solve converged due to CONVERGED_RTOL iterations 24
   13 SNES Function norm 4.708605778357e-12
      Linear solve converged due to CONVERGED_RTOL iterations 23
   14 SNES Function norm 1.107667139536e-12
    Nonlinear solve converged due to CONVERGED_SNORM_RELATIVE iterations 14
      TSAdapt none beuler 0: step   0 accepted t=0          + 5.000e-01 dt=5.000e-01 
1 TS dt 0.5 time 0.5
TS Object: 1 MPI process
  type: beuler
  maximum steps=1
  maximum time=100.
  total number of I function evaluations=15
  total number of I Jacobian evaluations=14
  total number of RHS function evaluations=15
  total number of nonlinear solver iterations=14
  total number of linear solver iterations=332
  total number of nonlinear solve failures=0
  total number of rejected steps=0
  using relative error tolerance of 0.01,   using absolute error tolerance of 0.0001
  TSAdapt Object: 1 MPI process
    type: none
  SNES Object: 1 MPI process
    type: newtonls
    maximum iterations=50, maximum function evaluations=10000
    tolerances: relative=1e-14, absolute=1e-50, solution=1e-14
    total number of linear solver iterations=332
    total number of function evaluations=15
    norm schedule ALWAYS
    SNESLineSearch Object: 1 MPI process
      type: basic
      maxstep=1.000000e+08, minlambda=1.000000e-12
      tolerances: relative=1.000000e-08, absolute=1.000000e-15, lambda=1.000000e-08
      maximum iterations=40
    KSP Object: 1 MPI process
      type: tfqmr
      maximum iterations=100, initial guess is zero
      tolerances: relative=1e-08, absolute=1e-50, divergence=10000.
      left preconditioning
      using PRECONDITIONED norm type for convergence test
    PC Object: 1 MPI process
      type: jacobi
        type DIAGONAL
      linear system matrix = precond matrix:
      Mat Object: Jacobian 1 MPI process
        type: seqaijkokkos
        rows=22720, cols=22720
        total: nonzeros=504640, allocated nonzeros=504640
        total number of mallocs used during MatSetValues calls=0
          using I-node routines: found 10656 nodes, limit used is 5
0 TS dt 0.5 time 0.
    0 SNES Function norm 2.376363642836e-02
      Linear solve converged due to CONVERGED_RTOL iterations 24
    1 SNES Function norm 2.500544962122e-04
      Linear solve converged due to CONVERGED_RTOL iterations 20
    2 SNES Function norm 3.508118634282e-05
      Linear solve converged due to CONVERGED_RTOL iterations 22
    3 SNES Function norm 8.869872907898e-06
      Linear solve converged due to CONVERGED_RTOL iterations 23
    4 SNES Function norm 2.138941517847e-06
      Linear solve converged due to CONVERGED_RTOL iterations 23
    5 SNES Function norm 5.069087910700e-07
      Linear solve converged due to CONVERGED_RTOL iterations 27
    6 SNES Function norm 1.194422678810e-07
      Linear solve converged due to CONVERGED_RTOL iterations 25
    7 SNES Function norm 2.808705388540e-08
      Linear solve converged due to CONVERGED_RTOL iterations 25
    8 SNES Function norm 6.599517626665e-09
      Linear solve converged due to CONVERGED_RTOL iterations 24
    9 SNES Function norm 1.550162026821e-09
      Linear solve converged due to CONVERGED_RTOL iterations 24
   10 SNES Function norm 3.640695104890e-10
      Linear solve converged due to CONVERGED_RTOL iterations 24
   11 SNES Function norm 8.549530517550e-11
      Linear solve converged due to CONVERGED_RTOL iterations 24
   12 SNES Function norm 2.008489874831e-11
      Linear solve converged due to CONVERGED_RTOL iterations 24
   13 SNES Function norm 4.708605778357e-12
      Linear solve converged due to CONVERGED_RTOL iterations 23
   14 SNES Function norm 1.107667139536e-12
    Nonlinear solve converged due to CONVERGED_SNORM_RELATIVE iterations 14
      TSAdapt none beuler 0: step   0 accepted t=0          + 5.000e-01 dt=5.000e-01 
1 TS dt 0.5 time 0.5
    0 SNES Function norm 8.291000441345e-03
      Linear solve converged due to CONVERGED_RTOL iterations 22
    1 SNES Function norm 1.686418436375e-04
      Linear solve converged due to CONVERGED_RTOL iterations 20
    2 SNES Function norm 3.139074342710e-05
      Linear solve converged due to CONVERGED_RTOL iterations 26
    3 SNES Function norm 7.535563876821e-06
      Linear solve converged due to CONVERGED_RTOL iterations 23
    4 SNES Function norm 1.801582551391e-06
      Linear solve converged due to CONVERGED_RTOL iterations 26
    5 SNES Function norm 4.268386051741e-07
      Linear solve converged due to CONVERGED_RTOL iterations 26
    6 SNES Function norm 1.006614076580e-07
      Linear solve converged due to CONVERGED_RTOL iterations 26
    7 SNES Function norm 2.368790802105e-08
      Linear solve converged due to CONVERGED_RTOL iterations 26
    8 SNES Function norm 5.568886011892e-09
      Linear solve converged due to CONVERGED_RTOL iterations 24
    9 SNES Function norm 1.308647221563e-09
      Linear solve converged due to CONVERGED_RTOL iterations 24
   10 SNES Function norm 3.074629428611e-10
      Linear solve converged due to CONVERGED_RTOL iterations 24
   11 SNES Function norm 7.223649982733e-11
      Linear solve converged due to CONVERGED_RTOL iterations 23
   12 SNES Function norm 1.696365824310e-11
      Linear solve converged due to CONVERGED_RTOL iterations 24
   13 SNES Function norm 3.986172350336e-12
    Nonlinear solve converged due to CONVERGED_SNORM_RELATIVE iterations 13
      TSAdapt none beuler 0: step   1 accepted t=0.5        + 5.000e-01 dt=5.000e-01 
2 TS dt 0.5 time 1.
    0 SNES Function norm 5.401717021633e-03
      Linear solve converged due to CONVERGED_RTOL iterations 23
    1 SNES Function norm 1.881020764844e-04
      Linear solve converged due to CONVERGED_RTOL iterations 20
    2 SNES Function norm 3.946324315716e-05
      Linear solve converged due to CONVERGED_RTOL iterations 25
    3 SNES Function norm 9.448880145534e-06
      Linear solve converged due to CONVERGED_RTOL iterations 26
    4 SNES Function norm 2.252438631105e-06
      Linear solve converged due to CONVERGED_RTOL iterations 25
    5 SNES Function norm 5.331874738474e-07
      Linear solve converged due to CONVERGED_RTOL iterations 26
    6 SNES Function norm 1.257357304517e-07
      Linear solve converged due to CONVERGED_RTOL iterations 27
    7 SNES Function norm 2.959716106120e-08
      Linear solve converged due to CONVERGED_RTOL iterations 25
    8 SNES Function norm 6.961189608725e-09
      Linear solve converged due to CONVERGED_RTOL iterations 24
    9 SNES Function norm 1.636650453568e-09
      Linear solve converged due to CONVERGED_RTOL iterations 24
   10 SNES Function norm 3.847344965329e-10
      Linear solve converged due to CONVERGED_RTOL iterations 23
   11 SNES Function norm 9.043308822610e-11
      Linear solve converged due to CONVERGED_RTOL iterations 23
   12 SNES Function norm 2.125523414969e-11
      Linear solve converged due to CONVERGED_RTOL iterations 23
   13 SNES Function norm 4.994903943338e-12
      Linear solve converged due to CONVERGED_RTOL iterations 24
   14 SNES Function norm 1.174039437109e-12
    Nonlinear solve converged due to CONVERGED_SNORM_RELATIVE iterations 14
      TSAdapt none beuler 0: step   2 accepted t=1          + 5.000e-01 dt=5.000e-01 
3 TS dt 0.5 time 1.5
    0 SNES Function norm 4.069609216325e-03
      Linear solve converged due to CONVERGED_RTOL iterations 25
    1 SNES Function norm 2.241113210401e-04
      Linear solve converged due to CONVERGED_RTOL iterations 20
    2 SNES Function norm 5.084483544382e-05
      Linear solve converged due to CONVERGED_RTOL iterations 24
    3 SNES Function norm 1.219787369422e-05
      Linear solve converged due to CONVERGED_RTOL iterations 25
    4 SNES Function norm 2.903844190529e-06
      Linear solve converged due to CONVERGED_RTOL iterations 26
    5 SNES Function norm 6.870402452881e-07
      Linear solve converged due to CONVERGED_RTOL iterations 27
    6 SNES Function norm 1.620382555531e-07
      Linear solve converged due to CONVERGED_RTOL iterations 25
    7 SNES Function norm 3.816009083691e-08
      Linear solve converged due to CONVERGED_RTOL iterations 24
    8 SNES Function norm 8.980704218581e-09
      Linear solve converged due to CONVERGED_RTOL iterations 24
    9 SNES Function norm 2.112912901053e-09
      Linear solve converged due to CONVERGED_RTOL iterations 24
   10 SNES Function norm 4.970368044183e-10
      Linear solve converged due to CONVERGED_RTOL iterations 24
   11 SNES Function norm 1.169211191856e-10
      Linear solve converged due to CONVERGED_RTOL iterations 24
   12 SNES Function norm 2.749965600698e-11
      Linear solve converged due to CONVERGED_RTOL iterations 24
   13 SNES Function norm 6.471223426089e-12
      Linear solve converged due to CONVERGED_RTOL iterations 25
   14 SNES Function norm 1.516661281372e-12
    Nonlinear solve converged due to CONVERGED_SNORM_RELATIVE iterations 14
      TSAdapt none beuler 0: step   3 accepted t=1.5        + 5.000e-01 dt=5.000e-01 
4 TS dt 0.5 time 2.
    0 SNES Function norm 3.343445805424e-03
      Linear solve converged due to CONVERGED_RTOL iterations 21
    1 SNES Function norm 2.669063429159e-04
      Linear solve converged due to CONVERGED_RTOL iterations 20
    2 SNES Function norm 6.275930327293e-05
      Linear solve converged due to CONVERGED_RTOL iterations 26
    3 SNES Function norm 1.506053963448e-05
      Linear solve converged due to CONVERGED_RTOL iterations 26
    4 SNES Function norm 3.582392036834e-06
      Linear solve converged due to CONVERGED_RTOL iterations 26
    5 SNES Function norm 8.475229288319e-07
      Linear solve converged due to CONVERGED_RTOL iterations 26
    6 SNES Function norm 1.999737998674e-07
      Linear solve converged due to CONVERGED_RTOL iterations 24
    7 SNES Function norm 4.712614729794e-08
      Linear solve converged due to CONVERGED_RTOL iterations 23
    8 SNES Function norm 1.109968646940e-08
      Linear solve converged due to CONVERGED_RTOL iterations 23
    9 SNES Function norm 2.613681839942e-09
      Linear solve converged due to CONVERGED_RTOL iterations 23
   10 SNES Function norm 6.153817912191e-10
      Linear solve converged due to CONVERGED_RTOL iterations 23
   11 SNES Function norm 1.448821024501e-10
      Linear solve converged due to CONVERGED_RTOL iterations 23
   12 SNES Function norm 3.410879593041e-11
      Linear solve converged due to CONVERGED_RTOL iterations 24
   13 SNES Function norm 8.032653751367e-12
      Linear solve converged due to CONVERGED_RTOL iterations 23
   14 SNES Function norm 1.890251585708e-12
    Nonlinear solve converged due to CONVERGED_SNORM_RELATIVE iterations 14
      TSAdapt none beuler 0: step   4 accepted t=2          + 5.000e-01 dt=5.000e-01 
5 TS dt 0.5 time 2.5
    0 SNES Function norm 2.917605711217e-03
      Linear solve converged due to CONVERGED_RTOL iterations 23
    1 SNES Function norm 3.079179066739e-04
      Linear solve converged due to CONVERGED_RTOL iterations 22
    2 SNES Function norm 7.356272326992e-05
      Linear solve converged due to CONVERGED_RTOL iterations 25
    3 SNES Function norm 1.764072746106e-05
      Linear solve converged due to CONVERGED_RTOL iterations 26
    4 SNES Function norm 4.194585329187e-06
      Linear solve converged due to CONVERGED_RTOL iterations 27
    5 SNES Function norm 9.926475235074e-07
      Linear solve converged due to CONVERGED_RTOL iterations 25
    6 SNES Function norm 2.343744939945e-07
      Linear solve converged due to CONVERGED_RTOL iterations 24
    7 SNES Function norm 5.528062134172e-08
      Linear solve converged due to CONVERGED_RTOL iterations 24
    8 SNES Function norm 1.303262306168e-08
      Linear solve converged due to CONVERGED_RTOL iterations 24
    9 SNES Function norm 3.071853226870e-09
      Linear solve converged due to CONVERGED_RTOL iterations 23
   10 SNES Function norm 7.239835641405e-10
      Linear solve converged due to CONVERGED_RTOL iterations 24
   11 SNES Function norm 1.706192153968e-10
      Linear solve converged due to CONVERGED_RTOL iterations 23
   12 SNES Function norm 4.021270358139e-11
      Linear solve converged due to CONVERGED_RTOL iterations 24
   13 SNES Function norm 9.476274092844e-12
      Linear solve converged due to CONVERGED_RTOL iterations 25
   14 SNES Function norm 2.231462606432e-12
    Nonlinear solve converged due to CONVERGED_SNORM_RELATIVE iterations 14
      TSAdapt none beuler 0: step   5 accepted t=2.5        + 5.000e-01 dt=5.000e-01 
6 TS dt 0.5 time 3.
    0 SNES Function norm 2.656812306875e-03
      Linear solve converged due to CONVERGED_RTOL iterations 22
    1 SNES Function norm 3.429412503751e-04
      Linear solve converged due to CONVERGED_RTOL iterations 22
    2 SNES Function norm 8.247072155228e-05
      Linear solve converged due to CONVERGED_RTOL iterations 26
    3 SNES Function norm 1.976679060908e-05
      Linear solve converged due to CONVERGED_RTOL iterations 22
    4 SNES Function norm 4.700192437702e-06
      Linear solve converged due to CONVERGED_RTOL iterations 26
    5 SNES Function norm 1.112923275494e-06
      Linear solve converged due to CONVERGED_RTOL iterations 25
    6 SNES Function norm 2.629962538164e-07
      Linear solve converged due to CONVERGED_RTOL iterations 24
    7 SNES Function norm 6.209258892270e-08
      Linear solve converged due to CONVERGED_RTOL iterations 24
    8 SNES Function norm 1.465389991762e-08
      Linear solve converged due to CONVERGED_RTOL iterations 24
    9 SNES Function norm 3.457705081536e-09
      Linear solve converged due to CONVERGED_RTOL iterations 23
   10 SNES Function norm 8.158007564823e-10
      Linear solve converged due to CONVERGED_RTOL iterations 23
   11 SNES Function norm 1.924746910980e-10
      Linear solve converged due to CONVERGED_RTOL iterations 23
   12 SNES Function norm 4.541505587472e-11
      Linear solve converged due to CONVERGED_RTOL iterations 23
   13 SNES Function norm 1.070902602815e-11
      Linear solve converged due to CONVERGED_RTOL iterations 23
   14 SNES Function norm 2.527797732107e-12
    Nonlinear solve converged due to CONVERGED_SNORM_RELATIVE iterations 14
      TSAdapt none beuler 0: step   6 accepted t=3          + 5.000e-01 dt=5.000e-01 
7 TS dt 0.5 time 3.5
    0 SNES Function norm 2.488908139721e-03
      Linear solve converged due to CONVERGED_RTOL iterations 23
    1 SNES Function norm 3.701316589673e-04
      Linear solve converged due to CONVERGED_RTOL iterations 22
    2 SNES Function norm 8.926044361361e-05
      Linear solve converged due to CONVERGED_RTOL iterations 24
    3 SNES Function norm 2.138651934671e-05
      Linear solve converged due to CONVERGED_RTOL iterations 24
    4 SNES Function norm 5.086838687449e-06
      Linear solve converged due to CONVERGED_RTOL iterations 26
    5 SNES Function norm 1.205371445355e-06
      Linear solve converged due to CONVERGED_RTOL iterations 25
    6 SNES Function norm 2.851176973536e-07
      Linear solve converged due to CONVERGED_RTOL iterations 24
    7 SNES Function norm 6.738722789821e-08
      Linear solve converged due to CONVERGED_RTOL iterations 24
    8 SNES Function norm 1.592112136900e-08
      Linear solve converged due to CONVERGED_RTOL iterations 24
    9 SNES Function norm 3.760971678664e-09
      Linear solve converged due to CONVERGED_RTOL iterations 23
   10 SNES Function norm 8.883745719822e-10
      Linear solve converged due to CONVERGED_RTOL iterations 23
   11 SNES Function norm 2.098324470038e-10
      Linear solve converged due to CONVERGED_RTOL iterations 23
   12 SNES Function norm 4.956004934186e-11
      Linear solve converged due to CONVERGED_RTOL iterations 23
   13 SNES Function norm 1.170299829866e-11
      Linear solve converged due to CONVERGED_RTOL iterations 25
   14 SNES Function norm 2.766433857451e-12
    Nonlinear solve converged due to CONVERGED_SNORM_RELATIVE iterations 14
      TSAdapt none beuler 0: step   7 accepted t=3.5        + 5.000e-01 dt=5.000e-01 
8 TS dt 0.5 time 4.
    0 SNES Function norm 2.371727301370e-03
      Linear solve converged due to CONVERGED_RTOL iterations 21
    1 SNES Function norm 3.893269396364e-04
      Linear solve converged due to CONVERGED_RTOL iterations 23
    2 SNES Function norm 9.400017493276e-05
      Linear solve converged due to CONVERGED_RTOL iterations 25
    3 SNES Function norm 2.252009017952e-05
      Linear solve converged due to CONVERGED_RTOL iterations 25
    4 SNES Function norm 5.359164610263e-06
      Linear solve converged due to CONVERGED_RTOL iterations 26
    5 SNES Function norm 1.270998914041e-06
      Linear solve converged due to CONVERGED_RTOL iterations 25
    6 SNES Function norm 3.009526903163e-07
      Linear solve converged due to CONVERGED_RTOL iterations 26
    7 SNES Function norm 7.120884343958e-08
      Linear solve converged due to CONVERGED_RTOL iterations 24
    8 SNES Function norm 1.684333582121e-08
      Linear solve converged due to CONVERGED_RTOL iterations 23
    9 SNES Function norm 3.983451201601e-09
      Linear solve converged due to CONVERGED_RTOL iterations 24
   10 SNES Function norm 9.420300660767e-10
      Linear solve converged due to CONVERGED_RTOL iterations 23
   11 SNES Function norm 2.227627574390e-10
      Linear solve converged due to CONVERGED_RTOL iterations 24
   12 SNES Function norm 5.267667937078e-11
      Linear solve converged due to CONVERGED_RTOL iterations 25
   13 SNES Function norm 1.245745253813e-11
      Linear solve converged due to CONVERGED_RTOL iterations 24
   14 SNES Function norm 2.942067678507e-12
    Nonlinear solve converged due to CONVERGED_SNORM_RELATIVE iterations 14
      TSAdapt none beuler 0: step   8 accepted t=4          + 5.000e-01 dt=5.000e-01 
9 TS dt 0.5 time 4.5
    0 SNES Function norm 2.280255106945e-03
      Linear solve converged due to CONVERGED_RTOL iterations 21
    1 SNES Function norm 4.009329386670e-04
      Linear solve converged due to CONVERGED_RTOL iterations 23
    2 SNES Function norm 9.686600476800e-05
      Linear solve converged due to CONVERGED_RTOL iterations 26
    3 SNES Function norm 2.320955620415e-05
      Linear solve converged due to CONVERGED_RTOL iterations 24
    4 SNES Function norm 5.526809364464e-06
      Linear solve converged due to CONVERGED_RTOL iterations 26
    5 SNES Function norm 1.311988746200e-06
      Linear solve converged due to CONVERGED_RTOL iterations 24
    6 SNES Function norm 3.109921913405e-07
      Linear solve converged due to CONVERGED_RTOL iterations 26
    7 SNES Function norm 7.366784986394e-08
      Linear solve converged due to CONVERGED_RTOL iterations 26
    8 SNES Function norm 1.744520411332e-08
      Linear solve converged due to CONVERGED_RTOL iterations 23
    9 SNES Function norm 4.130632621201e-09
      Linear solve converged due to CONVERGED_RTOL iterations 23
   10 SNES Function norm 9.779768530918e-10
      Linear solve converged due to CONVERGED_RTOL iterations 25
   11 SNES Function norm 2.315460834602e-10
      Linear solve converged due to CONVERGED_RTOL iterations 23
   12 SNES Function norm 5.481595665139e-11
      Linear solve converged due to CONVERGED_RTOL iterations 25
   13 SNES Function norm 1.298401347383e-11
      Linear solve converged due to CONVERGED_RTOL iterations 24
   14 SNES Function norm 3.068709093239e-12
    Nonlinear solve converged due to CONVERGED_SNORM_RELATIVE iterations 14
      TSAdapt none beuler 0: step   9 accepted t=4.5        + 5.000e-01 dt=5.000e-01 
10 TS dt 0.5 time 5.
TS Object: 1 MPI process
  type: beuler
  maximum steps=10
  maximum time=100.
  total number of I function evaluations=164
  total number of I Jacobian evaluations=153
  total number of RHS function evaluations=164
  total number of nonlinear solver iterations=139
  total number of linear solver iterations=3335
  total number of nonlinear solve failures=0
  total number of rejected steps=0
  using relative error tolerance of 0.01,   using absolute error tolerance of 0.0001
  TSAdapt Object: 1 MPI process
    type: none
  SNES Object: 1 MPI process
    type: newtonls
    maximum iterations=50, maximum function evaluations=10000
    tolerances: relative=1e-14, absolute=1e-50, solution=1e-14
    total number of linear solver iterations=339
    total number of function evaluations=15
    norm schedule ALWAYS
    SNESLineSearch Object: 1 MPI process
      type: basic
      maxstep=1.000000e+08, minlambda=1.000000e-12
      tolerances: relative=1.000000e-08, absolute=1.000000e-15, lambda=1.000000e-08
      maximum iterations=40
    KSP Object: 1 MPI process
      type: tfqmr
      maximum iterations=100, initial guess is zero
      tolerances: relative=1e-08, absolute=1e-50, divergence=10000.
      left preconditioning
      using PRECONDITIONED norm type for convergence test
    PC Object: 1 MPI process
      type: jacobi
        type DIAGONAL
      linear system matrix = precond matrix:
      Mat Object: Jacobian 1 MPI process
        type: seqaijkokkos
        rows=22720, cols=22720
        total: nonzeros=504640, allocated nonzeros=504640
        total number of mallocs used during MatSetValues calls=0
          using I-node routines: found 10656 nodes, limit used is 5
****************************************************************************************************************************************************************
***                                WIDEN YOUR WINDOW TO 160 CHARACTERS.  Use 'enscript -r -fCourier9' to print this document                                 ***
****************************************************************************************************************************************************************

------------------------------------------------------------------ PETSc Performance Summary: ------------------------------------------------------------------



      ##########################################################
      #                                                        #
      #                       WARNING!!!                       #
      #                                                        #
      #   This code was run with -log_view_gpu_time            #
      #   This provides accurate timing within the GPU kernels #
      #   but can slow down the entire computation by a        #
      #   measurable amount. For fastest runs we recommend     #
      #   not using this option.                               #
      #                                                        #
      ##########################################################


/global/u2/m/madams/batch_gmres_paper/landau_throughput_nsight/perlmutter/./ex2-2 on a arch-perlmutter-opt-gcc-kokkos-cuda named nid200381 with 4 processes and CUDA architecture 80, by madams on Thu Jun 27 14:36:31 2024
Using Petsc Development GIT revision: v3.21.2-329-g0f40c42b27c  GIT Date: 2024-06-27 15:17:08 -0400

                         Max       Max/Min     Avg       Total
Time (sec):           4.178e+00     1.000   4.178e+00
Objects:              0.000e+00     0.000   0.000e+00
Flops:                1.010e+10     1.000   1.010e+10  4.041e+10
Flops/sec:            2.418e+09     1.000   2.418e+09  9.671e+09
MPI Msg Count:        0.000e+00     0.000   0.000e+00  0.000e+00
MPI Msg Len (bytes):  0.000e+00     0.000   0.000e+00  0.000e+00
MPI Reductions:       2.100e+01     1.000

Flop counting convention: 1 flop = 1 real number operation of type (multiply/divide/add/subtract)
                            e.g., VecAXPY() for real vectors of length N --> 2N flops
                            and VecAXPY() for complex vectors of length N --> 8N flops

Summary of Stages:   ----- Time ------  ----- Flop ------  --- Messages ---  -- Message Lengths --  -- Reductions --
                        Avg     %Total     Avg     %Total    Count   %Total     Avg         %Total    Count   %Total
 0:      Main Stage: 2.5873e+00  61.9%  1.5706e+07   0.0%  0.000e+00   0.0%  0.000e+00        0.0%  2.000e+00   9.5%
 1:          Warmup: 1.6245e-01   3.9%  3.6589e+09   9.1%  0.000e+00   0.0%  0.000e+00        0.0%  0.000e+00   0.0%
 2:           Solve: 1.4286e+00  34.2%  3.6733e+10  90.9%  0.000e+00   0.0%  0.000e+00        0.0%  0.000e+00   0.0%

------------------------------------------------------------------------------------------------------------------------
See the 'Profiling' chapter of the users' manual for details on interpreting output.
Phase summary info:
   Count: number of times phase was executed
   Time and Flop: Max - maximum over all processors
                  Ratio - ratio of maximum to minimum over all processors
   Mess: number of messages sent
   AvgLen: average message length (bytes)
   Reduct: number of global reductions
   Global: entire computation
   Stage: stages of a computation. Set stages with PetscLogStagePush() and PetscLogStagePop().
      %T - percent time in this phase         %F - percent flop in this phase
      %M - percent messages in this phase     %L - percent message lengths in this phase
      %R - percent reductions in this phase
   Total Mflop/s: 10e-6 * (sum of flop over all processors)/(max time over all processors)
   GPU Mflop/s: 10e-6 * (sum of flop on GPU over all processors)/(max GPU time over all processors)
   CpuToGpu Count: total number of CPU to GPU copies per processor
   CpuToGpu Size (Mbytes): 10e-6 * (total size of CPU to GPU copies per processor)
   GpuToCpu Count: total number of GPU to CPU copies per processor
   GpuToCpu Size (Mbytes): 10e-6 * (total size of GPU to CPU copies per processor)
   GPU %F: percent flops on GPU in this event
------------------------------------------------------------------------------------------------------------------------
Event                Count      Time (sec)     Flop                              --- Global ---  --- Stage ----  Total   GPU    - CpuToGpu -   - GpuToCpu - GPU
                   Max Ratio  Max     Ratio   Max  Ratio  Mess   AvgLen  Reduct  %T %F %M %L %R  %T %F %M %L %R Mflop/s Mflop/s Count   Size   Count   Size  %F
---------------------------------------------------------------------------------------------------------------------------------------------------------------

--- Event Stage 0: Main Stage

BuildTwoSided        231 1.0 1.5293e-04 1.0 0.00e+00 0.0 0.0e+00 0.0e+00 0.0e+00  0  0  0  0  0   0  0  0  0  0     0       0      0 0.00e+00    0 0.00e+00  0
DMConvert             18 1.0 1.4055e-03 1.0 0.00e+00 0.0 0.0e+00 0.0e+00 0.0e+00  0  0  0  0  0   0  0  0  0  0     0       0      0 0.00e+00    0 0.00e+00  0
DMCreateMat            8 1.0 4.1257e-01 1.0 0.00e+00 0.0 0.0e+00 0.0e+00 0.0e+00 10  0  0  0  0  16  0  0  0  0     0       0      0 0.00e+00    0 0.00e+00  0
DMProjectFunc         57 1.0 2.9080e-02 1.0 7.15e+05 1.0 0.0e+00 0.0e+00 0.0e+00  1  0  0  0  0   1 18  0  0  0    98       0      0 0.00e+00    0 0.00e+00  0
DMPlexInterp         124 1.0 1.6360e-03 1.0 0.00e+00 0.0 0.0e+00 0.0e+00 0.0e+00  0  0  0  0  0   0  0  0  0  0     0       0      0 0.00e+00    0 0.00e+00  0
DMPlexStratify       182 1.0 2.9392e-03 1.1 0.00e+00 0.0 0.0e+00 0.0e+00 0.0e+00  0  0  0  0  0   0  0  0  0  0     0       0      0 0.00e+00    0 0.00e+00  0
DMPlexSymmetrize     182 1.0 1.0116e-04 1.1 0.00e+00 0.0 0.0e+00 0.0e+00 0.0e+00  0  0  0  0  0   0  0  0  0  0     0       0      0 0.00e+00    0 0.00e+00  0
DMPlexPrealloc       102 1.0 2.3972e-01 1.0 0.00e+00 0.0 0.0e+00 0.0e+00 0.0e+00  6  0  0  0  0   9  0  0  0  0     0       0      0 0.00e+00    0 0.00e+00  0
DMPlexJacobianFE       6 1.0 3.6178e-02 1.0 2.13e+06 1.0 0.0e+00 0.0e+00 0.0e+00  1  0  0  0  0   1 54  0  0  0   236       0      0 0.00e+00    0 0.00e+00  0
DMPlexGenerate         3 1.0 5.9257e-04 1.5 0.00e+00 0.0 0.0e+00 0.0e+00 0.0e+00  0  0  0  0  0   0  0  0  0  0     0       0      0 0.00e+00    0 0.00e+00  0
SFSetGraph           444 1.0 7.0781e-05 1.2 0.00e+00 0.0 0.0e+00 0.0e+00 0.0e+00  0  0  0  0  0   0  0  0  0  0     0       0      0 0.00e+00    0 0.00e+00  0
SFSetUp              231 1.0 5.8142e-04 1.1 0.00e+00 0.0 0.0e+00 0.0e+00 0.0e+00  0  0  0  0  0   0  0  0  0  0     0       0      0 0.00e+00    0 0.00e+00  0
SFBcastBegin         474 1.0 6.5737e-04 1.0 0.00e+00 0.0 0.0e+00 0.0e+00 0.0e+00  0  0  0  0  0   0  0  0  0  0     0       0      0 0.00e+00    0 0.00e+00  0
SFBcastEnd           474 1.0 5.4746e-05 1.1 0.00e+00 0.0 0.0e+00 0.0e+00 0.0e+00  0  0  0  0  0   0  0  0  0  0     0       0      0 0.00e+00    0 0.00e+00  0
SFReduceBegin         54 1.0 1.1809e-04 1.1 0.00e+00 0.0 0.0e+00 0.0e+00 0.0e+00  0  0  0  0  0   0  0  0  0  0     0       0      0 0.00e+00    0 0.00e+00  0
SFReduceEnd           54 1.0 6.5400e-06 1.0 0.00e+00 0.0 0.0e+00 0.0e+00 0.0e+00  0  0  0  0  0   0  0  0  0  0     0       0      0 0.00e+00    0 0.00e+00  0
SFCreateEmbed        204 1.0 9.3525e-04 1.0 0.00e+00 0.0 0.0e+00 0.0e+00 0.0e+00  0  0  0  0  0   0  0  0  0  0     0       0      0 0.00e+00    0 0.00e+00  0
SFSectionSF          204 1.0 5.4852e-04 1.1 0.00e+00 0.0 0.0e+00 0.0e+00 0.0e+00  0  0  0  0  0   0  0  0  0  0     0       0      0 0.00e+00    0 0.00e+00  0
SFRemoteOff          204 1.0 2.2532e-03 1.1 0.00e+00 0.0 0.0e+00 0.0e+00 0.0e+00  0  0  0  0  0   0  0  0  0  0     0       0      0 0.00e+00    0 0.00e+00  0
SFPack               528 1.0 4.0983e-05 1.2 0.00e+00 0.0 0.0e+00 0.0e+00 0.0e+00  0  0  0  0  0   0  0  0  0  0     0       0      0 0.00e+00    0 0.00e+00  0
Landau Create          1 1.0 1.9053e+00 2.5 2.72e+06 1.0 0.0e+00 0.0e+00 0.0e+00 39  0  0  0  0  62 69  0  0  0     6       0      0 0.00e+00    0 0.00e+00  0
 GPU ass. setup        1 1.0 3.3351e-01 1.1 3.46e+05 1.0 0.0e+00 0.0e+00 0.0e+00  8  0  0  0  0  13  9  0  0  0     4       0      0 0.00e+00    0 0.00e+00  0
 Build matrix          1 1.0 1.2714e-01 1.0 9.26e+05 1.0 0.0e+00 0.0e+00 0.0e+00  3  0  0  0  0   5 24  0  0  0    29       0      0 0.00e+00    0 0.00e+00  0
 Assembly maps         1 1.0 1.4470e+00 4.7 1.31e+06 1.0 0.0e+00 0.0e+00 0.0e+00 28  0  0  0  0  45 33  0  0  0     4       0      0 0.00e+00    0 0.00e+00  0
Landau Mass mat        1 1.0 3.3481e-01 1.0 1.21e+06 1.0 0.0e+00 0.0e+00 0.0e+00  8  0  0  0  0  13 31  0  0  0    14       0      0 0.00e+00    0 0.00e+00  0
 static IP Data        1 1.0 1.2930e-03 1.1 1.34e+05 1.0 0.0e+00 0.0e+00 0.0e+00  0  0  0  0  0   0  3  0  0  0   416       0      0 0.00e+00    0 0.00e+00  0
VecCopy                1 1.0 3.5910e-05 1.2 0.00e+00 0.0 0.0e+00 0.0e+00 0.0e+00  0  0  0  0  0   0  0  0  0  0     0       0      0 0.00e+00    0 0.00e+00  0
VecSet                93 1.0 1.5725e-03 1.0 0.00e+00 0.0 0.0e+00 0.0e+00 0.0e+00  0  0  0  0  0   0  0  0  0  0     0       0      0 0.00e+00    0 0.00e+00  0
DualSpaceSetUp        40 1.0 2.0804e-02 1.0 8.84e+02 1.0 0.0e+00 0.0e+00 0.0e+00  0  0  0  0  0   1  0  0  0  0     0       0      0 0.00e+00    0 0.00e+00  0
FESetUp               40 1.0 9.5579e-04 1.1 0.00e+00 0.0 0.0e+00 0.0e+00 0.0e+00  0  0  0  0  0   0  0  0  0  0     0       0      0 0.00e+00    0 0.00e+00  0
MatMult             9740 1.0 9.4248e-04 1.0 6.87e+04 1.0 0.0e+00 0.0e+00 0.0e+00  0  0  0  0  0   0  2  0  0  0   292       0      0 0.00e+00    0 0.00e+00  0
MatLUFactor           30 1.0 2.7652e-04 1.1 8.19e+04 1.0 0.0e+00 0.0e+00 0.0e+00  0  0  0  0  0   0  2  0  0  0  1185       0      0 0.00e+00    0 0.00e+00  0
MatCopy              120 1.0 6.8526e-05 1.1 0.00e+00 0.0 0.0e+00 0.0e+00 0.0e+00  0  0  0  0  0   0  0  0  0  0     0       0      0 0.00e+00    0 0.00e+00  0
MatConvert            60 1.0 4.6533e-04 1.1 0.00e+00 0.0 0.0e+00 0.0e+00 0.0e+00  0  0  0  0  0   0  0  0  0  0     0       0      0 0.00e+00    0 0.00e+00  0
MatAssemblyBegin     710 1.0 6.1559e-05 1.1 0.00e+00 0.0 0.0e+00 0.0e+00 0.0e+00  0  0  0  0  0   0  0  0  0  0     0       0      0 0.00e+00    0 0.00e+00  0
MatAssemblyEnd       710 1.0 3.1921e-02 1.5 0.00e+00 0.0 0.0e+00 0.0e+00 0.0e+00  1  0  0  0  0   1  0  0  0  0     0       0      0 0.00e+00    0 0.00e+00  0
MatGetRowIJ            9 1.0 1.8120e-06 1.2 0.00e+00 0.0 0.0e+00 0.0e+00 0.0e+00  0  0  0  0  0   0  0  0  0  0     0       0      0 0.00e+00    0 0.00e+00  0
MatZeroEntries         6 1.0 9.4602e-05 1.1 0.00e+00 0.0 0.0e+00 0.0e+00 0.0e+00  0  0  0  0  0   0  0  0  0  0     0       0      0 0.00e+00    0 0.00e+00  0
MatMatSolve          120 1.0 3.6989e-04 1.1 9.52e+05 1.0 0.0e+00 0.0e+00 0.0e+00  0  0  0  0  0   0 24  0  0  0 10299       0      0 0.00e+00    0 0.00e+00  0
MatSetPreallCOO      109 1.0 6.2147e-02 1.1 0.00e+00 0.0 0.0e+00 0.0e+00 0.0e+00  1  0  0  0  0   2  0  0  0  0     0       0      0 0.00e+00    0 0.00e+00  0
MatSetValuesCOO      108 1.0 1.5187e-04 1.1 0.00e+00 0.0 0.0e+00 0.0e+00 0.0e+00  0  0  0  0  0   0  0  0  0  0     0       0      0 0.00e+00    0 0.00e+00  0
DCtxCreate             1 1.0 2.5359e-05 1.8 0.00e+00 0.0 0.0e+00 0.0e+00 0.0e+00  0  0  0  0  0   0  0  0  0  0     0       0      0 0.00e+00    0 0.00e+00  0
DCtxDestroy            1 1.0 2.3936e-05 1.8 0.00e+00 0.0 0.0e+00 0.0e+00 0.0e+00  0  0  0  0  0   0  0  0  0  0     0       0      0 0.00e+00    0 0.00e+00  0
DCtxSetUp              1 1.0 4.4326e-05 1.1 0.00e+00 0.0 0.0e+00 0.0e+00 0.0e+00  0  0  0  0  0   0  0  0  0  0     0       0      0 0.00e+00    0 0.00e+00  0
DCtxSetDevice          1 1.0 4.6059e-05 1.2 0.00e+00 0.0 0.0e+00 0.0e+00 0.0e+00  0  0  0  0  0   0  0  0  0  0     0       0      0 0.00e+00    0 0.00e+00  0

--- Event Stage 1: Warmup

Landau Operator       29 1.0 2.6860e-02 1.0 3.03e+07 1.0 0.0e+00 0.0e+00 0.0e+00  1  0  0  0  0  16  3  0  0  0  4509    4953      0 0.00e+00    0 0.00e+00  100
Landau Jacobian       15 1.0 2.3792e-02 1.0 3.03e+07 1.0 0.0e+00 0.0e+00 0.0e+00  1  0  0  0  0  14  3  0  0  0  5091    5529      0 0.00e+00    0 0.00e+00  100
Landau Mass           14 1.0 3.2243e-03 1.1 0.00e+00 0.0 0.0e+00 0.0e+00 0.0e+00  0  0  0  0  0   2  0  0  0  0     0       0      0 0.00e+00    0 0.00e+00  0
 Preamble             29 1.0 6.4106e-05 1.1 0.00e+00 0.0 0.0e+00 0.0e+00 0.0e+00  0  0  0  0  0   0  0  0  0  0     0       0      0 0.00e+00    0 0.00e+00  0
 dynamic IP-Jac       30 1.0 1.5417e-05 1.1 0.00e+00 0.0 0.0e+00 0.0e+00 0.0e+00  0  0  0  0  0   0  0  0  0  0     0       0      0 0.00e+00    0 0.00e+00  0
 Kernel-init          29 1.0 3.5832e-04 1.2 0.00e+00 0.0 0.0e+00 0.0e+00 0.0e+00  0  0  0  0  0   0  0  0  0  0     0       0      0 0.00e+00    0 0.00e+00  0
 Jac-f-df (GPU)       15 1.0 1.9821e-03 1.1 0.00e+00 0.0 0.0e+00 0.0e+00 0.0e+00  0  0  0  0  0   1  0  0  0  0     0       0      0 0.00e+00    0 0.00e+00  0
 J Kernel (GPU)       15 1.0 1.1256e-02 1.0 0.00e+00 0.0 0.0e+00 0.0e+00 0.0e+00  0  0  0  0  0   7  0  0  0  0     0       0      0 0.00e+00    0 0.00e+00  0
 M Kernel (GPU)       14 1.0 2.1225e-03 1.1 0.00e+00 0.0 0.0e+00 0.0e+00 0.0e+00  0  0  0  0  0   1  0  0  0  0     0       0      0 0.00e+00    0 0.00e+00  0
VecDot               664 1.0 1.9860e-02 1.0 3.02e+07 1.0 0.0e+00 0.0e+00 0.0e+00  0  0  0  0  0  12  3  0  0  0  6077    8816      0 0.00e+00    0 0.00e+00  100
VecNorm              347 1.0 1.0525e-02 1.0 1.58e+07 1.0 0.0e+00 0.0e+00 0.0e+00  0  0  0  0  0   6  2  0  0  0  5992    8632      0 0.00e+00    0 0.00e+00  100
VecCopy               88 1.0 1.7860e-03 1.1 0.00e+00 0.0 0.0e+00 0.0e+00 0.0e+00  0  0  0  0  0   1  0  0  0  0     0       0      0 0.00e+00    0 0.00e+00  0
VecSet                29 1.0 6.1212e-04 1.1 0.00e+00 0.0 0.0e+00 0.0e+00 0.0e+00  0  0  0  0  0   0  0  0  0  0     0       0      0 0.00e+00    0 0.00e+00  0
VecAXPY             1325 1.0 2.3227e-02 1.0 6.02e+07 1.0 0.0e+00 0.0e+00 0.0e+00  1  1  0  0  0  14  7  0  0  0 10369   21983      0 0.00e+00    0 0.00e+00  100
VecAYPX              645 1.0 1.0605e-02 1.0 2.93e+07 1.0 0.0e+00 0.0e+00 0.0e+00  0  0  0  0  0   6  3  0  0  0 11055   25586      0 0.00e+00    0 0.00e+00  100
VecAXPBYCZ            16 1.0 1.2410e-02 3.3 1.82e+06 1.0 0.0e+00 0.0e+00 0.0e+00  0  0  0  0  0   4  0  0  0  0   586     596      0 0.00e+00    0 0.00e+00  100
VecWAXPY            1314 1.0 2.5930e-02 1.0 5.97e+07 1.0 0.0e+00 0.0e+00 0.0e+00  1  1  0  0  0  16  7  0  0  0  9211   17516      0 0.00e+00    0 0.00e+00  100
VecPointwiseMult     678 1.0 1.4207e-02 1.0 1.54e+07 1.0 0.0e+00 0.0e+00 0.0e+00  0  0  0  0  0   9  2  0  0  0  4337    7988      0 0.00e+00    0 0.00e+00  100
VecReduceArith        42 1.0 1.2474e-03 1.1 1.91e+06 1.0 0.0e+00 0.0e+00 0.0e+00  0  0  0  0  0   1  0  0  0  0  6120    8835      0 0.00e+00    0 0.00e+00  100
VecReduceComm         14 1.0 2.6570e-06 1.2 0.00e+00 0.0 0.0e+00 0.0e+00 0.0e+00  0  0  0  0  0   0  0  0  0  0     0       0      0 0.00e+00    0 0.00e+00  0
MatMult              679 1.0 2.0477e-02 1.0 6.85e+08 1.0 0.0e+00 0.0e+00 0.0e+00  0  7  0  0  0  12 75  0  0  0 133868   196953      0 0.00e+00    0 0.00e+00  100
MatMultAdd            15 1.0 1.0425e-03 1.0 1.51e+07 1.0 0.0e+00 0.0e+00 0.0e+00  0  0  0  0  0   1  2  0  0  0 58087   67620      0 0.00e+00    0 0.00e+00  100
MatAssemblyBegin      58 1.0 7.5030e-06 1.4 0.00e+00 0.0 0.0e+00 0.0e+00 0.0e+00  0  0  0  0  0   0  0  0  0  0     0       0      0 0.00e+00    0 0.00e+00  0
MatAssemblyEnd        58 1.0 3.5465e-04 1.1 0.00e+00 0.0 0.0e+00 0.0e+00 0.0e+00  0  0  0  0  0   0  0  0  0  0     0       0      0 0.00e+00    0 0.00e+00  0
MatZeroEntries        15 1.0 1.2970e-04 1.1 0.00e+00 0.0 0.0e+00 0.0e+00 0.0e+00  0  0  0  0  0   0  0  0  0  0     0       0      0 0.00e+00    0 0.00e+00  0
MatView                1 0.0 4.4075e-05 0.0 0.00e+00 0.0 0.0e+00 0.0e+00 0.0e+00  0  0  0  0  0   0  0  0  0  0     0       0      0 0.00e+00    0 0.00e+00  0
MatSetValuesCOO       29 1.0 8.9245e-03 1.1 0.00e+00 0.0 0.0e+00 0.0e+00 0.0e+00  0  0  0  0  0   5  0  0  0  0     0       0      0 0.00e+00    0 0.00e+00  0
TSStep                 1 1.0 1.7140e-01 1.1 9.15e+08 1.0 0.0e+00 0.0e+00 0.0e+00  4  9  0  0  0 100 100  0  0  0 21347   33577      0 0.00e+00    0 0.00e+00  100
TSFunctionEval        15 1.0 2.5602e-02 1.0 3.10e+07 1.0 0.0e+00 0.0e+00 0.0e+00  1  0  0  0  0  15  3  0  0  0  4837    5306      0 0.00e+00    0 0.00e+00  100
TSJacobianEval        14 1.0 3.2377e-03 1.1 0.00e+00 0.0 0.0e+00 0.0e+00 0.0e+00  0  0  0  0  0   2  0  0  0  0     0       0      0 0.00e+00    0 0.00e+00  0
KSPSetUp              14 1.0 7.3533e-04 1.1 0.00e+00 0.0 0.0e+00 0.0e+00 0.0e+00  0  0  0  0  0   0  0  0  0  0     0       0      0 0.00e+00    0 0.00e+00  0
KSPSolve              14 1.0 1.2615e-01 1.0 8.79e+08 1.0 0.0e+00 0.0e+00 0.0e+00  3  9  0  0  0  76 96  0  0  0 27881   50185      0 0.00e+00    0 0.00e+00  100
SNESSolve              1 1.0 1.7114e-01 1.1 9.15e+08 1.0 0.0e+00 0.0e+00 0.0e+00  4  9  0  0  0 100 100  0  0  0 21376   33598      0 0.00e+00    0 0.00e+00  100
SNESSetUp              1 1.0 4.9616e-05 1.6 0.00e+00 0.0 0.0e+00 0.0e+00 0.0e+00  0  0  0  0  0   0  0  0  0  0     0       0      0 0.00e+00    0 0.00e+00  0
SNESFunctionEval      15 1.0 3.7171e-02 1.3 3.27e+07 1.0 0.0e+00 0.0e+00 0.0e+00  1  0  0  0  0  19  4  0  0  0  3515    3776      0 0.00e+00    0 0.00e+00  100
SNESJacobianEval      14 1.0 3.2524e-03 1.1 0.00e+00 0.0 0.0e+00 0.0e+00 0.0e+00  0  0  0  0  0   2  0  0  0  0     0       0      0 0.00e+00    0 0.00e+00  0
SNESLineSearch        14 1.0 1.6915e-02 1.0 3.30e+07 1.0 0.0e+00 0.0e+00 0.0e+00  0  0  0  0  0  10  4  0  0  0  7811    9243      0 0.00e+00    0 0.00e+00  100
PCSetUp               14 1.0 1.0982e-03 1.1 0.00e+00 0.0 0.0e+00 0.0e+00 0.0e+00  0  0  0  0  0   1  0  0  0  0     0       0      0 0.00e+00    0 0.00e+00  0
PCApply              678 1.0 1.4664e-02 1.0 1.54e+07 1.0 0.0e+00 0.0e+00 0.0e+00  0  0  0  0  0   9  2  0  0  0  4202    7956      0 0.00e+00    0 0.00e+00  100

--- Event Stage 2: Solve

Landau Operator      288 1.0 1.7652e-01 1.1 3.01e+08 1.0 0.0e+00 0.0e+00 0.0e+00  4  3  0  0  0  12  3  0  0  0  6815    7753      0 0.00e+00    0 0.00e+00  100
Landau Jacobian      149 1.0 1.4468e-01 1.0 3.01e+08 1.0 0.0e+00 0.0e+00 0.0e+00  3  3  0  0  0  10  3  0  0  0  8316    9317      0 0.00e+00    0 0.00e+00  100
Landau Mass          139 1.0 3.1759e-02 1.1 0.00e+00 0.0 0.0e+00 0.0e+00 0.0e+00  1  0  0  0  0   2  0  0  0  0     0       0      0 0.00e+00    0 0.00e+00  0
 Preamble            279 1.0 6.0945e-04 1.3 0.00e+00 0.0 0.0e+00 0.0e+00 0.0e+00  0  0  0  0  0   0  0  0  0  0     0       0      0 0.00e+00    0 0.00e+00  0
 dynamic IP-Jac      280 1.0 1.3075e-04 1.3 0.00e+00 0.0 0.0e+00 0.0e+00 0.0e+00  0  0  0  0  0   0  0  0  0  0     0       0      0 0.00e+00    0 0.00e+00  0
 Kernel-init         279 1.0 3.4188e-03 1.3 0.00e+00 0.0 0.0e+00 0.0e+00 0.0e+00  0  0  0  0  0   0  0  0  0  0     0       0      0 0.00e+00    0 0.00e+00  0
 Jac-f-df (GPU)      140 1.0 1.1487e-02 1.1 0.00e+00 0.0 0.0e+00 0.0e+00 0.0e+00  0  0  0  0  0   1  0  0  0  0     0       0      0 0.00e+00    0 0.00e+00  0
 J Kernel (GPU)      140 1.0 1.0492e-01 1.0 0.00e+00 0.0 0.0e+00 0.0e+00 0.0e+00  2  0  0  0  0   7  0  0  0  0     0       0      0 0.00e+00    0 0.00e+00  0
 M Kernel (GPU)      139 1.0 2.0650e-02 1.1 0.00e+00 0.0 0.0e+00 0.0e+00 0.0e+00  0  0  0  0  0   1  0  0  0  0     0       0      0 0.00e+00    0 0.00e+00  0
VecDot              6670 1.0 1.9649e-01 1.1 3.03e+08 1.0 0.0e+00 0.0e+00 0.0e+00  5  3  0  0  0  13  3  0  0  0  6170    9008      0 0.00e+00    0 0.00e+00  100
VecNorm             3484 1.0 1.0362e-01 1.0 1.58e+08 1.0 0.0e+00 0.0e+00 0.0e+00  2  2  0  0  0   7  2  0  0  0  6111    8861      0 0.00e+00    0 0.00e+00  100
VecCopy              864 1.0 1.6387e-02 1.1 0.00e+00 0.0 0.0e+00 0.0e+00 0.0e+00  0  0  0  0  0   1  0  0  0  0     0       0      0 0.00e+00    0 0.00e+00  0
VecSet               278 1.0 6.0066e-03 1.2 0.00e+00 0.0 0.0e+00 0.0e+00 0.0e+00  0  0  0  0  0   0  0  0  0  0     0       0      0 0.00e+00    0 0.00e+00  0
VecAXPY            13292 1.0 2.2093e-01 1.0 6.04e+08 1.0 0.0e+00 0.0e+00 0.0e+00  5  6  0  0  0  15  7  0  0  0 10935   25247      0 0.00e+00    0 0.00e+00  100
VecAYPX             6463 1.0 1.0605e-01 1.0 2.94e+08 1.0 0.0e+00 0.0e+00 0.0e+00  2  3  0  0  0   7  3  0  0  0 11077   25638      0 0.00e+00    0 0.00e+00  100
VecAXPBYCZ           159 1.0 3.6204e-03 1.1 1.81e+07 1.0 0.0e+00 0.0e+00 0.0e+00  0  0  0  0  0   0  0  0  0  0 19957   38312      0 0.00e+00    0 0.00e+00  100
VecWAXPY           13201 1.0 2.6067e-01 1.1 6.00e+08 1.0 0.0e+00 0.0e+00 0.0e+00  6  6  0  0  0  18  7  0  0  0  9205   17540      0 0.00e+00    0 0.00e+00  100
VecPointwiseMult    6809 1.0 1.4238e-01 1.1 1.55e+08 1.0 0.0e+00 0.0e+00 0.0e+00  3  2  0  0  0  10  2  0  0  0  4346    8035      0 0.00e+00    0 0.00e+00  100
VecReduceArith       417 1.0 1.2508e-02 1.1 1.89e+07 1.0 0.0e+00 0.0e+00 0.0e+00  0  0  0  0  0   1  0  0  0  0  6060    8890      0 0.00e+00    0 0.00e+00  100
VecReduceComm        139 1.0 2.5689e-05 1.2 0.00e+00 0.0 0.0e+00 0.0e+00 0.0e+00  0  0  0  0  0   0  0  0  0  0     0       0      0 0.00e+00    0 0.00e+00  0
MatMult             6819 1.0 2.0339e-01 1.1 6.88e+09 1.0 0.0e+00 0.0e+00 0.0e+00  5 68  0  0  0  14 75  0  0  0 135352   200104      0 0.00e+00    0 0.00e+00  100
MatMultAdd           149 1.0 5.5965e-03 1.1 1.50e+08 1.0 0.0e+00 0.0e+00 0.0e+00  0  1  0  0  0   0  2  0  0  0 107484   147074      0 0.00e+00    0 0.00e+00  100
MatAssemblyBegin     558 1.0 7.0502e-05 1.4 0.00e+00 0.0 0.0e+00 0.0e+00 0.0e+00  0  0  0  0  0   0  0  0  0  0     0       0      0 0.00e+00    0 0.00e+00  0
MatAssemblyEnd       558 1.0 2.3064e-04 1.3 0.00e+00 0.0 0.0e+00 0.0e+00 0.0e+00  0  0  0  0  0   0  0  0  0  0     0       0      0 0.00e+00    0 0.00e+00  0
MatZeroEntries       140 1.0 1.2421e-03 1.3 0.00e+00 0.0 0.0e+00 0.0e+00 0.0e+00  0  0  0  0  0   0  0  0  0  0     0       0      0 0.00e+00    0 0.00e+00  0
MatView                1 0.0 3.4697e-05 0.0 0.00e+00 0.0 0.0e+00 0.0e+00 0.0e+00  0  0  0  0  0   0  0  0  0  0     0       0      0 0.00e+00    0 0.00e+00  0
MatSetValuesCOO      279 1.0 1.8859e-02 1.1 0.00e+00 0.0 0.0e+00 0.0e+00 0.0e+00  0  0  0  0  0   1  0  0  0  0     0       0      0 0.00e+00    0 0.00e+00  0
TSStep                10 1.0 1.4794e+00 1.1 9.18e+09 1.0 0.0e+00 0.0e+00 0.0e+00 34 91  0  0  0 100 100  0  0  0 24830   42113      0 0.00e+00    0 0.00e+00  100
TSFunctionEval       149 1.0 1.4826e-01 1.0 3.08e+08 1.0 0.0e+00 0.0e+00 0.0e+00  3  3  0  0  0  10  3  0  0  0  8297    9410      0 0.00e+00    0 0.00e+00  100
TSJacobianEval       139 1.0 3.1890e-02 1.1 0.00e+00 0.0 0.0e+00 0.0e+00 0.0e+00  1  0  0  0  0   2  0  0  0  0     0       0      0 0.00e+00    0 0.00e+00  0
KSPSetUp             139 1.0 2.4421e-05 1.3 0.00e+00 0.0 0.0e+00 0.0e+00 0.0e+00  0  0  0  0  0   0  0  0  0  0     0       0      0 0.00e+00    0 0.00e+00  0
KSPSolve             139 1.0 1.2596e+00 1.1 8.83e+09 1.0 0.0e+00 0.0e+00 0.0e+00 29 87  0  0  0  85 96  0  0  0 28046   50491      0 0.00e+00    0 0.00e+00  100
SNESSolve             10 1.0 1.4783e+00 1.1 9.18e+09 1.0 0.0e+00 0.0e+00 0.0e+00 34 91  0  0  0 100 100  0  0  0 24844   42126      0 0.00e+00    0 0.00e+00  100
SNESFunctionEval     149 1.0 1.5181e-01 1.0 3.24e+08 1.0 0.0e+00 0.0e+00 0.0e+00  4  3  0  0  0  10  4  0  0  0  8549    9799      0 0.00e+00    0 0.00e+00  100
SNESJacobianEval     139 1.0 3.2037e-02 1.1 0.00e+00 0.0 0.0e+00 0.0e+00 0.0e+00  1  0  0  0  0   2  0  0  0  0     0       0      0 0.00e+00    0 0.00e+00  0
SNESLineSearch       139 1.0 1.6899e-01 1.1 3.28e+08 1.0 0.0e+00 0.0e+00 0.0e+00  4  3  0  0  0  11  4  0  0  0  7763    9184      0 0.00e+00    0 0.00e+00  100
PCSetUp              139 1.0 1.1857e-02 1.2 0.00e+00 0.0 0.0e+00 0.0e+00 0.0e+00  0  0  0  0  0   1  0  0  0  0     0       0      0 0.00e+00    0 0.00e+00  0
PCApply             6809 1.0 1.4447e-01 1.1 1.55e+08 1.0 0.0e+00 0.0e+00 0.0e+00  3  2  0  0  0  10  2  0  0  0  4283    8035      0 0.00e+00    0 0.00e+00  100
---------------------------------------------------------------------------------------------------------------------------------------------------------------

Object Type          Creations   Destructions. Reports information only for process 0.

--- Event Stage 0: Main Stage

           Container   314            314
    Distributed Mesh   521            521
            DM Label  1216           1216
          Quadrature   882            882
           Index Set  5444           5444
   IS L to G Mapping   731            731
             Section  2187           2187
    Section Symmetry    80             80
   Star Forest Graph  1749           1749
     Discrete System   883            883
           Weak Form   883            883
    GraphPartitioner   191            191
              Vector   284            304
       p4est logging     1              1
        Linear Space    80             80
          Dual Space   222            222
            FE Space    52             52
              Matrix   722            722
  PetscDeviceContext     1              0
       Field over DM    18             18
             TSAdapt     1              1
                  TS     1              1
                DMTS     1              1
                SNES     1              1
              DMSNES     3              3
      SNESLineSearch     1              1
       Krylov Solver     1              1
     DMKSP interface     0              1
      Preconditioner     1              1
              Viewer     1              1

--- Event Stage 1: Warmup

              Vector    20              0
     DMKSP interface     1              0

--- Event Stage 2: Solve

========================================================================================================================
Average time to get PetscTime(): 3.81e-08
Average time for MPI_Barrier(): 2.1762e-06
Average time for zero size MPI_Send(): 1.68927e-05
#PETSc Option Table entries:
-dim 2 # (source: command line)
-dm_landau_amr_levels_max 2,2,2 # (source: command line)
-dm_landau_batch_size 16 # (source: command line)
-dm_landau_device_type kokkos # (source: file)
-dm_landau_Ez 0 # (source: file)
-dm_landau_ion_charges 1,2,3,4,5,6,7,8,9 # (source: file)
-dm_landau_ion_masses 2,182,182,182,182,182,182,182,182 # (source: file)
-dm_landau_n 1.0000044,1,1e-7,1e-7,1e-7,1e-7,1e-7,1e-7,1e-7,1e-7 # (source: file)
-dm_landau_num_species_grid 1,1,8 # (source: file)
-dm_landau_thermal_temps 2,1,1,1,1,1,1,1,1,1 # (source: file)
-dm_landau_type p4est # (source: command line)
-dm_landau_verbose 1 # (source: command line)
-dm_mat_type aijkokkos # (source: file)
-dm_preallocate_only false # (source: code)
-dm_vec_type kokkos # (source: file)
-ex2_test_type none # (source: file)
-ksp_converged_reason # (source: command line)
-ksp_max_it 100 # (source: command line)
-ksp_rtol 1.e-8 # (source: command line)
-ksp_type tfqmr # (source: command line)
-log_view # (source: command line)
-log_view_gpu_time # (source: command line)
-options_left # (source: command line)
-pc_type jacobi # (source: command line)
-petscspace_degree 3 # (source: command line)
-snes_converged_reason # (source: file)
-snes_linesearch_type basic # (source: file)
-snes_max_it 50 # (source: file)
-snes_monitor # (source: file)
-snes_rtol 1e-14 # (source: file)
-snes_stol 1e-14 # (source: file)
-ts_adapt_clip .5,1.1 # (source: file)
-ts_adapt_dt_max 1 # (source: file)
-ts_adapt_monitor # (source: file)
-ts_adapt_scale_solve_failed 0.5 # (source: file)
-ts_adapt_time_step_increase_delay 5 # (source: file)
-ts_dt .5 # (source: file)
-ts_exact_final_time stepover # (source: file)
-ts_max_snes_failures -1 # (source: file)
-ts_max_steps 10 # (source: file)
-ts_max_time 100 # (source: file)
-ts_monitor # (source: file)
-ts_rtol 1e-2 # (source: file)
-ts_type beuler # (source: file)
-ts_view # (source: command line)
-use_gpu_aware_mpi 0 # (source: file)
#End of PETSc Option Table entries
Compiled without FORTRAN kernels
Compiled with full precision matrices (default)
sizeof(short) 2 sizeof(int) 4 sizeof(long) 8 sizeof(void*) 8 sizeof(PetscScalar) 8 sizeof(PetscInt) 4
Configure options: --CFLAGS="   -g" --CXXFLAGS=" -g" --CUDAFLAGS=-g --with-cc=cc --with-cxx=CC --with-fc=ftn --download-triangle --with-fortran-bindings=0 --COPTFLAGS="   -g -O3" --CXXOPTFLAGS=" -g -O3" --FOPTFLAGS="   -g -O3" --with-debugging=0 --with-cuda=1 --with-cuda-arch=80 --with-mpiexec="srun -G4" --download-p4est=1 --with-zlib=1 --download-kokkos --download-kokkos-kernels --with-kokkos-kernels-tpl=0 --with-make-np=8 --with-64-bit-indices=0 --with-hdf5-dir=/opt/cray/pe/hdf5-parallel/1.12.2.9/gnu/12.3 PETSC_ARCH=arch-perlmutter-opt-gcc-kokkos-cuda
-----------------------------------------
Libraries compiled on 2024-06-27 20:09:11 on login19 
Machine characteristics: Linux-5.14.21-150400.24.81_12.0.87-cray_shasta_c-x86_64-with-glibc2.3.4
Using PETSc directory: /global/u2/m/madams/petsc
Using PETSc arch: arch-perlmutter-opt-gcc-kokkos-cuda
-----------------------------------------

Using C compiler: cc -g -fPIC -g -O3  
Using Fortran compiler: ftn  -fPIC -Wall -ffree-line-length-none -ffree-line-length-0 -Wno-lto-type-mismatch -Wno-unused-dummy-argument -g -O3    
-----------------------------------------

Using include paths: -I/global/u2/m/madams/petsc/include -I/global/u2/m/madams/petsc/arch-perlmutter-opt-gcc-kokkos-cuda/include -I/opt/cray/pe/hdf5-parallel/1.12.2.9/gnu/12.3/include -I/opt/nvidia/hpc_sdk/Linux_x86_64/23.9/cuda/12.2/include -I/opt/nvidia/hpc_sdk/Linux_x86_64/23.9/math_libs/12.2/include
-----------------------------------------

Using C linker: cc
Using Fortran linker: ftn
Using libraries: -Wl,-rpath,/global/u2/m/madams/petsc/arch-perlmutter-opt-gcc-kokkos-cuda/lib -L/global/u2/m/madams/petsc/arch-perlmutter-opt-gcc-kokkos-cuda/lib -lpetsc -Wl,-rpath,/global/u2/m/madams/petsc/arch-perlmutter-opt-gcc-kokkos-cuda/lib -L/global/u2/m/madams/petsc/arch-perlmutter-opt-gcc-kokkos-cuda/lib -Wl,-rpath,/opt/cray/pe/hdf5-parallel/1.12.2.9/gnu/12.3/lib -L/opt/cray/pe/hdf5-parallel/1.12.2.9/gnu/12.3/lib -Wl,-rpath,/opt/nvidia/hpc_sdk/Linux_x86_64/23.9/math_libs/12.2/lib64 -L/opt/nvidia/hpc_sdk/Linux_x86_64/23.9/math_libs/12.2/lib64 -Wl,-rpath,/opt/nvidia/hpc_sdk/Linux_x86_64/23.9/cuda/12.2/lib64 -L/opt/nvidia/hpc_sdk/Linux_x86_64/23.9/cuda/12.2/lib64 -L/opt/nvidia/hpc_sdk/Linux_x86_64/23.9/cuda/12.2/lib64/stubs -Wl,-rpath,/opt/cray/pe/mpich/8.1.28/ofi/gnu/12.3/lib -L/opt/cray/pe/mpich/8.1.28/ofi/gnu/12.3/lib -Wl,-rpath,/opt/cray/pe/mpich/8.1.28/gtl/lib -L/opt/cray/pe/mpich/8.1.28/gtl/lib -Wl,-rpath,/opt/cray/pe/libsci/23.12.5/GNU/12.3/x86_64/lib -L/opt/cray/pe/libsci/23.12.5/GNU/12.3/x86_64/lib -Wl,-rpath,/opt/nvidia/hpc_sdk/Linux_x86_64/23.9/cuda/12.2/lib64/stubs -Wl,-rpath,/opt/nvidia/hpc_sdk/Linux_x86_64/23.9/cuda/12.2/nvvm/lib64 -L/opt/nvidia/hpc_sdk/Linux_x86_64/23.9/cuda/12.2/nvvm/lib64 -Wl,-rpath,/opt/nvidia/hpc_sdk/Linux_x86_64/23.9/cuda/12.2/extras/CUPTI/lib64 -L/opt/nvidia/hpc_sdk/Linux_x86_64/23.9/cuda/12.2/extras/CUPTI/lib64 -Wl,-rpath,/opt/nvidia/hpc_sdk/Linux_x86_64/23.9/cuda/12.2/extras/Debugger/lib64 -L/opt/nvidia/hpc_sdk/Linux_x86_64/23.9/cuda/12.2/extras/Debugger/lib64 -Wl,-rpath,/opt/cray/pe/dsmml/0.2.2/dsmml/lib -L/opt/cray/pe/dsmml/0.2.2/dsmml/lib -Wl,-rpath,/opt/cray/xpmem/2.6.2-2.5_2.38__gd067c3f.shasta/lib64 -L/opt/cray/xpmem/2.6.2-2.5_2.38__gd067c3f.shasta/lib64 -Wl,-rpath,/usr/lib64/gcc/x86_64-suse-linux/12 -L/usr/lib64/gcc/x86_64-suse-linux/12 -Wl,-rpath,/usr/x86_64-suse-linux/lib -L/usr/x86_64-suse-linux/lib -lkokkoskernels -lkokkoscontainers -lkokkoscore -lkokkossimd -lp4est -lsc -lhdf5_hl -lhdf5 -ltriangle -lz -lcufft -lcublas -lcusparse -lcusolver -lcurand -lcudart -lnvToolsExt -lcuda -lX11 -lcuda -lmpi_gtl_cuda -ldl -lxpmem -lgfortran -lm -lhdf5_hl_parallel -lhdf5_parallel -lcupti -lcudart -lhdf5hl_fortran_parallel -lhdf5_fortran_parallel -lmpifort_gnu_123 -lsci_gnu_123_mpi -lmpi_gnu_123 -lsci_gnu_123 -ldsmml -lgfortran -lquadmath -lpthread -lm -lgcc_s -lstdc++ -lquadmath
-----------------------------------------

#PETSc Option Table entries:
-dim 2 # (source: command line)
-dm_landau_amr_levels_max 2,2,2 # (source: command line)
-dm_landau_batch_size 16 # (source: command line)
-dm_landau_device_type kokkos # (source: file)
-dm_landau_Ez 0 # (source: file)
-dm_landau_ion_charges 1,2,3,4,5,6,7,8,9 # (source: file)
-dm_landau_ion_masses 2,182,182,182,182,182,182,182,182 # (source: file)
-dm_landau_n 1.0000044,1,1e-7,1e-7,1e-7,1e-7,1e-7,1e-7,1e-7,1e-7 # (source: file)
-dm_landau_num_species_grid 1,1,8 # (source: file)
-dm_landau_thermal_temps 2,1,1,1,1,1,1,1,1,1 # (source: file)
-dm_landau_type p4est # (source: command line)
-dm_landau_verbose 1 # (source: command line)
-dm_mat_type aijkokkos # (source: file)
-dm_preallocate_only false # (source: code)
-dm_vec_type kokkos # (source: file)
-ex2_test_type none # (source: file)
-ksp_converged_reason # (source: command line)
-ksp_max_it 100 # (source: command line)
-ksp_rtol 1.e-8 # (source: command line)
-ksp_type tfqmr # (source: command line)
-log_view # (source: command line)
-log_view_gpu_time # (source: command line)
-options_left # (source: command line)
-pc_type jacobi # (source: command line)
-petscspace_degree 3 # (source: command line)
-snes_converged_reason # (source: file)
-snes_linesearch_type basic # (source: file)
-snes_max_it 50 # (source: file)
-snes_monitor # (source: file)
-snes_rtol 1e-14 # (source: file)
-snes_stol 1e-14 # (source: file)
-ts_adapt_clip .5,1.1 # (source: file)
-ts_adapt_dt_max 1 # (source: file)
-ts_adapt_monitor # (source: file)
-ts_adapt_scale_solve_failed 0.5 # (source: file)
-ts_adapt_time_step_increase_delay 5 # (source: file)
-ts_dt .5 # (source: file)
-ts_exact_final_time stepover # (source: file)
-ts_max_snes_failures -1 # (source: file)
-ts_max_steps 10 # (source: file)
-ts_max_time 100 # (source: file)
-ts_monitor # (source: file)
-ts_rtol 1e-2 # (source: file)
-ts_type beuler # (source: file)
-ts_view # (source: command line)
-use_gpu_aware_mpi 0 # (source: file)
#End of PETSc Option Table entries
There are no unused options.
