masses:        e= 9.109e-31; ions in proton mass units:    2.000e+00  1.820e+02 ...
charges:       e=-1.602e-19; charges in elementary units:  1.000e+00  2.000e+00
n:             e:  1.000e+00                           i:  1.000e+00  1.000e-07
thermal T (K): e= 2.321e+07 i= 1.160e+07  1.160e+07. Normalization grid 0: v_0= 1.876e+07 ( 6.256e-02c) n_0= 1.000e+20 t_0= 1.909e-05 2 batched, view batch 0
Domain radius (AMR levels) grid 0: par= 5.000e+00 perp= 5.000e+00 (2) , 1: par= 5.835e-02 perp= 5.835e-02 (2) , 2: par= 6.117e-03 perp= 6.117e-03 (2) 
0) FormLandau 9720 IPs, 360 cells total, Nb=27, Nq=27, dim=3, Tab: Nb=27 Nf=10 Np=27 cdim=3 N=20900 nnz=1128020
0 TS dt 0.5 time 0.
    0 SNES Function norm 2.644084477236e-02
      Linear solve converged due to CONVERGED_RTOL iterations 18
    1 SNES Function norm 8.813509518086e-04
      Linear solve converged due to CONVERGED_RTOL iterations 16
    2 SNES Function norm 1.570712886452e-04
      Linear solve converged due to CONVERGED_RTOL iterations 16
    3 SNES Function norm 3.462563154684e-05
      Linear solve converged due to CONVERGED_RTOL iterations 14
    4 SNES Function norm 7.887632593418e-06
      Linear solve converged due to CONVERGED_RTOL iterations 15
    5 SNES Function norm 1.814353802776e-06
      Linear solve converged due to CONVERGED_RTOL iterations 15
    6 SNES Function norm 4.188374890685e-07
      Linear solve converged due to CONVERGED_RTOL iterations 15
    7 SNES Function norm 9.682587619184e-08
      Linear solve converged due to CONVERGED_RTOL iterations 15
    8 SNES Function norm 2.239743089341e-08
      Linear solve converged due to CONVERGED_RTOL iterations 15
    9 SNES Function norm 5.182220163725e-09
      Linear solve converged due to CONVERGED_RTOL iterations 15
   10 SNES Function norm 1.199171368198e-09
      Linear solve converged due to CONVERGED_RTOL iterations 15
   11 SNES Function norm 2.775016329341e-10
      Linear solve converged due to CONVERGED_RTOL iterations 16
   12 SNES Function norm 6.421974472404e-11
      Linear solve converged due to CONVERGED_RTOL iterations 17
   13 SNES Function norm 1.486190098102e-11
      Linear solve converged due to CONVERGED_RTOL iterations 14
   14 SNES Function norm 3.438988429478e-12
      Linear solve converged due to CONVERGED_RTOL iterations 17
   15 SNES Function norm 7.958567788112e-13
    Nonlinear solve converged due to CONVERGED_SNORM_RELATIVE iterations 15
      TSAdapt none beuler 0: step   0 accepted t=0          + 5.000e-01 dt=5.000e-01 
1 TS dt 0.5 time 0.5
TS Object: 1 MPI process
  type: beuler
  maximum steps=1
  maximum time=100.
  total number of I function evaluations=16
  total number of I Jacobian evaluations=15
  total number of RHS function evaluations=16
  total number of nonlinear solver iterations=15
  total number of linear solver iterations=233
  total number of nonlinear solve failures=0
  total number of rejected steps=0
  using relative error tolerance of 0.01,   using absolute error tolerance of 0.0001
  TSAdapt Object: 1 MPI process
    type: none
  SNES Object: 1 MPI process
    type: newtonls
    maximum iterations=50, maximum function evaluations=10000
    tolerances: relative=1e-14, absolute=1e-50, solution=1e-14
    total number of linear solver iterations=233
    total number of function evaluations=16
    norm schedule ALWAYS
    SNESLineSearch Object: 1 MPI process
      type: basic
      maxstep=1.000000e+08, minlambda=1.000000e-12
      tolerances: relative=1.000000e-08, absolute=1.000000e-15, lambda=1.000000e-08
      maximum iterations=40
    KSP Object: 1 MPI process
      type: tfqmr
      maximum iterations=100, initial guess is zero
      tolerances: relative=1e-08, absolute=1e-50, divergence=10000.
      left preconditioning
      using PRECONDITIONED norm type for convergence test
    PC Object: 1 MPI process
      type: jacobi
        type DIAGONAL
      linear system matrix = precond matrix:
      Mat Object: Jacobian 1 MPI process
        type: seqaijkokkos
        rows=20900, cols=20900
        total: nonzeros=1128020, allocated nonzeros=1128020
        total number of mallocs used during MatSetValues calls=0
          not using I-node routines
0 TS dt 0.5 time 0.
    0 SNES Function norm 2.644084477236e-02
      Linear solve converged due to CONVERGED_RTOL iterations 18
    1 SNES Function norm 8.813509518086e-04
      Linear solve converged due to CONVERGED_RTOL iterations 16
    2 SNES Function norm 1.570712886452e-04
      Linear solve converged due to CONVERGED_RTOL iterations 16
    3 SNES Function norm 3.462563154684e-05
      Linear solve converged due to CONVERGED_RTOL iterations 14
    4 SNES Function norm 7.887632593418e-06
      Linear solve converged due to CONVERGED_RTOL iterations 15
    5 SNES Function norm 1.814353802776e-06
      Linear solve converged due to CONVERGED_RTOL iterations 15
    6 SNES Function norm 4.188374890685e-07
      Linear solve converged due to CONVERGED_RTOL iterations 15
    7 SNES Function norm 9.682587619184e-08
      Linear solve converged due to CONVERGED_RTOL iterations 15
    8 SNES Function norm 2.239743089341e-08
      Linear solve converged due to CONVERGED_RTOL iterations 15
    9 SNES Function norm 5.182220163725e-09
      Linear solve converged due to CONVERGED_RTOL iterations 15
   10 SNES Function norm 1.199171368198e-09
      Linear solve converged due to CONVERGED_RTOL iterations 15
   11 SNES Function norm 2.775016329341e-10
      Linear solve converged due to CONVERGED_RTOL iterations 16
   12 SNES Function norm 6.421974472404e-11
      Linear solve converged due to CONVERGED_RTOL iterations 17
   13 SNES Function norm 1.486190098102e-11
      Linear solve converged due to CONVERGED_RTOL iterations 14
   14 SNES Function norm 3.438988429478e-12
      Linear solve converged due to CONVERGED_RTOL iterations 17
   15 SNES Function norm 7.958567788112e-13
    Nonlinear solve converged due to CONVERGED_SNORM_RELATIVE iterations 15
      TSAdapt none beuler 0: step   0 accepted t=0          + 5.000e-01 dt=5.000e-01 
1 TS dt 0.5 time 0.5
    0 SNES Function norm 3.325761939183e-03
      Linear solve converged due to CONVERGED_RTOL iterations 18
    1 SNES Function norm 4.058999997686e-04
      Linear solve converged due to CONVERGED_RTOL iterations 16
    2 SNES Function norm 9.262752155994e-05
      Linear solve converged due to CONVERGED_RTOL iterations 16
    3 SNES Function norm 2.137909752331e-05
      Linear solve converged due to CONVERGED_RTOL iterations 15
    4 SNES Function norm 4.934776320544e-06
      Linear solve converged due to CONVERGED_RTOL iterations 15
    5 SNES Function norm 1.139171140118e-06
      Linear solve converged due to CONVERGED_RTOL iterations 16
    6 SNES Function norm 2.630203705859e-07
      Linear solve converged due to CONVERGED_RTOL iterations 17
    7 SNES Function norm 6.073549287109e-08
      Linear solve converged due to CONVERGED_RTOL iterations 17
    8 SNES Function norm 1.402550470836e-08
      Linear solve converged due to CONVERGED_RTOL iterations 17
    9 SNES Function norm 3.238964044995e-09
      Linear solve converged due to CONVERGED_RTOL iterations 17
   10 SNES Function norm 7.479969668752e-10
      Linear solve converged due to CONVERGED_RTOL iterations 17
   11 SNES Function norm 1.727439782422e-10
      Linear solve converged due to CONVERGED_RTOL iterations 17
   12 SNES Function norm 3.989360345679e-11
      Linear solve converged due to CONVERGED_RTOL iterations 15
   13 SNES Function norm 9.212790499366e-12
      Linear solve converged due to CONVERGED_RTOL iterations 15
   14 SNES Function norm 2.127823145927e-12
      Linear solve converged due to CONVERGED_RTOL iterations 15
   15 SNES Function norm 4.910232673627e-13
    Nonlinear solve converged due to CONVERGED_SNORM_RELATIVE iterations 15
      TSAdapt none beuler 0: step   1 accepted t=0.5        + 5.000e-01 dt=5.000e-01 
2 TS dt 0.5 time 1.
    0 SNES Function norm 1.812363400106e-03
      Linear solve converged due to CONVERGED_RTOL iterations 17
    1 SNES Function norm 3.172957155307e-04
      Linear solve converged due to CONVERGED_RTOL iterations 16
    2 SNES Function norm 7.532459318422e-05
      Linear solve converged due to CONVERGED_RTOL iterations 16
    3 SNES Function norm 1.755035034099e-05
      Linear solve converged due to CONVERGED_RTOL iterations 15
    4 SNES Function norm 4.058311310959e-06
      Linear solve converged due to CONVERGED_RTOL iterations 15
    5 SNES Function norm 9.357466508816e-07
      Linear solve converged due to CONVERGED_RTOL iterations 15
    6 SNES Function norm 2.155264880285e-07
      Linear solve converged due to CONVERGED_RTOL iterations 18
    7 SNES Function norm 4.962029931842e-08
      Linear solve converged due to CONVERGED_RTOL iterations 18
    8 SNES Function norm 1.142193128967e-08
      Linear solve converged due to CONVERGED_RTOL iterations 18
    9 SNES Function norm 2.628985131315e-09
      Linear solve converged due to CONVERGED_RTOL iterations 18
   10 SNES Function norm 6.050929460758e-10
      Linear solve converged due to CONVERGED_RTOL iterations 15
   11 SNES Function norm 1.392697917186e-10
      Linear solve converged due to CONVERGED_RTOL iterations 14
   12 SNES Function norm 3.205373193710e-11
      Linear solve converged due to CONVERGED_RTOL iterations 14
   13 SNES Function norm 7.377546105073e-12
      Linear solve converged due to CONVERGED_RTOL iterations 15
   14 SNES Function norm 1.697754724176e-12
      Linear solve converged due to CONVERGED_RTOL iterations 18
   15 SNES Function norm 3.900251153736e-13
    Nonlinear solve converged due to CONVERGED_SNORM_RELATIVE iterations 15
      TSAdapt none beuler 0: step   2 accepted t=1          + 5.000e-01 dt=5.000e-01 
3 TS dt 0.5 time 1.5
    0 SNES Function norm 1.441502374397e-03
      Linear solve converged due to CONVERGED_RTOL iterations 16
    1 SNES Function norm 2.900405035362e-04
      Linear solve converged due to CONVERGED_RTOL iterations 16
    2 SNES Function norm 6.876414235813e-05
      Linear solve converged due to CONVERGED_RTOL iterations 16
    3 SNES Function norm 1.599220366714e-05
      Linear solve converged due to CONVERGED_RTOL iterations 15
    4 SNES Function norm 3.688532875512e-06
      Linear solve converged due to CONVERGED_RTOL iterations 15
    5 SNES Function norm 8.478390594210e-07
      Linear solve converged due to CONVERGED_RTOL iterations 18
    6 SNES Function norm 1.946109280693e-07
      Linear solve converged due to CONVERGED_RTOL iterations 15
    7 SNES Function norm 4.464654205415e-08
      Linear solve converged due to CONVERGED_RTOL iterations 15
    8 SNES Function norm 1.024003520800e-08
      Linear solve converged due to CONVERGED_RTOL iterations 15
    9 SNES Function norm 2.348391230271e-09
      Linear solve converged due to CONVERGED_RTOL iterations 17
   10 SNES Function norm 5.385302158363e-10
      Linear solve converged due to CONVERGED_RTOL iterations 18
   11 SNES Function norm 1.234923231123e-10
      Linear solve converged due to CONVERGED_RTOL iterations 14
   12 SNES Function norm 2.831899758551e-11
      Linear solve converged due to CONVERGED_RTOL iterations 18
   13 SNES Function norm 6.493752936959e-12
      Linear solve converged due to CONVERGED_RTOL iterations 15
   14 SNES Function norm 1.488786554783e-12
      Linear solve converged due to CONVERGED_RTOL iterations 14
   15 SNES Function norm 3.419245003493e-13
    Nonlinear solve converged due to CONVERGED_SNORM_RELATIVE iterations 15
      TSAdapt none beuler 0: step   3 accepted t=1.5        + 5.000e-01 dt=5.000e-01 
4 TS dt 0.5 time 2.
    0 SNES Function norm 1.294427066565e-03
      Linear solve converged due to CONVERGED_RTOL iterations 17
    1 SNES Function norm 2.734601721250e-04
      Linear solve converged due to CONVERGED_RTOL iterations 16
    2 SNES Function norm 6.445346410962e-05
      Linear solve converged due to CONVERGED_RTOL iterations 16
    3 SNES Function norm 1.492754835057e-05
      Linear solve converged due to CONVERGED_RTOL iterations 15
    4 SNES Function norm 3.430283264909e-06
      Linear solve converged due to CONVERGED_RTOL iterations 15
    5 SNES Function norm 7.856503984639e-07
      Linear solve converged due to CONVERGED_RTOL iterations 17
    6 SNES Function norm 1.796927181764e-07
      Linear solve converged due to CONVERGED_RTOL iterations 15
    7 SNES Function norm 4.107583237743e-08
      Linear solve converged due to CONVERGED_RTOL iterations 15
    8 SNES Function norm 9.387162006843e-09
      Linear solve converged due to CONVERGED_RTOL iterations 15
    9 SNES Function norm 2.145045192631e-09
      Linear solve converged due to CONVERGED_RTOL iterations 15
   10 SNES Function norm 4.901394198704e-10
      Linear solve converged due to CONVERGED_RTOL iterations 15
   11 SNES Function norm 1.119943686353e-10
      Linear solve converged due to CONVERGED_RTOL iterations 18
   12 SNES Function norm 2.558958600216e-11
      Linear solve converged due to CONVERGED_RTOL iterations 14
   13 SNES Function norm 5.847666502623e-12
      Linear solve converged due to CONVERGED_RTOL iterations 15
   14 SNES Function norm 1.335651837384e-12
      Linear solve converged due to CONVERGED_RTOL iterations 15
   15 SNES Function norm 3.051474766195e-13
    Nonlinear solve converged due to CONVERGED_SNORM_RELATIVE iterations 15
      TSAdapt none beuler 0: step   4 accepted t=2          + 5.000e-01 dt=5.000e-01 
5 TS dt 0.5 time 2.5
    0 SNES Function norm 1.200448136395e-03
      Linear solve converged due to CONVERGED_RTOL iterations 17
    1 SNES Function norm 2.573364294915e-04
      Linear solve converged due to CONVERGED_RTOL iterations 16
    2 SNES Function norm 6.030111122991e-05
      Linear solve converged due to CONVERGED_RTOL iterations 16
    3 SNES Function norm 1.390438505704e-05
      Linear solve converged due to CONVERGED_RTOL iterations 15
    4 SNES Function norm 3.183131128452e-06
      Linear solve converged due to CONVERGED_RTOL iterations 15
    5 SNES Function norm 7.264747861669e-07
      Linear solve converged due to CONVERGED_RTOL iterations 15
    6 SNES Function norm 1.655899391435e-07
      Linear solve converged due to CONVERGED_RTOL iterations 15
    7 SNES Function norm 3.772278588051e-08
      Linear solve converged due to CONVERGED_RTOL iterations 14
    8 SNES Function norm 8.591589150139e-09
      Linear solve converged due to CONVERGED_RTOL iterations 15
    9 SNES Function norm 1.956588607076e-09
      Linear solve converged due to CONVERGED_RTOL iterations 14
   10 SNES Function norm 4.455609982557e-10
      Linear solve converged due to CONVERGED_RTOL iterations 18
   11 SNES Function norm 1.014619986372e-10
      Linear solve converged due to CONVERGED_RTOL iterations 14
   12 SNES Function norm 2.310497231893e-11
      Linear solve converged due to CONVERGED_RTOL iterations 14
   13 SNES Function norm 5.260782770375e-12
      Linear solve converged due to CONVERGED_RTOL iterations 14
   14 SNES Function norm 1.197294525561e-12
      Linear solve converged due to CONVERGED_RTOL iterations 15
   15 SNES Function norm 2.727592127381e-13
    Nonlinear solve converged due to CONVERGED_SNORM_RELATIVE iterations 15
      TSAdapt none beuler 0: step   5 accepted t=2.5        + 5.000e-01 dt=5.000e-01 
6 TS dt 0.5 time 3.
    0 SNES Function norm 1.118709337679e-03
      Linear solve converged due to CONVERGED_RTOL iterations 17
    1 SNES Function norm 2.398870737065e-04
      Linear solve converged due to CONVERGED_RTOL iterations 15
    2 SNES Function norm 5.591390351195e-05
      Linear solve converged due to CONVERGED_RTOL iterations 15
    3 SNES Function norm 1.283953007433e-05
      Linear solve converged due to CONVERGED_RTOL iterations 15
    4 SNES Function norm 2.928960637092e-06
      Linear solve converged due to CONVERGED_RTOL iterations 15
    5 SNES Function norm 6.662662174367e-07
      Linear solve converged due to CONVERGED_RTOL iterations 14
    6 SNES Function norm 1.513814339494e-07
      Linear solve converged due to CONVERGED_RTOL iterations 14
    7 SNES Function norm 3.437714245418e-08
      Linear solve converged due to CONVERGED_RTOL iterations 14
    8 SNES Function norm 7.805001029171e-09
      Linear solve converged due to CONVERGED_RTOL iterations 14
    9 SNES Function norm 1.771887192342e-09
      Linear solve converged due to CONVERGED_RTOL iterations 14
   10 SNES Function norm 4.022364934597e-10
      Linear solve converged due to CONVERGED_RTOL iterations 14
   11 SNES Function norm 9.131047738202e-11
      Linear solve converged due to CONVERGED_RTOL iterations 17
   12 SNES Function norm 2.072784369476e-11
      Linear solve converged due to CONVERGED_RTOL iterations 14
   13 SNES Function norm 4.705270485870e-12
      Linear solve converged due to CONVERGED_RTOL iterations 14
   14 SNES Function norm 1.068026888530e-12
      Linear solve converged due to CONVERGED_RTOL iterations 15
   15 SNES Function norm 2.429520989995e-13
    Nonlinear solve converged due to CONVERGED_SNORM_RELATIVE iterations 15
      TSAdapt none beuler 0: step   6 accepted t=3          + 5.000e-01 dt=5.000e-01 
7 TS dt 0.5 time 3.5
    0 SNES Function norm 1.039350477638e-03
      Linear solve converged due to CONVERGED_RTOL iterations 18
    1 SNES Function norm 2.213318262392e-04
      Linear solve converged due to CONVERGED_RTOL iterations 15
    2 SNES Function norm 5.134145434243e-05
      Linear solve converged due to CONVERGED_RTOL iterations 15
    3 SNES Function norm 1.174522774802e-05
      Linear solve converged due to CONVERGED_RTOL iterations 15
    4 SNES Function norm 2.670645439757e-06
      Linear solve converged due to CONVERGED_RTOL iterations 15
    5 SNES Function norm 6.056821622441e-07
      Linear solve converged due to CONVERGED_RTOL iterations 14
    6 SNES Function norm 1.372145115572e-07
      Linear solve converged due to CONVERGED_RTOL iterations 14
    7 SNES Function norm 3.107021721940e-08
      Linear solve converged due to CONVERGED_RTOL iterations 14
    8 SNES Function norm 7.033970059102e-09
      Linear solve converged due to CONVERGED_RTOL iterations 14
    9 SNES Function norm 1.592276655149e-09
      Linear solve converged due to CONVERGED_RTOL iterations 14
   10 SNES Function norm 3.604305966098e-10
      Linear solve converged due to CONVERGED_RTOL iterations 14
   11 SNES Function norm 8.158565380126e-11
      Linear solve converged due to CONVERGED_RTOL iterations 15
   12 SNES Function norm 1.846858344536e-11
      Linear solve converged due to CONVERGED_RTOL iterations 15
   13 SNES Function norm 4.180392592648e-12
      Linear solve converged due to CONVERGED_RTOL iterations 17
   14 SNES Function norm 9.459474875834e-13
    Nonlinear solve converged due to CONVERGED_SNORM_RELATIVE iterations 14
      TSAdapt none beuler 0: step   7 accepted t=3.5        + 5.000e-01 dt=5.000e-01 
8 TS dt 0.5 time 4.
    0 SNES Function norm 9.607737209334e-04
      Linear solve converged due to CONVERGED_RTOL iterations 19
    1 SNES Function norm 2.022693526703e-04
      Linear solve converged due to CONVERGED_RTOL iterations 15
    2 SNES Function norm 4.671585143768e-05
      Linear solve converged due to CONVERGED_RTOL iterations 15
    3 SNES Function norm 1.065065365889e-05
      Linear solve converged due to CONVERGED_RTOL iterations 15
    4 SNES Function norm 2.414701213711e-06
      Linear solve converged due to CONVERGED_RTOL iterations 16
    5 SNES Function norm 5.461505265140e-07
      Linear solve converged due to CONVERGED_RTOL iterations 15
    6 SNES Function norm 1.234023855319e-07
      Linear solve converged due to CONVERGED_RTOL iterations 15
    7 SNES Function norm 2.787011824365e-08
      Linear solve converged due to CONVERGED_RTOL iterations 15
    8 SNES Function norm 6.293198272449e-09
      Linear solve converged due to CONVERGED_RTOL iterations 15
    9 SNES Function norm 1.420916722554e-09
      Linear solve converged due to CONVERGED_RTOL iterations 15
   10 SNES Function norm 3.208109361005e-10
      Linear solve converged due to CONVERGED_RTOL iterations 18
   11 SNES Function norm 7.243093524213e-11
      Linear solve converged due to CONVERGED_RTOL iterations 14
   12 SNES Function norm 1.635301842679e-11
      Linear solve converged due to CONVERGED_RTOL iterations 14
   13 SNES Function norm 3.691380480108e-12
      Linear solve converged due to CONVERGED_RTOL iterations 14
   14 SNES Function norm 8.338250049954e-13
    Nonlinear solve converged due to CONVERGED_SNORM_RELATIVE iterations 14
      TSAdapt none beuler 0: step   8 accepted t=4          + 5.000e-01 dt=5.000e-01 
9 TS dt 0.5 time 4.5
    0 SNES Function norm 8.835786146891e-04
      Linear solve converged due to CONVERGED_RTOL iterations 16
    1 SNES Function norm 1.832419084395e-04
      Linear solve converged due to CONVERGED_RTOL iterations 17
    2 SNES Function norm 4.215309437553e-05
      Linear solve converged due to CONVERGED_RTOL iterations 14
    3 SNES Function norm 9.581011329704e-06
      Linear solve converged due to CONVERGED_RTOL iterations 15
    4 SNES Function norm 2.166486091492e-06
      Linear solve converged due to CONVERGED_RTOL iterations 16
    5 SNES Function norm 4.888194426538e-07
      Linear solve converged due to CONVERGED_RTOL iterations 15
    6 SNES Function norm 1.101887395016e-07
      Linear solve converged due to CONVERGED_RTOL iterations 18
    7 SNES Function norm 2.482891409608e-08
      Linear solve converged due to CONVERGED_RTOL iterations 18
    8 SNES Function norm 5.593643608779e-09
      Linear solve converged due to CONVERGED_RTOL iterations 18
    9 SNES Function norm 1.260082408556e-09
      Linear solve converged due to CONVERGED_RTOL iterations 18
   10 SNES Function norm 2.838421353790e-10
      Linear solve converged due to CONVERGED_RTOL iterations 15
   11 SNES Function norm 6.393580590637e-11
      Linear solve converged due to CONVERGED_RTOL iterations 14
   12 SNES Function norm 1.440295340906e-11
      Linear solve converged due to CONVERGED_RTOL iterations 14
   13 SNES Function norm 3.244020924242e-12
      Linear solve converged due to CONVERGED_RTOL iterations 14
   14 SNES Function norm 7.306588469956e-13
    Nonlinear solve converged due to CONVERGED_SNORM_RELATIVE iterations 14
      TSAdapt none beuler 0: step   9 accepted t=4.5        + 5.000e-01 dt=5.000e-01 
10 TS dt 0.5 time 5.
TS Object: 1 MPI process
  type: beuler
  maximum steps=10
  maximum time=100.
  total number of I function evaluations=173
  total number of I Jacobian evaluations=162
  total number of RHS function evaluations=173
  total number of nonlinear solver iterations=147
  total number of linear solver iterations=2282
  total number of nonlinear solve failures=0
  total number of rejected steps=0
  using relative error tolerance of 0.01,   using absolute error tolerance of 0.0001
  TSAdapt Object: 1 MPI process
    type: none
  SNES Object: 1 MPI process
    type: newtonls
    maximum iterations=50, maximum function evaluations=10000
    tolerances: relative=1e-14, absolute=1e-50, solution=1e-14
    total number of linear solver iterations=222
    total number of function evaluations=15
    norm schedule ALWAYS
    SNESLineSearch Object: 1 MPI process
      type: basic
      maxstep=1.000000e+08, minlambda=1.000000e-12
      tolerances: relative=1.000000e-08, absolute=1.000000e-15, lambda=1.000000e-08
      maximum iterations=40
    KSP Object: 1 MPI process
      type: tfqmr
      maximum iterations=100, initial guess is zero
      tolerances: relative=1e-08, absolute=1e-50, divergence=10000.
      left preconditioning
      using PRECONDITIONED norm type for convergence test
    PC Object: 1 MPI process
      type: jacobi
        type DIAGONAL
      linear system matrix = precond matrix:
      Mat Object: Jacobian 1 MPI process
        type: seqaijkokkos
        rows=20900, cols=20900
        total: nonzeros=1128020, allocated nonzeros=1128020
        total number of mallocs used during MatSetValues calls=0
          not using I-node routines
****************************************************************************************************************************************************************
***                                WIDEN YOUR WINDOW TO 160 CHARACTERS.  Use 'enscript -r -fCourier9' to print this document                                 ***
****************************************************************************************************************************************************************

------------------------------------------------------------------ PETSc Performance Summary: ------------------------------------------------------------------



      ##########################################################
      #                                                        #
      #                       WARNING!!!                       #
      #                                                        #
      #   This code was run with -log_view_gpu_time            #
      #   This provides accurate timing within the GPU kernels #
      #   but can slow down the entire computation by a        #
      #   measurable amount. For fastest runs we recommend     #
      #   not using this option.                               #
      #                                                        #
      ##########################################################


/global/u2/m/madams/batch_gmres_paper/landau_throughput_nsight/perlmutter/./ex2-3 on a arch-perlmutter-opt-gcc-kokkos-cuda-3d named nid200381 with 4 processes and CUDA architecture 80, by madams on Thu Jun 27 14:39:45 2024
Using Petsc Development GIT revision: v3.21.2-329-g0f40c42b27c  GIT Date: 2024-06-27 15:17:08 -0400

                         Max       Max/Min     Avg       Total
Time (sec):           9.441e+01     1.000   9.441e+01
Objects:              0.000e+00     0.000   0.000e+00
Flops:                1.378e+10     1.000   1.378e+10  5.510e+10
Flops/sec:            1.459e+08     1.000   1.459e+08  5.836e+08
MPI Msg Count:        0.000e+00     0.000   0.000e+00  0.000e+00
MPI Msg Len (bytes):  0.000e+00     0.000   0.000e+00  0.000e+00
MPI Reductions:       2.100e+01     1.000

Flop counting convention: 1 flop = 1 real number operation of type (multiply/divide/add/subtract)
                            e.g., VecAXPY() for real vectors of length N --> 2N flops
                            and VecAXPY() for complex vectors of length N --> 8N flops

Summary of Stages:   ----- Time ------  ----- Flop ------  --- Messages ---  -- Message Lengths --  -- Reductions --
                        Avg     %Total     Avg     %Total    Count   %Total     Avg         %Total    Count   %Total
 0:      Main Stage: 9.0876e+01  96.3%  5.6888e+08   1.0%  0.000e+00   0.0%  0.000e+00        0.0%  2.000e+00   9.5%
 1:          Warmup: 3.5250e-01   0.4%  5.0516e+09   9.2%  0.000e+00   0.0%  0.000e+00        0.0%  0.000e+00   0.0%
 2:           Solve: 3.1858e+00   3.4%  4.9480e+10  89.8%  0.000e+00   0.0%  0.000e+00        0.0%  0.000e+00   0.0%

------------------------------------------------------------------------------------------------------------------------
See the 'Profiling' chapter of the users' manual for details on interpreting output.
Phase summary info:
   Count: number of times phase was executed
   Time and Flop: Max - maximum over all processors
                  Ratio - ratio of maximum to minimum over all processors
   Mess: number of messages sent
   AvgLen: average message length (bytes)
   Reduct: number of global reductions
   Global: entire computation
   Stage: stages of a computation. Set stages with PetscLogStagePush() and PetscLogStagePop().
      %T - percent time in this phase         %F - percent flop in this phase
      %M - percent messages in this phase     %L - percent message lengths in this phase
      %R - percent reductions in this phase
   Total Mflop/s: 10e-6 * (sum of flop over all processors)/(max time over all processors)
   GPU Mflop/s: 10e-6 * (sum of flop on GPU over all processors)/(max GPU time over all processors)
   CpuToGpu Count: total number of CPU to GPU copies per processor
   CpuToGpu Size (Mbytes): 10e-6 * (total size of CPU to GPU copies per processor)
   GpuToCpu Count: total number of GPU to CPU copies per processor
   GpuToCpu Size (Mbytes): 10e-6 * (total size of GPU to CPU copies per processor)
   GPU %F: percent flops on GPU in this event
------------------------------------------------------------------------------------------------------------------------
Event                Count      Time (sec)     Flop                              --- Global ---  --- Stage ----  Total   GPU    - CpuToGpu -   - GpuToCpu - GPU
                   Max Ratio  Max     Ratio   Max  Ratio  Mess   AvgLen  Reduct  %T %F %M %L %R  %T %F %M %L %R Mflop/s Mflop/s Count   Size   Count   Size  %F
---------------------------------------------------------------------------------------------------------------------------------------------------------------

--- Event Stage 0: Main Stage

BuildTwoSided         63 1.0 7.4131e-05 1.3 0.00e+00 0.0 0.0e+00 0.0e+00 0.0e+00  0  0  0  0  0   0  0  0  0  0     0       0      0 0.00e+00    0 0.00e+00  0
DMConvert             18 1.0 4.6946e-03 1.0 0.00e+00 0.0 0.0e+00 0.0e+00 0.0e+00  0  0  0  0  0   0  0  0  0  0     0       0      0 0.00e+00    0 0.00e+00  0
DMCreateMat            8 1.0 3.0262e+00 1.0 0.00e+00 0.0 0.0e+00 0.0e+00 0.0e+00  3  0  0  0  0   3  0  0  0  0     0       0      0 0.00e+00    0 0.00e+00  0
DMProjectFunc         15 1.0 1.2231e-01 1.0 8.36e+06 1.0 0.0e+00 0.0e+00 0.0e+00  0  0  0  0  0   0  6  0  0  0   273       0      0 0.00e+00    0 0.00e+00  0
DMPlexInterp         204 1.0 5.7371e-03 1.0 0.00e+00 0.0 0.0e+00 0.0e+00 0.0e+00  0  0  0  0  0   0  0  0  0  0     0       0      0 0.00e+00    0 0.00e+00  0
DMPlexStratify       318 1.0 5.7630e-03 1.1 0.00e+00 0.0 0.0e+00 0.0e+00 0.0e+00  0  0  0  0  0   0  0  0  0  0     0       0      0 0.00e+00    0 0.00e+00  0
DMPlexSymmetrize     318 1.0 4.5862e-04 1.1 0.00e+00 0.0 0.0e+00 0.0e+00 0.0e+00  0  0  0  0  0   0  0  0  0  0     0       0      0 0.00e+00    0 0.00e+00  0
DMPlexPrealloc        18 1.0 2.8323e+00 1.0 0.00e+00 0.0 0.0e+00 0.0e+00 0.0e+00  3  0  0  0  0   3  0  0  0  0     0       0      0 0.00e+00    0 0.00e+00  0
DMPlexJacobianFE       6 1.0 4.2058e+00 1.0 1.08e+08 1.0 0.0e+00 0.0e+00 0.0e+00  4  1  0  0  0   5 76  0  0  0   103       0      0 0.00e+00    0 0.00e+00  0
DMPlexGenerate         3 1.0 6.9780e-04 1.4 0.00e+00 0.0 0.0e+00 0.0e+00 0.0e+00  0  0  0  0  0   0  0  0  0  0     0       0      0 0.00e+00    0 0.00e+00  0
SFSetGraph           108 1.0 1.5858e-04 1.1 0.00e+00 0.0 0.0e+00 0.0e+00 0.0e+00  0  0  0  0  0   0  0  0  0  0     0       0      0 0.00e+00    0 0.00e+00  0
SFSetUp               63 1.0 4.0275e-04 1.2 0.00e+00 0.0 0.0e+00 0.0e+00 0.0e+00  0  0  0  0  0   0  0  0  0  0     0       0      0 0.00e+00    0 0.00e+00  0
SFBcastBegin         138 1.0 3.6020e-04 1.3 0.00e+00 0.0 0.0e+00 0.0e+00 0.0e+00  0  0  0  0  0   0  0  0  0  0     0       0      0 0.00e+00    0 0.00e+00  0
SFBcastEnd           138 1.0 2.7257e-05 1.4 0.00e+00 0.0 0.0e+00 0.0e+00 0.0e+00  0  0  0  0  0   0  0  0  0  0     0       0      0 0.00e+00    0 0.00e+00  0
SFReduceBegin         54 1.0 7.1688e-05 1.0 0.00e+00 0.0 0.0e+00 0.0e+00 0.0e+00  0  0  0  0  0   0  0  0  0  0     0       0      0 0.00e+00    0 0.00e+00  0
SFReduceEnd           54 1.0 7.5300e-06 1.1 0.00e+00 0.0 0.0e+00 0.0e+00 0.0e+00  0  0  0  0  0   0  0  0  0  0     0       0      0 0.00e+00    0 0.00e+00  0
SFCreateEmbed         36 1.0 5.8999e-04 1.5 0.00e+00 0.0 0.0e+00 0.0e+00 0.0e+00  0  0  0  0  0   0  0  0  0  0     0       0      0 0.00e+00    0 0.00e+00  0
SFSectionSF           36 1.0 2.2235e-04 1.5 0.00e+00 0.0 0.0e+00 0.0e+00 0.0e+00  0  0  0  0  0   0  0  0  0  0     0       0      0 0.00e+00    0 0.00e+00  0
SFRemoteOff           36 1.0 1.2906e-03 1.4 0.00e+00 0.0 0.0e+00 0.0e+00 0.0e+00  0  0  0  0  0   0  0  0  0  0     0       0      0 0.00e+00    0 0.00e+00  0
SFPack               192 1.0 1.9577e-05 1.2 0.00e+00 0.0 0.0e+00 0.0e+00 0.0e+00  0  0  0  0  0   0  0  0  0  0     0       0      0 0.00e+00    0 0.00e+00  0
Landau Create          1 1.0 8.6341e+01 1.0 7.29e+07 1.0 0.0e+00 0.0e+00 0.0e+00 91  1  0  0  0  95 51  0  0  0     3       0      0 0.00e+00    0 0.00e+00  0
 GPU ass. setup        1 1.0 8.2011e+01 1.0 3.23e+06 1.0 0.0e+00 0.0e+00 0.0e+00 87  0  0  0  0  90  2  0  0  0     0       0      0 0.00e+00    0 0.00e+00  0
 Build matrix          1 1.0 2.2244e+00 1.0 3.87e+07 1.0 0.0e+00 0.0e+00 0.0e+00  2  0  0  0  0   2 27  0  0  0    70       0      0 0.00e+00    0 0.00e+00  0
 Assembly maps         1 1.0 2.4326e+00 1.9 1.99e+07 1.0 0.0e+00 0.0e+00 0.0e+00  2  0  0  0  0   2 14  0  0  0    33       0      0 0.00e+00    0 0.00e+00  0
Landau Mass mat        1 1.0 4.2102e+00 1.0 6.93e+07 1.0 0.0e+00 0.0e+00 0.0e+00  4  1  0  0  0   5 49  0  0  0    66       0      0 0.00e+00    0 0.00e+00  0
 static IP Data        1 1.0 1.0937e-02 1.0 1.11e+07 1.0 0.0e+00 0.0e+00 0.0e+00  0  0  0  0  0   0  8  0  0  0  4042       0      0 0.00e+00    0 0.00e+00  0
VecCopy                1 1.0 8.2580e-05 2.9 0.00e+00 0.0 0.0e+00 0.0e+00 0.0e+00  0  0  0  0  0   0  0  0  0  0     0       0      0 0.00e+00    0 0.00e+00  0
VecSet                 9 1.0 2.9433e-04 1.1 0.00e+00 0.0 0.0e+00 0.0e+00 0.0e+00  0  0  0  0  0   0  0  0  0  0     0       0      0 0.00e+00    0 0.00e+00  0
DualSpaceSetUp        52 1.0 4.2579e-02 1.0 2.36e+04 1.0 0.0e+00 0.0e+00 0.0e+00  0  0  0  0  0   0  0  0  0  0     2       0      0 0.00e+00    0 0.00e+00  0
FESetUp               52 1.0 1.5632e-03 1.1 0.00e+00 0.0 0.0e+00 0.0e+00 0.0e+00  0  0  0  0  0   0  0  0  0  0     0       0      0 0.00e+00    0 0.00e+00  0
MatMult            42480 1.0 3.9798e-03 1.0 3.32e+05 1.0 0.0e+00 0.0e+00 0.0e+00  0  0  0  0  0   0  0  0  0  0   334       0      0 0.00e+00    0 0.00e+00  0
MatLUFactor           30 1.0 5.4751e-04 1.1 3.94e+05 1.0 0.0e+00 0.0e+00 0.0e+00  0  0  0  0  0   0  0  0  0  0  2876       0      0 0.00e+00    0 0.00e+00  0
MatCopy              240 1.0 1.4899e-04 1.0 0.00e+00 0.0 0.0e+00 0.0e+00 0.0e+00  0  0  0  0  0   0  0  0  0  0     0       0      0 0.00e+00    0 0.00e+00  0
MatConvert            60 1.0 5.3327e-04 1.1 0.00e+00 0.0 0.0e+00 0.0e+00 0.0e+00  0  0  0  0  0   0  0  0  0  0     0       0      0 0.00e+00    0 0.00e+00  0
MatAssemblyBegin     990 1.0 8.5600e-05 1.1 0.00e+00 0.0 0.0e+00 0.0e+00 0.0e+00  0  0  0  0  0   0  0  0  0  0     0       0      0 0.00e+00    0 0.00e+00  0
MatAssemblyEnd       990 1.0 3.1774e-02 1.2 0.00e+00 0.0 0.0e+00 0.0e+00 0.0e+00  0  0  0  0  0   0  0  0  0  0     0       0      0 0.00e+00    0 0.00e+00  0
MatGetRowIJ            9 1.0 2.9480e-06 1.7 0.00e+00 0.0 0.0e+00 0.0e+00 0.0e+00  0  0  0  0  0   0  0  0  0  0     0       0      0 0.00e+00    0 0.00e+00  0
MatZeroEntries         6 1.0 1.5809e-04 1.2 0.00e+00 0.0 0.0e+00 0.0e+00 0.0e+00  0  0  0  0  0   0  0  0  0  0     0       0      0 0.00e+00    0 0.00e+00  0
MatMatSolve          240 1.0 1.6702e-03 1.0 9.27e+06 1.0 0.0e+00 0.0e+00 0.0e+00  0  0  0  0  0   0  7  0  0  0 22208       0      0 0.00e+00    0 0.00e+00  0
MatSetPreallCOO      175 1.0 6.3444e-01 1.0 0.00e+00 0.0 0.0e+00 0.0e+00 0.0e+00  1  0  0  0  0   1  0  0  0  0     0       0      0 0.00e+00    0 0.00e+00  0
MatSetValuesCOO      174 1.0 2.3548e-04 1.1 0.00e+00 0.0 0.0e+00 0.0e+00 0.0e+00  0  0  0  0  0   0  0  0  0  0     0       0      0 0.00e+00    0 0.00e+00  0
DCtxCreate             1 1.0 1.9007e-05 1.5 0.00e+00 0.0 0.0e+00 0.0e+00 0.0e+00  0  0  0  0  0   0  0  0  0  0     0       0      0 0.00e+00    0 0.00e+00  0
DCtxDestroy            1 1.0 2.7263e-05 1.6 0.00e+00 0.0 0.0e+00 0.0e+00 0.0e+00  0  0  0  0  0   0  0  0  0  0     0       0      0 0.00e+00    0 0.00e+00  0
DCtxSetUp              1 1.0 4.2402e-05 1.5 0.00e+00 0.0 0.0e+00 0.0e+00 0.0e+00  0  0  0  0  0   0  0  0  0  0     0       0      0 0.00e+00    0 0.00e+00  0
DCtxSetDevice          1 1.0 3.7513e-05 1.5 0.00e+00 0.0 0.0e+00 0.0e+00 0.0e+00  0  0  0  0  0   0  0  0  0  0     0       0      0 0.00e+00    0 0.00e+00  0

--- Event Stage 1: Warmup

Landau Operator       31 1.0 2.5243e-01 1.0 7.22e+07 1.0 0.0e+00 0.0e+00 0.0e+00  0  1  0  0  0  71  6  0  0  0  1144    1159      0 0.00e+00    0 0.00e+00  100
Landau Jacobian       16 1.0 2.3092e-01 1.0 7.22e+07 1.0 0.0e+00 0.0e+00 0.0e+00  0  1  0  0  0  65  6  0  0  0  1251    1264      0 0.00e+00    0 0.00e+00  100
Landau Mass           15 1.0 2.1502e-02 1.0 0.00e+00 0.0 0.0e+00 0.0e+00 0.0e+00  0  0  0  0  0   6  0  0  0  0     0       0      0 0.00e+00    0 0.00e+00  0
 Preamble             31 1.0 1.0341e-04 1.6 0.00e+00 0.0 0.0e+00 0.0e+00 0.0e+00  0  0  0  0  0   0  0  0  0  0     0       0      0 0.00e+00    0 0.00e+00  0
 dynamic IP-Jac       32 1.0 2.1267e-05 1.2 0.00e+00 0.0 0.0e+00 0.0e+00 0.0e+00  0  0  0  0  0   0  0  0  0  0     0       0      0 0.00e+00    0 0.00e+00  0
 Kernel-init          31 1.0 4.2405e-04 1.3 0.00e+00 0.0 0.0e+00 0.0e+00 0.0e+00  0  0  0  0  0   0  0  0  0  0     0       0      0 0.00e+00    0 0.00e+00  0
 Jac-f-df (GPU)       16 1.0 2.8980e-03 1.1 0.00e+00 0.0 0.0e+00 0.0e+00 0.0e+00  0  0  0  0  0   1  0  0  0  0     0       0      0 0.00e+00    0 0.00e+00  0
 J Kernel (GPU)       16 1.0 2.1144e-01 1.0 0.00e+00 0.0 0.0e+00 0.0e+00 0.0e+00  0  0  0  0  0  60  0  0  0  0     0       0      0 0.00e+00    0 0.00e+00  0
 M Kernel (GPU)       15 1.0 1.4236e-02 1.0 0.00e+00 0.0 0.0e+00 0.0e+00 0.0e+00  0  0  0  0  0   4  0  0  0  0     0       0      0 0.00e+00    0 0.00e+00  0
VecDot               466 1.0 1.4002e-02 1.0 1.95e+07 1.0 0.0e+00 0.0e+00 0.0e+00  0  0  0  0  0   4  2  0  0  0  5564    8079      0 0.00e+00    0 0.00e+00  100
VecNorm              249 1.0 7.6142e-03 1.0 1.04e+07 1.0 0.0e+00 0.0e+00 0.0e+00  0  0  0  0  0   2  1  0  0  0  5468    7833      0 0.00e+00    0 0.00e+00  100
VecCopy               94 1.0 1.9053e-03 1.1 0.00e+00 0.0 0.0e+00 0.0e+00 0.0e+00  0  0  0  0  0   0  0  0  0  0     0       0      0 0.00e+00    0 0.00e+00  0
VecSet                31 1.0 6.7918e-04 1.2 0.00e+00 0.0 0.0e+00 0.0e+00 0.0e+00  0  0  0  0  0   0  0  0  0  0     0       0      0 0.00e+00    0 0.00e+00  0
VecAXPY              929 1.0 1.6656e-02 1.0 3.88e+07 1.0 0.0e+00 0.0e+00 0.0e+00  0  0  0  0  0   5  3  0  0  0  9326   19567      0 0.00e+00    0 0.00e+00  100
VecAYPX              446 1.0 7.3045e-03 1.0 1.86e+07 1.0 0.0e+00 0.0e+00 0.0e+00  0  0  0  0  0   2  1  0  0  0 10209   23887      0 0.00e+00    0 0.00e+00  100
VecAXPBYCZ            17 1.0 3.9995e-03 1.1 1.78e+06 1.0 0.0e+00 0.0e+00 0.0e+00  0  0  0  0  0   1  0  0  0  0  1777    1877      0 0.00e+00    0 0.00e+00  100
VecWAXPY             917 1.0 1.8066e-02 1.0 3.83e+07 1.0 0.0e+00 0.0e+00 0.0e+00  0  0  0  0  0   5  3  0  0  0  8487   16147      0 0.00e+00    0 0.00e+00  100
VecPointwiseMult     481 1.0 1.0161e-02 1.0 1.01e+07 1.0 0.0e+00 0.0e+00 0.0e+00  0  0  0  0  0   3  1  0  0  0  3957    7262      0 0.00e+00    0 0.00e+00  100
VecReduceArith        45 1.0 1.3637e-03 1.1 1.88e+06 1.0 0.0e+00 0.0e+00 0.0e+00  0  0  0  0  0   0  0  0  0  0  5517    7967      0 0.00e+00    0 0.00e+00  100
VecReduceComm         15 1.0 6.7230e-06 2.0 0.00e+00 0.0 0.0e+00 0.0e+00 0.0e+00  0  0  0  0  0   0  0  0  0  0     0       0      0 0.00e+00    0 0.00e+00  0
MatMult              482 1.0 1.7815e-02 1.0 1.09e+09 1.0 0.0e+00 0.0e+00 0.0e+00  0  8  0  0  0   5 86  0  0  0 244152   330179      0 0.00e+00    0 0.00e+00  100
MatMultAdd            16 1.0 1.7874e-03 1.1 3.61e+07 1.0 0.0e+00 0.0e+00 0.0e+00  0  0  0  0  0   0  3  0  0  0 80782   88803      0 0.00e+00    0 0.00e+00  100
MatAssemblyBegin      62 1.0 7.3370e-06 1.1 0.00e+00 0.0 0.0e+00 0.0e+00 0.0e+00  0  0  0  0  0   0  0  0  0  0     0       0      0 0.00e+00    0 0.00e+00  0
MatAssemblyEnd        62 1.0 3.6065e-04 1.1 0.00e+00 0.0 0.0e+00 0.0e+00 0.0e+00  0  0  0  0  0   0  0  0  0  0     0       0      0 0.00e+00    0 0.00e+00  0
MatZeroEntries        16 1.0 1.5948e-04 1.3 0.00e+00 0.0 0.0e+00 0.0e+00 0.0e+00  0  0  0  0  0   0  0  0  0  0     0       0      0 0.00e+00    0 0.00e+00  0
MatView                1 0.0 3.8174e-05 0.0 0.00e+00 0.0 0.0e+00 0.0e+00 0.0e+00  0  0  0  0  0   0  0  0  0  0     0       0      0 0.00e+00    0 0.00e+00  0
MatSetValuesCOO       31 1.0 2.0364e-02 1.1 0.00e+00 0.0 0.0e+00 0.0e+00 0.0e+00  0  0  0  0  0   5  0  0  0  0     0       0      0 0.00e+00    0 0.00e+00  0
TSStep                 1 1.0 3.5618e-01 1.0 1.26e+09 1.0 0.0e+00 0.0e+00 0.0e+00  0  9  0  0  0 100 100  0  0  0 14183   16367      0 0.00e+00    0 0.00e+00  100
TSFunctionEval        16 1.0 2.3274e-01 1.0 7.29e+07 1.0 0.0e+00 0.0e+00 0.0e+00  0  1  0  0  0  66  6  0  0  0  1252    1268      0 0.00e+00    0 0.00e+00  100
TSJacobianEval        15 1.0 2.1521e-02 1.0 0.00e+00 0.0 0.0e+00 0.0e+00 0.0e+00  0  0  0  0  0   6  0  0  0  0     0       0      0 0.00e+00    0 0.00e+00  0
KSPSetUp              15 1.0 6.8305e-04 4.5 0.00e+00 0.0 0.0e+00 0.0e+00 0.0e+00  0  0  0  0  0   0  0  0  0  0     0       0      0 0.00e+00    0 0.00e+00  0
KSPSolve              15 1.0 9.2325e-02 1.0 1.19e+09 1.0 0.0e+00 0.0e+00 0.0e+00  0  9  0  0  0  26 94  0  0  0 51370   90426      0 0.00e+00    0 0.00e+00  100
SNESSolve              1 1.0 3.5591e-01 1.0 1.26e+09 1.0 0.0e+00 0.0e+00 0.0e+00  0  9  0  0  0 100 100  0  0  0 14192   16370      0 0.00e+00    0 0.00e+00  100
SNESSetUp              1 1.0 5.6830e-05 1.4 0.00e+00 0.0 0.0e+00 0.0e+00 0.0e+00  0  0  0  0  0   0  0  0  0  0     0       0      0 0.00e+00    0 0.00e+00  0
SNESFunctionEval      16 1.0 2.3673e-01 1.0 7.45e+07 1.0 0.0e+00 0.0e+00 0.0e+00  0  1  0  0  0  67  6  0  0  0  1259    1277      0 0.00e+00    0 0.00e+00  100
SNESJacobianEval      15 1.0 2.1554e-02 1.0 0.00e+00 0.0 0.0e+00 0.0e+00 0.0e+00  0  0  0  0  0   6  0  0  0  0     0       0      0 0.00e+00    0 0.00e+00  0
SNESLineSearch        15 1.0 2.1212e-01 1.0 7.24e+07 1.0 0.0e+00 0.0e+00 0.0e+00  0  1  0  0  0  60  6  0  0  0  1365    1384      0 0.00e+00    0 0.00e+00  100
PCSetUp               15 1.0 1.3479e-03 1.2 0.00e+00 0.0 0.0e+00 0.0e+00 0.0e+00  0  0  0  0  0   0  0  0  0  0     0       0      0 0.00e+00    0 0.00e+00  0
PCApply              481 1.0 1.0587e-02 1.0 1.01e+07 1.0 0.0e+00 0.0e+00 0.0e+00  0  0  0  0  0   3  1  0  0  0  3798    7211      0 0.00e+00    0 0.00e+00  100

--- Event Stage 2: Solve

Landau Operator      304 1.0 2.2696e+00 1.0 7.08e+08 1.0 0.0e+00 0.0e+00 0.0e+00  2  5  0  0  0  71  6  0  0  0  1248    1260      0 0.00e+00    0 0.00e+00  100
Landau Jacobian      157 1.0 2.0629e+00 1.0 7.08e+08 1.0 0.0e+00 0.0e+00 0.0e+00  2  5  0  0  0  65  6  0  0  0  1374    1383      0 0.00e+00    0 0.00e+00  100
Landau Mass          147 1.0 2.1231e-01 1.0 0.00e+00 0.0 0.0e+00 0.0e+00 0.0e+00  0  0  0  0  0   6  0  0  0  0     0       0      0 0.00e+00    0 0.00e+00  0
 Preamble            295 1.0 6.9205e-04 1.3 0.00e+00 0.0 0.0e+00 0.0e+00 0.0e+00  0  0  0  0  0   0  0  0  0  0     0       0      0 0.00e+00    0 0.00e+00  0
 dynamic IP-Jac      296 1.0 1.3806e-04 1.1 0.00e+00 0.0 0.0e+00 0.0e+00 0.0e+00  0  0  0  0  0   0  0  0  0  0     0       0      0 0.00e+00    0 0.00e+00  0
 Kernel-init         295 1.0 3.2299e-03 1.1 0.00e+00 0.0 0.0e+00 0.0e+00 0.0e+00  0  0  0  0  0   0  0  0  0  0     0       0      0 0.00e+00    0 0.00e+00  0
 Jac-f-df (GPU)      148 1.0 2.0927e-02 1.0 0.00e+00 0.0 0.0e+00 0.0e+00 0.0e+00  0  0  0  0  0   1  0  0  0  0     0       0      0 0.00e+00    0 0.00e+00  0
 J Kernel (GPU)      148 1.0 1.9547e+00 1.0 0.00e+00 0.0 0.0e+00 0.0e+00 0.0e+00  2  0  0  0  0  61  0  0  0  0     0       0      0 0.00e+00    0 0.00e+00  0
 M Kernel (GPU)      147 1.0 1.4188e-01 1.1 0.00e+00 0.0 0.0e+00 0.0e+00 0.0e+00  0  0  0  0  0   4  0  0  0  0     0       0      0 0.00e+00    0 0.00e+00  0
VecDot              4564 1.0 1.3349e-01 1.0 1.91e+08 1.0 0.0e+00 0.0e+00 0.0e+00  0  1  0  0  0   4  2  0  0  0  5716    8383      0 0.00e+00    0 0.00e+00  100
VecNorm             2439 1.0 7.2506e-02 1.0 1.02e+08 1.0 0.0e+00 0.0e+00 0.0e+00  0  1  0  0  0   2  1  0  0  0  5624    8148      0 0.00e+00    0 0.00e+00  100
VecCopy              912 1.0 1.6982e-02 1.1 0.00e+00 0.0 0.0e+00 0.0e+00 0.0e+00  0  0  0  0  0   1  0  0  0  0     0       0      0 0.00e+00    0 0.00e+00  0
VecSet               294 1.0 5.9440e-03 1.1 0.00e+00 0.0 0.0e+00 0.0e+00 0.0e+00  0  0  0  0  0   0  0  0  0  0     0       0      0 0.00e+00    0 0.00e+00  0
VecAXPY             9095 1.0 1.5086e-01 1.0 3.80e+08 1.0 0.0e+00 0.0e+00 0.0e+00  0  3  0  0  0   5  3  0  0  0 10080   23408      0 0.00e+00    0 0.00e+00  100
VecAYPX             4364 1.0 7.1285e-02 1.0 1.82e+08 1.0 0.0e+00 0.0e+00 0.0e+00  0  1  0  0  0   2  1  0  0  0 10236   23992      0 0.00e+00    0 0.00e+00  100
VecAXPBYCZ           167 1.0 3.8156e-03 1.1 1.75e+07 1.0 0.0e+00 0.0e+00 0.0e+00  0  0  0  0  0   0  0  0  0  0 18295   34676      0 0.00e+00    0 0.00e+00  100
VecWAXPY            8981 1.0 1.7581e-01 1.0 3.75e+08 1.0 0.0e+00 0.0e+00 0.0e+00  0  3  0  0  0   5  3  0  0  0  8541   16292      0 0.00e+00    0 0.00e+00  100
VecPointwiseMult    4711 1.0 9.8479e-02 1.0 9.85e+07 1.0 0.0e+00 0.0e+00 0.0e+00  0  1  0  0  0   3  1  0  0  0  3999    7359      0 0.00e+00    0 0.00e+00  100
VecReduceArith       441 1.0 1.3035e-02 1.0 1.84e+07 1.0 0.0e+00 0.0e+00 0.0e+00  0  0  0  0  0   0  0  0  0  0  5657    8236      0 0.00e+00    0 0.00e+00  100
VecReduceComm        147 1.0 4.2832e-05 1.3 0.00e+00 0.0 0.0e+00 0.0e+00 0.0e+00  0  0  0  0  0   0  0  0  0  0     0       0      0 0.00e+00    0 0.00e+00  0
MatMult             4721 1.0 1.7054e-01 1.0 1.07e+10 1.0 0.0e+00 0.0e+00 0.0e+00  0 77  0  0  0   5 86  0  0  0 249816   340150      0 0.00e+00    0 0.00e+00  100
MatMultAdd           157 1.0 6.9715e-03 1.0 3.54e+08 1.0 0.0e+00 0.0e+00 0.0e+00  0  3  0  0  0   0  3  0  0  0 203225   260754      0 0.00e+00    0 0.00e+00  100
MatAssemblyBegin     590 1.0 6.4108e-05 1.1 0.00e+00 0.0 0.0e+00 0.0e+00 0.0e+00  0  0  0  0  0   0  0  0  0  0     0       0      0 0.00e+00    0 0.00e+00  0
MatAssemblyEnd       590 1.0 2.7170e-04 1.2 0.00e+00 0.0 0.0e+00 0.0e+00 0.0e+00  0  0  0  0  0   0  0  0  0  0     0       0      0 0.00e+00    0 0.00e+00  0
MatZeroEntries       148 1.0 1.1742e-03 1.2 0.00e+00 0.0 0.0e+00 0.0e+00 0.0e+00  0  0  0  0  0   0  0  0  0  0     0       0      0 0.00e+00    0 0.00e+00  0
MatView                1 0.0 3.5839e-05 0.0 0.00e+00 0.0 0.0e+00 0.0e+00 0.0e+00  0  0  0  0  0   0  0  0  0  0     0       0      0 0.00e+00    0 0.00e+00  0
MatSetValuesCOO      295 1.0 1.3767e-01 1.0 0.00e+00 0.0 0.0e+00 0.0e+00 0.0e+00  0  0  0  0  0   4  0  0  0  0     0       0      0 0.00e+00    0 0.00e+00  0
TSStep                10 1.0 3.2083e+00 1.0 1.24e+10 1.0 0.0e+00 0.0e+00 0.0e+00  3 90  0  0  0 100 100  0  0  0 15423   17853      0 0.00e+00    0 0.00e+00  100
TSFunctionEval       157 1.0 2.0664e+00 1.0 7.15e+08 1.0 0.0e+00 0.0e+00 0.0e+00  2  5  0  0  0  65  6  0  0  0  1384    1395      0 0.00e+00    0 0.00e+00  100
TSJacobianEval       147 1.0 2.1245e-01 1.0 0.00e+00 0.0 0.0e+00 0.0e+00 0.0e+00  0  0  0  0  0   6  0  0  0  0     0       0      0 0.00e+00    0 0.00e+00  0
KSPSetUp             147 1.0 3.3673e-05 1.3 0.00e+00 0.0 0.0e+00 0.0e+00 0.0e+00  0  0  0  0  0   0  0  0  0  0     0       0      0 0.00e+00    0 0.00e+00  0
KSPSolve             147 1.0 8.9217e-01 1.0 1.16e+10 1.0 0.0e+00 0.0e+00 0.0e+00  1 84  0  0  0  28 94  0  0  0 52062   91748      0 0.00e+00    0 0.00e+00  100
SNESSolve             10 1.0 3.2072e+00 1.0 1.24e+10 1.0 0.0e+00 0.0e+00 0.0e+00  3 90  0  0  0 100 100  0  0  0 15426   17853      0 0.00e+00    0 0.00e+00  100
SNESFunctionEval     157 1.0 2.0698e+00 1.0 7.31e+08 1.0 0.0e+00 0.0e+00 0.0e+00  2  5  0  0  0  65  6  0  0  0  1413    1426      0 0.00e+00    0 0.00e+00  100
SNESJacobianEval     147 1.0 2.1265e-01 1.0 0.00e+00 0.0 0.0e+00 0.0e+00 0.0e+00  0  0  0  0  0   6  0  0  0  0     0       0      0 0.00e+00    0 0.00e+00  0
SNESLineSearch       147 1.0 2.0739e+00 1.0 7.09e+08 1.0 0.0e+00 0.0e+00 0.0e+00  2  5  0  0  0  65  6  0  0  0  1368    1385      0 0.00e+00    0 0.00e+00  100
PCSetUp              147 1.0 1.3259e-02 1.2 0.00e+00 0.0 0.0e+00 0.0e+00 0.0e+00  0  0  0  0  0   0  0  0  0  0     0       0      0 0.00e+00    0 0.00e+00  0
PCApply             4711 1.0 9.9925e-02 1.0 9.85e+07 1.0 0.0e+00 0.0e+00 0.0e+00  0  1  0  0  0   3  1  0  0  0  3941    7359      0 0.00e+00    0 0.00e+00  100
---------------------------------------------------------------------------------------------------------------------------------------------------------------

Object Type          Creations   Destructions. Reports information only for process 0.

--- Event Stage 0: Main Stage

           Container   497            497
    Distributed Mesh   798            798
            DM Label  1849           1849
          Quadrature  2020           2020
           Index Set 10752          10752
   IS L to G Mapping  1607           1607
             Section  2581           2581
   Star Forest Graph  2084           2084
     Discrete System  1277           1277
           Weak Form  1277           1277
    GraphPartitioner   327            327
              Vector   458            478
       p4est logging     1              1
        Linear Space   104            104
          Dual Space   366            366
            FE Space    76             76
              Matrix  1068           1068
  PetscDeviceContext     1              0
       Field over DM    18             18
             TSAdapt     1              1
                  TS     1              1
                DMTS     1              1
                SNES     1              1
              DMSNES     3              3
      SNESLineSearch     1              1
       Krylov Solver     1              1
     DMKSP interface     0              1
      Preconditioner     1              1
              Viewer     1              1

--- Event Stage 1: Warmup

              Vector    20              0
     DMKSP interface     1              0

--- Event Stage 2: Solve

========================================================================================================================
Average time to get PetscTime(): 3.51e-08
Average time for MPI_Barrier(): 2.1682e-06
Average time for zero size MPI_Send(): 1.52595e-05
#PETSc Option Table entries:
-dim 3 # (source: command line)
-dm_landau_amr_levels_max 2,2,2 # (source: command line)
-dm_landau_batch_size 2 # (source: command line)
-dm_landau_device_type kokkos # (source: file)
-dm_landau_Ez 0 # (source: file)
-dm_landau_ion_charges 1,2,3,4,5,6,7,8,9 # (source: file)
-dm_landau_ion_masses 2,182,182,182,182,182,182,182,182 # (source: file)
-dm_landau_n 1.0000044,1,1e-7,1e-7,1e-7,1e-7,1e-7,1e-7,1e-7,1e-7 # (source: file)
-dm_landau_num_species_grid 1,1,8 # (source: file)
-dm_landau_thermal_temps 2,1,1,1,1,1,1,1,1,1 # (source: file)
-dm_landau_type p8est # (source: command line)
-dm_landau_verbose 1 # (source: command line)
-dm_mat_type aijkokkos # (source: file)
-dm_preallocate_only false # (source: code)
-dm_vec_type kokkos # (source: file)
-ex2_test_type none # (source: file)
-ksp_converged_reason # (source: command line)
-ksp_max_it 100 # (source: command line)
-ksp_rtol 1.e-8 # (source: command line)
-ksp_type tfqmr # (source: command line)
-log_view # (source: command line)
-log_view_gpu_time # (source: command line)
-options_left # (source: command line)
-pc_type jacobi # (source: command line)
-petscspace_degree 2 # (source: command line)
-snes_converged_reason # (source: file)
-snes_linesearch_type basic # (source: file)
-snes_max_it 50 # (source: file)
-snes_monitor # (source: file)
-snes_rtol 1e-14 # (source: file)
-snes_stol 1e-14 # (source: file)
-ts_adapt_clip .5,1.1 # (source: file)
-ts_adapt_dt_max 1 # (source: file)
-ts_adapt_monitor # (source: file)
-ts_adapt_scale_solve_failed 0.5 # (source: file)
-ts_adapt_time_step_increase_delay 5 # (source: file)
-ts_dt .5 # (source: file)
-ts_exact_final_time stepover # (source: file)
-ts_max_snes_failures -1 # (source: file)
-ts_max_steps 10 # (source: file)
-ts_max_time 100 # (source: file)
-ts_monitor # (source: file)
-ts_rtol 1e-2 # (source: file)
-ts_type beuler # (source: file)
-ts_view # (source: command line)
-use_gpu_aware_mpi 0 # (source: file)
#End of PETSc Option Table entries
Compiled without FORTRAN kernels
Compiled with full precision matrices (default)
sizeof(short) 2 sizeof(int) 4 sizeof(long) 8 sizeof(void*) 8 sizeof(PetscScalar) 8 sizeof(PetscInt) 4
Configure options: --CFLAGS="   -g -DPETSC_HAVE_CUDA_NVTX" --CXXFLAGS=" -g -DPETSC_HAVE_CUDA_NVTX" --CUDAFLAGS="-g -Xcompiler -rdynamic" --LIBS=-lnvToolsExt --with-cc=cc --with-cxx=CC --with-fc=ftn --with-fortran-bindings=0 --COPTFLAGS="   -O" --CXXOPTFLAGS=" -O" --FOPTFLAGS="   -O" --with-dmlandau-3d --with-debugging=0 --with-x=0 --with-cuda=1 --with-cuda-arch=80 --with-mpiexec=srun --with-batch=0 --download-p4est=1 --with-zlib=1 --download-kokkos --download-kokkos-kernels --with-kokkos-kernels-tpl=0 --with-make-np=8 PETSC_ARCH=arch-perlmutter-opt-gcc-kokkos-cuda-3d
-----------------------------------------
Libraries compiled on 2024-06-27 20:01:11 on login19 
Machine characteristics: Linux-5.14.21-150400.24.81_12.0.87-cray_shasta_c-x86_64-with-glibc2.3.4
Using PETSc directory: /global/u2/m/madams/petsc
Using PETSc arch: arch-perlmutter-opt-gcc-kokkos-cuda-3d
-----------------------------------------

Using C compiler: cc -g -DPETSC_HAVE_CUDA_NVTX -fPIC -O  
Using Fortran compiler: ftn  -fPIC -Wall -ffree-line-length-none -ffree-line-length-0 -Wno-lto-type-mismatch -Wno-unused-dummy-argument -O    
-----------------------------------------

Using include paths: -I/global/u2/m/madams/petsc/include -I/global/u2/m/madams/petsc/arch-perlmutter-opt-gcc-kokkos-cuda-3d/include -I/opt/nvidia/hpc_sdk/Linux_x86_64/23.9/cuda/12.2/include -I/opt/nvidia/hpc_sdk/Linux_x86_64/23.9/math_libs/12.2/include
-----------------------------------------

Using C linker: cc
Using Fortran linker: ftn
Using libraries: -Wl,-rpath,/global/u2/m/madams/petsc/arch-perlmutter-opt-gcc-kokkos-cuda-3d/lib -L/global/u2/m/madams/petsc/arch-perlmutter-opt-gcc-kokkos-cuda-3d/lib -lpetsc -Wl,-rpath,/global/u2/m/madams/petsc/arch-perlmutter-opt-gcc-kokkos-cuda-3d/lib -L/global/u2/m/madams/petsc/arch-perlmutter-opt-gcc-kokkos-cuda-3d/lib -Wl,-rpath,/opt/nvidia/hpc_sdk/Linux_x86_64/23.9/math_libs/12.2/lib64 -L/opt/nvidia/hpc_sdk/Linux_x86_64/23.9/math_libs/12.2/lib64 -Wl,-rpath,/opt/nvidia/hpc_sdk/Linux_x86_64/23.9/cuda/12.2/lib64 -L/opt/nvidia/hpc_sdk/Linux_x86_64/23.9/cuda/12.2/lib64 -L/opt/nvidia/hpc_sdk/Linux_x86_64/23.9/cuda/12.2/lib64/stubs -Wl,-rpath,/opt/cray/pe/mpich/8.1.28/ofi/gnu/12.3/lib -L/opt/cray/pe/mpich/8.1.28/ofi/gnu/12.3/lib -Wl,-rpath,/opt/cray/pe/mpich/8.1.28/gtl/lib -L/opt/cray/pe/mpich/8.1.28/gtl/lib -Wl,-rpath,/opt/cray/pe/libsci/23.12.5/GNU/12.3/x86_64/lib -L/opt/cray/pe/libsci/23.12.5/GNU/12.3/x86_64/lib -Wl,-rpath,/opt/cray/pe/hdf5-parallel/1.12.2.9/gnu/12.3/lib -L/opt/cray/pe/hdf5-parallel/1.12.2.9/gnu/12.3/lib -Wl,-rpath,/opt/nvidia/hpc_sdk/Linux_x86_64/23.9/cuda/12.2/lib64/stubs -Wl,-rpath,/opt/nvidia/hpc_sdk/Linux_x86_64/23.9/cuda/12.2/nvvm/lib64 -L/opt/nvidia/hpc_sdk/Linux_x86_64/23.9/cuda/12.2/nvvm/lib64 -Wl,-rpath,/opt/nvidia/hpc_sdk/Linux_x86_64/23.9/cuda/12.2/extras/CUPTI/lib64 -L/opt/nvidia/hpc_sdk/Linux_x86_64/23.9/cuda/12.2/extras/CUPTI/lib64 -Wl,-rpath,/opt/nvidia/hpc_sdk/Linux_x86_64/23.9/cuda/12.2/extras/Debugger/lib64 -L/opt/nvidia/hpc_sdk/Linux_x86_64/23.9/cuda/12.2/extras/Debugger/lib64 -Wl,-rpath,/opt/cray/pe/dsmml/0.2.2/dsmml/lib -L/opt/cray/pe/dsmml/0.2.2/dsmml/lib -Wl,-rpath,/opt/cray/xpmem/2.6.2-2.5_2.38__gd067c3f.shasta/lib64 -L/opt/cray/xpmem/2.6.2-2.5_2.38__gd067c3f.shasta/lib64 -Wl,-rpath,/usr/lib64/gcc/x86_64-suse-linux/12 -L/usr/lib64/gcc/x86_64-suse-linux/12 -Wl,-rpath,/usr/x86_64-suse-linux/lib -L/usr/x86_64-suse-linux/lib -lkokkoskernels -lkokkoscontainers -lkokkoscore -lkokkossimd -lp4est -lsc -lz -lcufft -lcublas -lcusparse -lcusolver -lcurand -lcudart -lnvToolsExt -lcuda -lnvToolsExt -lcuda -lmpi_gtl_cuda -ldl -lxpmem -lgfortran -lm -lhdf5_hl_parallel -lhdf5_parallel -lcupti -lcudart -lhdf5hl_fortran_parallel -lhdf5_fortran_parallel -lmpifort_gnu_123 -lsci_gnu_123_mpi -lmpi_gnu_123 -lsci_gnu_123 -ldsmml -lgfortran -lquadmath -lpthread -lm -lgcc_s -lstdc++ -lquadmath -lnvToolsExt
-----------------------------------------

#PETSc Option Table entries:
-dim 3 # (source: command line)
-dm_landau_amr_levels_max 2,2,2 # (source: command line)
-dm_landau_batch_size 2 # (source: command line)
-dm_landau_device_type kokkos # (source: file)
-dm_landau_Ez 0 # (source: file)
-dm_landau_ion_charges 1,2,3,4,5,6,7,8,9 # (source: file)
-dm_landau_ion_masses 2,182,182,182,182,182,182,182,182 # (source: file)
-dm_landau_n 1.0000044,1,1e-7,1e-7,1e-7,1e-7,1e-7,1e-7,1e-7,1e-7 # (source: file)
-dm_landau_num_species_grid 1,1,8 # (source: file)
-dm_landau_thermal_temps 2,1,1,1,1,1,1,1,1,1 # (source: file)
-dm_landau_type p8est # (source: command line)
-dm_landau_verbose 1 # (source: command line)
-dm_mat_type aijkokkos # (source: file)
-dm_preallocate_only false # (source: code)
-dm_vec_type kokkos # (source: file)
-ex2_test_type none # (source: file)
-ksp_converged_reason # (source: command line)
-ksp_max_it 100 # (source: command line)
-ksp_rtol 1.e-8 # (source: command line)
-ksp_type tfqmr # (source: command line)
-log_view # (source: command line)
-log_view_gpu_time # (source: command line)
-options_left # (source: command line)
-pc_type jacobi # (source: command line)
-petscspace_degree 2 # (source: command line)
-snes_converged_reason # (source: file)
-snes_linesearch_type basic # (source: file)
-snes_max_it 50 # (source: file)
-snes_monitor # (source: file)
-snes_rtol 1e-14 # (source: file)
-snes_stol 1e-14 # (source: file)
-ts_adapt_clip .5,1.1 # (source: file)
-ts_adapt_dt_max 1 # (source: file)
-ts_adapt_monitor # (source: file)
-ts_adapt_scale_solve_failed 0.5 # (source: file)
-ts_adapt_time_step_increase_delay 5 # (source: file)
-ts_dt .5 # (source: file)
-ts_exact_final_time stepover # (source: file)
-ts_max_snes_failures -1 # (source: file)
-ts_max_steps 10 # (source: file)
-ts_max_time 100 # (source: file)
-ts_monitor # (source: file)
-ts_rtol 1e-2 # (source: file)
-ts_type beuler # (source: file)
-ts_view # (source: command line)
-use_gpu_aware_mpi 0 # (source: file)
#End of PETSc Option Table entries
There are no unused options.
