masses:        e= 9.109e-31; ions in proton mass units:    2.000e+00  1.820e+02 ...
charges:       e=-1.602e-19; charges in elementary units:  1.000e+00  2.000e+00
n:             e:  1.000e+00                           i:  1.000e+00  1.000e-07
thermal T (K): e= 2.321e+07 i= 1.160e+07  1.160e+07. Normalization grid 0: v_0= 1.876e+07 ( 6.256e-02c) n_0= 1.000e+20 t_0= 1.909e-05 16 batched, view batch 0
Domain radius (AMR levels) grid 0: par= 5.000e+00 perp= 5.000e+00 (2) , 1: par= 5.835e-02 perp= 5.835e-02 (2) , 2: par= 6.117e-03 perp= 6.117e-03 (2) 
0) FormLandau 9720 IPs, 360 cells total, Nb=27, Nq=27, dim=3, Tab: Nb=27 Nf=10 Np=27 cdim=3 N=167200 nnz=9024160
0 TS dt 0.5 time 0.
    0 SNES Function norm 7.478600255534e-02
    1 SNES Function norm 2.492836910946e-03
    2 SNES Function norm 4.442632379154e-04
    3 SNES Function norm 9.793578801362e-05
    4 SNES Function norm 2.230876008801e-05
    5 SNES Function norm 5.131623789414e-06
    6 SNES Function norm 1.184614500077e-06
    7 SNES Function norm 2.738542763274e-07
    8 SNES Function norm 6.334644962028e-08
    9 SNES Function norm 1.465669006844e-08
   10 SNES Function norm 3.391541746724e-09
   11 SNES Function norm 7.848345558619e-10
   12 SNES Function norm 1.816237822585e-10
   13 SNES Function norm 4.202988420612e-11
   14 SNES Function norm 9.726000900733e-12
   15 SNES Function norm 2.250523537344e-12
    Nonlinear solve converged due to CONVERGED_SNORM_RELATIVE iterations 15
      TSAdapt none beuler 0: step   0 accepted t=0          + 5.000e-01 dt=5.000e-01 
1 TS dt 0.5 time 0.5
TS Object: 1 MPI process
  type: beuler
  maximum steps=1
  maximum time=100.
  total number of I function evaluations=16
  total number of I Jacobian evaluations=15
  total number of RHS function evaluations=16
  total number of nonlinear solver iterations=15
  total number of linear solver iterations=250
  total number of nonlinear solve failures=0
  total number of rejected steps=0
  using relative error tolerance of 0.01,   using absolute error tolerance of 0.0001
  TSAdapt Object: 1 MPI process
    type: none
  SNES Object: 1 MPI process
    type: newtonls
    maximum iterations=50, maximum function evaluations=10000
    tolerances: relative=1e-14, absolute=1e-50, solution=1e-14
    total number of linear solver iterations=250
    total number of function evaluations=16
    norm schedule ALWAYS
    SNESLineSearch Object: 1 MPI process
      type: basic
      maxstep=1.000000e+08, minlambda=1.000000e-12
      tolerances: relative=1.000000e-08, absolute=1.000000e-15, lambda=1.000000e-08
      maximum iterations=40
    KSP Object: 1 MPI process
      type: preonly
      maximum iterations=10000, initial guess is zero
      tolerances: relative=1e-05, absolute=1e-50, divergence=10000.
      left preconditioning
      using NONE norm type for convergence test
    PC Object: 1 MPI process
      type: bjkokkos
        Batched device linear solver: Krylov (KSP) method with Jacobi preconditioning
      		nwork = 10, rel tol = 1.000000e-08, abs tol = 1.000000e-50, div tol = 1.000000e+04, max it =100, type = tfqmr
      linear system matrix = precond matrix:
      Mat Object: Jacobian 1 MPI process
        type: seqaijkokkos
        rows=167200, cols=167200
        total: nonzeros=9024160, allocated nonzeros=9024160
        total number of mallocs used during MatSetValues calls=0
          not using I-node routines
0 TS dt 0.5 time 0.
    0 SNES Function norm 7.478600255534e-02
    1 SNES Function norm 2.492836910946e-03
    2 SNES Function norm 4.442632379154e-04
    3 SNES Function norm 9.793578801362e-05
    4 SNES Function norm 2.230876008801e-05
    5 SNES Function norm 5.131623789414e-06
    6 SNES Function norm 1.184614500077e-06
    7 SNES Function norm 2.738542763274e-07
    8 SNES Function norm 6.334644962028e-08
    9 SNES Function norm 1.465669006844e-08
   10 SNES Function norm 3.391541746724e-09
   11 SNES Function norm 7.848345558619e-10
   12 SNES Function norm 1.816237822585e-10
   13 SNES Function norm 4.202988420612e-11
   14 SNES Function norm 9.726000900733e-12
   15 SNES Function norm 2.250523537344e-12
    Nonlinear solve converged due to CONVERGED_SNORM_RELATIVE iterations 15
      TSAdapt none beuler 0: step   0 accepted t=0          + 5.000e-01 dt=5.000e-01 
1 TS dt 0.5 time 0.5
    0 SNES Function norm 9.406675279234e-03
    1 SNES Function norm 1.148058143694e-03
    2 SNES Function norm 2.619893347630e-04
    3 SNES Function norm 6.046875586983e-05
    4 SNES Function norm 1.395740276738e-05
    5 SNES Function norm 3.222004435793e-06
    6 SNES Function norm 7.439139958913e-07
    7 SNES Function norm 1.717789605036e-07
    8 SNES Function norm 3.966833274132e-08
    9 SNES Function norm 9.160744187925e-09
   10 SNES Function norm 2.115549523854e-09
   11 SNES Function norm 4.885586170488e-10
   12 SNES Function norm 1.128291950951e-10
   13 SNES Function norm 2.605433657501e-11
   14 SNES Function norm 6.017911693267e-12
   15 SNES Function norm 1.388469794504e-12
    Nonlinear solve converged due to CONVERGED_SNORM_RELATIVE iterations 15
      TSAdapt none beuler 0: step   1 accepted t=0.5        + 5.000e-01 dt=5.000e-01 
2 TS dt 0.5 time 1.
    0 SNES Function norm 5.126137800758e-03
    1 SNES Function norm 8.974474146408e-04
    2 SNES Function norm 2.130494783652e-04
    3 SNES Function norm 4.963947311107e-05
    4 SNES Function norm 1.147841319596e-05
    5 SNES Function norm 2.646638555484e-06
    6 SNES Function norm 6.095807961982e-07
    7 SNES Function norm 1.403395554174e-07
    8 SNES Function norm 3.230375121921e-08
    9 SNES Function norm 7.435228201052e-09
   10 SNES Function norm 1.711287670626e-09
   11 SNES Function norm 3.938642152199e-10
   12 SNES Function norm 9.065042314113e-11
   13 SNES Function norm 2.086343082833e-11
   14 SNES Function norm 4.801601852271e-12
   15 SNES Function norm 1.102997434780e-12
    Nonlinear solve converged due to CONVERGED_SNORM_RELATIVE iterations 15
      TSAdapt none beuler 0: step   2 accepted t=1          + 5.000e-01 dt=5.000e-01 
3 TS dt 0.5 time 1.5
    0 SNES Function norm 4.077184416130e-03
    1 SNES Function norm 8.203556884182e-04
    2 SNES Function norm 1.944927807350e-04
    3 SNES Function norm 4.523215193572e-05
    4 SNES Function norm 1.043248057117e-05
    5 SNES Function norm 2.397988215360e-06
    6 SNES Function norm 5.504274550226e-07
    7 SNES Function norm 1.262707596773e-07
    8 SNES Function norm 2.896017717915e-08
    9 SNES Function norm 6.641338407492e-09
   10 SNES Function norm 1.522974884145e-09
   11 SNES Function norm 3.492370006906e-10
   12 SNES Function norm 8.008386638946e-11
   13 SNES Function norm 1.836404906992e-11
   14 SNES Function norm 4.209822337244e-12
   15 SNES Function norm 9.667315096148e-13
    Nonlinear solve converged due to CONVERGED_SNORM_RELATIVE iterations 15
      TSAdapt none beuler 0: step   3 accepted t=1.5        + 5.000e-01 dt=5.000e-01 
4 TS dt 0.5 time 2.
    0 SNES Function norm 3.661192626078e-03
    1 SNES Function norm 7.734610283438e-04
    2 SNES Function norm 1.823014245558e-04
    3 SNES Function norm 4.222072192985e-05
    4 SNES Function norm 9.702051875094e-06
    5 SNES Function norm 2.222094374545e-06
    6 SNES Function norm 5.082284753787e-07
    7 SNES Function norm 1.161724028787e-07
    8 SNES Function norm 2.654854319750e-08
    9 SNES Function norm 6.066430975038e-09
   10 SNES Function norm 1.386138135555e-09
   11 SNES Function norm 3.167192178718e-10
   12 SNES Function norm 7.236432540898e-11
   13 SNES Function norm 1.653702535128e-11
   14 SNES Function norm 3.777290105288e-12
   15 SNES Function norm 8.629549460935e-13
    Nonlinear solve converged due to CONVERGED_SNORM_RELATIVE iterations 15
      TSAdapt none beuler 0: step   4 accepted t=2          + 5.000e-01 dt=5.000e-01 
5 TS dt 0.5 time 2.5
    0 SNES Function norm 3.395380070830e-03
    1 SNES Function norm 7.278569489603e-04
    2 SNES Function norm 1.705570696908e-04
    3 SNES Function norm 3.932687189631e-05
    4 SNES Function norm 9.003037193360e-06
    5 SNES Function norm 2.054728564016e-06
    6 SNES Function norm 4.683338169575e-07
    7 SNES Function norm 1.066885906147e-07
    8 SNES Function norm 2.429849309109e-08
    9 SNES Function norm 5.533474411178e-09
   10 SNES Function norm 1.260077773884e-09
   11 SNES Function norm 2.869407852391e-10
   12 SNES Function norm 6.534095933107e-11
   13 SNES Function norm 1.487774495201e-11
   14 SNES Function norm 3.386067233915e-12
   15 SNES Function norm 7.709260550594e-13
    Nonlinear solve converged due to CONVERGED_SNORM_RELATIVE iterations 15
      TSAdapt none beuler 0: step   5 accepted t=2.5        + 5.000e-01 dt=5.000e-01 
6 TS dt 0.5 time 3.
    0 SNES Function norm 3.164187835399e-03
    1 SNES Function norm 6.785026935274e-04
    2 SNES Function norm 1.581478675369e-04
    3 SNES Function norm 3.631447994820e-05
    4 SNES Function norm 8.284003852609e-06
    5 SNES Function norm 1.884409578650e-06
    6 SNES Function norm 4.281424859680e-07
    7 SNES Function norm 9.722528026671e-08
    8 SNES Function norm 2.207371709180e-08
    9 SNES Function norm 5.011081929596e-09
   10 SNES Function norm 1.137548919831e-09
   11 SNES Function norm 2.582280349067e-10
   12 SNES Function norm 5.861722741957e-11
   13 SNES Function norm 1.330521014501e-11
   14 SNES Function norm 3.020478678790e-12
   15 SNES Function norm 6.871473540114e-13
    Nonlinear solve converged due to CONVERGED_SNORM_RELATIVE iterations 15
      TSAdapt none beuler 0: step   6 accepted t=3          + 5.000e-01 dt=5.000e-01 
7 TS dt 0.5 time 3.5
    0 SNES Function norm 2.939727083069e-03
    1 SNES Function norm 6.260203691771e-04
    2 SNES Function norm 1.452152689350e-04
    3 SNES Function norm 3.321905368909e-05
    4 SNES Function norm 7.553399654849e-06
    5 SNES Function norm 1.713056441889e-06
    6 SNES Function norm 3.880773668622e-07
    7 SNES Function norm 8.787358546910e-08
    8 SNES Function norm 1.989344213141e-08
    9 SNES Function norm 4.503222290174e-09
   10 SNES Function norm 1.019347830755e-09
   11 SNES Function norm 2.307319710110e-10
   12 SNES Function norm 5.222914552384e-11
   13 SNES Function norm 1.182288693630e-11
   14 SNES Function norm 2.675345334282e-12
    Nonlinear solve converged due to CONVERGED_SNORM_RELATIVE iterations 14
      TSAdapt none beuler 0: step   7 accepted t=3.5        + 5.000e-01 dt=5.000e-01 
8 TS dt 0.5 time 4.
    0 SNES Function norm 2.717478453031e-03
    1 SNES Function norm 5.721040876750e-04
    2 SNES Function norm 1.321323460566e-04
    3 SNES Function norm 3.012326794083e-05
    4 SNES Function norm 6.829492628929e-06
    5 SNES Function norm 1.544681852843e-06
    6 SNES Function norm 3.490141705973e-07
    7 SNES Function norm 7.882331911619e-08
    8 SNES Function norm 1.779851025951e-08
    9 SNES Function norm 4.018619160908e-09
   10 SNES Function norm 9.073077430785e-10
   11 SNES Function norm 2.048464159654e-10
   12 SNES Function norm 4.624932454938e-11
   13 SNES Function norm 1.043977673008e-11
   14 SNES Function norm 2.357537094043e-12
    Nonlinear solve converged due to CONVERGED_SNORM_RELATIVE iterations 14
      TSAdapt none beuler 0: step   8 accepted t=4          + 5.000e-01 dt=5.000e-01 
9 TS dt 0.5 time 4.5
    0 SNES Function norm 2.499137720632e-03
    1 SNES Function norm 5.182846927699e-04
    2 SNES Function norm 1.192265206312e-04
    3 SNES Function norm 2.709725583708e-05
    4 SNES Function norm 6.127327628709e-06
    5 SNES Function norm 1.382502680615e-06
    6 SNES Function norm 3.116364234954e-07
    7 SNES Function norm 7.021849957265e-08
    8 SNES Function norm 1.581894962389e-08
    9 SNES Function norm 3.563444673117e-09
   10 SNES Function norm 8.026927961440e-10
   11 SNES Function norm 1.808066740223e-10
   12 SNES Function norm 4.072960286911e-11
   13 SNES Function norm 9.173597378824e-12
   14 SNES Function norm 2.065960697136e-12
    Nonlinear solve converged due to CONVERGED_SNORM_RELATIVE iterations 14
      TSAdapt none beuler 0: step   9 accepted t=4.5        + 5.000e-01 dt=5.000e-01 
10 TS dt 0.5 time 5.
TS Object: 1 MPI process
  type: beuler
  maximum steps=10
  maximum time=100.
  total number of I function evaluations=173
  total number of I Jacobian evaluations=162
  total number of RHS function evaluations=173
  total number of nonlinear solver iterations=147
  total number of linear solver iterations=2454
  total number of nonlinear solve failures=0
  total number of rejected steps=0
  using relative error tolerance of 0.01,   using absolute error tolerance of 0.0001
  TSAdapt Object: 1 MPI process
    type: none
  SNES Object: 1 MPI process
    type: newtonls
    maximum iterations=50, maximum function evaluations=10000
    tolerances: relative=1e-14, absolute=1e-50, solution=1e-14
    total number of linear solver iterations=237
    total number of function evaluations=15
    norm schedule ALWAYS
    SNESLineSearch Object: 1 MPI process
      type: basic
      maxstep=1.000000e+08, minlambda=1.000000e-12
      tolerances: relative=1.000000e-08, absolute=1.000000e-15, lambda=1.000000e-08
      maximum iterations=40
    KSP Object: 1 MPI process
      type: preonly
      maximum iterations=10000, initial guess is zero
      tolerances: relative=1e-05, absolute=1e-50, divergence=10000.
      left preconditioning
      using NONE norm type for convergence test
    PC Object: 1 MPI process
      type: bjkokkos
        Batched device linear solver: Krylov (KSP) method with Jacobi preconditioning
      		nwork = 10, rel tol = 1.000000e-08, abs tol = 1.000000e-50, div tol = 1.000000e+04, max it =100, type = tfqmr
      linear system matrix = precond matrix:
      Mat Object: Jacobian 1 MPI process
        type: seqaijkokkos
        rows=167200, cols=167200
        total: nonzeros=9024160, allocated nonzeros=9024160
        total number of mallocs used during MatSetValues calls=0
          not using I-node routines
****************************************************************************************************************************************************************
***                                WIDEN YOUR WINDOW TO 160 CHARACTERS.  Use 'enscript -r -fCourier9' to print this document                                 ***
****************************************************************************************************************************************************************

------------------------------------------------------------------ PETSc Performance Summary: ------------------------------------------------------------------



      ##########################################################
      #                                                        #
      #                       WARNING!!!                       #
      #                                                        #
      #   This code was run with -log_view_gpu_time            #
      #   This provides accurate timing within the GPU kernels #
      #   but can slow down the entire computation by a        #
      #   measurable amount. For fastest runs we recommend     #
      #   not using this option.                               #
      #                                                        #
      ##########################################################


/global/u2/m/madams/batch_gmres_paper/landau_throughput_nsight/perlmutter/./ex2-3 on a arch-perlmutter-opt-gcc-kokkos-cuda-3d named nid200381 with 4 processes and CUDA architecture 80, by madams on Thu Jun 27 14:50:12 2024
Using Petsc Development GIT revision: v3.21.2-329-g0f40c42b27c  GIT Date: 2024-06-27 15:17:08 -0400

                         Max       Max/Min     Avg       Total
Time (sec):           1.311e+02     1.000   1.311e+02
Objects:              0.000e+00     0.000   0.000e+00
Flops:                1.017e+11     1.000   1.017e+11  4.066e+11
Flops/sec:            7.752e+08     1.000   7.752e+08  3.101e+09
MPI Msg Count:        0.000e+00     0.000   0.000e+00  0.000e+00
MPI Msg Len (bytes):  0.000e+00     0.000   0.000e+00  0.000e+00
MPI Reductions:       2.100e+01     1.000

Flop counting convention: 1 flop = 1 real number operation of type (multiply/divide/add/subtract)
                            e.g., VecAXPY() for real vectors of length N --> 2N flops
                            and VecAXPY() for complex vectors of length N --> 8N flops

Summary of Stages:   ----- Time ------  ----- Flop ------  --- Messages ---  -- Message Lengths --  -- Reductions --
                        Avg     %Total     Avg     %Total    Count   %Total     Avg         %Total    Count   %Total
 0:      Main Stage: 1.1270e+02  85.9%  6.9596e+08   0.2%  0.000e+00   0.0%  0.000e+00        0.0%  2.000e+00   9.5%
 1:          Warmup: 1.8682e+00   1.4%  3.7258e+10   9.2%  0.000e+00   0.0%  0.000e+00        0.0%  0.000e+00   0.0%
 2:           Solve: 1.6585e+01  12.6%  3.6869e+11  90.7%  0.000e+00   0.0%  0.000e+00        0.0%  0.000e+00   0.0%

------------------------------------------------------------------------------------------------------------------------
See the 'Profiling' chapter of the users' manual for details on interpreting output.
Phase summary info:
   Count: number of times phase was executed
   Time and Flop: Max - maximum over all processors
                  Ratio - ratio of maximum to minimum over all processors
   Mess: number of messages sent
   AvgLen: average message length (bytes)
   Reduct: number of global reductions
   Global: entire computation
   Stage: stages of a computation. Set stages with PetscLogStagePush() and PetscLogStagePop().
      %T - percent time in this phase         %F - percent flop in this phase
      %M - percent messages in this phase     %L - percent message lengths in this phase
      %R - percent reductions in this phase
   Total Mflop/s: 10e-6 * (sum of flop over all processors)/(max time over all processors)
   GPU Mflop/s: 10e-6 * (sum of flop on GPU over all processors)/(max GPU time over all processors)
   CpuToGpu Count: total number of CPU to GPU copies per processor
   CpuToGpu Size (Mbytes): 10e-6 * (total size of CPU to GPU copies per processor)
   GpuToCpu Count: total number of GPU to CPU copies per processor
   GpuToCpu Size (Mbytes): 10e-6 * (total size of GPU to CPU copies per processor)
   GPU %F: percent flops on GPU in this event
------------------------------------------------------------------------------------------------------------------------
Event                Count      Time (sec)     Flop                              --- Global ---  --- Stage ----  Total   GPU    - CpuToGpu -   - GpuToCpu - GPU
                   Max Ratio  Max     Ratio   Max  Ratio  Mess   AvgLen  Reduct  %T %F %M %L %R  %T %F %M %L %R Mflop/s Mflop/s Count   Size   Count   Size  %F
---------------------------------------------------------------------------------------------------------------------------------------------------------------

--- Event Stage 0: Main Stage

BuildTwoSided        231 1.0 2.5544e-04 1.4 0.00e+00 0.0 0.0e+00 0.0e+00 0.0e+00  0  0  0  0  0   0  0  0  0  0     0       0      0 0.00e+00    0 0.00e+00  0
DMConvert             18 1.0 4.7258e-03 1.0 0.00e+00 0.0 0.0e+00 0.0e+00 0.0e+00  0  0  0  0  0   0  0  0  0  0     0       0      0 0.00e+00    0 0.00e+00  0
DMCreateMat            8 1.0 1.7531e+01 1.0 0.00e+00 0.0 0.0e+00 0.0e+00 0.0e+00 13  0  0  0  0  15  0  0  0  0     0       0      0 0.00e+00    0 0.00e+00  0
DMProjectFunc         57 1.0 5.3488e-01 1.0 4.01e+07 1.0 0.0e+00 0.0e+00 0.0e+00  0  0  0  0  0   0 23  0  0  0   300       0      0 0.00e+00    0 0.00e+00  0
DMPlexInterp         204 1.0 5.8102e-03 1.0 0.00e+00 0.0 0.0e+00 0.0e+00 0.0e+00  0  0  0  0  0   0  0  0  0  0     0       0      0 0.00e+00    0 0.00e+00  0
DMPlexStratify       318 1.0 5.8396e-03 1.1 0.00e+00 0.0 0.0e+00 0.0e+00 0.0e+00  0  0  0  0  0   0  0  0  0  0     0       0      0 0.00e+00    0 0.00e+00  0
DMPlexSymmetrize     318 1.0 4.5706e-04 1.0 0.00e+00 0.0 0.0e+00 0.0e+00 0.0e+00  0  0  0  0  0   0  0  0  0  0     0       0      0 0.00e+00    0 0.00e+00  0
DMPlexPrealloc       102 1.0 1.6003e+01 1.0 0.00e+00 0.0 0.0e+00 0.0e+00 0.0e+00 12  0  0  0  0  14  0  0  0  0     0       0      0 0.00e+00    0 0.00e+00  0
DMPlexJacobianFE       6 1.0 4.1685e+00 1.0 1.08e+08 1.0 0.0e+00 0.0e+00 0.0e+00  3  0  0  0  0   4 62  0  0  0   104       0      0 0.00e+00    0 0.00e+00  0
DMPlexGenerate         3 1.0 6.7971e-04 1.3 0.00e+00 0.0 0.0e+00 0.0e+00 0.0e+00  0  0  0  0  0   0  0  0  0  0     0       0      0 0.00e+00    0 0.00e+00  0
SFSetGraph           444 1.0 2.0725e-04 1.2 0.00e+00 0.0 0.0e+00 0.0e+00 0.0e+00  0  0  0  0  0   0  0  0  0  0     0       0      0 0.00e+00    0 0.00e+00  0
SFSetUp              231 1.0 1.0864e-03 1.3 0.00e+00 0.0 0.0e+00 0.0e+00 0.0e+00  0  0  0  0  0   0  0  0  0  0     0       0      0 0.00e+00    0 0.00e+00  0
SFBcastBegin         474 1.0 1.1465e-03 1.2 0.00e+00 0.0 0.0e+00 0.0e+00 0.0e+00  0  0  0  0  0   0  0  0  0  0     0       0      0 0.00e+00    0 0.00e+00  0
SFBcastEnd           474 1.0 8.0642e-05 1.2 0.00e+00 0.0 0.0e+00 0.0e+00 0.0e+00  0  0  0  0  0   0  0  0  0  0     0       0      0 0.00e+00    0 0.00e+00  0
SFReduceBegin         54 1.0 7.1752e-05 1.1 0.00e+00 0.0 0.0e+00 0.0e+00 0.0e+00  0  0  0  0  0   0  0  0  0  0     0       0      0 0.00e+00    0 0.00e+00  0
SFReduceEnd           54 1.0 7.8510e-06 1.1 0.00e+00 0.0 0.0e+00 0.0e+00 0.0e+00  0  0  0  0  0   0  0  0  0  0     0       0      0 0.00e+00    0 0.00e+00  0
SFCreateEmbed        204 1.0 2.4578e-03 1.2 0.00e+00 0.0 0.0e+00 0.0e+00 0.0e+00  0  0  0  0  0   0  0  0  0  0     0       0      0 0.00e+00    0 0.00e+00  0
SFSectionSF          204 1.0 9.7700e-04 1.3 0.00e+00 0.0 0.0e+00 0.0e+00 0.0e+00  0  0  0  0  0   0  0  0  0  0     0       0      0 0.00e+00    0 0.00e+00  0
SFRemoteOff          204 1.0 5.4882e-03 1.2 0.00e+00 0.0 0.0e+00 0.0e+00 0.0e+00  0  0  0  0  0   0  0  0  0  0     0       0      0 0.00e+00    0 0.00e+00  0
SFPack               528 1.0 5.4317e-05 1.2 0.00e+00 0.0 0.0e+00 0.0e+00 0.0e+00  0  0  0  0  0   0  0  0  0  0     0       0      0 0.00e+00    0 0.00e+00  0
Landau Create          1 1.0 1.0029e+02 1.0 1.05e+08 1.0 0.0e+00 0.0e+00 0.0e+00 76  0  0  0  0  89 60  0  0  0     4       0      0 0.00e+00    0 0.00e+00  0
 GPU ass. setup        1 1.0 8.7073e+01 1.0 3.23e+06 1.0 0.0e+00 0.0e+00 0.0e+00 66  0  0  0  0  77  2  0  0  0     0       0      0 0.00e+00    0 0.00e+00  0
 Build matrix          1 1.0 3.0718e+00 1.0 3.87e+07 1.0 0.0e+00 0.0e+00 0.0e+00  2  0  0  0  0   3 22  0  0  0    50       0      0 0.00e+00    0 0.00e+00  0
 Assembly maps         1 1.0 1.0232e+01 1.1 5.17e+07 1.0 0.0e+00 0.0e+00 0.0e+00  8  0  0  0  0   9 30  0  0  0    20       0      0 0.00e+00    0 0.00e+00  0
Landau Mass mat        1 1.0 1.2292e+01 1.0 6.93e+07 1.0 0.0e+00 0.0e+00 0.0e+00  9  0  0  0  0  11 40  0  0  0    23       0      0 0.00e+00    0 0.00e+00  0
 static IP Data        1 1.0 1.3552e-02 1.1 1.11e+07 1.0 0.0e+00 0.0e+00 0.0e+00  0  0  0  0  0   0  6  0  0  0  3262       0      0 0.00e+00    0 0.00e+00  0
VecCopy                1 1.0 1.2587e-04 1.1 0.00e+00 0.0 0.0e+00 0.0e+00 0.0e+00  0  0  0  0  0   0  0  0  0  0     0       0      0 0.00e+00    0 0.00e+00  0
VecSet                93 1.0 2.0798e-03 1.2 0.00e+00 0.0 0.0e+00 0.0e+00 0.0e+00  0  0  0  0  0   0  0  0  0  0     0       0      0 0.00e+00    0 0.00e+00  0
DualSpaceSetUp        52 1.0 4.3288e-02 1.0 2.36e+04 1.0 0.0e+00 0.0e+00 0.0e+00  0  0  0  0  0   0  0  0  0  0     2       0      0 0.00e+00    0 0.00e+00  0
FESetUp               52 1.0 1.6463e-03 1.1 0.00e+00 0.0 0.0e+00 0.0e+00 0.0e+00  0  0  0  0  0   0  0  0  0  0     0       0      0 0.00e+00    0 0.00e+00  0
MatMult           207960 1.0 1.9870e-02 1.0 1.62e+06 1.0 0.0e+00 0.0e+00 0.0e+00  0  0  0  0  0   0  1  0  0  0   327       0      0 0.00e+00    0 0.00e+00  0
MatLUFactor           30 1.0 5.7891e-04 1.1 3.94e+05 1.0 0.0e+00 0.0e+00 0.0e+00  0  0  0  0  0   0  0  0  0  0  2720       0      0 0.00e+00    0 0.00e+00  0
MatCopy              240 1.0 1.5859e-04 1.1 0.00e+00 0.0 0.0e+00 0.0e+00 0.0e+00  0  0  0  0  0   0  0  0  0  0     0       0      0 0.00e+00    0 0.00e+00  0
MatConvert            60 1.0 5.3159e-04 1.0 0.00e+00 0.0 0.0e+00 0.0e+00 0.0e+00  0  0  0  0  0   0  0  0  0  0     0       0      0 0.00e+00    0 0.00e+00  0
MatAssemblyBegin    1074 1.0 1.1631e-04 1.2 0.00e+00 0.0 0.0e+00 0.0e+00 0.0e+00  0  0  0  0  0   0  0  0  0  0     0       0      0 0.00e+00    0 0.00e+00  0
MatAssemblyEnd      1074 1.0 1.7879e-01 1.2 0.00e+00 0.0 0.0e+00 0.0e+00 0.0e+00  0  0  0  0  0   0  0  0  0  0     0       0      0 0.00e+00    0 0.00e+00  0
MatGetRowIJ            9 1.0 4.5610e-06 1.8 0.00e+00 0.0 0.0e+00 0.0e+00 0.0e+00  0  0  0  0  0   0  0  0  0  0     0       0      0 0.00e+00    0 0.00e+00  0
MatZeroEntries         6 1.0 1.6607e-04 1.2 0.00e+00 0.0 0.0e+00 0.0e+00 0.0e+00  0  0  0  0  0   0  0  0  0  0     0       0      0 0.00e+00    0 0.00e+00  0
MatMatSolve          240 1.0 1.7011e-03 1.0 9.27e+06 1.0 0.0e+00 0.0e+00 0.0e+00  0  0  0  0  0   0  5  0  0  0 21805       0      0 0.00e+00    0 0.00e+00  0
MatSetPreallCOO      175 1.0 5.5229e+00 1.0 0.00e+00 0.0 0.0e+00 0.0e+00 0.0e+00  4  0  0  0  0   5  0  0  0  0     0       0      0 0.00e+00    0 0.00e+00  0
MatSetValuesCOO      174 1.0 2.4617e-04 1.1 0.00e+00 0.0 0.0e+00 0.0e+00 0.0e+00  0  0  0  0  0   0  0  0  0  0     0       0      0 0.00e+00    0 0.00e+00  0
DCtxCreate             1 1.0 2.1672e-05 1.5 0.00e+00 0.0 0.0e+00 0.0e+00 0.0e+00  0  0  0  0  0   0  0  0  0  0     0       0      0 0.00e+00    0 0.00e+00  0
DCtxDestroy            1 1.0 3.0849e-05 1.3 0.00e+00 0.0 0.0e+00 0.0e+00 0.0e+00  0  0  0  0  0   0  0  0  0  0     0       0      0 0.00e+00    0 0.00e+00  0
DCtxSetUp              1 1.0 4.7913e-05 1.5 0.00e+00 0.0 0.0e+00 0.0e+00 0.0e+00  0  0  0  0  0   0  0  0  0  0     0       0      0 0.00e+00    0 0.00e+00  0
DCtxSetDevice          1 1.0 4.0919e-05 1.4 0.00e+00 0.0 0.0e+00 0.0e+00 0.0e+00  0  0  0  0  0   0  0  0  0  0     0       0      0 0.00e+00    0 0.00e+00  0

--- Event Stage 1: Warmup

Landau Operator       31 1.0 1.6181e+00 1.0 5.78e+08 1.0 0.0e+00 0.0e+00 0.0e+00  1  1  0  0  0  86  6  0  0  0  1428    1433      0 0.00e+00    0 0.00e+00  100
Landau Jacobian       16 1.0 1.4862e+00 1.0 5.78e+08 1.0 0.0e+00 0.0e+00 0.0e+00  1  1  0  0  0  79  6  0  0  0  1554    1559      0 0.00e+00    0 0.00e+00  100
Landau Mass           15 1.0 1.3188e-01 1.0 0.00e+00 0.0 0.0e+00 0.0e+00 0.0e+00  0  0  0  0  0   7  0  0  0  0     0       0      0 0.00e+00    0 0.00e+00  0
 Preamble             31 1.0 1.7408e-04 2.4 0.00e+00 0.0 0.0e+00 0.0e+00 0.0e+00  0  0  0  0  0   0  0  0  0  0     0       0      0 0.00e+00    0 0.00e+00  0
 dynamic IP-Jac       32 1.0 2.2968e-05 1.4 0.00e+00 0.0 0.0e+00 0.0e+00 0.0e+00  0  0  0  0  0   0  0  0  0  0     0       0      0 0.00e+00    0 0.00e+00  0
 Kernel-init          31 1.0 7.1525e-04 1.1 0.00e+00 0.0 0.0e+00 0.0e+00 0.0e+00  0  0  0  0  0   0  0  0  0  0     0       0      0 0.00e+00    0 0.00e+00  0
 Jac-f-df (GPU)       16 1.0 1.0237e-02 1.0 0.00e+00 0.0 0.0e+00 0.0e+00 0.0e+00  0  0  0  0  0   1  0  0  0  0     0       0      0 0.00e+00    0 0.00e+00  0
 J Kernel (GPU)       16 1.0 1.4052e+00 1.0 0.00e+00 0.0 0.0e+00 0.0e+00 0.0e+00  1  0  0  0  0  75  0  0  0  0     0       0      0 0.00e+00    0 0.00e+00  0
 M Kernel (GPU)       15 1.0 8.3500e-02 1.0 0.00e+00 0.0 0.0e+00 0.0e+00 0.0e+00  0  0  0  0  0   4  0  0  0  0     0       0      0 0.00e+00    0 0.00e+00  0
VecNorm                1 1.0 2.4779e-04 1.1 3.34e+05 1.0 0.0e+00 0.0e+00 0.0e+00  0  0  0  0  0   0  0  0  0  0  5398    5668      0 0.00e+00    0 0.00e+00  100
VecCopy               19 1.0 9.6151e-04 1.5 0.00e+00 0.0 0.0e+00 0.0e+00 0.0e+00  0  0  0  0  0   0  0  0  0  0     0       0      0 0.00e+00    0 0.00e+00  0
VecSet                 1 1.0 3.3174e-05 1.2 0.00e+00 0.0 0.0e+00 0.0e+00 0.0e+00  0  0  0  0  0   0  0  0  0  0     0       0      0 0.00e+00    0 0.00e+00  0
VecAXPY               17 1.0 1.8993e-03 1.3 5.68e+06 1.0 0.0e+00 0.0e+00 0.0e+00  0  0  0  0  0   0  0  0  0  0 11973   13303      0 0.00e+00    0 0.00e+00  100
VecAXPBYCZ            17 1.0 4.2503e-03 1.1 1.42e+07 1.0 0.0e+00 0.0e+00 0.0e+00  0  0  0  0  0   0  0  0  0  0 13375   14117      0 0.00e+00    0 0.00e+00  100
VecWAXPY              15 1.0 5.9567e-04 1.3 5.02e+06 1.0 0.0e+00 0.0e+00 0.0e+00  0  0  0  0  0   0  0  0  0  0 33683   50512      0 0.00e+00    0 0.00e+00  100
VecReduceArith        45 1.0 1.4822e-03 1.1 1.50e+07 1.0 0.0e+00 0.0e+00 0.0e+00  0  0  0  0  0   0  0  0  0  0 40610   56927      0 0.00e+00    0 0.00e+00  100
VecReduceComm         15 1.0 7.3940e-06 2.4 0.00e+00 0.0 0.0e+00 0.0e+00 0.0e+00  0  0  0  0  0   0  0  0  0  0     0       0      0 0.00e+00    0 0.00e+00  0
MatMult               16 1.0 2.6960e-03 1.1 2.89e+08 1.0 0.0e+00 0.0e+00 0.0e+00  0  0  0  0  0   0  3  0  0  0 428440   463836      0 0.00e+00    0 0.00e+00  100
MatMultAdd            16 1.0 9.1915e-03 1.2 2.89e+08 1.0 0.0e+00 0.0e+00 0.0e+00  0  0  0  0  0   0  3  0  0  0 125669   127991      0 0.00e+00    0 0.00e+00  100
MatAssemblyBegin      62 1.0 8.9880e-06 1.4 0.00e+00 0.0 0.0e+00 0.0e+00 0.0e+00  0  0  0  0  0   0  0  0  0  0     0       0      0 0.00e+00    0 0.00e+00  0
MatAssemblyEnd        62 1.0 3.0727e-03 1.4 0.00e+00 0.0 0.0e+00 0.0e+00 0.0e+00  0  0  0  0  0   0  0  0  0  0     0       0      0 0.00e+00    0 0.00e+00  0
MatGetRowIJ            1 1.0 2.7356e-02 1.1 0.00e+00 0.0 0.0e+00 0.0e+00 0.0e+00  0  0  0  0  0   1  0  0  0  0     0       0      0 0.00e+00    0 0.00e+00  0
MatGetOrdering         1 1.0 6.7660e-02 1.0 0.00e+00 0.0 0.0e+00 0.0e+00 0.0e+00  0  0  0  0  0   4  0  0  0  0     0       0      0 0.00e+00    0 0.00e+00  0
MatZeroEntries        16 1.0 1.8255e-04 1.5 0.00e+00 0.0 0.0e+00 0.0e+00 0.0e+00  0  0  0  0  0   0  0  0  0  0     0       0      0 0.00e+00    0 0.00e+00  0
MatView                1 0.0 3.8043e-05 0.0 0.00e+00 0.0 0.0e+00 0.0e+00 0.0e+00  0  0  0  0  0   0  0  0  0  0     0       0      0 0.00e+00    0 0.00e+00  0
MatSetValuesCOO       31 1.0 1.0724e-01 1.0 0.00e+00 0.0 0.0e+00 0.0e+00 0.0e+00  0  0  0  0  0   6  0  0  0  0     0       0      0 0.00e+00    0 0.00e+00  0
TSStep                 1 1.0 1.8683e+00 1.0 9.31e+09 1.0 0.0e+00 0.0e+00 0.0e+00  1  9  0  0  0 100 100  0  0  0 19942   23006      0 0.00e+00    0 0.00e+00  100
TSFunctionEval        16 1.0 1.4885e+00 1.0 5.83e+08 1.0 0.0e+00 0.0e+00 0.0e+00  1  1  0  0  0  80  6  0  0  0  1566    1573      0 0.00e+00    0 0.00e+00  100
TSJacobianEval        15 1.0 1.3189e-01 1.0 0.00e+00 0.0 0.0e+00 0.0e+00 0.0e+00  0  0  0  0  0   7  0  0  0  0     0       0      0 0.00e+00    0 0.00e+00  0
KSPSetUp              15 1.0 7.1450e-06 1.5 0.00e+00 0.0 0.0e+00 0.0e+00 0.0e+00  0  0  0  0  0   0  0  0  0  0     0       0      0 0.00e+00    0 0.00e+00  0
KSPSolve              15 1.0 1.7061e-01 1.0 8.70e+09 1.0 0.0e+00 0.0e+00 0.0e+00  0  9  0  0  0   9 93  0  0  0 203888       0      0 0.00e+00    0 0.00e+00  100
SNESSolve              1 1.0 1.8677e+00 1.0 9.31e+09 1.0 0.0e+00 0.0e+00 0.0e+00  1  9  0  0  0 100 100  0  0  0 19946   23008      0 0.00e+00    0 0.00e+00  100
SNESSetUp              1 1.0 1.2470e-04 1.2 0.00e+00 0.0 0.0e+00 0.0e+00 0.0e+00  0  0  0  0  0   0  0  0  0  0     0       0      0 0.00e+00    0 0.00e+00  0
SNESFunctionEval      16 1.0 1.4924e+00 1.0 5.96e+08 1.0 0.0e+00 0.0e+00 0.0e+00  1  1  0  0  0  80  6  0  0  0  1598    1605      0 0.00e+00    0 0.00e+00  100
SNESJacobianEval      15 1.0 1.3191e-01 1.0 0.00e+00 0.0 0.0e+00 0.0e+00 0.0e+00  0  0  0  0  0   7  0  0  0  0     0       0      0 0.00e+00    0 0.00e+00  0
SNESLineSearch        15 1.0 1.3824e+00 1.0 5.79e+08 1.0 0.0e+00 0.0e+00 0.0e+00  1  1  0  0  0  74  6  0  0  0  1675    1679      0 0.00e+00    0 0.00e+00  100
PCSetUp               15 1.0 7.3053e-02 1.1 0.00e+00 0.0 0.0e+00 0.0e+00 0.0e+00  0  0  0  0  0   4  0  0  0  0     0       0      0 0.00e+00    0 0.00e+00  0
PCApply               15 1.0 1.7056e-01 1.0 8.70e+09 1.0 0.0e+00 0.0e+00 0.0e+00  0  9  0  0  0   9 93  0  0  0 203950       0      0 0.00e+00    0 0.00e+00  100

--- Event Stage 2: Solve

Landau Operator      304 1.0 1.4896e+01 1.0 5.67e+09 1.0 0.0e+00 0.0e+00 0.0e+00 11  6  0  0  0  90  6  0  0  0  1522    1524      0 0.00e+00    0 0.00e+00  100
Landau Jacobian      157 1.0 1.3606e+01 1.0 5.67e+09 1.0 0.0e+00 0.0e+00 0.0e+00 10  6  0  0  0  82  6  0  0  0  1666    1668      0 0.00e+00    0 0.00e+00  100
Landau Mass          147 1.0 1.2903e+00 1.0 0.00e+00 0.0 0.0e+00 0.0e+00 0.0e+00  1  0  0  0  0   8  0  0  0  0     0       0      0 0.00e+00    0 0.00e+00  0
 Preamble            295 1.0 5.8783e-04 1.0 0.00e+00 0.0 0.0e+00 0.0e+00 0.0e+00  0  0  0  0  0   0  0  0  0  0     0       0      0 0.00e+00    0 0.00e+00  0
 dynamic IP-Jac      296 1.0 1.2090e-04 1.0 0.00e+00 0.0 0.0e+00 0.0e+00 0.0e+00  0  0  0  0  0   0  0  0  0  0     0       0      0 0.00e+00    0 0.00e+00  0
 Kernel-init         295 1.0 6.9202e-03 1.0 0.00e+00 0.0 0.0e+00 0.0e+00 0.0e+00  0  0  0  0  0   0  0  0  0  0     0       0      0 0.00e+00    0 0.00e+00  0
 Jac-f-df (GPU)      148 1.0 9.0086e-02 1.0 0.00e+00 0.0 0.0e+00 0.0e+00 0.0e+00  0  0  0  0  0   1  0  0  0  0     0       0      0 0.00e+00    0 0.00e+00  0
 J Kernel (GPU)      148 1.0 1.2988e+01 1.0 0.00e+00 0.0 0.0e+00 0.0e+00 0.0e+00 10  0  0  0  0  78  0  0  0  0     0       0      0 0.00e+00    0 0.00e+00  0
 M Kernel (GPU)      147 1.0 8.1692e-01 1.0 0.00e+00 0.0 0.0e+00 0.0e+00 0.0e+00  1  0  0  0  0   5  0  0  0  0     0       0      0 0.00e+00    0 0.00e+00  0
VecNorm               10 1.0 3.4166e-04 1.1 3.34e+06 1.0 0.0e+00 0.0e+00 0.0e+00  0  0  0  0  0   0  0  0  0  0 39150   54993      0 0.00e+00    0 0.00e+00  100
VecCopy              177 1.0 4.4443e-03 1.0 0.00e+00 0.0 0.0e+00 0.0e+00 0.0e+00  0  0  0  0  0   0  0  0  0  0     0       0      0 0.00e+00    0 0.00e+00  0
VecAXPY              167 1.0 3.6591e-03 1.0 5.58e+07 1.0 0.0e+00 0.0e+00 0.0e+00  0  0  0  0  0   0  0  0  0  0 61047   117226      0 0.00e+00    0 0.00e+00  100
VecAXPBYCZ           167 1.0 4.2474e-03 1.1 1.40e+08 1.0 0.0e+00 0.0e+00 0.0e+00  0  0  0  0  0   0  0  0  0  0 131481   230374      0 0.00e+00    0 0.00e+00  100
VecWAXPY             147 1.0 4.3631e-03 1.0 4.92e+07 1.0 0.0e+00 0.0e+00 0.0e+00  0  0  0  0  0   0  0  0  0  0 45066   72290      0 0.00e+00    0 0.00e+00  100
VecReduceArith       441 1.0 1.3728e-02 1.0 1.47e+08 1.0 0.0e+00 0.0e+00 0.0e+00  0  0  0  0  0   0  0  0  0  0 42969   61220      0 0.00e+00    0 0.00e+00  100
VecReduceComm        147 1.0 3.5993e-05 1.2 0.00e+00 0.0 0.0e+00 0.0e+00 0.0e+00  0  0  0  0  0   0  0  0  0  0     0       0      0 0.00e+00    0 0.00e+00  0
MatMult              157 1.0 2.1124e-02 1.0 2.83e+09 1.0 0.0e+00 0.0e+00 0.0e+00  0  3  0  0  0   0  3  0  0  0 536550   585538      0 0.00e+00    0 0.00e+00  100
MatMultAdd           157 1.0 2.1581e-02 1.0 2.83e+09 1.0 0.0e+00 0.0e+00 0.0e+00  0  3  0  0  0   0  3  0  0  0 525198   566782      0 0.00e+00    0 0.00e+00  100
MatAssemblyBegin     590 1.0 7.5363e-05 1.3 0.00e+00 0.0 0.0e+00 0.0e+00 0.0e+00  0  0  0  0  0   0  0  0  0  0     0       0      0 0.00e+00    0 0.00e+00  0
MatAssemblyEnd       590 1.0 2.4315e-04 1.1 0.00e+00 0.0 0.0e+00 0.0e+00 0.0e+00  0  0  0  0  0   0  0  0  0  0     0       0      0 0.00e+00    0 0.00e+00  0
MatZeroEntries       148 1.0 1.0827e-03 1.1 0.00e+00 0.0 0.0e+00 0.0e+00 0.0e+00  0  0  0  0  0   0  0  0  0  0     0       0      0 0.00e+00    0 0.00e+00  0
MatView                1 0.0 3.2853e-05 0.0 0.00e+00 0.0 0.0e+00 0.0e+00 0.0e+00  0  0  0  0  0   0  0  0  0  0     0       0      0 0.00e+00    0 0.00e+00  0
MatSetValuesCOO      295 1.0 9.4849e-01 1.0 0.00e+00 0.0 0.0e+00 0.0e+00 0.0e+00  1  0  0  0  0   6  0  0  0  0     0       0      0 0.00e+00    0 0.00e+00  0
TSStep                10 1.0 1.6601e+01 1.0 9.22e+10 1.0 0.0e+00 0.0e+00 0.0e+00 13 91  0  0  0 100 100  0  0  0 22209   24759      0 0.00e+00    0 0.00e+00  100
TSFunctionEval       157 1.0 1.3609e+01 1.0 5.72e+09 1.0 0.0e+00 0.0e+00 0.0e+00 10  6  0  0  0  82  6  0  0  0  1681    1684      0 0.00e+00    0 0.00e+00  100
TSJacobianEval       147 1.0 1.2904e+00 1.0 0.00e+00 0.0 0.0e+00 0.0e+00 0.0e+00  1  0  0  0  0   8  0  0  0  0     0       0      0 0.00e+00    0 0.00e+00  0
KSPSetUp             147 1.0 2.7699e-05 1.1 0.00e+00 0.0 0.0e+00 0.0e+00 0.0e+00  0  0  0  0  0   0  0  0  0  0     0       0      0 0.00e+00    0 0.00e+00  0
KSPSolve             147 1.0 1.6754e+00 1.0 8.61e+10 1.0 0.0e+00 0.0e+00 0.0e+00  1 85  0  0  0  10 93  0  0  0 205588       0      0 0.00e+00    0 0.00e+00  100
SNESSolve             10 1.0 1.6600e+01 1.0 9.22e+10 1.0 0.0e+00 0.0e+00 0.0e+00 13 91  0  0  0 100 100  0  0  0 22208   24757      0 0.00e+00    0 0.00e+00  100
SNESFunctionEval     157 1.0 1.3613e+01 1.0 5.85e+09 1.0 0.0e+00 0.0e+00 0.0e+00 10  6  0  0  0  82  6  0  0  0  1719    1722      0 0.00e+00    0 0.00e+00  100
SNESJacobianEval     147 1.0 1.2906e+00 1.0 0.00e+00 0.0 0.0e+00 0.0e+00 0.0e+00  1  0  0  0  0   8  0  0  0  0     0       0      0 0.00e+00    0 0.00e+00  0
SNESLineSearch       147 1.0 1.3540e+01 1.0 5.67e+09 1.0 0.0e+00 0.0e+00 0.0e+00 10  6  0  0  0  82  6  0  0  0  1676    1680      0 0.00e+00    0 0.00e+00  100
PCSetUp              147 1.0 1.9279e-03 1.1 0.00e+00 0.0 0.0e+00 0.0e+00 0.0e+00  0  0  0  0  0   0  0  0  0  0     0       0      0 0.00e+00    0 0.00e+00  0
PCApply              147 1.0 1.6750e+00 1.0 8.61e+10 1.0 0.0e+00 0.0e+00 0.0e+00  1 85  0  0  0  10 93  0  0  0 205639       0      0 0.00e+00    0 0.00e+00  100
---------------------------------------------------------------------------------------------------------------------------------------------------------------

Object Type          Creations   Destructions. Reports information only for process 0.

--- Event Stage 0: Main Stage

           Container   497            497
    Distributed Mesh   798            798
            DM Label  1849           1849
          Quadrature  2062           2062
           Index Set 12096          12096
   IS L to G Mapping  1691           1691
             Section  3001           3001
   Star Forest Graph  2420           2420
     Discrete System  1277           1277
           Weak Form  1277           1277
    GraphPartitioner   327            327
              Vector   458            514
       p4est logging     1              1
        Linear Space   104            104
          Dual Space   366            366
            FE Space    76             76
              Matrix  1152           1152
  PetscDeviceContext     1              0
       Field over DM    18             18
             TSAdapt     1              1
                  TS     1              1
                DMTS     1              1
                SNES     1              1
              DMSNES     3              3
      SNESLineSearch     1              1
       Krylov Solver     1              2
     DMKSP interface     0              1
      Preconditioner     1              2
              Viewer     1              1

--- Event Stage 1: Warmup

           Index Set     3              3
              Vector    56              0
       Krylov Solver     1              0
     DMKSP interface     1              0
      Preconditioner     1              0

--- Event Stage 2: Solve

========================================================================================================================
Average time to get PetscTime(): 3.51e-08
Average time for MPI_Barrier(): 1.8276e-06
Average time for zero size MPI_Send(): 1.45105e-05
#PETSc Option Table entries:
-dim 3 # (source: command line)
-dm_landau_amr_levels_max 2,2,2 # (source: command line)
-dm_landau_batch_size 16 # (source: command line)
-dm_landau_device_type kokkos # (source: file)
-dm_landau_Ez 0 # (source: file)
-dm_landau_ion_charges 1,2,3,4,5,6,7,8,9 # (source: file)
-dm_landau_ion_masses 2,182,182,182,182,182,182,182,182 # (source: file)
-dm_landau_n 1.0000044,1,1e-7,1e-7,1e-7,1e-7,1e-7,1e-7,1e-7,1e-7 # (source: file)
-dm_landau_num_species_grid 1,1,8 # (source: file)
-dm_landau_thermal_temps 2,1,1,1,1,1,1,1,1,1 # (source: file)
-dm_landau_type p8est # (source: command line)
-dm_landau_verbose 1 # (source: command line)
-dm_mat_type aijkokkos # (source: file)
-dm_preallocate_only false # (source: code)
-dm_vec_type kokkos # (source: file)
-ex2_test_type none # (source: file)
-ksp_type preonly # (source: command line)
-log_view # (source: command line)
-log_view_gpu_time # (source: command line)
-options_left # (source: command line)
-pc_bjkokkos_ksp_converged_reason # (source: command line)
-pc_bjkokkos_ksp_error_if_not_converged # (source: command line)
-pc_bjkokkos_ksp_max_it 100 # (source: command line)
-pc_bjkokkos_ksp_rtol 1.e-8 # (source: command line)
-pc_bjkokkos_ksp_type tfqmr # (source: command line)
-pc_bjkokkos_pc_type jacobi # (source: command line)
-pc_type bjkokkos # (source: command line)
-petscspace_degree 2 # (source: command line)
-snes_converged_reason # (source: file)
-snes_linesearch_type basic # (source: file)
-snes_max_it 50 # (source: file)
-snes_monitor # (source: file)
-snes_rtol 1e-14 # (source: file)
-snes_stol 1e-14 # (source: file)
-ts_adapt_clip .5,1.1 # (source: file)
-ts_adapt_dt_max 1 # (source: file)
-ts_adapt_monitor # (source: file)
-ts_adapt_scale_solve_failed 0.5 # (source: file)
-ts_adapt_time_step_increase_delay 5 # (source: file)
-ts_dt .5 # (source: file)
-ts_exact_final_time stepover # (source: file)
-ts_max_snes_failures -1 # (source: file)
-ts_max_steps 10 # (source: file)
-ts_max_time 100 # (source: file)
-ts_monitor # (source: file)
-ts_rtol 1e-2 # (source: file)
-ts_type beuler # (source: file)
-ts_view # (source: command line)
-use_gpu_aware_mpi 0 # (source: file)
#End of PETSc Option Table entries
Compiled without FORTRAN kernels
Compiled with full precision matrices (default)
sizeof(short) 2 sizeof(int) 4 sizeof(long) 8 sizeof(void*) 8 sizeof(PetscScalar) 8 sizeof(PetscInt) 4
Configure options: --CFLAGS="   -g -DPETSC_HAVE_CUDA_NVTX" --CXXFLAGS=" -g -DPETSC_HAVE_CUDA_NVTX" --CUDAFLAGS="-g -Xcompiler -rdynamic" --LIBS=-lnvToolsExt --with-cc=cc --with-cxx=CC --with-fc=ftn --with-fortran-bindings=0 --COPTFLAGS="   -O" --CXXOPTFLAGS=" -O" --FOPTFLAGS="   -O" --with-dmlandau-3d --with-debugging=0 --with-x=0 --with-cuda=1 --with-cuda-arch=80 --with-mpiexec=srun --with-batch=0 --download-p4est=1 --with-zlib=1 --download-kokkos --download-kokkos-kernels --with-kokkos-kernels-tpl=0 --with-make-np=8 PETSC_ARCH=arch-perlmutter-opt-gcc-kokkos-cuda-3d
-----------------------------------------
Libraries compiled on 2024-06-27 20:01:11 on login19 
Machine characteristics: Linux-5.14.21-150400.24.81_12.0.87-cray_shasta_c-x86_64-with-glibc2.3.4
Using PETSc directory: /global/u2/m/madams/petsc
Using PETSc arch: arch-perlmutter-opt-gcc-kokkos-cuda-3d
-----------------------------------------

Using C compiler: cc -g -DPETSC_HAVE_CUDA_NVTX -fPIC -O  
Using Fortran compiler: ftn  -fPIC -Wall -ffree-line-length-none -ffree-line-length-0 -Wno-lto-type-mismatch -Wno-unused-dummy-argument -O    
-----------------------------------------

Using include paths: -I/global/u2/m/madams/petsc/include -I/global/u2/m/madams/petsc/arch-perlmutter-opt-gcc-kokkos-cuda-3d/include -I/opt/nvidia/hpc_sdk/Linux_x86_64/23.9/cuda/12.2/include -I/opt/nvidia/hpc_sdk/Linux_x86_64/23.9/math_libs/12.2/include
-----------------------------------------

Using C linker: cc
Using Fortran linker: ftn
Using libraries: -Wl,-rpath,/global/u2/m/madams/petsc/arch-perlmutter-opt-gcc-kokkos-cuda-3d/lib -L/global/u2/m/madams/petsc/arch-perlmutter-opt-gcc-kokkos-cuda-3d/lib -lpetsc -Wl,-rpath,/global/u2/m/madams/petsc/arch-perlmutter-opt-gcc-kokkos-cuda-3d/lib -L/global/u2/m/madams/petsc/arch-perlmutter-opt-gcc-kokkos-cuda-3d/lib -Wl,-rpath,/opt/nvidia/hpc_sdk/Linux_x86_64/23.9/math_libs/12.2/lib64 -L/opt/nvidia/hpc_sdk/Linux_x86_64/23.9/math_libs/12.2/lib64 -Wl,-rpath,/opt/nvidia/hpc_sdk/Linux_x86_64/23.9/cuda/12.2/lib64 -L/opt/nvidia/hpc_sdk/Linux_x86_64/23.9/cuda/12.2/lib64 -L/opt/nvidia/hpc_sdk/Linux_x86_64/23.9/cuda/12.2/lib64/stubs -Wl,-rpath,/opt/cray/pe/mpich/8.1.28/ofi/gnu/12.3/lib -L/opt/cray/pe/mpich/8.1.28/ofi/gnu/12.3/lib -Wl,-rpath,/opt/cray/pe/mpich/8.1.28/gtl/lib -L/opt/cray/pe/mpich/8.1.28/gtl/lib -Wl,-rpath,/opt/cray/pe/libsci/23.12.5/GNU/12.3/x86_64/lib -L/opt/cray/pe/libsci/23.12.5/GNU/12.3/x86_64/lib -Wl,-rpath,/opt/cray/pe/hdf5-parallel/1.12.2.9/gnu/12.3/lib -L/opt/cray/pe/hdf5-parallel/1.12.2.9/gnu/12.3/lib -Wl,-rpath,/opt/nvidia/hpc_sdk/Linux_x86_64/23.9/cuda/12.2/lib64/stubs -Wl,-rpath,/opt/nvidia/hpc_sdk/Linux_x86_64/23.9/cuda/12.2/nvvm/lib64 -L/opt/nvidia/hpc_sdk/Linux_x86_64/23.9/cuda/12.2/nvvm/lib64 -Wl,-rpath,/opt/nvidia/hpc_sdk/Linux_x86_64/23.9/cuda/12.2/extras/CUPTI/lib64 -L/opt/nvidia/hpc_sdk/Linux_x86_64/23.9/cuda/12.2/extras/CUPTI/lib64 -Wl,-rpath,/opt/nvidia/hpc_sdk/Linux_x86_64/23.9/cuda/12.2/extras/Debugger/lib64 -L/opt/nvidia/hpc_sdk/Linux_x86_64/23.9/cuda/12.2/extras/Debugger/lib64 -Wl,-rpath,/opt/cray/pe/dsmml/0.2.2/dsmml/lib -L/opt/cray/pe/dsmml/0.2.2/dsmml/lib -Wl,-rpath,/opt/cray/xpmem/2.6.2-2.5_2.38__gd067c3f.shasta/lib64 -L/opt/cray/xpmem/2.6.2-2.5_2.38__gd067c3f.shasta/lib64 -Wl,-rpath,/usr/lib64/gcc/x86_64-suse-linux/12 -L/usr/lib64/gcc/x86_64-suse-linux/12 -Wl,-rpath,/usr/x86_64-suse-linux/lib -L/usr/x86_64-suse-linux/lib -lkokkoskernels -lkokkoscontainers -lkokkoscore -lkokkossimd -lp4est -lsc -lz -lcufft -lcublas -lcusparse -lcusolver -lcurand -lcudart -lnvToolsExt -lcuda -lnvToolsExt -lcuda -lmpi_gtl_cuda -ldl -lxpmem -lgfortran -lm -lhdf5_hl_parallel -lhdf5_parallel -lcupti -lcudart -lhdf5hl_fortran_parallel -lhdf5_fortran_parallel -lmpifort_gnu_123 -lsci_gnu_123_mpi -lmpi_gnu_123 -lsci_gnu_123 -ldsmml -lgfortran -lquadmath -lpthread -lm -lgcc_s -lstdc++ -lquadmath -lnvToolsExt
-----------------------------------------

#PETSc Option Table entries:
-dim 3 # (source: command line)
-dm_landau_amr_levels_max 2,2,2 # (source: command line)
-dm_landau_batch_size 16 # (source: command line)
-dm_landau_device_type kokkos # (source: file)
-dm_landau_Ez 0 # (source: file)
-dm_landau_ion_charges 1,2,3,4,5,6,7,8,9 # (source: file)
-dm_landau_ion_masses 2,182,182,182,182,182,182,182,182 # (source: file)
-dm_landau_n 1.0000044,1,1e-7,1e-7,1e-7,1e-7,1e-7,1e-7,1e-7,1e-7 # (source: file)
-dm_landau_num_species_grid 1,1,8 # (source: file)
-dm_landau_thermal_temps 2,1,1,1,1,1,1,1,1,1 # (source: file)
-dm_landau_type p8est # (source: command line)
-dm_landau_verbose 1 # (source: command line)
-dm_mat_type aijkokkos # (source: file)
-dm_preallocate_only false # (source: code)
-dm_vec_type kokkos # (source: file)
-ex2_test_type none # (source: file)
-ksp_type preonly # (source: command line)
-log_view # (source: command line)
-log_view_gpu_time # (source: command line)
-options_left # (source: command line)
-pc_bjkokkos_ksp_converged_reason # (source: command line)
-pc_bjkokkos_ksp_error_if_not_converged # (source: command line)
-pc_bjkokkos_ksp_max_it 100 # (source: command line)
-pc_bjkokkos_ksp_rtol 1.e-8 # (source: command line)
-pc_bjkokkos_ksp_type tfqmr # (source: command line)
-pc_bjkokkos_pc_type jacobi # (source: command line)
-pc_type bjkokkos # (source: command line)
-petscspace_degree 2 # (source: command line)
-snes_converged_reason # (source: file)
-snes_linesearch_type basic # (source: file)
-snes_max_it 50 # (source: file)
-snes_monitor # (source: file)
-snes_rtol 1e-14 # (source: file)
-snes_stol 1e-14 # (source: file)
-ts_adapt_clip .5,1.1 # (source: file)
-ts_adapt_dt_max 1 # (source: file)
-ts_adapt_monitor # (source: file)
-ts_adapt_scale_solve_failed 0.5 # (source: file)
-ts_adapt_time_step_increase_delay 5 # (source: file)
-ts_dt .5 # (source: file)
-ts_exact_final_time stepover # (source: file)
-ts_max_snes_failures -1 # (source: file)
-ts_max_steps 10 # (source: file)
-ts_max_time 100 # (source: file)
-ts_monitor # (source: file)
-ts_rtol 1e-2 # (source: file)
-ts_type beuler # (source: file)
-ts_view # (source: command line)
-use_gpu_aware_mpi 0 # (source: file)
#End of PETSc Option Table entries
There are no unused options.
