masses:        e= 9.109e-31; ions in proton mass units:    2.000e+00  1.820e+02 ...
charges:       e=-1.602e-19; charges in elementary units:  1.000e+00  2.000e+00
n:             e:  1.000e+00                           i:  1.000e+00  1.000e-07
thermal T (K): e= 2.321e+07 i= 1.160e+07  1.160e+07. Normalization grid 0: v_0= 1.876e+07 ( 6.256e-02c) n_0= 1.000e+20 t_0= 1.909e-05 512 batched, view batch 0
Domain radius (AMR levels) grid 0: par= 5.000e+00 perp= 5.000e+00 (2) , 1: par= 5.835e-02 perp= 5.835e-02 (2) , 2: par= 6.117e-03 perp= 6.117e-03 (2) 
0) FormLandau 672 IPs, 42 cells total, Nb=16, Nq=16, dim=2, Tab: Nb=16 Nf=10 Np=16 cdim=2 N=727040 nnz=16148480
0 TS dt 0.5 time 0.
    0 SNES Function norm 1.344274277131e-01
    1 SNES Function norm 1.410739031102e-03
    2 SNES Function norm 1.953309420020e-04
    3 SNES Function norm 4.938530596278e-05
    4 SNES Function norm 1.191040365660e-05
    5 SNES Function norm 2.822898626835e-06
    6 SNES Function norm 6.651859601173e-07
    7 SNES Function norm 1.564227480917e-07
    8 SNES Function norm 3.675434993079e-08
    9 SNES Function norm 8.633273619342e-09
   10 SNES Function norm 2.027540668279e-09
   11 SNES Function norm 4.761745672346e-10
   12 SNES Function norm 1.118343630079e-10
   13 SNES Function norm 2.624517730728e-11
   14 SNES Function norm 6.168932919824e-12
    Nonlinear solve converged due to CONVERGED_SNORM_RELATIVE iterations 14
      TSAdapt none beuler 0: step   0 accepted t=0          + 5.000e-01 dt=5.000e-01 
1 TS dt 0.5 time 0.5
TS Object: 1 MPI process
  type: beuler
  maximum steps=1
  maximum time=100.
  total number of I function evaluations=15
  total number of I Jacobian evaluations=14
  total number of RHS function evaluations=15
  total number of nonlinear solver iterations=14
  total number of linear solver iterations=336
  total number of nonlinear solve failures=0
  total number of rejected steps=0
  using relative error tolerance of 0.01,   using absolute error tolerance of 0.0001
  TSAdapt Object: 1 MPI process
    type: none
  SNES Object: 1 MPI process
    type: newtonls
    maximum iterations=50, maximum function evaluations=10000
    tolerances: relative=1e-14, absolute=1e-50, solution=1e-14
    total number of linear solver iterations=336
    total number of function evaluations=15
    norm schedule ALWAYS
    SNESLineSearch Object: 1 MPI process
      type: basic
      maxstep=1.000000e+08, minlambda=1.000000e-12
      tolerances: relative=1.000000e-08, absolute=1.000000e-15, lambda=1.000000e-08
      maximum iterations=40
    KSP Object: 1 MPI process
      type: preonly
      maximum iterations=10000, initial guess is zero
      tolerances: relative=1e-05, absolute=1e-50, divergence=10000.
      left preconditioning
      using NONE norm type for convergence test
    PC Object: 1 MPI process
      type: bjkokkos
        Batched device linear solver: Krylov (KSP) method with Jacobi preconditioning
      		nwork = 10, rel tol = 1.000000e-08, abs tol = 1.000000e-50, div tol = 1.000000e+04, max it =100, type = tfqmr
      linear system matrix = precond matrix:
      Mat Object: Jacobian 1 MPI process
        type: seqaijkokkos
        rows=727040, cols=727040
        total: nonzeros=16148480, allocated nonzeros=16148480
        total number of mallocs used during MatSetValues calls=0
          using I-node routines: found 340992 nodes, limit used is 5
0 TS dt 0.5 time 0.
    0 SNES Function norm 1.344274277131e-01
    1 SNES Function norm 1.410739031102e-03
    2 SNES Function norm 1.953309420020e-04
    3 SNES Function norm 4.938530596278e-05
    4 SNES Function norm 1.191040365660e-05
    5 SNES Function norm 2.822898626835e-06
    6 SNES Function norm 6.651859601173e-07
    7 SNES Function norm 1.564227480917e-07
    8 SNES Function norm 3.675434993079e-08
    9 SNES Function norm 8.633273619342e-09
   10 SNES Function norm 2.027540668279e-09
   11 SNES Function norm 4.761745672346e-10
   12 SNES Function norm 1.118343630079e-10
   13 SNES Function norm 2.624517730728e-11
   14 SNES Function norm 6.168932919824e-12
    Nonlinear solve converged due to CONVERGED_SNORM_RELATIVE iterations 14
      TSAdapt none beuler 0: step   0 accepted t=0          + 5.000e-01 dt=5.000e-01 
1 TS dt 0.5 time 0.5
    0 SNES Function norm 4.690098107917e-02
    1 SNES Function norm 9.526644120984e-04
    2 SNES Function norm 1.776909913921e-04
    3 SNES Function norm 4.269650705189e-05
    4 SNES Function norm 1.020802462643e-05
    5 SNES Function norm 2.418518377789e-06
    6 SNES Function norm 5.703538517016e-07
    7 SNES Function norm 1.342163844480e-07
    8 SNES Function norm 3.155337614990e-08
    9 SNES Function norm 7.414726829758e-09
   10 SNES Function norm 1.742074227553e-09
   11 SNES Function norm 4.092583301832e-10
   12 SNES Function norm 9.613671894539e-11
   13 SNES Function norm 2.258422089935e-11
    Nonlinear solve converged due to CONVERGED_SNORM_RELATIVE iterations 13
      TSAdapt none beuler 0: step   1 accepted t=0.5        + 5.000e-01 dt=5.000e-01 
2 TS dt 0.5 time 1.
    0 SNES Function norm 3.055672588838e-02
    1 SNES Function norm 1.061880728878e-03
    2 SNES Function norm 2.228450524886e-04
    3 SNES Function norm 5.336249669911e-05
    4 SNES Function norm 1.272010015723e-05
    5 SNES Function norm 3.011054519013e-06
    6 SNES Function norm 7.100643322333e-07
    7 SNES Function norm 1.671436519179e-07
    8 SNES Function norm 3.931176969403e-08
    9 SNES Function norm 9.242599604137e-09
   10 SNES Function norm 2.172695839359e-09
   11 SNES Function norm 5.107123493288e-10
   12 SNES Function norm 1.200226127778e-10
   13 SNES Function norm 2.819031101043e-11
   14 SNES Function norm 6.638824391390e-12
    Nonlinear solve converged due to CONVERGED_SNORM_RELATIVE iterations 14
      TSAdapt none beuler 0: step   2 accepted t=1          + 5.000e-01 dt=5.000e-01 
3 TS dt 0.5 time 1.5
    0 SNES Function norm 2.302118618914e-02
    1 SNES Function norm 1.267721361689e-03
    2 SNES Function norm 2.876370675785e-04
    3 SNES Function norm 6.900434871937e-05
    4 SNES Function norm 1.642725401975e-05
    5 SNES Function norm 3.886637082625e-06
    6 SNES Function norm 9.166602488061e-07
    7 SNES Function norm 2.158736434481e-07
    8 SNES Function norm 5.080416636004e-08
    9 SNES Function norm 1.195281189915e-08
   10 SNES Function norm 2.811739794140e-09
   11 SNES Function norm 6.614238877150e-10
   12 SNES Function norm 1.555644490331e-10
   13 SNES Function norm 3.660654465948e-11
   14 SNES Function norm 8.574522908549e-12
    Nonlinear solve converged due to CONVERGED_SNORM_RELATIVE iterations 14
      TSAdapt none beuler 0: step   3 accepted t=1.5        + 5.000e-01 dt=5.000e-01 
4 TS dt 0.5 time 2.
    0 SNES Function norm 1.891338561236e-02
    1 SNES Function norm 1.509402686955e-03
    2 SNES Function norm 3.551167916541e-04
    3 SNES Function norm 8.520443020386e-05
    4 SNES Function norm 2.026726472801e-05
    5 SNES Function norm 4.794829222621e-06
    6 SNES Function norm 1.131342463543e-06
    7 SNES Function norm 2.666132325051e-07
    8 SNES Function norm 6.279556132108e-08
    9 SNES Function norm 1.478662153700e-08
   10 SNES Function norm 3.481482177100e-09
   11 SNES Function norm 8.196597355687e-10
   12 SNES Function norm 1.929644441648e-10
   13 SNES Function norm 4.543789640672e-11
   14 SNES Function norm 1.070083074584e-11
    Nonlinear solve converged due to CONVERGED_SNORM_RELATIVE iterations 14
      TSAdapt none beuler 0: step   4 accepted t=2          + 5.000e-01 dt=5.000e-01 
5 TS dt 0.5 time 2.5
    0 SNES Function norm 1.650447026584e-02
    1 SNES Function norm 1.741754529724e-03
    2 SNES Function norm 4.161657085533e-04
    3 SNES Function norm 9.979802326401e-05
    4 SNES Function norm 2.372980965293e-05
    5 SNES Function norm 5.615649317964e-06
    6 SNES Function norm 1.325911216233e-06
    7 SNES Function norm 3.127344504192e-07
    8 SNES Function norm 7.372819244253e-08
    9 SNES Function norm 1.737804411920e-08
   10 SNES Function norm 4.095677487710e-09
   11 SNES Function norm 9.652210397253e-10
   12 SNES Function norm 2.274893722558e-10
   13 SNES Function norm 5.361435612743e-11
   14 SNES Function norm 1.261891374131e-11
    Nonlinear solve converged due to CONVERGED_SNORM_RELATIVE iterations 14
      TSAdapt none beuler 0: step   5 accepted t=2.5        + 5.000e-01 dt=5.000e-01 
6 TS dt 0.5 time 3.
    0 SNES Function norm 1.502919998825e-02
    1 SNES Function norm 1.939844977920e-03
    2 SNES Function norm 4.665322254152e-04
    3 SNES Function norm 1.118155078912e-04
    4 SNES Function norm 2.658760614113e-05
    5 SNES Function norm 6.295478282196e-06
    6 SNES Function norm 1.487689362682e-06
    7 SNES Function norm 3.512379170255e-07
    8 SNES Function norm 8.289223369468e-08
    9 SNES Function norm 1.955899567230e-08
   10 SNES Function norm 4.614689261481e-09
   11 SNES Function norm 1.088765510164e-09
   12 SNES Function norm 2.568847746642e-10
   13 SNES Function norm 6.057319033158e-11
   14 SNES Function norm 1.430097502197e-11
    Nonlinear solve converged due to CONVERGED_SNORM_RELATIVE iterations 14
      TSAdapt none beuler 0: step   6 accepted t=3          + 5.000e-01 dt=5.000e-01 
7 TS dt 0.5 time 3.5
    0 SNES Function norm 1.407939058678e-02
    1 SNES Function norm 2.093661878750e-03
    2 SNES Function norm 5.049071466506e-04
    3 SNES Function norm 1.209726686867e-04
    4 SNES Function norm 2.877363550882e-05
    5 SNES Function norm 6.818169102532e-06
    6 SNES Function norm 1.612762485520e-06
    7 SNES Function norm 3.811733865643e-07
    8 SNES Function norm 9.005702375476e-08
    9 SNES Function norm 2.127367281458e-08
   10 SNES Function norm 5.025007736669e-09
   11 SNES Function norm 1.186905632847e-09
   12 SNES Function norm 2.803170272167e-10
   13 SNES Function norm 6.620154198792e-11
   14 SNES Function norm 1.564495457742e-11
    Nonlinear solve converged due to CONVERGED_SNORM_RELATIVE iterations 14
      TSAdapt none beuler 0: step   7 accepted t=3.5        + 5.000e-01 dt=5.000e-01 
8 TS dt 0.5 time 4.
    0 SNES Function norm 1.341651566339e-02
    1 SNES Function norm 2.201924947523e-03
    2 SNES Function norm 5.316096523912e-04
    3 SNES Function norm 1.273577405474e-04
    4 SNES Function norm 3.030767565846e-05
    5 SNES Function norm 7.187891036223e-06
    6 SNES Function norm 1.701978362862e-06
    7 SNES Function norm 4.027073192157e-07
    8 SNES Function norm 9.525389802182e-08
    9 SNES Function norm 2.252747888422e-08
   10 SNES Function norm 5.327404118110e-09
   11 SNES Function norm 1.259779201113e-09
   12 SNES Function norm 2.979026689099e-10
   13 SNES Function norm 7.045231922859e-11
   14 SNES Function norm 1.664717359090e-11
    Nonlinear solve converged due to CONVERGED_SNORM_RELATIVE iterations 14
      TSAdapt none beuler 0: step   8 accepted t=4          + 5.000e-01 dt=5.000e-01 
9 TS dt 0.5 time 4.5
    0 SNES Function norm 1.289907079165e-02
    1 SNES Function norm 2.267847100095e-03
    2 SNES Function norm 5.477589821836e-04
    3 SNES Function norm 1.312399382556e-04
    4 SNES Function norm 3.125174456987e-05
    5 SNES Function norm 7.418753564706e-06
    6 SNES Function norm 1.758529849355e-06
    7 SNES Function norm 4.165599883283e-07
    8 SNES Function norm 9.864487325927e-08
    9 SNES Function norm 2.335679568747e-08
   10 SNES Function norm 5.530005903014e-09
   11 SNES Function norm 1.309264432942e-09
   12 SNES Function norm 3.099827186340e-10
   13 SNES Function norm 7.341271019652e-11
   14 SNES Function norm 1.734932587350e-11
    Nonlinear solve converged due to CONVERGED_SNORM_RELATIVE iterations 14
      TSAdapt none beuler 0: step   9 accepted t=4.5        + 5.000e-01 dt=5.000e-01 
10 TS dt 0.5 time 5.
TS Object: 1 MPI process
  type: beuler
  maximum steps=10
  maximum time=100.
  total number of I function evaluations=164
  total number of I Jacobian evaluations=153
  total number of RHS function evaluations=164
  total number of nonlinear solver iterations=139
  total number of linear solver iterations=3337
  total number of nonlinear solve failures=0
  total number of rejected steps=0
  using relative error tolerance of 0.01,   using absolute error tolerance of 0.0001
  TSAdapt Object: 1 MPI process
    type: none
  SNES Object: 1 MPI process
    type: newtonls
    maximum iterations=50, maximum function evaluations=10000
    tolerances: relative=1e-14, absolute=1e-50, solution=1e-14
    total number of linear solver iterations=337
    total number of function evaluations=15
    norm schedule ALWAYS
    SNESLineSearch Object: 1 MPI process
      type: basic
      maxstep=1.000000e+08, minlambda=1.000000e-12
      tolerances: relative=1.000000e-08, absolute=1.000000e-15, lambda=1.000000e-08
      maximum iterations=40
    KSP Object: 1 MPI process
      type: preonly
      maximum iterations=10000, initial guess is zero
      tolerances: relative=1e-05, absolute=1e-50, divergence=10000.
      left preconditioning
      using NONE norm type for convergence test
    PC Object: 1 MPI process
      type: bjkokkos
        Batched device linear solver: Krylov (KSP) method with Jacobi preconditioning
      		nwork = 10, rel tol = 1.000000e-08, abs tol = 1.000000e-50, div tol = 1.000000e+04, max it =100, type = tfqmr
      linear system matrix = precond matrix:
      Mat Object: Jacobian 1 MPI process
        type: seqaijkokkos
        rows=727040, cols=727040
        total: nonzeros=16148480, allocated nonzeros=16148480
        total number of mallocs used during MatSetValues calls=0
          using I-node routines: found 340992 nodes, limit used is 5
****************************************************************************************************************************************************************
***                                WIDEN YOUR WINDOW TO 160 CHARACTERS.  Use 'enscript -r -fCourier9' to print this document                                 ***
****************************************************************************************************************************************************************

------------------------------------------------------------------ PETSc Performance Summary: ------------------------------------------------------------------



      ##########################################################
      #                                                        #
      #                       WARNING!!!                       #
      #                                                        #
      #   This code was run with -log_view_gpu_time            #
      #   This provides accurate timing within the GPU kernels #
      #   but can slow down the entire computation by a        #
      #   measurable amount. For fastest runs we recommend     #
      #   not using this option.                               #
      #                                                        #
      ##########################################################


/global/u2/m/madams/batch_gmres_paper/landau_throughput_nsight/perlmutter/./ex2-2 on a arch-perlmutter-opt-gcc-kokkos-cuda named nid200381 with 4 processes and CUDA architecture 80, by madams on Thu Jun 27 14:59:38 2024
Using Petsc Development GIT revision: v3.21.2-329-g0f40c42b27c  GIT Date: 2024-06-27 15:17:08 -0400

                         Max       Max/Min     Avg       Total
Time (sec):           2.936e+01     1.000   2.936e+01
Objects:              0.000e+00     0.000   0.000e+00
Flops:                1.547e+11     1.000   1.547e+11  6.189e+11
Flops/sec:            5.271e+09     1.000   5.271e+09  2.108e+10
MPI Msg Count:        0.000e+00     0.000   0.000e+00  0.000e+00
MPI Msg Len (bytes):  0.000e+00     0.000   0.000e+00  0.000e+00
MPI Reductions:       2.100e+01     1.000

Flop counting convention: 1 flop = 1 real number operation of type (multiply/divide/add/subtract)
                            e.g., VecAXPY() for real vectors of length N --> 2N flops
                            and VecAXPY() for complex vectors of length N --> 8N flops

Summary of Stages:   ----- Time ------  ----- Flop ------  --- Messages ---  -- Message Lengths --  -- Reductions --
                        Avg     %Total     Avg     %Total    Count   %Total     Avg         %Total    Count   %Total
 0:      Main Stage: 2.4523e+01  83.5%  9.3526e+07   0.0%  0.000e+00   0.0%  0.000e+00        0.0%  2.000e+00   9.5%
 1:          Warmup: 6.2151e-01   2.1%  5.6649e+10   9.2%  0.000e+00   0.0%  0.000e+00        0.0%  0.000e+00   0.0%
 2:           Solve: 4.2140e+00  14.4%  5.6219e+11  90.8%  0.000e+00   0.0%  0.000e+00        0.0%  0.000e+00   0.0%

------------------------------------------------------------------------------------------------------------------------
See the 'Profiling' chapter of the users' manual for details on interpreting output.
Phase summary info:
   Count: number of times phase was executed
   Time and Flop: Max - maximum over all processors
                  Ratio - ratio of maximum to minimum over all processors
   Mess: number of messages sent
   AvgLen: average message length (bytes)
   Reduct: number of global reductions
   Global: entire computation
   Stage: stages of a computation. Set stages with PetscLogStagePush() and PetscLogStagePop().
      %T - percent time in this phase         %F - percent flop in this phase
      %M - percent messages in this phase     %L - percent message lengths in this phase
      %R - percent reductions in this phase
   Total Mflop/s: 10e-6 * (sum of flop over all processors)/(max time over all processors)
   GPU Mflop/s: 10e-6 * (sum of flop on GPU over all processors)/(max GPU time over all processors)
   CpuToGpu Count: total number of CPU to GPU copies per processor
   CpuToGpu Size (Mbytes): 10e-6 * (total size of CPU to GPU copies per processor)
   GpuToCpu Count: total number of GPU to CPU copies per processor
   GpuToCpu Size (Mbytes): 10e-6 * (total size of GPU to CPU copies per processor)
   GPU %F: percent flops on GPU in this event
------------------------------------------------------------------------------------------------------------------------
Event                Count      Time (sec)     Flop                              --- Global ---  --- Stage ----  Total   GPU    - CpuToGpu -   - GpuToCpu - GPU
                   Max Ratio  Max     Ratio   Max  Ratio  Mess   AvgLen  Reduct  %T %F %M %L %R  %T %F %M %L %R Mflop/s Mflop/s Count   Size   Count   Size  %F
---------------------------------------------------------------------------------------------------------------------------------------------------------------

--- Event Stage 0: Main Stage

BuildTwoSided       6183 1.0 3.6736e-03 1.1 0.00e+00 0.0 0.0e+00 0.0e+00 0.0e+00  0  0  0  0  0   0  0  0  0  0     0       0      0 0.00e+00    0 0.00e+00  0
DMConvert             18 1.0 1.3843e-03 1.0 0.00e+00 0.0 0.0e+00 0.0e+00 0.0e+00  0  0  0  0  0   0  0  0  0  0     0       0      0 0.00e+00    0 0.00e+00  0
DMCreateMat            8 1.0 1.2350e+01 1.0 0.00e+00 0.0 0.0e+00 0.0e+00 0.0e+00 41  0  0  0  0  50  0  0  0  0     0       0      0 0.00e+00    0 0.00e+00  0
DMProjectFunc       1545 1.0 6.5898e-01 1.0 2.02e+07 1.0 0.0e+00 0.0e+00 0.0e+00  2  0  0  0  0   3 86  0  0  0   122       0      0 0.00e+00    0 0.00e+00  0
DMPlexInterp         124 1.0 1.5746e-03 1.0 0.00e+00 0.0 0.0e+00 0.0e+00 0.0e+00  0  0  0  0  0   0  0  0  0  0     0       0      0 0.00e+00    0 0.00e+00  0
DMPlexStratify       182 1.0 2.7719e-03 1.0 0.00e+00 0.0 0.0e+00 0.0e+00 0.0e+00  0  0  0  0  0   0  0  0  0  0     0       0      0 0.00e+00    0 0.00e+00  0
DMPlexSymmetrize     182 1.0 9.8616e-05 1.1 0.00e+00 0.0 0.0e+00 0.0e+00 0.0e+00  0  0  0  0  0   0  0  0  0  0     0       0      0 0.00e+00    0 0.00e+00  0
DMPlexPrealloc      3078 1.0 6.7804e+00 1.0 0.00e+00 0.0 0.0e+00 0.0e+00 0.0e+00 23  0  0  0  0  27  0  0  0  0     0       0      0 0.00e+00    0 0.00e+00  0
DMPlexJacobianFE       6 1.0 3.4900e-02 1.0 2.13e+06 1.0 0.0e+00 0.0e+00 0.0e+00  0  0  0  0  0   0  9  0  0  0   244       0      0 0.00e+00    0 0.00e+00  0
DMPlexGenerate         3 1.0 5.3766e-04 1.4 0.00e+00 0.0 0.0e+00 0.0e+00 0.0e+00  0  0  0  0  0   0  0  0  0  0     0       0      0 0.00e+00    0 0.00e+00  0
SFSetGraph         12348 1.0 9.4444e-04 1.1 0.00e+00 0.0 0.0e+00 0.0e+00 0.0e+00  0  0  0  0  0   0  0  0  0  0     0       0      0 0.00e+00    0 0.00e+00  0
SFSetUp             6183 1.0 1.3578e-02 1.1 0.00e+00 0.0 0.0e+00 0.0e+00 0.0e+00  0  0  0  0  0   0  0  0  0  0     0       0      0 0.00e+00    0 0.00e+00  0
SFBcastBegin       12378 1.0 1.6409e-02 1.0 0.00e+00 0.0 0.0e+00 0.0e+00 0.0e+00  0  0  0  0  0   0  0  0  0  0     0       0      0 0.00e+00    0 0.00e+00  0
SFBcastEnd         12378 1.0 1.3826e-03 1.1 0.00e+00 0.0 0.0e+00 0.0e+00 0.0e+00  0  0  0  0  0   0  0  0  0  0     0       0      0 0.00e+00    0 0.00e+00  0
SFReduceBegin         54 1.0 1.2213e-04 1.1 0.00e+00 0.0 0.0e+00 0.0e+00 0.0e+00  0  0  0  0  0   0  0  0  0  0     0       0      0 0.00e+00    0 0.00e+00  0
SFReduceEnd           54 1.0 6.3010e-06 1.0 0.00e+00 0.0 0.0e+00 0.0e+00 0.0e+00  0  0  0  0  0   0  0  0  0  0     0       0      0 0.00e+00    0 0.00e+00  0
SFCreateEmbed       6156 1.0 2.6962e-02 1.1 0.00e+00 0.0 0.0e+00 0.0e+00 0.0e+00  0  0  0  0  0   0  0  0  0  0     0       0      0 0.00e+00    0 0.00e+00  0
SFSectionSF         6156 1.0 1.5485e-02 1.1 0.00e+00 0.0 0.0e+00 0.0e+00 0.0e+00  0  0  0  0  0   0  0  0  0  0     0       0      0 0.00e+00    0 0.00e+00  0
SFRemoteOff         6156 1.0 6.4890e-02 1.1 0.00e+00 0.0 0.0e+00 0.0e+00 0.0e+00  0  0  0  0  0   0  0  0  0  0     0       0      0 0.00e+00    0 0.00e+00  0
SFPack             12432 1.0 8.9466e-04 1.1 0.00e+00 0.0 0.0e+00 0.0e+00 0.0e+00  0  0  0  0  0   0  0  0  0  0     0       0      0 0.00e+00    0 0.00e+00  0
Landau Create          1 1.0 1.4877e+01 1.1 2.22e+07 1.0 0.0e+00 0.0e+00 0.0e+00 50  0  0  0  0  60 95  0  0  0     6       0      0 0.00e+00    0 0.00e+00  0
 GPU ass. setup        1 1.0 2.5313e+00 1.0 3.46e+05 1.0 0.0e+00 0.0e+00 0.0e+00  8  0  0  0  0  10  1  0  0  0     1       0      0 0.00e+00    0 0.00e+00  0
 Build matrix          1 1.0 3.2732e+00 1.0 9.26e+05 1.0 0.0e+00 0.0e+00 0.0e+00 11  0  0  0  0  13  4  0  0  0     1       0      0 0.00e+00    0 0.00e+00  0
 Assembly maps         1 1.0 9.0727e+00 1.1 2.08e+07 1.0 0.0e+00 0.0e+00 0.0e+00 30  0  0  0  0  36 89  0  0  0     9       0      0 0.00e+00    0 0.00e+00  0
Landau Mass mat        1 1.0 9.4621e+00 1.0 1.21e+06 1.0 0.0e+00 0.0e+00 0.0e+00 32  0  0  0  0  38  5  0  0  0     1       0      0 0.00e+00    0 0.00e+00  0
 static IP Data        1 1.0 2.7009e-03 1.1 1.34e+05 1.0 0.0e+00 0.0e+00 0.0e+00  0  0  0  0  0   0  1  0  0  0   199       0      0 0.00e+00    0 0.00e+00  0
VecCopy                1 1.0 5.4761e-04 1.2 0.00e+00 0.0 0.0e+00 0.0e+00 0.0e+00  0  0  0  0  0   0  0  0  0  0     0       0      0 0.00e+00    0 0.00e+00  0
VecSet              3069 1.0 4.8030e-02 1.0 0.00e+00 0.0 0.0e+00 0.0e+00 0.0e+00  0  0  0  0  0   0  0  0  0  0     0       0      0 0.00e+00    0 0.00e+00  0
DualSpaceSetUp        40 1.0 1.9811e-02 1.0 8.84e+02 1.0 0.0e+00 0.0e+00 0.0e+00  0  0  0  0  0   0  0  0  0  0     0       0      0 0.00e+00    0 0.00e+00  0
FESetUp               40 1.0 9.7469e-04 1.1 0.00e+00 0.0 0.0e+00 0.0e+00 0.0e+00  0  0  0  0  0   0  0  0  0  0     0       0      0 0.00e+00    0 0.00e+00  0
MatMult           282540 1.0 2.5665e-02 1.0 1.99e+06 1.0 0.0e+00 0.0e+00 0.0e+00  0  0  0  0  0   0  9  0  0  0   311       0      0 0.00e+00    0 0.00e+00  0
MatLUFactor           30 1.0 3.4339e-04 1.3 8.19e+04 1.0 0.0e+00 0.0e+00 0.0e+00  0  0  0  0  0   0  0  0  0  0   954       0      0 0.00e+00    0 0.00e+00  0
MatCopy              120 1.0 7.0095e-05 1.1 0.00e+00 0.0 0.0e+00 0.0e+00 0.0e+00  0  0  0  0  0   0  0  0  0  0     0       0      0 0.00e+00    0 0.00e+00  0
MatConvert            60 1.0 4.9690e-04 1.1 0.00e+00 0.0 0.0e+00 0.0e+00 0.0e+00  0  0  0  0  0   0  0  0  0  0     0       0      0 0.00e+00    0 0.00e+00  0
MatAssemblyBegin    3686 1.0 4.3261e-04 1.2 0.00e+00 0.0 0.0e+00 0.0e+00 0.0e+00  0  0  0  0  0   0  0  0  0  0     0       0      0 0.00e+00    0 0.00e+00  0
MatAssemblyEnd      3686 1.0 6.2390e-01 1.0 0.00e+00 0.0 0.0e+00 0.0e+00 0.0e+00  2  0  0  0  0   3  0  0  0  0     0       0      0 0.00e+00    0 0.00e+00  0
MatGetRowIJ            9 1.0 2.9730e-06 1.9 0.00e+00 0.0 0.0e+00 0.0e+00 0.0e+00  0  0  0  0  0   0  0  0  0  0     0       0      0 0.00e+00    0 0.00e+00  0
MatZeroEntries         6 1.0 1.1595e-04 1.2 0.00e+00 0.0 0.0e+00 0.0e+00 0.0e+00  0  0  0  0  0   0  0  0  0  0     0       0      0 0.00e+00    0 0.00e+00  0
MatMatSolve          120 1.0 3.7101e-04 1.0 9.52e+05 1.0 0.0e+00 0.0e+00 0.0e+00  0  0  0  0  0   0  4  0  0  0 10267       0      0 0.00e+00    0 0.00e+00  0
MatSetPreallCOO      109 1.0 2.0601e+00 1.0 0.00e+00 0.0 0.0e+00 0.0e+00 0.0e+00  7  0  0  0  0   8  0  0  0  0     0       0      0 0.00e+00    0 0.00e+00  0
MatSetValuesCOO      108 1.0 1.4080e-04 1.0 0.00e+00 0.0 0.0e+00 0.0e+00 0.0e+00  0  0  0  0  0   0  0  0  0  0     0       0      0 0.00e+00    0 0.00e+00  0
DCtxCreate             1 1.0 1.9959e-05 1.7 0.00e+00 0.0 0.0e+00 0.0e+00 0.0e+00  0  0  0  0  0   0  0  0  0  0     0       0      0 0.00e+00    0 0.00e+00  0
DCtxDestroy            1 1.0 2.3706e-05 1.1 0.00e+00 0.0 0.0e+00 0.0e+00 0.0e+00  0  0  0  0  0   0  0  0  0  0     0       0      0 0.00e+00    0 0.00e+00  0
DCtxSetUp              1 1.0 4.2442e-05 1.7 0.00e+00 0.0 0.0e+00 0.0e+00 0.0e+00  0  0  0  0  0   0  0  0  0  0     0       0      0 0.00e+00    0 0.00e+00  0
DCtxSetDevice          1 1.0 3.9837e-05 1.6 0.00e+00 0.0 0.0e+00 0.0e+00 0.0e+00  0  0  0  0  0   0  0  0  0  0     0       0      0 0.00e+00    0 0.00e+00  0

--- Event Stage 1: Warmup

Landau Operator       29 1.0 3.7711e-01 1.0 9.69e+08 1.0 0.0e+00 0.0e+00 0.0e+00  1  1  0  0  0  61  7  0  0  0 10277   10654      0 0.00e+00    0 0.00e+00  100
Landau Jacobian       15 1.0 3.3463e-01 1.0 9.69e+08 1.0 0.0e+00 0.0e+00 0.0e+00  1  1  0  0  0  54  7  0  0  0 11582   12043      0 0.00e+00    0 0.00e+00  100
Landau Mass           14 1.0 4.3192e-02 1.0 0.00e+00 0.0 0.0e+00 0.0e+00 0.0e+00  0  0  0  0  0   7  0  0  0  0     0       0      0 0.00e+00    0 0.00e+00  0
 Preamble             29 1.0 1.0427e-04 1.4 0.00e+00 0.0 0.0e+00 0.0e+00 0.0e+00  0  0  0  0  0   0  0  0  0  0     0       0      0 0.00e+00    0 0.00e+00  0
 dynamic IP-Jac       30 1.0 1.7618e-05 1.2 0.00e+00 0.0 0.0e+00 0.0e+00 0.0e+00  0  0  0  0  0   0  0  0  0  0     0       0      0 0.00e+00    0 0.00e+00  0
 Kernel-init          29 1.0 1.1080e-03 1.0 0.00e+00 0.0 0.0e+00 0.0e+00 0.0e+00  0  0  0  0  0   0  0  0  0  0     0       0      0 0.00e+00    0 0.00e+00  0
 Jac-f-df (GPU)       15 1.0 1.4847e-02 1.0 0.00e+00 0.0 0.0e+00 0.0e+00 0.0e+00  0  0  0  0  0   2  0  0  0  0     0       0      0 0.00e+00    0 0.00e+00  0
 J Kernel (GPU)       15 1.0 2.7408e-01 1.0 0.00e+00 0.0 0.0e+00 0.0e+00 0.0e+00  1  0  0  0  0  44  0  0  0  0     0       0      0 0.00e+00    0 0.00e+00  0
 M Kernel (GPU)       14 1.0 3.3349e-02 1.0 0.00e+00 0.0 0.0e+00 0.0e+00 0.0e+00  0  0  0  0  0   5  0  0  0  0     0       0      0 0.00e+00    0 0.00e+00  0
VecNorm                1 1.0 2.4755e-04 1.1 1.45e+06 1.0 0.0e+00 0.0e+00 0.0e+00  0  0  0  0  0   0  0  0  0  0 23496   24665      0 0.00e+00    0 0.00e+00  100
VecCopy               18 1.0 2.6574e-03 1.6 0.00e+00 0.0 0.0e+00 0.0e+00 0.0e+00  0  0  0  0  0   0  0  0  0  0     0       0      0 0.00e+00    0 0.00e+00  0
VecSet                 1 1.0 3.5649e-05 1.2 0.00e+00 0.0 0.0e+00 0.0e+00 0.0e+00  0  0  0  0  0   0  0  0  0  0     0       0      0 0.00e+00    0 0.00e+00  0
VecAXPY               16 1.0 1.9069e-03 1.1 2.33e+07 1.0 0.0e+00 0.0e+00 0.0e+00  0  0  0  0  0   0  0  0  0  0 48802   53676      0 0.00e+00    0 0.00e+00  100
VecAXPBYCZ            16 1.0 6.3459e-03 1.1 5.82e+07 1.0 0.0e+00 0.0e+00 0.0e+00  0  0  0  0  0   1  0  0  0  0 36662   37917      0 0.00e+00    0 0.00e+00  100
VecWAXPY              14 1.0 5.8719e-04 1.1 2.04e+07 1.0 0.0e+00 0.0e+00 0.0e+00  0  0  0  0  0   0  0  0  0  0 138676   195231      0 0.00e+00    0 0.00e+00  100
VecReduceArith        42 1.0 1.5437e-03 1.1 6.11e+07 1.0 0.0e+00 0.0e+00 0.0e+00  0  0  0  0  0   0  0  0  0  0 158250   210597      0 0.00e+00    0 0.00e+00  100
VecReduceComm         14 1.0 2.8750e-06 1.2 0.00e+00 0.0 0.0e+00 0.0e+00 0.0e+00  0  0  0  0  0   0  0  0  0  0     0       0      0 0.00e+00    0 0.00e+00  0
MatMult               15 1.0 3.2891e-03 1.0 4.84e+08 1.0 0.0e+00 0.0e+00 0.0e+00  0  0  0  0  0   1  3  0  0  0 589171   622526      0 0.00e+00    0 0.00e+00  100
MatMultAdd            15 1.0 1.4031e-02 1.1 4.84e+08 1.0 0.0e+00 0.0e+00 0.0e+00  0  0  0  0  0   2  3  0  0  0 138108   139618      0 0.00e+00    0 0.00e+00  100
MatAssemblyBegin      58 1.0 7.6360e-06 1.3 0.00e+00 0.0 0.0e+00 0.0e+00 0.0e+00  0  0  0  0  0   0  0  0  0  0     0       0      0 0.00e+00    0 0.00e+00  0
MatAssemblyEnd        58 1.0 1.0406e-02 1.1 0.00e+00 0.0 0.0e+00 0.0e+00 0.0e+00  0  0  0  0  0   2  0  0  0  0     0       0      0 0.00e+00    0 0.00e+00  0
MatGetRowIJ            1 1.0 2.8506e-02 1.2 0.00e+00 0.0 0.0e+00 0.0e+00 0.0e+00  0  0  0  0  0   4  0  0  0  0     0       0      0 0.00e+00    0 0.00e+00  0
MatGetOrdering         1 1.0 5.7736e-02 1.1 0.00e+00 0.0 0.0e+00 0.0e+00 0.0e+00  0  0  0  0  0   9  0  0  0  0     0       0      0 0.00e+00    0 0.00e+00  0
MatZeroEntries        15 1.0 1.3419e-04 1.1 0.00e+00 0.0 0.0e+00 0.0e+00 0.0e+00  0  0  0  0  0   0  0  0  0  0     0       0      0 0.00e+00    0 0.00e+00  0
MatView                1 0.0 4.1220e-05 0.0 0.00e+00 0.0 0.0e+00 0.0e+00 0.0e+00  0  0  0  0  0   0  0  0  0  0     0       0      0 0.00e+00    0 0.00e+00  0
MatSetValuesCOO       29 1.0 3.6968e-02 1.0 0.00e+00 0.0 0.0e+00 0.0e+00 0.0e+00  0  0  0  0  0   6  0  0  0  0     0       0      0 0.00e+00    0 0.00e+00  0
TSStep                 1 1.0 6.1906e-01 1.0 1.42e+10 1.0 0.0e+00 0.0e+00 0.0e+00  2  9  0  0  0  99 100  0  0  0 91508   151573      0 0.00e+00    0 0.00e+00  100
TSFunctionEval        15 1.0 3.3739e-01 1.0 9.91e+08 1.0 0.0e+00 0.0e+00 0.0e+00  1  1  0  0  0  54  7  0  0  0 11746   12256      0 0.00e+00    0 0.00e+00  100
TSJacobianEval        14 1.0 4.3205e-02 1.0 0.00e+00 0.0 0.0e+00 0.0e+00 0.0e+00  0  0  0  0  0   7  0  0  0  0     0       0      0 0.00e+00    0 0.00e+00  0
KSPSetUp              14 1.0 5.3220e-06 1.2 0.00e+00 0.0 0.0e+00 0.0e+00 0.0e+00  0  0  0  0  0   0  0  0  0  0     0       0      0 0.00e+00    0 0.00e+00  0
KSPSolve              14 1.0 9.1834e-02 1.0 1.30e+10 1.0 0.0e+00 0.0e+00 0.0e+00  0  8  0  0  0  15 92  0  0  0 567507       0      0 0.00e+00    0 0.00e+00  100
SNESSolve              1 1.0 6.1557e-01 1.0 1.42e+10 1.0 0.0e+00 0.0e+00 0.0e+00  2  9  0  0  0  98 100  0  0  0 91994   152075      0 0.00e+00    0 0.00e+00  100
SNESSetUp              1 1.0 1.1431e-03 1.2 0.00e+00 0.0 0.0e+00 0.0e+00 0.0e+00  0  0  0  0  0   0  0  0  0  0     0       0      0 0.00e+00    0 0.00e+00  0
SNESFunctionEval      15 1.0 3.4279e-01 1.0 1.05e+09 1.0 0.0e+00 0.0e+00 0.0e+00  1  1  0  0  0  55  7  0  0  0 12197   12727      0 0.00e+00    0 0.00e+00  100
SNESJacobianEval      14 1.0 4.3221e-02 1.0 0.00e+00 0.0 0.0e+00 0.0e+00 0.0e+00  0  0  0  0  0   7  0  0  0  0     0       0      0 0.00e+00    0 0.00e+00  0
SNESLineSearch        14 1.0 2.8927e-01 1.0 1.06e+09 1.0 0.0e+00 0.0e+00 0.0e+00  1  1  0  0  0  46  7  0  0  0 14616   14794      0 0.00e+00    0 0.00e+00  100
PCSetUp               14 1.0 1.3299e-01 1.1 0.00e+00 0.0 0.0e+00 0.0e+00 0.0e+00  0  0  0  0  0  21  0  0  0  0     0       0      0 0.00e+00    0 0.00e+00  0
PCApply               14 1.0 9.1751e-02 1.0 1.30e+10 1.0 0.0e+00 0.0e+00 0.0e+00  0  8  0  0  0  15 92  0  0  0 568017       0      0 0.00e+00    0 0.00e+00  100

--- Event Stage 2: Solve

Landau Operator      288 1.0 3.2858e+00 1.0 9.62e+09 1.0 0.0e+00 0.0e+00 0.0e+00 11  6  0  0  0  78  7  0  0  0 11717   11816      0 0.00e+00    0 0.00e+00  100
Landau Jacobian      149 1.0 2.8579e+00 1.0 9.62e+09 1.0 0.0e+00 0.0e+00 0.0e+00 10  6  0  0  0  68  7  0  0  0 13471   13576      0 0.00e+00    0 0.00e+00  100
Landau Mass          139 1.0 4.2780e-01 1.0 0.00e+00 0.0 0.0e+00 0.0e+00 0.0e+00  1  0  0  0  0  10  0  0  0  0     0       0      0 0.00e+00    0 0.00e+00  0
 Preamble            279 1.0 6.9928e-04 1.2 0.00e+00 0.0 0.0e+00 0.0e+00 0.0e+00  0  0  0  0  0   0  0  0  0  0     0       0      0 0.00e+00    0 0.00e+00  0
 dynamic IP-Jac      280 1.0 1.1230e-04 1.1 0.00e+00 0.0 0.0e+00 0.0e+00 0.0e+00  0  0  0  0  0   0  0  0  0  0     0       0      0 0.00e+00    0 0.00e+00  0
 Kernel-init         279 1.0 1.0585e-02 1.0 0.00e+00 0.0 0.0e+00 0.0e+00 0.0e+00  0  0  0  0  0   0  0  0  0  0     0       0      0 0.00e+00    0 0.00e+00  0
 Jac-f-df (GPU)      140 1.0 1.3166e-01 1.0 0.00e+00 0.0 0.0e+00 0.0e+00 0.0e+00  0  0  0  0  0   3  0  0  0  0     0       0      0 0.00e+00    0 0.00e+00  0
 J Kernel (GPU)      140 1.0 2.5562e+00 1.0 0.00e+00 0.0 0.0e+00 0.0e+00 0.0e+00  9  0  0  0  0  61  0  0  0  0     0       0      0 0.00e+00    0 0.00e+00  0
 M Kernel (GPU)      139 1.0 3.3031e-01 1.0 0.00e+00 0.0 0.0e+00 0.0e+00 0.0e+00  1  0  0  0  0   8  0  0  0  0     0       0      0 0.00e+00    0 0.00e+00  0
VecNorm               10 1.0 3.6762e-04 1.1 1.45e+07 1.0 0.0e+00 0.0e+00 0.0e+00  0  0  0  0  0   0  0  0  0  0 158214   216949      0 0.00e+00    0 0.00e+00  100
VecCopy              169 1.0 5.3237e-03 1.1 0.00e+00 0.0 0.0e+00 0.0e+00 0.0e+00  0  0  0  0  0   0  0  0  0  0     0       0      0 0.00e+00    0 0.00e+00  0
VecAXPY              159 1.0 4.3602e-03 1.1 2.31e+08 1.0 0.0e+00 0.0e+00 0.0e+00  0  0  0  0  0   0  0  0  0  0 212098   344735      0 0.00e+00    0 0.00e+00  100
VecAXPBYCZ           159 1.0 6.0516e-03 1.1 5.78e+08 1.0 0.0e+00 0.0e+00 0.0e+00  0  0  0  0  0   0  0  0  0  0 382047   535889      0 0.00e+00    0 0.00e+00  100
VecWAXPY             139 1.0 5.1144e-03 1.1 2.02e+08 1.0 0.0e+00 0.0e+00 0.0e+00  0  0  0  0  0   0  0  0  0  0 158078   230397      0 0.00e+00    0 0.00e+00  100
VecReduceArith       417 1.0 1.4947e-02 1.0 6.06e+08 1.0 0.0e+00 0.0e+00 0.0e+00  0  0  0  0  0   0  0  0  0  0 162264   217817      0 0.00e+00    0 0.00e+00  100
VecReduceComm        139 1.0 2.6465e-05 1.2 0.00e+00 0.0 0.0e+00 0.0e+00 0.0e+00  0  0  0  0  0   0  0  0  0  0     0       0      0 0.00e+00    0 0.00e+00  0
MatMult              149 1.0 2.9369e-02 1.0 4.81e+09 1.0 0.0e+00 0.0e+00 0.0e+00  0  3  0  0  0   1  3  0  0  0 655417   693956      0 0.00e+00    0 0.00e+00  100
MatMultAdd           149 1.0 3.0137e-02 1.0 4.81e+09 1.0 0.0e+00 0.0e+00 0.0e+00  0  3  0  0  0   1  3  0  0  0 638721   672678      0 0.00e+00    0 0.00e+00  100
MatAssemblyBegin     558 1.0 6.4497e-05 1.2 0.00e+00 0.0 0.0e+00 0.0e+00 0.0e+00  0  0  0  0  0   0  0  0  0  0     0       0      0 0.00e+00    0 0.00e+00  0
MatAssemblyEnd       558 1.0 2.3159e-04 1.3 0.00e+00 0.0 0.0e+00 0.0e+00 0.0e+00  0  0  0  0  0   0  0  0  0  0     0       0      0 0.00e+00    0 0.00e+00  0
MatZeroEntries       140 1.0 1.0491e-03 1.2 0.00e+00 0.0 0.0e+00 0.0e+00 0.0e+00  0  0  0  0  0   0  0  0  0  0     0       0      0 0.00e+00    0 0.00e+00  0
MatView                1 0.0 3.1371e-05 0.0 0.00e+00 0.0 0.0e+00 0.0e+00 0.0e+00  0  0  0  0  0   0  0  0  0  0     0       0      0 0.00e+00    0 0.00e+00  0
MatSetValuesCOO      279 1.0 1.9265e-01 1.0 0.00e+00 0.0 0.0e+00 0.0e+00 0.0e+00  1  0  0  0  0   5  0  0  0  0     0       0      0 0.00e+00    0 0.00e+00  0
TSStep                10 1.0 4.2274e+00 1.0 1.41e+11 1.0 0.0e+00 0.0e+00 0.0e+00 14 91  0  0  0 100 100  0  0  0 132988   171238      0 0.00e+00    0 0.00e+00  100
TSFunctionEval       149 1.0 2.8625e+00 1.0 9.84e+09 1.0 0.0e+00 0.0e+00 0.0e+00 10  6  0  0  0  68  7  0  0  0 13752   13869      0 0.00e+00    0 0.00e+00  100
TSJacobianEval       139 1.0 4.2791e-01 1.0 0.00e+00 0.0 0.0e+00 0.0e+00 0.0e+00  1  0  0  0  0  10  0  0  0  0     0       0      0 0.00e+00    0 0.00e+00  0
KSPSetUp             139 1.0 2.3378e-05 1.1 0.00e+00 0.0 0.0e+00 0.0e+00 0.0e+00  0  0  0  0  0   0  0  0  0  0     0       0      0 0.00e+00    0 0.00e+00  0
KSPSolve             139 1.0 8.9930e-01 1.0 1.29e+11 1.0 0.0e+00 0.0e+00 0.0e+00  3 84  0  0  0  21 92  0  0  0 575071       0      0 0.00e+00    0 0.00e+00  100
SNESSolve             10 1.0 4.2248e+00 1.0 1.40e+11 1.0 0.0e+00 0.0e+00 0.0e+00 14 91  0  0  0 100 100  0  0  0 133021   171280      0 0.00e+00    0 0.00e+00  100
SNESFunctionEval     149 1.0 2.8678e+00 1.0 1.04e+10 1.0 0.0e+00 0.0e+00 0.0e+00 10  7  0  0  0  68  7  0  0  0 14482   14615      0 0.00e+00    0 0.00e+00  100
SNESJacobianEval     139 1.0 4.2806e-01 1.0 0.00e+00 0.0 0.0e+00 0.0e+00 0.0e+00  1  0  0  0  0  10  0  0  0  0     0       0      0 0.00e+00    0 0.00e+00  0
SNESLineSearch       139 1.0 2.8663e+00 1.0 1.05e+10 1.0 0.0e+00 0.0e+00 0.0e+00 10  7  0  0  0  68  7  0  0  0 14645   14815      0 0.00e+00    0 0.00e+00  100
PCSetUp              139 1.0 1.7348e-03 1.2 0.00e+00 0.0 0.0e+00 0.0e+00 0.0e+00  0  0  0  0  0   0  0  0  0  0     0       0      0 0.00e+00    0 0.00e+00  0
PCApply              139 1.0 8.9893e-01 1.0 1.29e+11 1.0 0.0e+00 0.0e+00 0.0e+00  3 84  0  0  0  21 92  0  0  0 575308       0      0 0.00e+00    0 0.00e+00  100
---------------------------------------------------------------------------------------------------------------------------------------------------------------

Object Type          Creations   Destructions. Reports information only for process 0.

--- Event Stage 0: Main Stage

           Container   314            314
    Distributed Mesh   521            521
            DM Label  1216           1216
          Quadrature  2370           2370
           Index Set 38180          38180
   IS L to G Mapping  3707           3707
             Section 17067          17067
    Section Symmetry    80             80
   Star Forest Graph 13653          13653
     Discrete System   883            883
           Weak Form   883            883
    GraphPartitioner   191            191
              Vector   284            592
       p4est logging     1              1
        Linear Space    80             80
          Dual Space   222            222
            FE Space    52             52
              Matrix  3698           3698
  PetscDeviceContext     1              0
       Field over DM    18             18
             TSAdapt     1              1
                  TS     1              1
                DMTS     1              1
                SNES     1              1
              DMSNES     3              3
      SNESLineSearch     1              1
       Krylov Solver     1              2
     DMKSP interface     0              1
      Preconditioner     1              2
              Viewer     1              1

--- Event Stage 1: Warmup

           Index Set     5              5
              Vector  1544           1236
       Krylov Solver     1              0
     DMKSP interface     1              0
      Preconditioner     1              0

--- Event Stage 2: Solve

========================================================================================================================
Average time to get PetscTime(): 3.41e-08
Average time for MPI_Barrier(): 1.4968e-06
Average time for zero size MPI_Send(): 1.56025e-05
#PETSc Option Table entries:
-dim 2 # (source: command line)
-dm_landau_amr_levels_max 2,2,2 # (source: command line)
-dm_landau_batch_size 512 # (source: command line)
-dm_landau_device_type kokkos # (source: file)
-dm_landau_Ez 0 # (source: file)
-dm_landau_ion_charges 1,2,3,4,5,6,7,8,9 # (source: file)
-dm_landau_ion_masses 2,182,182,182,182,182,182,182,182 # (source: file)
-dm_landau_n 1.0000044,1,1e-7,1e-7,1e-7,1e-7,1e-7,1e-7,1e-7,1e-7 # (source: file)
-dm_landau_num_species_grid 1,1,8 # (source: file)
-dm_landau_thermal_temps 2,1,1,1,1,1,1,1,1,1 # (source: file)
-dm_landau_type p4est # (source: command line)
-dm_landau_verbose 1 # (source: command line)
-dm_mat_type aijkokkos # (source: file)
-dm_preallocate_only false # (source: code)
-dm_vec_type kokkos # (source: file)
-ex2_test_type none # (source: file)
-ksp_type preonly # (source: command line)
-log_view # (source: command line)
-log_view_gpu_time # (source: command line)
-options_left # (source: command line)
-pc_bjkokkos_ksp_converged_reason # (source: command line)
-pc_bjkokkos_ksp_error_if_not_converged # (source: command line)
-pc_bjkokkos_ksp_max_it 100 # (source: command line)
-pc_bjkokkos_ksp_rtol 1.e-8 # (source: command line)
-pc_bjkokkos_ksp_type tfqmr # (source: command line)
-pc_bjkokkos_pc_type jacobi # (source: command line)
-pc_type bjkokkos # (source: command line)
-petscspace_degree 3 # (source: command line)
-snes_converged_reason # (source: file)
-snes_linesearch_type basic # (source: file)
-snes_max_it 50 # (source: file)
-snes_monitor # (source: file)
-snes_rtol 1e-14 # (source: file)
-snes_stol 1e-14 # (source: file)
-ts_adapt_clip .5,1.1 # (source: file)
-ts_adapt_dt_max 1 # (source: file)
-ts_adapt_monitor # (source: file)
-ts_adapt_scale_solve_failed 0.5 # (source: file)
-ts_adapt_time_step_increase_delay 5 # (source: file)
-ts_dt .5 # (source: file)
-ts_exact_final_time stepover # (source: file)
-ts_max_snes_failures -1 # (source: file)
-ts_max_steps 10 # (source: file)
-ts_max_time 100 # (source: file)
-ts_monitor # (source: file)
-ts_rtol 1e-2 # (source: file)
-ts_type beuler # (source: file)
-ts_view # (source: command line)
-use_gpu_aware_mpi 0 # (source: file)
#End of PETSc Option Table entries
Compiled without FORTRAN kernels
Compiled with full precision matrices (default)
sizeof(short) 2 sizeof(int) 4 sizeof(long) 8 sizeof(void*) 8 sizeof(PetscScalar) 8 sizeof(PetscInt) 4
Configure options: --CFLAGS="   -g" --CXXFLAGS=" -g" --CUDAFLAGS=-g --with-cc=cc --with-cxx=CC --with-fc=ftn --download-triangle --with-fortran-bindings=0 --COPTFLAGS="   -g -O3" --CXXOPTFLAGS=" -g -O3" --FOPTFLAGS="   -g -O3" --with-debugging=0 --with-cuda=1 --with-cuda-arch=80 --with-mpiexec="srun -G4" --download-p4est=1 --with-zlib=1 --download-kokkos --download-kokkos-kernels --with-kokkos-kernels-tpl=0 --with-make-np=8 --with-64-bit-indices=0 --with-hdf5-dir=/opt/cray/pe/hdf5-parallel/1.12.2.9/gnu/12.3 PETSC_ARCH=arch-perlmutter-opt-gcc-kokkos-cuda
-----------------------------------------
Libraries compiled on 2024-06-27 20:09:11 on login19 
Machine characteristics: Linux-5.14.21-150400.24.81_12.0.87-cray_shasta_c-x86_64-with-glibc2.3.4
Using PETSc directory: /global/u2/m/madams/petsc
Using PETSc arch: arch-perlmutter-opt-gcc-kokkos-cuda
-----------------------------------------

Using C compiler: cc -g -fPIC -g -O3  
Using Fortran compiler: ftn  -fPIC -Wall -ffree-line-length-none -ffree-line-length-0 -Wno-lto-type-mismatch -Wno-unused-dummy-argument -g -O3    
-----------------------------------------

Using include paths: -I/global/u2/m/madams/petsc/include -I/global/u2/m/madams/petsc/arch-perlmutter-opt-gcc-kokkos-cuda/include -I/opt/cray/pe/hdf5-parallel/1.12.2.9/gnu/12.3/include -I/opt/nvidia/hpc_sdk/Linux_x86_64/23.9/cuda/12.2/include -I/opt/nvidia/hpc_sdk/Linux_x86_64/23.9/math_libs/12.2/include
-----------------------------------------

Using C linker: cc
Using Fortran linker: ftn
Using libraries: -Wl,-rpath,/global/u2/m/madams/petsc/arch-perlmutter-opt-gcc-kokkos-cuda/lib -L/global/u2/m/madams/petsc/arch-perlmutter-opt-gcc-kokkos-cuda/lib -lpetsc -Wl,-rpath,/global/u2/m/madams/petsc/arch-perlmutter-opt-gcc-kokkos-cuda/lib -L/global/u2/m/madams/petsc/arch-perlmutter-opt-gcc-kokkos-cuda/lib -Wl,-rpath,/opt/cray/pe/hdf5-parallel/1.12.2.9/gnu/12.3/lib -L/opt/cray/pe/hdf5-parallel/1.12.2.9/gnu/12.3/lib -Wl,-rpath,/opt/nvidia/hpc_sdk/Linux_x86_64/23.9/math_libs/12.2/lib64 -L/opt/nvidia/hpc_sdk/Linux_x86_64/23.9/math_libs/12.2/lib64 -Wl,-rpath,/opt/nvidia/hpc_sdk/Linux_x86_64/23.9/cuda/12.2/lib64 -L/opt/nvidia/hpc_sdk/Linux_x86_64/23.9/cuda/12.2/lib64 -L/opt/nvidia/hpc_sdk/Linux_x86_64/23.9/cuda/12.2/lib64/stubs -Wl,-rpath,/opt/cray/pe/mpich/8.1.28/ofi/gnu/12.3/lib -L/opt/cray/pe/mpich/8.1.28/ofi/gnu/12.3/lib -Wl,-rpath,/opt/cray/pe/mpich/8.1.28/gtl/lib -L/opt/cray/pe/mpich/8.1.28/gtl/lib -Wl,-rpath,/opt/cray/pe/libsci/23.12.5/GNU/12.3/x86_64/lib -L/opt/cray/pe/libsci/23.12.5/GNU/12.3/x86_64/lib -Wl,-rpath,/opt/nvidia/hpc_sdk/Linux_x86_64/23.9/cuda/12.2/lib64/stubs -Wl,-rpath,/opt/nvidia/hpc_sdk/Linux_x86_64/23.9/cuda/12.2/nvvm/lib64 -L/opt/nvidia/hpc_sdk/Linux_x86_64/23.9/cuda/12.2/nvvm/lib64 -Wl,-rpath,/opt/nvidia/hpc_sdk/Linux_x86_64/23.9/cuda/12.2/extras/CUPTI/lib64 -L/opt/nvidia/hpc_sdk/Linux_x86_64/23.9/cuda/12.2/extras/CUPTI/lib64 -Wl,-rpath,/opt/nvidia/hpc_sdk/Linux_x86_64/23.9/cuda/12.2/extras/Debugger/lib64 -L/opt/nvidia/hpc_sdk/Linux_x86_64/23.9/cuda/12.2/extras/Debugger/lib64 -Wl,-rpath,/opt/cray/pe/dsmml/0.2.2/dsmml/lib -L/opt/cray/pe/dsmml/0.2.2/dsmml/lib -Wl,-rpath,/opt/cray/xpmem/2.6.2-2.5_2.38__gd067c3f.shasta/lib64 -L/opt/cray/xpmem/2.6.2-2.5_2.38__gd067c3f.shasta/lib64 -Wl,-rpath,/usr/lib64/gcc/x86_64-suse-linux/12 -L/usr/lib64/gcc/x86_64-suse-linux/12 -Wl,-rpath,/usr/x86_64-suse-linux/lib -L/usr/x86_64-suse-linux/lib -lkokkoskernels -lkokkoscontainers -lkokkoscore -lkokkossimd -lp4est -lsc -lhdf5_hl -lhdf5 -ltriangle -lz -lcufft -lcublas -lcusparse -lcusolver -lcurand -lcudart -lnvToolsExt -lcuda -lX11 -lcuda -lmpi_gtl_cuda -ldl -lxpmem -lgfortran -lm -lhdf5_hl_parallel -lhdf5_parallel -lcupti -lcudart -lhdf5hl_fortran_parallel -lhdf5_fortran_parallel -lmpifort_gnu_123 -lsci_gnu_123_mpi -lmpi_gnu_123 -lsci_gnu_123 -ldsmml -lgfortran -lquadmath -lpthread -lm -lgcc_s -lstdc++ -lquadmath
-----------------------------------------

#PETSc Option Table entries:
-dim 2 # (source: command line)
-dm_landau_amr_levels_max 2,2,2 # (source: command line)
-dm_landau_batch_size 512 # (source: command line)
-dm_landau_device_type kokkos # (source: file)
-dm_landau_Ez 0 # (source: file)
-dm_landau_ion_charges 1,2,3,4,5,6,7,8,9 # (source: file)
-dm_landau_ion_masses 2,182,182,182,182,182,182,182,182 # (source: file)
-dm_landau_n 1.0000044,1,1e-7,1e-7,1e-7,1e-7,1e-7,1e-7,1e-7,1e-7 # (source: file)
-dm_landau_num_species_grid 1,1,8 # (source: file)
-dm_landau_thermal_temps 2,1,1,1,1,1,1,1,1,1 # (source: file)
-dm_landau_type p4est # (source: command line)
-dm_landau_verbose 1 # (source: command line)
-dm_mat_type aijkokkos # (source: file)
-dm_preallocate_only false # (source: code)
-dm_vec_type kokkos # (source: file)
-ex2_test_type none # (source: file)
-ksp_type preonly # (source: command line)
-log_view # (source: command line)
-log_view_gpu_time # (source: command line)
-options_left # (source: command line)
-pc_bjkokkos_ksp_converged_reason # (source: command line)
-pc_bjkokkos_ksp_error_if_not_converged # (source: command line)
-pc_bjkokkos_ksp_max_it 100 # (source: command line)
-pc_bjkokkos_ksp_rtol 1.e-8 # (source: command line)
-pc_bjkokkos_ksp_type tfqmr # (source: command line)
-pc_bjkokkos_pc_type jacobi # (source: command line)
-pc_type bjkokkos # (source: command line)
-petscspace_degree 3 # (source: command line)
-snes_converged_reason # (source: file)
-snes_linesearch_type basic # (source: file)
-snes_max_it 50 # (source: file)
-snes_monitor # (source: file)
-snes_rtol 1e-14 # (source: file)
-snes_stol 1e-14 # (source: file)
-ts_adapt_clip .5,1.1 # (source: file)
-ts_adapt_dt_max 1 # (source: file)
-ts_adapt_monitor # (source: file)
-ts_adapt_scale_solve_failed 0.5 # (source: file)
-ts_adapt_time_step_increase_delay 5 # (source: file)
-ts_dt .5 # (source: file)
-ts_exact_final_time stepover # (source: file)
-ts_max_snes_failures -1 # (source: file)
-ts_max_steps 10 # (source: file)
-ts_max_time 100 # (source: file)
-ts_monitor # (source: file)
-ts_rtol 1e-2 # (source: file)
-ts_type beuler # (source: file)
-ts_view # (source: command line)
-use_gpu_aware_mpi 0 # (source: file)
#End of PETSc Option Table entries
There are no unused options.
