masses:        e= 9.109e-31; ions in proton mass units:    2.000e+00  1.820e+02 ...
charges:       e=-1.602e-19; charges in elementary units:  1.000e+00  2.000e+00
n:             e:  1.000e+00                           i:  1.000e+00  1.000e-07
thermal T (K): e= 2.321e+07 i= 1.160e+07  1.160e+07. v_0= 1.876e+07 ( 6.256e-02c) n_0= 1.000e+20 t_0= 1.637e-05, classical, Intuitive, 8 batched
Domain radius (AMR levels) grid 0:  5.000e+00 (2) , 1:  5.835e-02 (2) , 2:  6.117e-03 (2) 
Using default Plex order for all matrices
0) FormLandau 9720 IPs, 360 cells total, Nb=27, Nq=27, dim=3, Tab: Nb=27 Nf=10 Np=27 cdim=3 N=83600
0 TS dt 0.5 time 0.
    0 SNES Function norm 5.773927504538e-02 
    Linear solve converged due to CONVERGED_RTOL iterations 18
    1 SNES Function norm 1.950515365009e-03 
    Linear solve converged due to CONVERGED_RTOL iterations 16
    2 SNES Function norm 3.580251804380e-04 
    Linear solve converged due to CONVERGED_RTOL iterations 16
    3 SNES Function norm 8.132922294918e-05 
    Linear solve converged due to CONVERGED_RTOL iterations 15
    4 SNES Function norm 1.910444331217e-05 
    Linear solve converged due to CONVERGED_RTOL iterations 16
    5 SNES Function norm 4.534562470613e-06 
    Linear solve converged due to CONVERGED_RTOL iterations 15
    6 SNES Function norm 1.080837694179e-06 
    Linear solve converged due to CONVERGED_RTOL iterations 15
    7 SNES Function norm 2.581461807839e-07 
    Linear solve converged due to CONVERGED_RTOL iterations 15
    8 SNES Function norm 6.172772749615e-08 
    Linear solve converged due to CONVERGED_RTOL iterations 15
    9 SNES Function norm 1.477230843758e-08 
    Linear solve converged due to CONVERGED_RTOL iterations 15
   10 SNES Function norm 3.537544486422e-09 
    Linear solve converged due to CONVERGED_RTOL iterations 15
   11 SNES Function norm 8.476369393374e-10 
    Linear solve converged due to CONVERGED_RTOL iterations 15
   12 SNES Function norm 2.032144610918e-10 
    Linear solve converged due to CONVERGED_RTOL iterations 15
   13 SNES Function norm 4.874527797134e-11 
    Linear solve converged due to CONVERGED_RTOL iterations 18
   14 SNES Function norm 1.169865794602e-11 
    Linear solve converged due to CONVERGED_RTOL iterations 15
   15 SNES Function norm 2.808759198913e-12 
    Linear solve converged due to CONVERGED_RTOL iterations 15
   16 SNES Function norm 6.750201266151e-13 
  Nonlinear solve converged due to CONVERGED_SNORM_RELATIVE iterations 16
      TSAdapt none beuler 0: step   0 accepted t=0          + 5.000e-01 dt=5.000e-01 
1 TS dt 0.5 time 0.5
TS Object: 1 MPI process
  type: beuler
  maximum steps=1
  maximum time=100.
  total number of I function evaluations=17
  total number of I Jacobian evaluations=16
  total number of RHS function evaluations=17
  total number of nonlinear solver iterations=16
  total number of linear solver iterations=249
  total number of nonlinear solve failures=0
  total number of rejected steps=0
  using relative error tolerance of 0.01,   using absolute error tolerance of 0.0001
  TSAdapt Object: 1 MPI process
    type: none
  SNES Object: 1 MPI process
    type: newtonls
    maximum iterations=50, maximum function evaluations=10000
    tolerances: relative=1e-14, absolute=1e-50, solution=1e-14
    total number of linear solver iterations=249
    total number of function evaluations=17
    norm schedule ALWAYS
    SNESLineSearch Object: 1 MPI process
      type: basic
      maxstep=1.000000e+08, minlambda=1.000000e-12
      tolerances: relative=1.000000e-08, absolute=1.000000e-15, lambda=1.000000e-08
      maximum iterations=40
    KSP Object: 1 MPI process
      type: tfqmr
      maximum iterations=100, initial guess is zero
      tolerances:  relative=1e-08, absolute=1e-50, divergence=10000.
      left preconditioning
      using PRECONDITIONED norm type for convergence test
    PC Object: 1 MPI process
      type: jacobi
        type DIAGONAL
      linear system matrix = precond matrix:
      Mat Object: Jacobian 1 MPI process
        type: seqaijkokkos
        rows=83600, cols=83600
        total: nonzeros=4512080, allocated nonzeros=4512080
        total number of mallocs used during MatSetValues calls=0
          not using I-node routines
0 TS dt 0.5 time 0.
    0 SNES Function norm 5.773927504538e-02 
    Linear solve converged due to CONVERGED_RTOL iterations 18
    1 SNES Function norm 1.950515365009e-03 
    Linear solve converged due to CONVERGED_RTOL iterations 16
    2 SNES Function norm 3.580251804380e-04 
    Linear solve converged due to CONVERGED_RTOL iterations 16
    3 SNES Function norm 8.132922294918e-05 
    Linear solve converged due to CONVERGED_RTOL iterations 15
    4 SNES Function norm 1.910444331217e-05 
    Linear solve converged due to CONVERGED_RTOL iterations 16
    5 SNES Function norm 4.534562470613e-06 
    Linear solve converged due to CONVERGED_RTOL iterations 15
    6 SNES Function norm 1.080837694179e-06 
    Linear solve converged due to CONVERGED_RTOL iterations 15
    7 SNES Function norm 2.581461807839e-07 
    Linear solve converged due to CONVERGED_RTOL iterations 15
    8 SNES Function norm 6.172772749615e-08 
    Linear solve converged due to CONVERGED_RTOL iterations 15
    9 SNES Function norm 1.477230843758e-08 
    Linear solve converged due to CONVERGED_RTOL iterations 15
   10 SNES Function norm 3.537544486422e-09 
    Linear solve converged due to CONVERGED_RTOL iterations 15
   11 SNES Function norm 8.476369393374e-10 
    Linear solve converged due to CONVERGED_RTOL iterations 15
   12 SNES Function norm 2.032144610918e-10 
    Linear solve converged due to CONVERGED_RTOL iterations 15
   13 SNES Function norm 4.874527797134e-11 
    Linear solve converged due to CONVERGED_RTOL iterations 18
   14 SNES Function norm 1.169865794602e-11 
    Linear solve converged due to CONVERGED_RTOL iterations 15
   15 SNES Function norm 2.808759198913e-12 
    Linear solve converged due to CONVERGED_RTOL iterations 15
   16 SNES Function norm 6.750201266151e-13 
  Nonlinear solve converged due to CONVERGED_SNORM_RELATIVE iterations 16
      TSAdapt none beuler 0: step   0 accepted t=0          + 5.000e-01 dt=5.000e-01 
1 TS dt 0.5 time 0.5
    0 SNES Function norm 7.082404082433e-03 
    Linear solve converged due to CONVERGED_RTOL iterations 20
    1 SNES Function norm 9.002297321916e-04 
    Linear solve converged due to CONVERGED_RTOL iterations 16
    2 SNES Function norm 2.123039998806e-04 
    Linear solve converged due to CONVERGED_RTOL iterations 17
    3 SNES Function norm 5.054466930697e-05 
    Linear solve converged due to CONVERGED_RTOL iterations 16
    4 SNES Function norm 1.203507141742e-05 
    Linear solve converged due to CONVERGED_RTOL iterations 14
    5 SNES Function norm 2.867119345238e-06 
    Linear solve converged due to CONVERGED_RTOL iterations 15
    6 SNES Function norm 6.835071326481e-07 
    Linear solve converged due to CONVERGED_RTOL iterations 15
    7 SNES Function norm 1.630511183466e-07 
    Linear solve converged due to CONVERGED_RTOL iterations 15
    8 SNES Function norm 3.891958059567e-08 
    Linear solve converged due to CONVERGED_RTOL iterations 15
    9 SNES Function norm 9.295249677689e-09 
    Linear solve converged due to CONVERGED_RTOL iterations 15
   10 SNES Function norm 2.221227004911e-09 
    Linear solve converged due to CONVERGED_RTOL iterations 15
   11 SNES Function norm 5.310763554075e-10 
    Linear solve converged due to CONVERGED_RTOL iterations 15
   12 SNES Function norm 1.270418977693e-10 
    Linear solve converged due to CONVERGED_RTOL iterations 15
   13 SNES Function norm 3.040624566958e-11 
    Linear solve converged due to CONVERGED_RTOL iterations 16
   14 SNES Function norm 7.281119268260e-12 
    Linear solve converged due to CONVERGED_RTOL iterations 15
   15 SNES Function norm 1.743924713348e-12 
  Nonlinear solve converged due to CONVERGED_SNORM_RELATIVE iterations 15
      TSAdapt none beuler 0: step   1 accepted t=0.5        + 5.000e-01 dt=5.000e-01 
2 TS dt 0.5 time 1.
    0 SNES Function norm 3.868617851413e-03 
    Linear solve converged due to CONVERGED_RTOL iterations 18
    1 SNES Function norm 7.098829252653e-04 
    Linear solve converged due to CONVERGED_RTOL iterations 16
    2 SNES Function norm 1.738429868292e-04 
    Linear solve converged due to CONVERGED_RTOL iterations 17
    3 SNES Function norm 4.176426838954e-05 
    Linear solve converged due to CONVERGED_RTOL iterations 15
    4 SNES Function norm 9.960897160319e-06 
    Linear solve converged due to CONVERGED_RTOL iterations 14
    5 SNES Function norm 2.369938729823e-06 
    Linear solve converged due to CONVERGED_RTOL iterations 15
    6 SNES Function norm 5.635459208999e-07 
    Linear solve converged due to CONVERGED_RTOL iterations 19
    7 SNES Function norm 1.340194514106e-07 
    Linear solve converged due to CONVERGED_RTOL iterations 19
    8 SNES Function norm 3.188356540786e-08 
    Linear solve converged due to CONVERGED_RTOL iterations 19
    9 SNES Function norm 7.588719857085e-09 
    Linear solve converged due to CONVERGED_RTOL iterations 19
   10 SNES Function norm 1.807122901266e-09 
    Linear solve converged due to CONVERGED_RTOL iterations 19
   11 SNES Function norm 4.305531105491e-10 
    Linear solve converged due to CONVERGED_RTOL iterations 15
   12 SNES Function norm 1.026342210162e-10 
    Linear solve converged due to CONVERGED_RTOL iterations 15
   13 SNES Function norm 2.447776743129e-11 
    Linear solve converged due to CONVERGED_RTOL iterations 15
   14 SNES Function norm 5.840677323473e-12 
    Linear solve converged due to CONVERGED_RTOL iterations 16
   15 SNES Function norm 1.394663974170e-12 
  Nonlinear solve converged due to CONVERGED_SNORM_RELATIVE iterations 15
      TSAdapt none beuler 0: step   2 accepted t=1          + 5.000e-01 dt=5.000e-01 
3 TS dt 0.5 time 1.5
    0 SNES Function norm 3.094946468572e-03 
    Linear solve converged due to CONVERGED_RTOL iterations 17
    1 SNES Function norm 6.496608393529e-04 
    Linear solve converged due to CONVERGED_RTOL iterations 16
    2 SNES Function norm 1.587834459437e-04 
    Linear solve converged due to CONVERGED_RTOL iterations 16
    3 SNES Function norm 3.806340943042e-05 
    Linear solve converged due to CONVERGED_RTOL iterations 15
    4 SNES Function norm 9.052597664424e-06 
    Linear solve converged due to CONVERGED_RTOL iterations 16
    5 SNES Function norm 2.146702410839e-06 
    Linear solve converged due to CONVERGED_RTOL iterations 17
    6 SNES Function norm 5.086479985793e-07 
    Linear solve converged due to CONVERGED_RTOL iterations 15
    7 SNES Function norm 1.205166065890e-07 
    Linear solve converged due to CONVERGED_RTOL iterations 15
    8 SNES Function norm 2.856310554641e-08 
    Linear solve converged due to CONVERGED_RTOL iterations 15
    9 SNES Function norm 6.772574541474e-09 
    Linear solve converged due to CONVERGED_RTOL iterations 15
   10 SNES Function norm 1.606622415241e-09 
    Linear solve converged due to CONVERGED_RTOL iterations 15
   11 SNES Function norm 3.813228901918e-10 
    Linear solve converged due to CONVERGED_RTOL iterations 15
   12 SNES Function norm 9.055010519398e-11 
    Linear solve converged due to CONVERGED_RTOL iterations 15
   13 SNES Function norm 2.151247268579e-11 
    Linear solve converged due to CONVERGED_RTOL iterations 15
   14 SNES Function norm 5.113119180665e-12 
    Linear solve converged due to CONVERGED_RTOL iterations 15
   15 SNES Function norm 1.216515266288e-12 
  Nonlinear solve converged due to CONVERGED_SNORM_RELATIVE iterations 15
      TSAdapt none beuler 0: step   3 accepted t=1.5        + 5.000e-01 dt=5.000e-01 
4 TS dt 0.5 time 2.
    0 SNES Function norm 2.782489083015e-03 
    Linear solve converged due to CONVERGED_RTOL iterations 16
    1 SNES Function norm 6.104700437470e-04 
    Linear solve converged due to CONVERGED_RTOL iterations 16
    2 SNES Function norm 1.482729556135e-04 
    Linear solve converged due to CONVERGED_RTOL iterations 16
    3 SNES Function norm 3.538516808665e-05 
    Linear solve converged due to CONVERGED_RTOL iterations 15
    4 SNES Function norm 8.382576772918e-06 
    Linear solve converged due to CONVERGED_RTOL iterations 15
    5 SNES Function norm 1.980294870913e-06 
    Linear solve converged due to CONVERGED_RTOL iterations 15
    6 SNES Function norm 4.674423666155e-07 
    Linear solve converged due to CONVERGED_RTOL iterations 15
    7 SNES Function norm 1.103357398961e-07 
    Linear solve converged due to CONVERGED_RTOL iterations 15
    8 SNES Function norm 2.605166431930e-08 
    Linear solve converged due to CONVERGED_RTOL iterations 15
    9 SNES Function norm 6.153800676275e-09 
    Linear solve converged due to CONVERGED_RTOL iterations 15
   10 SNES Function norm 1.454326320048e-09 
    Linear solve converged due to CONVERGED_RTOL iterations 15
   11 SNES Function norm 3.438715697037e-10 
    Linear solve converged due to CONVERGED_RTOL iterations 15
   12 SNES Function norm 8.134774523874e-11 
    Linear solve converged due to CONVERGED_RTOL iterations 15
   13 SNES Function norm 1.925379438259e-11 
    Linear solve converged due to CONVERGED_RTOL iterations 15
   14 SNES Function norm 4.558447915515e-12 
    Linear solve converged due to CONVERGED_RTOL iterations 16
   15 SNES Function norm 1.080915000837e-12 
  Nonlinear solve converged due to CONVERGED_SNORM_RELATIVE iterations 15
      TSAdapt none beuler 0: step   4 accepted t=2          + 5.000e-01 dt=5.000e-01 
5 TS dt 0.5 time 2.5
    0 SNES Function norm 2.574728444165e-03 
    Linear solve converged due to CONVERGED_RTOL iterations 17
    1 SNES Function norm 5.713721078934e-04 
    Linear solve converged due to CONVERGED_RTOL iterations 15
    2 SNES Function norm 1.379193128904e-04 
    Linear solve converged due to CONVERGED_RTOL iterations 16
    3 SNES Function norm 3.276098566746e-05 
    Linear solve converged due to CONVERGED_RTOL iterations 15
    4 SNES Function norm 7.729979085452e-06 
    Linear solve converged due to CONVERGED_RTOL iterations 15
    5 SNES Function norm 1.819352588349e-06 
    Linear solve converged due to CONVERGED_RTOL iterations 15
    6 SNES Function norm 4.278971140141e-07 
    Linear solve converged due to CONVERGED_RTOL iterations 15
    7 SNES Function norm 1.006394769135e-07 
    Linear solve converged due to CONVERGED_RTOL iterations 15
    8 SNES Function norm 2.367745415938e-08 
    Linear solve converged due to CONVERGED_RTOL iterations 15
    9 SNES Function norm 5.573045937189e-09 
    Linear solve converged due to CONVERGED_RTOL iterations 15
   10 SNES Function norm 1.312387191378e-09 
    Linear solve converged due to CONVERGED_RTOL iterations 15
   11 SNES Function norm 3.092059323050e-10 
    Linear solve converged due to CONVERGED_RTOL iterations 15
   12 SNES Function norm 7.288655455842e-11 
    Linear solve converged due to CONVERGED_RTOL iterations 15
   13 SNES Function norm 1.719052772657e-11 
    Linear solve converged due to CONVERGED_RTOL iterations 15
   14 SNES Function norm 4.055141818133e-12 
    Linear solve converged due to CONVERGED_RTOL iterations 15
   15 SNES Function norm 9.574783013443e-13 
  Nonlinear solve converged due to CONVERGED_SNORM_RELATIVE iterations 15
      TSAdapt none beuler 0: step   5 accepted t=2.5        + 5.000e-01 dt=5.000e-01 
6 TS dt 0.5 time 3.
    0 SNES Function norm 2.389828948135e-03 
    Linear solve converged due to CONVERGED_RTOL iterations 17
    1 SNES Function norm 5.292257744497e-04 
    Linear solve converged due to CONVERGED_RTOL iterations 15
    2 SNES Function norm 1.270210641528e-04 
    Linear solve converged due to CONVERGED_RTOL iterations 16
    3 SNES Function norm 3.004018781595e-05 
    Linear solve converged due to CONVERGED_RTOL iterations 15
    4 SNES Function norm 7.061616271127e-06 
    Linear solve converged due to CONVERGED_RTOL iterations 14
    5 SNES Function norm 1.656304112046e-06 
    Linear solve converged due to CONVERGED_RTOL iterations 14
    6 SNES Function norm 3.882473205688e-07 
    Linear solve converged due to CONVERGED_RTOL iterations 14
    7 SNES Function norm 9.101221996618e-08 
    Linear solve converged due to CONVERGED_RTOL iterations 14
    8 SNES Function norm 2.134204514933e-08 
    Linear solve converged due to CONVERGED_RTOL iterations 14
    9 SNES Function norm 5.006876533484e-09 
    Linear solve converged due to CONVERGED_RTOL iterations 14
   10 SNES Function norm 1.175196837110e-09 
    Linear solve converged due to CONVERGED_RTOL iterations 14
   11 SNES Function norm 2.759771260783e-10 
    Linear solve converged due to CONVERGED_RTOL iterations 14
   12 SNES Function norm 6.484122689820e-11 
    Linear solve converged due to CONVERGED_RTOL iterations 14
   13 SNES Function norm 1.524218531492e-11 
    Linear solve converged due to CONVERGED_RTOL iterations 15
   14 SNES Function norm 3.584260943398e-12 
    Linear solve converged due to CONVERGED_RTOL iterations 15
   15 SNES Function norm 8.438030341252e-13 
  Nonlinear solve converged due to CONVERGED_SNORM_RELATIVE iterations 15
      TSAdapt none beuler 0: step   6 accepted t=3          + 5.000e-01 dt=5.000e-01 
7 TS dt 0.5 time 3.5
    0 SNES Function norm 2.209390370635e-03 
    Linear solve converged due to CONVERGED_RTOL iterations 17
    1 SNES Function norm 4.848899378345e-04 
    Linear solve converged due to CONVERGED_RTOL iterations 15
    2 SNES Function norm 1.157823305296e-04 
    Linear solve converged due to CONVERGED_RTOL iterations 16
    3 SNES Function norm 2.727324138817e-05 
    Linear solve converged due to CONVERGED_RTOL iterations 15
    4 SNES Function norm 6.389420876028e-06 
    Linear solve converged due to CONVERGED_RTOL iterations 16
    5 SNES Function norm 1.493906129855e-06 
    Linear solve converged due to CONVERGED_RTOL iterations 14
    6 SNES Function norm 3.491126611790e-07 
    Linear solve converged due to CONVERGED_RTOL iterations 14
    7 SNES Function norm 8.159217432529e-08 
    Linear solve converged due to CONVERGED_RTOL iterations 14
    8 SNES Function norm 1.907585244975e-08 
    Linear solve converged due to CONVERGED_RTOL iterations 14
    9 SNES Function norm 4.461876588661e-09 
    Linear solve converged due to CONVERGED_RTOL iterations 14
   10 SNES Function norm 1.044158849182e-09 
    Linear solve converged due to CONVERGED_RTOL iterations 14
   11 SNES Function norm 2.444757448977e-10 
    Linear solve converged due to CONVERGED_RTOL iterations 14
   12 SNES Function norm 5.726900454890e-11 
    Linear solve converged due to CONVERGED_RTOL iterations 17
   13 SNES Function norm 1.342236124149e-11 
    Linear solve converged due to CONVERGED_RTOL iterations 16
   14 SNES Function norm 3.147827946925e-12 
    Linear solve converged due to CONVERGED_RTOL iterations 16
   15 SNES Function norm 7.376379172018e-13 
  Nonlinear solve converged due to CONVERGED_SNORM_RELATIVE iterations 15
      TSAdapt none beuler 0: step   7 accepted t=3.5        + 5.000e-01 dt=5.000e-01 
8 TS dt 0.5 time 4.
    0 SNES Function norm 2.031284246096e-03 
    Linear solve converged due to CONVERGED_RTOL iterations 17
    1 SNES Function norm 4.398377877786e-04 
    Linear solve converged due to CONVERGED_RTOL iterations 17
    2 SNES Function norm 1.045329633749e-04 
    Linear solve converged due to CONVERGED_RTOL iterations 15
    3 SNES Function norm 2.453530829114e-05 
    Linear solve converged due to CONVERGED_RTOL iterations 15
    4 SNES Function norm 5.730353751326e-06 
    Linear solve converged due to CONVERGED_RTOL iterations 15
    5 SNES Function norm 1.336015009677e-06 
    Linear solve converged due to CONVERGED_RTOL iterations 14
    6 SNES Function norm 3.113557270520e-07 
    Linear solve converged due to CONVERGED_RTOL iterations 14
    7 SNES Function norm 7.257063229487e-08 
    Linear solve converged due to CONVERGED_RTOL iterations 14
    8 SNES Function norm 1.692097024943e-08 
    Linear solve converged due to CONVERGED_RTOL iterations 14
    9 SNES Function norm 3.947223240106e-09 
    Linear solve converged due to CONVERGED_RTOL iterations 14
   10 SNES Function norm 9.212462710748e-10 
    Linear solve converged due to CONVERGED_RTOL iterations 14
   11 SNES Function norm 2.151207232093e-10 
    Linear solve converged due to CONVERGED_RTOL iterations 15
   12 SNES Function norm 5.025859556252e-11 
    Linear solve converged due to CONVERGED_RTOL iterations 14
   13 SNES Function norm 1.174681704400e-11 
    Linear solve converged due to CONVERGED_RTOL iterations 18
   14 SNES Function norm 2.748015576946e-12 
    Linear solve converged due to CONVERGED_RTOL iterations 16
   15 SNES Function norm 6.425132270928e-13 
  Nonlinear solve converged due to CONVERGED_SNORM_RELATIVE iterations 15
      TSAdapt none beuler 0: step   8 accepted t=4          + 5.000e-01 dt=5.000e-01 
9 TS dt 0.5 time 4.5
    0 SNES Function norm 1.857362678344e-03 
    Linear solve converged due to CONVERGED_RTOL iterations 17
    1 SNES Function norm 3.952979769097e-04 
    Linear solve converged due to CONVERGED_RTOL iterations 17
    2 SNES Function norm 9.354259988506e-05 
    Linear solve converged due to CONVERGED_RTOL iterations 15
    3 SNES Function norm 2.188346241897e-05 
    Linear solve converged due to CONVERGED_RTOL iterations 15
    4 SNES Function norm 5.096818333104e-06 
    Linear solve converged due to CONVERGED_RTOL iterations 15
    5 SNES Function norm 1.185272818052e-06 
    Linear solve converged due to CONVERGED_RTOL iterations 14
    6 SNES Function norm 2.755445950415e-07 
    Linear solve converged due to CONVERGED_RTOL iterations 15
    7 SNES Function norm 6.406767145406e-08 
    Linear solve converged due to CONVERGED_RTOL iterations 15
    8 SNES Function norm 1.490231089721e-08 
    Linear solve converged due to CONVERGED_RTOL iterations 15
    9 SNES Function norm 3.467964443717e-09 
    Linear solve converged due to CONVERGED_RTOL iterations 15
   10 SNES Function norm 8.074511113675e-10 
    Linear solve converged due to CONVERGED_RTOL iterations 15
   11 SNES Function norm 1.880964334062e-10 
    Linear solve converged due to CONVERGED_RTOL iterations 15
   12 SNES Function norm 4.384006478522e-11 
    Linear solve converged due to CONVERGED_RTOL iterations 14
   13 SNES Function norm 1.022328385088e-11 
    Linear solve converged due to CONVERGED_RTOL iterations 18
   14 SNES Function norm 2.385210931676e-12 
    Linear solve converged due to CONVERGED_RTOL iterations 18
   15 SNES Function norm 5.566301266101e-13 
  Nonlinear solve converged due to CONVERGED_SNORM_RELATIVE iterations 15
      TSAdapt none beuler 0: step   9 accepted t=4.5        + 5.000e-01 dt=5.000e-01 
10 TS dt 0.5 time 5.
TS Object: 1 MPI process
  type: beuler
  maximum steps=10
  maximum time=100.
  total number of I function evaluations=178
  total number of I Jacobian evaluations=167
  total number of RHS function evaluations=178
  total number of nonlinear solver iterations=151
  total number of linear solver iterations=2327
  total number of nonlinear solve failures=0
  total number of rejected steps=0
  using relative error tolerance of 0.01,   using absolute error tolerance of 0.0001
  TSAdapt Object: 1 MPI process
    type: none
  SNES Object: 1 MPI process
    type: newtonls
    maximum iterations=50, maximum function evaluations=10000
    tolerances: relative=1e-14, absolute=1e-50, solution=1e-14
    total number of linear solver iterations=233
    total number of function evaluations=16
    norm schedule ALWAYS
    SNESLineSearch Object: 1 MPI process
      type: basic
      maxstep=1.000000e+08, minlambda=1.000000e-12
      tolerances: relative=1.000000e-08, absolute=1.000000e-15, lambda=1.000000e-08
      maximum iterations=40
    KSP Object: 1 MPI process
      type: tfqmr
      maximum iterations=100, initial guess is zero
      tolerances:  relative=1e-08, absolute=1e-50, divergence=10000.
      left preconditioning
      using PRECONDITIONED norm type for convergence test
    PC Object: 1 MPI process
      type: jacobi
        type DIAGONAL
      linear system matrix = precond matrix:
      Mat Object: Jacobian 1 MPI process
        type: seqaijkokkos
        rows=83600, cols=83600
        total: nonzeros=4512080, allocated nonzeros=4512080
        total number of mallocs used during MatSetValues calls=0
          not using I-node routines
****************************************************************************************************************************************************************
***                                WIDEN YOUR WINDOW TO 160 CHARACTERS.  Use 'enscript -r -fCourier9' to print this document                                 ***
****************************************************************************************************************************************************************

------------------------------------------------------------------ PETSc Performance Summary: ------------------------------------------------------------------



      ##########################################################
      #                                                        #
      #                       WARNING!!!                       #
      #                                                        #
      #   This code was compiled with GPU support and you've   #
      #   created PETSc/GPU objects, but you intentionally     #
      #   used -use_gpu_aware_mpi 0, requiring PETSc to copy   #
      #   additional data between the GPU and CPU. To obtain   #
      #   meaningful timing results on multi-rank runs, use    #
      #   GPU-aware MPI instead.                               #
      #                                                        #
      ##########################################################


/gpfs/alpine/csc314/scratch/adams/batch_gmres_paper/mark/crusher/./ex2-3d on a arch-olcf-crusher-kokkos-3d named crusher121 with 8 processors, by adams Fri Jul 15 09:47:44 2022
Using Petsc Development GIT revision: v3.17.3-760-g6e3d66b0f1  GIT Date: 2022-07-14 21:35:48 +0000

                         Max       Max/Min     Avg       Total
Time (sec):           6.126e+01     1.000   6.126e+01
Objects:              2.719e+04     1.000   2.719e+04
Flops:                5.606e+10     1.000   5.606e+10  4.485e+11
Flops/sec:            9.151e+08     1.000   9.151e+08  7.321e+09
MPI Msg Count:        0.000e+00     0.000   0.000e+00  0.000e+00
MPI Msg Len (bytes):  0.000e+00     0.000   0.000e+00  0.000e+00
MPI Reductions:       2.100e+01     1.000

Flop counting convention: 1 flop = 1 real number operation of type (multiply/divide/add/subtract)
                            e.g., VecAXPY() for real vectors of length N --> 2N flops
                            and VecAXPY() for complex vectors of length N --> 8N flops

Summary of Stages:   ----- Time ------  ----- Flop ------  --- Messages ---  -- Message Lengths --  -- Reductions --
                        Avg     %Total     Avg     %Total    Count   %Total     Avg         %Total    Count   %Total
 0:      Main Stage: 3.0404e+01  49.6%  1.4609e+09   0.3%  0.000e+00   0.0%  0.000e+00        0.0%  2.000e+00   9.5%
 1:          Warmup: 3.1163e+00   5.1%  4.3182e+10   9.6%  0.000e+00   0.0%  0.000e+00        0.0%  0.000e+00   0.0%
 2:           Solve: 2.7743e+01  45.3%  4.0386e+11  90.0%  0.000e+00   0.0%  0.000e+00        0.0%  0.000e+00   0.0%

------------------------------------------------------------------------------------------------------------------------
See the 'Profiling' chapter of the users' manual for details on interpreting output.
Phase summary info:
   Count: number of times phase was executed
   Time and Flop: Max - maximum over all processors
                  Ratio - ratio of maximum to minimum over all processors
   Mess: number of messages sent
   AvgLen: average message length (bytes)
   Reduct: number of global reductions
   Global: entire computation
   Stage: stages of a computation. Set stages with PetscLogStagePush() and PetscLogStagePop().
      %T - percent time in this phase         %F - percent flop in this phase
      %M - percent messages in this phase     %L - percent message lengths in this phase
      %R - percent reductions in this phase
   Total Mflop/s: 10e-6 * (sum of flop over all processors)/(max time over all processors)
   GPU Mflop/s: 10e-6 * (sum of flop on GPU over all processors)/(max GPU time over all processors)
   CpuToGpu Count: total number of CPU to GPU copies per processor
   CpuToGpu Size (Mbytes): 10e-6 * (total size of CPU to GPU copies per processor)
   GpuToCpu Count: total number of GPU to CPU copies per processor
   GpuToCpu Size (Mbytes): 10e-6 * (total size of GPU to CPU copies per processor)
   GPU %F: percent flops on GPU in this event
------------------------------------------------------------------------------------------------------------------------
Event                Count      Time (sec)     Flop                              --- Global ---  --- Stage ----  Total   GPU    - CpuToGpu -   - GpuToCpu - GPU
                   Max Ratio  Max     Ratio   Max  Ratio  Mess   AvgLen  Reduct  %T %F %M %L %R  %T %F %M %L %R Mflop/s Mflop/s Count   Size   Count   Size  %F
---------------------------------------------------------------------------------------------------------------------------------------------------------------

--- Event Stage 0: Main Stage

BuildTwoSided        135 1.0 8.9407e-05 1.1 0.00e+00 0.0 0.0e+00 0.0e+00 0.0e+00  0  0  0  0  0   0  0  0  0  0     0       0      0 0.00e+00    0 0.00e+00  0
DMConvert             18 1.0 3.1852e-03 1.0 0.00e+00 0.0 0.0e+00 0.0e+00 0.0e+00  0  0  0  0  0   0  0  0  0  0     0       0      0 0.00e+00    0 0.00e+00  0
DMCreateMat            8 1.0 1.0727e+01 1.0 0.00e+00 0.0 0.0e+00 0.0e+00 0.0e+00 17  0  0  0  0  35  0  0  0  0     0       0      0 0.00e+00    0 0.00e+00  0
DMPlexInterp         294 1.0 5.6091e-03 1.0 0.00e+00 0.0 0.0e+00 0.0e+00 0.0e+00  0  0  0  0  0   0  0  0  0  0     0       0      0 0.00e+00    0 0.00e+00  0
DMPlexStratify       435 1.0 4.3416e-03 1.0 0.00e+00 0.0 0.0e+00 0.0e+00 0.0e+00  0  0  0  0  0   0  0  0  0  0     0       0      0 0.00e+00    0 0.00e+00  0
DMPlexSymmetrize     435 1.0 5.6948e-04 1.0 0.00e+00 0.0 0.0e+00 0.0e+00 0.0e+00  0  0  0  0  0   0  0  0  0  0     0       0      0 0.00e+00    0 0.00e+00  0
DMPlexPrealloc        54 1.0 1.0497e+01 1.0 0.00e+00 0.0 0.0e+00 0.0e+00 0.0e+00 17  0  0  0  0  34  0  0  0  0     0       0      0 0.00e+00    0 0.00e+00  0
DMPlexJacobianFE       6 1.0 3.1223e+00 1.0 1.06e+08 1.0 0.0e+00 0.0e+00 0.0e+00  5  0  0  0  0  10 58  0  0  0   271       0      0 0.00e+00    0 0.00e+00  0
SFSetGraph           252 1.0 1.9057e-04 1.0 0.00e+00 0.0 0.0e+00 0.0e+00 0.0e+00  0  0  0  0  0   0  0  0  0  0     0       0      0 0.00e+00    0 0.00e+00  0
SFSetUp              135 1.0 5.0384e-04 1.0 0.00e+00 0.0 0.0e+00 0.0e+00 0.0e+00  0  0  0  0  0   0  0  0  0  0     0       0      0 0.00e+00    0 0.00e+00  0
SFBcastBegin         282 1.0 5.3361e-04 1.1 0.00e+00 0.0 0.0e+00 0.0e+00 0.0e+00  0  0  0  0  0   0  0  0  0  0     0       0      0 0.00e+00    0 0.00e+00  0
SFBcastEnd           282 1.0 1.0941e-04 1.0 0.00e+00 0.0 0.0e+00 0.0e+00 0.0e+00  0  0  0  0  0   0  0  0  0  0     0       0      0 0.00e+00    0 0.00e+00  0
SFReduceBegin         54 1.0 6.9163e-05 1.0 0.00e+00 0.0 0.0e+00 0.0e+00 0.0e+00  0  0  0  0  0   0  0  0  0  0     0       0      0 0.00e+00    0 0.00e+00  0
SFReduceEnd           54 1.0 1.5373e-05 1.0 0.00e+00 0.0 0.0e+00 0.0e+00 0.0e+00  0  0  0  0  0   0  0  0  0  0     0       0      0 0.00e+00    0 0.00e+00  0
SFCreateEmbed        108 1.0 9.8902e-04 1.1 0.00e+00 0.0 0.0e+00 0.0e+00 0.0e+00  0  0  0  0  0   0  0  0  0  0     0       0      0 0.00e+00    0 0.00e+00  0
SFSectionSF          108 1.0 3.3435e-04 1.0 0.00e+00 0.0 0.0e+00 0.0e+00 0.0e+00  0  0  0  0  0   0  0  0  0  0     0       0      0 0.00e+00    0 0.00e+00  0
SFRemoteOff          108 1.0 1.9423e-03 1.0 0.00e+00 0.0 0.0e+00 0.0e+00 0.0e+00  0  0  0  0  0   0  0  0  0  0     0       0      0 0.00e+00    0 0.00e+00  0
SFPack               336 1.0 2.4320e-05 1.1 0.00e+00 0.0 0.0e+00 0.0e+00 0.0e+00  0  0  0  0  0   0  0  0  0  0     0       0      0 0.00e+00    0 0.00e+00  0
SFUnpack             336 1.0 2.4445e-05 1.1 0.00e+00 0.0 0.0e+00 0.0e+00 0.0e+00  0  0  0  0  0   0  0  0  0  0     0       0      0 0.00e+00    0 0.00e+00  0
Landau Create          1 1.0 2.2977e+01 1.0 1.17e+08 1.0 0.0e+00 0.0e+00 0.0e+00 37  0  0  0  0  75 64  0  0  0    41       0      0 0.00e+00    0 0.00e+00  0
 GPU ass. setup        1 1.0 1.5680e+01 1.0 0.00e+00 0.0 0.0e+00 0.0e+00 0.0e+00 25  0  0  0  0  51  0  0  0  0     0       0      0 0.00e+00    0 0.00e+00  0
 Build matrix          1 1.0 1.7878e+00 1.0 3.98e+07 1.0 0.0e+00 0.0e+00 0.0e+00  3  0  0  0  0   6 22  0  0  0   178       0      0 0.00e+00    0 0.00e+00  0
 Assembly maps         1 1.0 5.5470e+00 1.0 7.63e+07 1.0 0.0e+00 0.0e+00 0.0e+00  9  0  0  0  0  18 42  0  0  0   110       0      0 0.00e+00    0 0.00e+00  0
Landau Mass mat        1 1.0 7.3567e+00 1.0 6.61e+07 1.0 0.0e+00 0.0e+00 0.0e+00 12  0  0  0  0  24 36  0  0  0    72       0      0 0.00e+00    0 0.00e+00  0
 static IP Data        1 1.0 2.9916e-03 1.2 4.76e+05 1.0 0.0e+00 0.0e+00 0.0e+00  0  0  0  0  0   0  0  0  0  0  1274       0      0 0.00e+00    0 0.00e+00  0
MatMult           113400 1.0 9.5541e-03 1.1 8.86e+05 1.0 0.0e+00 0.0e+00 0.0e+00  0  0  0  0  0   0  0  0  0  0   742       0      0 0.00e+00    0 0.00e+00  0
MatLUFactor           30 1.0 4.5805e-04 1.0 3.94e+05 1.0 0.0e+00 0.0e+00 0.0e+00  0  0  0  0  0   0  0  0  0  0  6875       0      0 0.00e+00    0 0.00e+00  0
MatCopy              240 1.0 1.7776e-04 1.0 0.00e+00 0.0 0.0e+00 0.0e+00 0.0e+00  0  0  0  0  0   0  0  0  0  0     0       0      0 0.00e+00    0 0.00e+00  0
MatConvert            60 1.0 4.6485e-04 1.0 0.00e+00 0.0 0.0e+00 0.0e+00 0.0e+00  0  0  0  0  0   0  0  0  0  0     0       0      0 0.00e+00    0 0.00e+00  0
MatAssemblyBegin    1131 1.0 8.4464e-05 1.1 0.00e+00 0.0 0.0e+00 0.0e+00 0.0e+00  0  0  0  0  0   0  0  0  0  0     0       0      0 0.00e+00    0 0.00e+00  0
MatAssemblyEnd      1131 1.0 8.9712e-02 1.1 0.00e+00 0.0 0.0e+00 0.0e+00 0.0e+00  0  0  0  0  0   0  0  0  0  0     0       0      0 0.00e+00    0 0.00e+00  0
MatGetRowIJ           15 1.0 2.6560e-06 1.4 0.00e+00 0.0 0.0e+00 0.0e+00 0.0e+00  0  0  0  0  0   0  0  0  0  0     0       0      0 0.00e+00    0 0.00e+00  0
MatZeroEntries         6 1.0 3.5679e-03 1.2 0.00e+00 0.0 0.0e+00 0.0e+00 0.0e+00  0  0  0  0  0   0  0  0  0  0     0       0      0 0.00e+00    0 0.00e+00  0
MatMatSolve          240 1.0 1.9948e-03 1.0 9.27e+06 1.0 0.0e+00 0.0e+00 0.0e+00  0  0  0  0  0   0  5  0  0  0 37188       0      0 0.00e+00    0 0.00e+00  0
MatSetPreallCOO        1 1.0 2.6927e+00 1.0 0.00e+00 0.0 0.0e+00 0.0e+00 0.0e+00  4  0  0  0  0   9  0  0  0  0     0       0      0 0.00e+00    0 0.00e+00  0
VecCopy                1 1.0 7.7730e-05 1.4 0.00e+00 0.0 0.0e+00 0.0e+00 0.0e+00  0  0  0  0  0   0  0  0  0  0     0       0      0 0.00e+00    0 0.00e+00  0
VecSet                33 1.0 1.7860e-03 1.1 0.00e+00 0.0 0.0e+00 0.0e+00 0.0e+00  0  0  0  0  0   0  0  0  0  0     0       0      0 0.00e+00    0 0.00e+00  0
DualSpaceSetUp        28 1.0 3.1434e-02 1.0 2.20e+04 1.0 0.0e+00 0.0e+00 0.0e+00  0  0  0  0  0   0  0  0  0  0     6       0      0 0.00e+00    0 0.00e+00  0
FESetUp               52 1.0 3.8120e-03 1.0 0.00e+00 0.0 0.0e+00 0.0e+00 0.0e+00  0  0  0  0  0   0  0  0  0  0     0       0      0 0.00e+00    0 0.00e+00  0

--- Event Stage 1: Warmup

Landau Operator       33 1.0 2.7614e+00 1.0 3.07e+08 1.0 0.0e+00 0.0e+00 0.0e+00  4  1  0  0  0  88  6  0  0  0   889       0      0 0.00e+00    0 0.00e+00 100
Landau Jacobian       17 1.0 2.5082e+00 1.0 3.07e+08 1.0 0.0e+00 0.0e+00 0.0e+00  4  1  0  0  0  80  6  0  0  0   979       0      0 0.00e+00    0 0.00e+00 100
Landau Mass           16 1.0 2.5321e-01 1.0 0.00e+00 0.0 0.0e+00 0.0e+00 0.0e+00  0  0  0  0  0   8  0  0  0  0     0       0      0 0.00e+00    0 0.00e+00  0
 Preamble             33 1.0 6.0871e-05 1.4 0.00e+00 0.0 0.0e+00 0.0e+00 0.0e+00  0  0  0  0  0   0  0  0  0  0     0       0      0 0.00e+00    0 0.00e+00  0
 dynamic IP-Jac       34 1.0 1.0390e-05 1.2 0.00e+00 0.0 0.0e+00 0.0e+00 0.0e+00  0  0  0  0  0   0  0  0  0  0     0       0      0 0.00e+00    0 0.00e+00  0
 Kernel-init          33 1.0 1.4673e-04 1.2 0.00e+00 0.0 0.0e+00 0.0e+00 0.0e+00  0  0  0  0  0   0  0  0  0  0     0       0      0 0.00e+00    0 0.00e+00  0
 Jac-f-df (GPU)       17 1.0 1.5763e-02 1.0 0.00e+00 0.0 0.0e+00 0.0e+00 0.0e+00  0  0  0  0  0   1  0  0  0  0     0       0      0 0.00e+00    0 0.00e+00  0
 J Kernel (GPU)       17 1.0 2.3694e+00 1.0 0.00e+00 0.0 0.0e+00 0.0e+00 0.0e+00  4  0  0  0  0  76  0  0  0  0     0       0      0 0.00e+00    0 0.00e+00  0
 M Kernel (GPU)       16 1.0 1.9325e-01 1.0 0.00e+00 0.0 0.0e+00 0.0e+00 0.0e+00  0  0  0  0  0   6  0  0  0  0     0       0      0 0.00e+00    0 0.00e+00  0
MatMult              515 1.0 3.6164e-01 1.0 4.65e+09 1.0 0.0e+00 0.0e+00 0.0e+00  1  8  0  0  0  11 86  0  0  0 102808       0      0 0.00e+00    0 0.00e+00 100
MatMultAdd            17 1.0 1.4304e-02 1.1 1.53e+08 1.0 0.0e+00 0.0e+00 0.0e+00  0  0  0  0  0   0  3  0  0  0 85798       0      0 0.00e+00    0 0.00e+00 100
MatAssemblyBegin      66 1.0 5.2380e-06 1.2 0.00e+00 0.0 0.0e+00 0.0e+00 0.0e+00  0  0  0  0  0   0  0  0  0  0     0       0      0 0.00e+00    0 0.00e+00  0
MatAssemblyEnd        66 1.0 1.0874e-03 1.2 0.00e+00 0.0 0.0e+00 0.0e+00 0.0e+00  0  0  0  0  0   0  0  0  0  0     0       0      0 0.00e+00    0 0.00e+00  0
MatZeroEntries        17 1.0 1.0906e-03 1.2 0.00e+00 0.0 0.0e+00 0.0e+00 0.0e+00  0  0  0  0  0   0  0  0  0  0     0       0      0 0.00e+00    0 0.00e+00  0
MatView                1 0.0 2.5710e-05 0.0 0.00e+00 0.0 0.0e+00 0.0e+00 0.0e+00  0  0  0  0  0   0  0  0  0  0     0       0      0 0.00e+00    0 0.00e+00  0
MatSetValuesCOO       33 1.0 2.9579e-03 1.2 0.00e+00 0.0 0.0e+00 0.0e+00 0.0e+00  0  0  0  0  0   0  0  0  0  0     0       0      0 0.00e+00    0 0.00e+00  0
VecDot               498 1.0 1.8210e-02 1.0 8.33e+07 1.0 0.0e+00 0.0e+00 0.0e+00  0  0  0  0  0   1  2  0  0  0 36579       0      0 0.00e+00    0 0.00e+00 100
VecNorm              266 1.0 9.5993e-03 1.0 4.45e+07 1.0 0.0e+00 0.0e+00 0.0e+00  0  0  0  0  0   0  1  0  0  0 37065       0      0 0.00e+00    0 0.00e+00 100
VecCopy               83 1.0 1.4408e-03 1.1 0.00e+00 0.0 0.0e+00 0.0e+00 0.0e+00  0  0  0  0  0   0  0  0  0  0     0       0      0 0.00e+00    0 0.00e+00  0
VecSet                49 1.0 1.0278e-03 1.1 0.00e+00 0.0 0.0e+00 0.0e+00 0.0e+00  0  0  0  0  0   0  0  0  0  0     0       0      0 0.00e+00    0 0.00e+00  0
VecAXPY              992 1.0 3.1961e-03 1.2 1.66e+08 1.0 0.0e+00 0.0e+00 0.0e+00  0  0  0  0  0   0  3  0  0  0 415160       0      0 0.00e+00    0 0.00e+00 100
VecAYPX              492 1.0 1.3046e-03 1.3 8.09e+07 1.0 0.0e+00 0.0e+00 0.0e+00  0  0  0  0  0   0  1  0  0  0 496236       0      0 0.00e+00    0 0.00e+00 100
VecAXPBYCZ            18 1.0 1.2469e-03 1.1 7.52e+06 1.0 0.0e+00 0.0e+00 0.0e+00  0  0  0  0  0   0  0  0  0  0 48272       0      0 0.00e+00    0 0.00e+00 100
VecWAXPY             980 1.0 2.7507e-03 1.4 1.64e+08 1.0 0.0e+00 0.0e+00 0.0e+00  0  0  0  0  0   0  3  0  0  0 476549       0      0 0.00e+00    0 0.00e+00 100
VecPointwiseMult     514 1.0 2.7734e-03 1.2 4.30e+07 1.0 0.0e+00 0.0e+00 0.0e+00  0  0  0  0  0   0  1  0  0  0 123950       0      0 0.00e+00    0 0.00e+00 100
VecReduceArith        48 1.0 1.3662e-03 1.1 8.03e+06 1.0 0.0e+00 0.0e+00 0.0e+00  0  0  0  0  0   0  0  0  0  0 46995       0      0 0.00e+00    0 0.00e+00 100
VecReduceComm         16 1.0 3.9050e-06 1.6 0.00e+00 0.0 0.0e+00 0.0e+00 0.0e+00  0  0  0  0  0   0  0  0  0  0     0       0      0 0.00e+00    0 0.00e+00  0
TSStep                 1 1.0 3.1248e+00 1.0 5.40e+09 1.0 0.0e+00 0.0e+00 0.0e+00  5 10  0  0  0 100100  0  0  0 13819       0      0 0.00e+00    0 0.00e+00 100
TSFunctionEval        17 1.0 2.5092e+00 1.0 3.10e+08 1.0 0.0e+00 0.0e+00 0.0e+00  4  1  0  0  0  80  6  0  0  0   987       0      0 0.00e+00    0 0.00e+00 100
TSJacobianEval        16 1.0 2.5322e-01 1.0 0.00e+00 0.0 0.0e+00 0.0e+00 0.0e+00  0  0  0  0  0   8  0  0  0  0     0       0      0 0.00e+00    0 0.00e+00  0
KSPSetUp              16 1.0 9.1336e-04 1.8 0.00e+00 0.0 0.0e+00 0.0e+00 0.0e+00  0  0  0  0  0   0  0  0  0  0     0       0      0 0.00e+00    0 0.00e+00  0
KSPSolve              16 1.0 3.6111e-01 1.0 5.07e+09 1.0 0.0e+00 0.0e+00 0.0e+00  1  9  0  0  0  11 94  0  0  0 112311       0      0 0.00e+00    0 0.00e+00 100
SNESSolve              1 1.0 3.1245e+00 1.0 5.40e+09 1.0 0.0e+00 0.0e+00 0.0e+00  5 10  0  0  0 100100  0  0  0 13819       0      0 0.00e+00    0 0.00e+00 100
SNESSetUp              1 1.0 1.7552e-04 1.7 0.00e+00 0.0 0.0e+00 0.0e+00 0.0e+00  0  0  0  0  0   0  0  0  0  0     0       0      0 0.00e+00    0 0.00e+00  0
SNESFunctionEval      17 1.0 2.5104e+00 1.0 3.17e+08 1.0 0.0e+00 0.0e+00 0.0e+00  4  1  0  0  0  80  6  0  0  0  1009       0      0 0.00e+00    0 0.00e+00 100
SNESJacobianEval      16 1.0 2.5323e-01 1.0 0.00e+00 0.0 0.0e+00 0.0e+00 0.0e+00  0  0  0  0  0   8  0  0  0  0     0       0      0 0.00e+00    0 0.00e+00  0
SNESLineSearch        16 1.0 2.3266e+00 1.0 3.09e+08 1.0 0.0e+00 0.0e+00 0.0e+00  4  1  0  0  0  74  6  0  0  0  1062       0      0 0.00e+00    0 0.00e+00 100
PCSetUp               16 1.0 2.1901e-03 1.1 0.00e+00 0.0 0.0e+00 0.0e+00 0.0e+00  0  0  0  0  0   0  0  0  0  0     0       0      0 0.00e+00    0 0.00e+00  0
PCApply              514 1.0 6.2601e-03 1.2 4.30e+07 1.0 0.0e+00 0.0e+00 0.0e+00  0  0  0  0  0   0  1  0  0  0 54914       0      0 0.00e+00    0 0.00e+00 100

--- Event Stage 2: Solve

Landau Operator      312 1.0 2.4441e+01 1.0 2.91e+09 1.0 0.0e+00 0.0e+00 0.0e+00 40  5  0  0  0  88  6  0  0  0   951       0      0 0.00e+00    0 0.00e+00 100
Landau Jacobian      161 1.0 2.2053e+01 1.0 2.91e+09 1.0 0.0e+00 0.0e+00 0.0e+00 36  5  0  0  0  79  6  0  0  0  1054       0      0 0.00e+00    0 0.00e+00 100
Landau Mass          151 1.0 2.3878e+00 1.0 0.00e+00 0.0 0.0e+00 0.0e+00 0.0e+00  4  0  0  0  0   9  0  0  0  0     0       0      0 0.00e+00    0 0.00e+00  0
 Preamble            303 1.0 4.7392e-04 1.6 0.00e+00 0.0 0.0e+00 0.0e+00 0.0e+00  0  0  0  0  0   0  0  0  0  0     0       0      0 0.00e+00    0 0.00e+00  0
 dynamic IP-Jac      304 1.0 6.6752e-05 1.3 0.00e+00 0.0 0.0e+00 0.0e+00 0.0e+00  0  0  0  0  0   0  0  0  0  0     0       0      0 0.00e+00    0 0.00e+00  0
 Kernel-init         303 1.0 1.2628e-03 1.2 0.00e+00 0.0 0.0e+00 0.0e+00 0.0e+00  0  0  0  0  0   0  0  0  0  0     0       0      0 0.00e+00    0 0.00e+00  0
 Jac-f-df (GPU)      152 1.0 1.1400e-01 1.0 0.00e+00 0.0 0.0e+00 0.0e+00 0.0e+00  0  0  0  0  0   0  0  0  0  0     0       0      0 0.00e+00    0 0.00e+00  0
 J Kernel (GPU)      152 1.0 2.1153e+01 1.0 0.00e+00 0.0 0.0e+00 0.0e+00 0.0e+00 34  0  0  0  0  76  0  0  0  0     0       0      0 0.00e+00    0 0.00e+00  0
 M Kernel (GPU)      151 1.0 1.8212e+00 1.0 0.00e+00 0.0 0.0e+00 0.0e+00 0.0e+00  3  0  0  0  0   7  0  0  0  0     0       0      0 0.00e+00    0 0.00e+00  0
MatMult             4815 1.0 3.1111e+00 1.0 4.35e+10 1.0 0.0e+00 0.0e+00 0.0e+00  5 78  0  0  0  11 86  0  0  0 111733       0      0 0.00e+00    0 0.00e+00 100
MatMultAdd           161 1.0 1.0242e-01 1.0 1.45e+09 1.0 0.0e+00 0.0e+00 0.0e+00  0  3  0  0  0   0  3  0  0  0 113487       0      0 0.00e+00    0 0.00e+00 100
MatAssemblyBegin     606 1.0 5.0167e-05 1.3 0.00e+00 0.0 0.0e+00 0.0e+00 0.0e+00  0  0  0  0  0   0  0  0  0  0     0       0      0 0.00e+00    0 0.00e+00  0
MatAssemblyEnd       606 1.0 1.3862e-04 1.2 0.00e+00 0.0 0.0e+00 0.0e+00 0.0e+00  0  0  0  0  0   0  0  0  0  0     0       0      0 0.00e+00    0 0.00e+00  0
MatZeroEntries       152 1.0 9.8297e-03 1.2 0.00e+00 0.0 0.0e+00 0.0e+00 0.0e+00  0  0  0  0  0   0  0  0  0  0     0       0      0 0.00e+00    0 0.00e+00  0
MatView                1 0.0 1.7153e-05 0.0 0.00e+00 0.0 0.0e+00 0.0e+00 0.0e+00  0  0  0  0  0   0  0  0  0  0     0       0      0 0.00e+00    0 0.00e+00  0
MatSetValuesCOO      303 1.0 1.5886e-03 1.5 0.00e+00 0.0 0.0e+00 0.0e+00 0.0e+00  0  0  0  0  0   0  0  0  0  0     0       0      0 0.00e+00    0 0.00e+00  0
VecDot              4654 1.0 1.6587e-01 1.0 7.78e+08 1.0 0.0e+00 0.0e+00 0.0e+00  0  1  0  0  0   1  2  0  0  0 37529       0      0 0.00e+00    0 0.00e+00 100
VecNorm             2488 1.0 8.6715e-02 1.0 4.16e+08 1.0 0.0e+00 0.0e+00 0.0e+00  0  1  0  0  0   0  1  0  0  0 38378       0      0 0.00e+00    0 0.00e+00 100
VecCopy              775 1.0 1.2782e-02 1.1 0.00e+00 0.0 0.0e+00 0.0e+00 0.0e+00  0  0  0  0  0   0  0  0  0  0     0       0      0 0.00e+00    0 0.00e+00  0
VecSet               463 1.0 9.5452e-03 1.1 0.00e+00 0.0 0.0e+00 0.0e+00 0.0e+00  0  0  0  0  0   0  0  0  0  0     0       0      0 0.00e+00    0 0.00e+00  0
VecAXPY             9266 1.0 2.4639e-02 1.3 1.55e+09 1.0 0.0e+00 0.0e+00 0.0e+00  0  3  0  0  0   0  3  0  0  0 503039       0      0 0.00e+00    0 0.00e+00 100
VecAYPX             4592 1.0 1.2000e-02 1.3 7.55e+08 1.0 0.0e+00 0.0e+00 0.0e+00  0  1  0  0  0   0  1  0  0  0 503442       0      0 0.00e+00    0 0.00e+00 100
VecAXPBYCZ           171 1.0 8.8748e-04 1.3 7.15e+07 1.0 0.0e+00 0.0e+00 0.0e+00  0  0  0  0  0   0  0  0  0  0 644326       0      0 0.00e+00    0 0.00e+00 100
VecWAXPY            9157 1.0 2.5347e-02 1.4 1.53e+09 1.0 0.0e+00 0.0e+00 0.0e+00  0  3  0  0  0   0  3  0  0  0 483224       0      0 0.00e+00    0 0.00e+00 100
VecPointwiseMult    4805 1.0 2.5521e-02 1.1 4.02e+08 1.0 0.0e+00 0.0e+00 0.0e+00  0  1  0  0  0   0  1  0  0  0 125920       0      0 0.00e+00    0 0.00e+00 100
VecReduceArith       453 1.0 1.2867e-02 1.1 7.57e+07 1.0 0.0e+00 0.0e+00 0.0e+00  0  0  0  0  0   0  0  0  0  0 47093       0      0 0.00e+00    0 0.00e+00 100
VecReduceComm        151 1.0 5.5785e-05 2.4 0.00e+00 0.0 0.0e+00 0.0e+00 0.0e+00  0  0  0  0  0   0  0  0  0  0     0       0      0 0.00e+00    0 0.00e+00  0
TSStep                10 1.0 2.7803e+01 1.0 5.05e+10 1.0 0.0e+00 0.0e+00 0.0e+00 45 90  0  0  0 100100  0  0  0 14526       0      0 0.00e+00    0 0.00e+00 100
TSFunctionEval       161 1.0 2.2056e+01 1.0 2.93e+09 1.0 0.0e+00 0.0e+00 0.0e+00 36  5  0  0  0  79  6  0  0  0  1064       0      0 0.00e+00    0 0.00e+00 100
TSJacobianEval       151 1.0 2.3878e+00 1.0 0.00e+00 0.0 0.0e+00 0.0e+00 0.0e+00  4  0  0  0  0   9  0  0  0  0     0       0      0 0.00e+00    0 0.00e+00  0
KSPSetUp             151 1.0 2.8483e-05 1.3 0.00e+00 0.0 0.0e+00 0.0e+00 0.0e+00  0  0  0  0  0   0  0  0  0  0     0       0      0 0.00e+00    0 0.00e+00  0
KSPSolve             151 1.0 3.3530e+00 1.0 4.74e+10 1.0 0.0e+00 0.0e+00 0.0e+00  5 85  0  0  0  12 94  0  0  0 113030       0      0 0.00e+00    0 0.00e+00 100
SNESSolve             10 1.0 2.7802e+01 1.0 5.05e+10 1.0 0.0e+00 0.0e+00 0.0e+00 45 90  0  0  0 100100  0  0  0 14524       0      0 0.00e+00    0 0.00e+00 100
SNESFunctionEval     161 1.0 2.2057e+01 1.0 3.00e+09 1.0 0.0e+00 0.0e+00 0.0e+00 36  5  0  0  0  79  6  0  0  0  1088       0      0 0.00e+00    0 0.00e+00 100
SNESJacobianEval     151 1.0 2.3879e+00 1.0 0.00e+00 0.0 0.0e+00 0.0e+00 0.0e+00  4  0  0  0  0   9  0  0  0  0     0       0      0 0.00e+00    0 0.00e+00  0
SNESLineSearch       151 1.0 2.1917e+01 1.0 2.91e+09 1.0 0.0e+00 0.0e+00 0.0e+00 36  5  0  0  0  79  6  0  0  0  1064       0      0 0.00e+00    0 0.00e+00 100
PCSetUp              151 1.0 2.2253e-02 1.1 0.00e+00 0.0 0.0e+00 0.0e+00 0.0e+00  0  0  0  0  0   0  0  0  0  0     0       0      0 0.00e+00    0 0.00e+00  0
PCApply             4805 1.0 2.6897e-02 1.1 4.02e+08 1.0 0.0e+00 0.0e+00 0.0e+00  0  1  0  0  0   0  1  0  0  0 119478       0      0 0.00e+00    0 0.00e+00 100
---------------------------------------------------------------------------------------------------------------------------------------------------------------

Object Type          Creations   Destructions. Reports information only for process 0.

--- Event Stage 0: Main Stage

           Container   428            428
    Distributed Mesh  1017           1017
            DM Label  2107           2107
          Quadrature  2209           2209
           Index Set  9561           9561
   IS L to G Mapping    59             59
             Section  3590           3590
   Star Forest Graph  2277           2277
     Discrete System  1610           1610
           Weak Form  1610           1610
    GraphPartitioner   444            444
              Matrix  1100           1100
              Vector   584            603
       p4est logging     1              0
        Linear Space    98             98
          Dual Space   396            396
            FE Space    52             52
       Field over DM    18             18
             TSAdapt     1              1
                  TS     1              1
                DMTS     1              1
                SNES     1              1
              DMSNES     3              3
      SNESLineSearch     1              1
       Krylov Solver     1              1
     DMKSP interface     0              1
      Preconditioner     1              1
              Viewer     2              1

--- Event Stage 1: Warmup

              Vector    19              0
     DMKSP interface     1              0

--- Event Stage 2: Solve

========================================================================================================================
Average time to get PetscTime(): 3.51e-08
Average time for MPI_Barrier(): 2.8276e-06
Average time for zero size MPI_Send(): 1.59021e-05
#PETSc Option Table entries:
-dim 3
-dm_landau_amr_levels_max 2,2,2
-dm_landau_batch_size 8
-dm_landau_coo_assembly
-dm_landau_device_type kokkos
-dm_landau_Ez 0
-dm_landau_ion_charges 1,2,3,4,5,6,7,8,9
-dm_landau_ion_masses 2,182,182,182,182,182,182,182,182
-dm_landau_n 1.0000044,1,1e-7,1e-7,1e-7,1e-7,1e-7,1e-7,1e-7,1e-7
-dm_landau_num_species_grid 1,1,8
-dm_landau_thermal_temps 2,1,1,1,1,1,1,1,1,1
-dm_landau_type p8est
-dm_landau_verbose 1
-dm_mat_type aijkokkos
-dm_preallocate_only false
-dm_vec_type kokkos
-ex2_test_type none
-ksp_converged_reason
-ksp_max_it 100
-ksp_rtol 1.e-8
-ksp_type tfqmr
-log_view
-pc_type jacobi
-petscspace_degree 2
-snes_converged_reason
-snes_linesearch_type basic
-snes_max_it 50
-snes_monitor
-snes_rtol 1e-14
-snes_stol 1e-14
-ts_adapt_clip .5,1.1
-ts_adapt_dt_max 1
-ts_adapt_monitor
-ts_adapt_scale_solve_failed 0.5
-ts_adapt_time_step_increase_delay 5
-ts_dt .5
-ts_exact_final_time stepover
-ts_max_snes_failures -1
-ts_max_steps 10
-ts_max_time 100
-ts_monitor
-ts_rtol 1e-2
-ts_type beuler
-ts_view
-use_gpu_aware_mpi 0
#End of PETSc Option Table entries
Compiled without FORTRAN kernels
Compiled with full precision matrices (default)
sizeof(short) 2 sizeof(int) 4 sizeof(long) 8 sizeof(void*) 8 sizeof(PetscScalar) 8 sizeof(PetscInt) 4
Configure options: --with-cc=cc --with-cxx=CC --with-fc=ftn LIBS="-L/opt/cray/pe/mpich/8.1.16/gtl/lib -lmpi_gtl_hsa" --with-debugging=0 --COPTFLAGS="-g -ggdb -O -DLAND_SUPPORT_CPU_ASS" --CXXOPTFLAGS="-g -ggdb -O -DLAND_SUPPORT_CPU_ASS" --FOPTFLAGS=-g --with-mpiexec="srun --gpu-bind=closest" --with-hip --with-hipc=hipcc --download-kokkos --download-kokkos-kernels --with-kokkos-kernels-tpl=1 --download-p4est=1 --with-zlib-dir=/sw/crusher/spack-envs/base/opt/cray-sles15-zen3/clang-14.0.0-rocm5.1.0/zlib-1.2.11-j3ogymf5vmwlxvblzxxqdkrjkdvfccyx PETSC_ARCH=arch-olcf-crusher-kokkos-3d
-----------------------------------------
Libraries compiled on 2022-07-14 23:40:07 on login2 
Machine characteristics: Linux-5.3.18-150300.59.68_11.0.76-cray_shasta_c-x86_64-with-glibc2.3.4
Using PETSc directory: /gpfs/alpine/csc314/scratch/adams/petsc
Using PETSc arch: arch-olcf-crusher-kokkos-3d
-----------------------------------------

Using C compiler: cc  -fPIC -g -ggdb -O -DLAND_SUPPORT_CPU_ASS   
Using Fortran compiler: ftn  -fPIC -g     
-----------------------------------------

Using include paths: -I/gpfs/alpine/csc314/scratch/adams/petsc/include -I/gpfs/alpine/csc314/scratch/adams/petsc/arch-olcf-crusher-kokkos-3d/include -I/sw/crusher/spack-envs/base/opt/cray-sles15-zen3/clang-14.0.0-rocm5.1.0/zlib-1.2.11-j3ogymf5vmwlxvblzxxqdkrjkdvfccyx/include -I/opt/rocm-5.1.0/include
-----------------------------------------

Using C linker: cc
Using Fortran linker: ftn
Using libraries: -Wl,-rpath,/gpfs/alpine/csc314/scratch/adams/petsc/arch-olcf-crusher-kokkos-3d/lib -L/gpfs/alpine/csc314/scratch/adams/petsc/arch-olcf-crusher-kokkos-3d/lib -lpetsc -Wl,-rpath,/gpfs/alpine/csc314/scratch/adams/petsc/arch-olcf-crusher-kokkos-3d/lib -L/gpfs/alpine/csc314/scratch/adams/petsc/arch-olcf-crusher-kokkos-3d/lib -Wl,-rpath,/sw/crusher/spack-envs/base/opt/cray-sles15-zen3/clang-14.0.0-rocm5.1.0/zlib-1.2.11-j3ogymf5vmwlxvblzxxqdkrjkdvfccyx/lib -L/sw/crusher/spack-envs/base/opt/cray-sles15-zen3/clang-14.0.0-rocm5.1.0/zlib-1.2.11-j3ogymf5vmwlxvblzxxqdkrjkdvfccyx/lib -Wl,-rpath,/opt/rocm-5.1.0/lib -L/opt/rocm-5.1.0/lib -Wl,-rpath,/opt/cray/pe/mpich/8.1.16/gtl/lib -L/opt/cray/pe/mpich/8.1.16/gtl/lib -Wl,-rpath,/opt/cray/pe/mpich/8.1.16/ofi/amd/5.0/lib -L/opt/cray/pe/mpich/8.1.16/ofi/amd/5.0/lib -Wl,-rpath,/opt/cray/pe/libsci/21.08.1.2/AMD/4.0/x86_64/lib -L/opt/cray/pe/libsci/21.08.1.2/AMD/4.0/x86_64/lib -Wl,-rpath,/opt/cray/pe/dsmml/0.2.2/dsmml/lib -L/opt/cray/pe/dsmml/0.2.2/dsmml/lib -Wl,-rpath,/opt/cray/pe/pmi/6.1.2/lib -L/opt/cray/pe/pmi/6.1.2/lib -Wl,-rpath,/opt/cray/xpmem/2.4.4-2.3_2.12__gff0e1d9.shasta/lib64 -L/opt/cray/xpmem/2.4.4-2.3_2.12__gff0e1d9.shasta/lib64 -Wl,-rpath,/usr/lib64/gcc/x86_64-suse-linux/7 -L/usr/lib64/gcc/x86_64-suse-linux/7 -Wl,-rpath,/usr/x86_64-suse-linux/lib -L/usr/x86_64-suse-linux/lib -Wl,-rpath,/opt/rocm-5.1.0/llvm/lib -L/opt/rocm-5.1.0/llvm/lib -lkokkoskernels -lkokkoscontainers -lkokkoscore -lp4est -lsc -lpthread -lm -lz -lX11 -lhipsparse -lhipblas -lrocsparse -lrocsolver -lrocblas -lrocrand -lamdhip64 -lstdc++ -ldl -lmpi_gtl_hsa -lsci_amd_mpi -lsci_amd -lmpifort_amd -lmpi_amd -ldsmml -lpmi -lpmi2 -lxpmem -lflangmain -lpgmath -lflang -lflangrti -lompstub -lm -lrt -lpthread -lgcc_s -lstdc++ -ldl -lmpi_gtl_hsa
-----------------------------------------



      ##########################################################
      #                                                        #
      #                       WARNING!!!                       #
      #                                                        #
      #   This code was compiled with GPU support and you've   #
      #   created PETSc/GPU objects, but you intentionally     #
      #   used -use_gpu_aware_mpi 0, requiring PETSc to copy   #
      #   additional data between the GPU and CPU. To obtain   #
      #   meaningful timing results on multi-rank runs, use    #
      #   GPU-aware MPI instead.                               #
      #                                                        #
      ##########################################################


