masses:        e= 9.109e-31; ions in proton mass units:    2.000e+00  1.820e+02 ...
charges:       e=-1.602e-19; charges in elementary units:  1.000e+00  2.000e+00
n:             e:  1.000e+00                           i:  1.000e+00  1.000e-07
thermal T (K): e= 2.321e+07 i= 1.160e+07  1.160e+07. v_0= 1.876e+07 ( 6.256e-02c) n_0= 1.000e+20 t_0= 1.637e-05, classical, Intuitive, 128 batched
Domain radius (AMR levels) grid 0:  5.000e+00 (2) , 1:  5.835e-02 (2) , 2:  6.117e-03 (2) 
Using default Plex order for all matrices
0) FormLandau 672 IPs, 42 cells total, Nb=16, Nq=16, dim=2, Tab: Nb=16 Nf=10 Np=16 cdim=2 N=181760
0 TS dt 0.5 time 0.
    0 SNES Function norm 7.420663102802e-02 
    Linear solve converged due to CONVERGED_RTOL iterations 24
    1 SNES Function norm 8.019457653887e-04 
    Linear solve converged due to CONVERGED_RTOL iterations 20
    2 SNES Function norm 1.191001222974e-04 
    Linear solve converged due to CONVERGED_RTOL iterations 23
    3 SNES Function norm 3.120396181150e-05 
    Linear solve converged due to CONVERGED_RTOL iterations 24
    4 SNES Function norm 7.795736411840e-06 
    Linear solve converged due to CONVERGED_RTOL iterations 27
    5 SNES Function norm 1.914575172408e-06 
    Linear solve converged due to CONVERGED_RTOL iterations 29
    6 SNES Function norm 4.676746354761e-07 
    Linear solve converged due to CONVERGED_RTOL iterations 29
    7 SNES Function norm 1.140585702131e-07 
    Linear solve converged due to CONVERGED_RTOL iterations 29
    8 SNES Function norm 2.780888496301e-08 
    Linear solve converged due to CONVERGED_RTOL iterations 29
    9 SNES Function norm 6.781429853542e-09 
    Linear solve converged due to CONVERGED_RTOL iterations 28
   10 SNES Function norm 1.654340179358e-09 
    Linear solve converged due to CONVERGED_RTOL iterations 28
   11 SNES Function norm 4.037613457473e-10 
    Linear solve converged due to CONVERGED_RTOL iterations 29
   12 SNES Function norm 9.859099131571e-11 
    Linear solve converged due to CONVERGED_RTOL iterations 28
   13 SNES Function norm 2.408490774623e-11 
    Linear solve converged due to CONVERGED_RTOL iterations 27
   14 SNES Function norm 5.886566419492e-12 
  Nonlinear solve converged due to CONVERGED_SNORM_RELATIVE iterations 14
      TSAdapt none beuler 0: step   0 accepted t=0          + 5.000e-01 dt=5.000e-01 
1 TS dt 0.5 time 0.5
TS Object: 1 MPI process
  type: beuler
  maximum steps=1
  maximum time=100.
  total number of I function evaluations=15
  total number of I Jacobian evaluations=14
  total number of RHS function evaluations=15
  total number of nonlinear solver iterations=14
  total number of linear solver iterations=374
  total number of nonlinear solve failures=0
  total number of rejected steps=0
  using relative error tolerance of 0.01,   using absolute error tolerance of 0.0001
  TSAdapt Object: 1 MPI process
    type: none
  SNES Object: 1 MPI process
    type: newtonls
    maximum iterations=50, maximum function evaluations=10000
    tolerances: relative=1e-14, absolute=1e-50, solution=1e-14
    total number of linear solver iterations=374
    total number of function evaluations=15
    norm schedule ALWAYS
    SNESLineSearch Object: 1 MPI process
      type: basic
      maxstep=1.000000e+08, minlambda=1.000000e-12
      tolerances: relative=1.000000e-08, absolute=1.000000e-15, lambda=1.000000e-08
      maximum iterations=40
    KSP Object: 1 MPI process
      type: tfqmr
      maximum iterations=100, initial guess is zero
      tolerances:  relative=1e-08, absolute=1e-50, divergence=10000.
      left preconditioning
      using PRECONDITIONED norm type for convergence test
    PC Object: 1 MPI process
      type: jacobi
        type DIAGONAL
      linear system matrix = precond matrix:
      Mat Object: Jacobian 1 MPI process
        type: seqaijkokkos
        rows=181760, cols=181760
        total: nonzeros=4037120, allocated nonzeros=4037120
        total number of mallocs used during MatSetValues calls=0
          using I-node routines: found 85248 nodes, limit used is 5
0 TS dt 0.5 time 0.
    0 SNES Function norm 7.420663102802e-02 
    Linear solve converged due to CONVERGED_RTOL iterations 24
    1 SNES Function norm 8.019457653887e-04 
    Linear solve converged due to CONVERGED_RTOL iterations 20
    2 SNES Function norm 1.191001222974e-04 
    Linear solve converged due to CONVERGED_RTOL iterations 23
    3 SNES Function norm 3.120396181150e-05 
    Linear solve converged due to CONVERGED_RTOL iterations 24
    4 SNES Function norm 7.795736411840e-06 
    Linear solve converged due to CONVERGED_RTOL iterations 27
    5 SNES Function norm 1.914575172408e-06 
    Linear solve converged due to CONVERGED_RTOL iterations 29
    6 SNES Function norm 4.676746354761e-07 
    Linear solve converged due to CONVERGED_RTOL iterations 29
    7 SNES Function norm 1.140585702131e-07 
    Linear solve converged due to CONVERGED_RTOL iterations 29
    8 SNES Function norm 2.780888496301e-08 
    Linear solve converged due to CONVERGED_RTOL iterations 29
    9 SNES Function norm 6.781429853542e-09 
    Linear solve converged due to CONVERGED_RTOL iterations 28
   10 SNES Function norm 1.654340179358e-09 
    Linear solve converged due to CONVERGED_RTOL iterations 28
   11 SNES Function norm 4.037613457473e-10 
    Linear solve converged due to CONVERGED_RTOL iterations 29
   12 SNES Function norm 9.859099131571e-11 
    Linear solve converged due to CONVERGED_RTOL iterations 28
   13 SNES Function norm 2.408490774623e-11 
    Linear solve converged due to CONVERGED_RTOL iterations 27
   14 SNES Function norm 5.886566419492e-12 
  Nonlinear solve converged due to CONVERGED_SNORM_RELATIVE iterations 14
      TSAdapt none beuler 0: step   0 accepted t=0          + 5.000e-01 dt=5.000e-01 
1 TS dt 0.5 time 0.5
    0 SNES Function norm 2.538158877949e-02 
    Linear solve converged due to CONVERGED_RTOL iterations 23
    1 SNES Function norm 5.618917289177e-04 
    Linear solve converged due to CONVERGED_RTOL iterations 21
    2 SNES Function norm 1.116913121751e-04 
    Linear solve converged due to CONVERGED_RTOL iterations 24
    3 SNES Function norm 2.794144420029e-05 
    Linear solve converged due to CONVERGED_RTOL iterations 30
    4 SNES Function norm 6.930680988691e-06 
    Linear solve converged due to CONVERGED_RTOL iterations 30
    5 SNES Function norm 1.702816482703e-06 
    Linear solve converged due to CONVERGED_RTOL iterations 28
    6 SNES Function norm 4.165433191698e-07 
    Linear solve converged due to CONVERGED_RTOL iterations 30
    7 SNES Function norm 1.017226623323e-07 
    Linear solve converged due to CONVERGED_RTOL iterations 30
    8 SNES Function norm 2.482997961394e-08 
    Linear solve converged due to CONVERGED_RTOL iterations 30
    9 SNES Function norm 6.061413272571e-09 
    Linear solve converged due to CONVERGED_RTOL iterations 30
   10 SNES Function norm 1.480173432021e-09 
    Linear solve converged due to CONVERGED_RTOL iterations 30
   11 SNES Function norm 3.616068777645e-10 
    Linear solve converged due to CONVERGED_RTOL iterations 30
   12 SNES Function norm 8.838052926661e-11 
    Linear solve converged due to CONVERGED_RTOL iterations 30
   13 SNES Function norm 2.161255773568e-11 
    Linear solve converged due to CONVERGED_RTOL iterations 26
   14 SNES Function norm 5.286083236398e-12 
  Nonlinear solve converged due to CONVERGED_SNORM_RELATIVE iterations 14
      TSAdapt none beuler 0: step   1 accepted t=0.5        + 5.000e-01 dt=5.000e-01 
2 TS dt 0.5 time 1.
    0 SNES Function norm 1.639940821769e-02 
    Linear solve converged due to CONVERGED_RTOL iterations 24
    1 SNES Function norm 6.284762113826e-04 
    Linear solve converged due to CONVERGED_RTOL iterations 21
    2 SNES Function norm 1.398889259827e-04 
    Linear solve converged due to CONVERGED_RTOL iterations 28
    3 SNES Function norm 3.482911539847e-05 
    Linear solve converged due to CONVERGED_RTOL iterations 29
    4 SNES Function norm 8.612841080227e-06 
    Linear solve converged due to CONVERGED_RTOL iterations 30
    5 SNES Function norm 2.114658057689e-06 
    Linear solve converged due to CONVERGED_RTOL iterations 28
    6 SNES Function norm 5.174019657382e-07 
    Linear solve converged due to CONVERGED_RTOL iterations 30
    7 SNES Function norm 1.264258926500e-07 
    Linear solve converged due to CONVERGED_RTOL iterations 30
    8 SNES Function norm 3.088232250743e-08 
    Linear solve converged due to CONVERGED_RTOL iterations 30
    9 SNES Function norm 7.544833261110e-09 
    Linear solve converged due to CONVERGED_RTOL iterations 30
   10 SNES Function norm 1.843917523465e-09 
    Linear solve converged due to CONVERGED_RTOL iterations 30
   11 SNES Function norm 4.508406826845e-10 
    Linear solve converged due to CONVERGED_RTOL iterations 30
   12 SNES Function norm 1.102826775174e-10 
    Linear solve converged due to CONVERGED_RTOL iterations 30
   13 SNES Function norm 2.699117454404e-11 
    Linear solve converged due to CONVERGED_RTOL iterations 27
   14 SNES Function norm 6.607159300328e-12 
  Nonlinear solve converged due to CONVERGED_SNORM_RELATIVE iterations 14
      TSAdapt none beuler 0: step   2 accepted t=1          + 5.000e-01 dt=5.000e-01 
3 TS dt 0.5 time 1.5
    0 SNES Function norm 1.231635608334e-02 
    Linear solve converged due to CONVERGED_RTOL iterations 30
    1 SNES Function norm 7.568247130814e-04 
    Linear solve converged due to CONVERGED_RTOL iterations 21
    2 SNES Function norm 1.807362895492e-04 
    Linear solve converged due to CONVERGED_RTOL iterations 24
    3 SNES Function norm 4.504137948360e-05 
    Linear solve converged due to CONVERGED_RTOL iterations 30
    4 SNES Function norm 1.112022076950e-05 
    Linear solve converged due to CONVERGED_RTOL iterations 30
    5 SNES Function norm 2.728687922667e-06 
    Linear solve converged due to CONVERGED_RTOL iterations 28
    6 SNES Function norm 6.677295756043e-07 
    Linear solve converged due to CONVERGED_RTOL iterations 30
    7 SNES Function norm 1.632396706666e-07 
    Linear solve converged due to CONVERGED_RTOL iterations 30
    8 SNES Function norm 3.990165584050e-08 
    Linear solve converged due to CONVERGED_RTOL iterations 30
    9 SNES Function norm 9.755641980155e-09 
    Linear solve converged due to CONVERGED_RTOL iterations 30
   10 SNES Function norm 2.386099641421e-09 
    Linear solve converged due to CONVERGED_RTOL iterations 30
   11 SNES Function norm 5.838728945501e-10 
    Linear solve converged due to CONVERGED_RTOL iterations 30
   12 SNES Function norm 1.429403620471e-10 
    Linear solve converged due to CONVERGED_RTOL iterations 30
   13 SNES Function norm 3.501003418784e-11 
    Linear solve converged due to CONVERGED_RTOL iterations 27
   14 SNES Function norm 8.578812000885e-12 
  Nonlinear solve converged due to CONVERGED_SNORM_RELATIVE iterations 14
      TSAdapt none beuler 0: step   3 accepted t=1.5        + 5.000e-01 dt=5.000e-01 
4 TS dt 0.5 time 2.
    0 SNES Function norm 1.012359772157e-02 
    Linear solve converged due to CONVERGED_RTOL iterations 25
    1 SNES Function norm 9.010610049875e-04 
    Linear solve converged due to CONVERGED_RTOL iterations 22
    2 SNES Function norm 2.217619225744e-04 
    Linear solve converged due to CONVERGED_RTOL iterations 24
    3 SNES Function norm 5.522271365649e-05 
    Linear solve converged due to CONVERGED_RTOL iterations 25
    4 SNES Function norm 1.361903637727e-05 
    Linear solve converged due to CONVERGED_RTOL iterations 30
    5 SNES Function norm 3.341257535642e-06 
    Linear solve converged due to CONVERGED_RTOL iterations 28
    6 SNES Function norm 8.179362808461e-07 
    Linear solve converged due to CONVERGED_RTOL iterations 30
    7 SNES Function norm 2.000903787079e-07 
    Linear solve converged due to CONVERGED_RTOL iterations 30
    8 SNES Function norm 4.894719541958e-08 
    Linear solve converged due to CONVERGED_RTOL iterations 30
    9 SNES Function norm 1.197718471621e-08 
    Linear solve converged due to CONVERGED_RTOL iterations 30
   10 SNES Function norm 2.931989292684e-09 
    Linear solve converged due to CONVERGED_RTOL iterations 30
   11 SNES Function norm 7.180796053205e-10 
    Linear solve converged due to CONVERGED_RTOL iterations 30
   12 SNES Function norm 1.759493939143e-10 
    Linear solve converged due to CONVERGED_RTOL iterations 30
   13 SNES Function norm 4.313552249860e-11 
    Linear solve converged due to CONVERGED_RTOL iterations 27
   14 SNES Function norm 1.057938122756e-11 
  Nonlinear solve converged due to CONVERGED_SNORM_RELATIVE iterations 14
      TSAdapt none beuler 0: step   4 accepted t=2          + 5.000e-01 dt=5.000e-01 
5 TS dt 0.5 time 2.5
    0 SNES Function norm 8.858122809859e-03 
    Linear solve converged due to CONVERGED_RTOL iterations 22
    1 SNES Function norm 1.035363706880e-03 
    Linear solve converged due to CONVERGED_RTOL iterations 24
    2 SNES Function norm 2.577158351161e-04 
    Linear solve converged due to CONVERGED_RTOL iterations 29
    3 SNES Function norm 6.409208117699e-05 
    Linear solve converged due to CONVERGED_RTOL iterations 30
    4 SNES Function norm 1.579709019027e-05 
    Linear solve converged due to CONVERGED_RTOL iterations 30
    5 SNES Function norm 3.876365074502e-06 
    Linear solve converged due to CONVERGED_RTOL iterations 28
    6 SNES Function norm 9.495041734427e-07 
    Linear solve converged due to CONVERGED_RTOL iterations 28
    7 SNES Function norm 2.324624008682e-07 
    Linear solve converged due to CONVERGED_RTOL iterations 28
    8 SNES Function norm 5.691720486493e-08 
    Linear solve converged due to CONVERGED_RTOL iterations 29
    9 SNES Function norm 1.394051855753e-08 
    Linear solve converged due to CONVERGED_RTOL iterations 30
   10 SNES Function norm 3.415873972482e-09 
    Linear solve converged due to CONVERGED_RTOL iterations 30
   11 SNES Function norm 8.374013310974e-10 
    Linear solve converged due to CONVERGED_RTOL iterations 30
   12 SNES Function norm 2.053891878099e-10 
    Linear solve converged due to CONVERGED_RTOL iterations 30
   13 SNES Function norm 5.040154896415e-11 
    Linear solve converged due to CONVERGED_RTOL iterations 26
   14 SNES Function norm 1.237308644794e-11 
  Nonlinear solve converged due to CONVERGED_SNORM_RELATIVE iterations 14
      TSAdapt none beuler 0: step   5 accepted t=2.5        + 5.000e-01 dt=5.000e-01 
6 TS dt 0.5 time 3.
    0 SNES Function norm 8.092884448762e-03 
    Linear solve converged due to CONVERGED_RTOL iterations 24
    1 SNES Function norm 1.145131338615e-03 
    Linear solve converged due to CONVERGED_RTOL iterations 22
    2 SNES Function norm 2.863494561377e-04 
    Linear solve converged due to CONVERGED_RTOL iterations 26
    3 SNES Function norm 7.114234870965e-05 
    Linear solve converged due to CONVERGED_RTOL iterations 30
    4 SNES Function norm 1.753214414924e-05 
    Linear solve converged due to CONVERGED_RTOL iterations 33
    5 SNES Function norm 4.304097811516e-06 
    Linear solve converged due to CONVERGED_RTOL iterations 28
    6 SNES Function norm 1.055088170871e-06 
    Linear solve converged due to CONVERGED_RTOL iterations 28
    7 SNES Function norm 2.585476819581e-07 
    Linear solve converged due to CONVERGED_RTOL iterations 28
    8 SNES Function norm 6.336600127094e-08 
    Linear solve converged due to CONVERGED_RTOL iterations 28
    9 SNES Function norm 1.553569614169e-08 
    Linear solve converged due to CONVERGED_RTOL iterations 28
   10 SNES Function norm 3.810685581682e-09 
    Linear solve converged due to CONVERGED_RTOL iterations 28
   11 SNES Function norm 9.351639528439e-10 
    Linear solve converged due to CONVERGED_RTOL iterations 28
   12 SNES Function norm 2.296104884106e-10 
    Linear solve converged due to CONVERGED_RTOL iterations 28
   13 SNES Function norm 5.640348120555e-11 
    Linear solve converged due to CONVERGED_RTOL iterations 31
   14 SNES Function norm 1.386306320797e-11 
    Linear solve converged due to CONVERGED_RTOL iterations 24
   15 SNES Function norm 3.407722352117e-12 
  Nonlinear solve converged due to CONVERGED_SNORM_RELATIVE iterations 15
      TSAdapt none beuler 0: step   6 accepted t=3          + 5.000e-01 dt=5.000e-01 
7 TS dt 0.5 time 3.5
    0 SNES Function norm 7.600617432559e-03 
    Linear solve converged due to CONVERGED_RTOL iterations 24
    1 SNES Function norm 1.226523541508e-03 
    Linear solve converged due to CONVERGED_RTOL iterations 22
    2 SNES Function norm 3.071726900157e-04 
    Linear solve converged due to CONVERGED_RTOL iterations 29
    3 SNES Function norm 7.626538912786e-05 
    Linear solve converged due to CONVERGED_RTOL iterations 30
    4 SNES Function norm 1.879769724606e-05 
    Linear solve converged due to CONVERGED_RTOL iterations 30
    5 SNES Function norm 4.617787157227e-06 
    Linear solve converged due to CONVERGED_RTOL iterations 28
    6 SNES Function norm 1.132985294057e-06 
    Linear solve converged due to CONVERGED_RTOL iterations 28
    7 SNES Function norm 2.779113881836e-07 
    Linear solve converged due to CONVERGED_RTOL iterations 28
    8 SNES Function norm 6.818292676051e-08 
    Linear solve converged due to CONVERGED_RTOL iterations 28
    9 SNES Function norm 1.673453945851e-08 
    Linear solve converged due to CONVERGED_RTOL iterations 28
   10 SNES Function norm 4.109167224102e-09 
    Linear solve converged due to CONVERGED_RTOL iterations 28
   11 SNES Function norm 1.009509935710e-09 
    Linear solve converged due to CONVERGED_RTOL iterations 28
   12 SNES Function norm 2.481331374845e-10 
    Linear solve converged due to CONVERGED_RTOL iterations 28
   13 SNES Function norm 6.102041607609e-11 
    Linear solve converged due to CONVERGED_RTOL iterations 27
   14 SNES Function norm 1.501496913541e-11 
    Linear solve converged due to CONVERGED_RTOL iterations 30
   15 SNES Function norm 3.695626041473e-12 
  Nonlinear solve converged due to CONVERGED_SNORM_RELATIVE iterations 15
      TSAdapt none beuler 0: step   7 accepted t=3.5        + 5.000e-01 dt=5.000e-01 
8 TS dt 0.5 time 4.
    0 SNES Function norm 7.250775819645e-03 
    Linear solve converged due to CONVERGED_RTOL iterations 24
    1 SNES Function norm 1.280302353261e-03 
    Linear solve converged due to CONVERGED_RTOL iterations 23
    2 SNES Function norm 3.207296618147e-04 
    Linear solve converged due to CONVERGED_RTOL iterations 29
    3 SNES Function norm 7.960165519992e-05 
    Linear solve converged due to CONVERGED_RTOL iterations 30
    4 SNES Function norm 1.962750877913e-05 
    Linear solve converged due to CONVERGED_RTOL iterations 30
    5 SNES Function norm 4.825348936320e-06 
    Linear solve converged due to CONVERGED_RTOL iterations 28
    6 SNES Function norm 1.185037404892e-06 
    Linear solve converged due to CONVERGED_RTOL iterations 28
    7 SNES Function norm 2.909795938826e-07 
    Linear solve converged due to CONVERGED_RTOL iterations 28
    8 SNES Function norm 7.146524811891e-08 
    Linear solve converged due to CONVERGED_RTOL iterations 28
    9 SNES Function norm 1.755927724674e-08 
    Linear solve converged due to CONVERGED_RTOL iterations 28
   10 SNES Function norm 4.316447411695e-09 
    Linear solve converged due to CONVERGED_RTOL iterations 28
   11 SNES Function norm 1.061611129974e-09 
    Linear solve converged due to CONVERGED_RTOL iterations 28
   12 SNES Function norm 2.612330640193e-10 
    Linear solve converged due to CONVERGED_RTOL iterations 28
   13 SNES Function norm 6.431444205490e-11 
    Linear solve converged due to CONVERGED_RTOL iterations 28
   14 SNES Function norm 1.584242826516e-11 
    Linear solve converged due to CONVERGED_RTOL iterations 30
   15 SNES Function norm 3.903275360482e-12 
  Nonlinear solve converged due to CONVERGED_SNORM_RELATIVE iterations 15
      TSAdapt none beuler 0: step   8 accepted t=4          + 5.000e-01 dt=5.000e-01 
9 TS dt 0.5 time 4.5
    0 SNES Function norm 6.968320415971e-03 
    Linear solve converged due to CONVERGED_RTOL iterations 24
    1 SNES Function norm 1.308640835702e-03 
    Linear solve converged due to CONVERGED_RTOL iterations 24
    2 SNES Function norm 3.277654084626e-04 
    Linear solve converged due to CONVERGED_RTOL iterations 29
    3 SNES Function norm 8.134043397831e-05 
    Linear solve converged due to CONVERGED_RTOL iterations 26
    4 SNES Function norm 2.006698806912e-05 
    Linear solve converged due to CONVERGED_RTOL iterations 30
    5 SNES Function norm 4.937547960652e-06 
    Linear solve converged due to CONVERGED_RTOL iterations 28
    6 SNES Function norm 1.213785537062e-06 
    Linear solve converged due to CONVERGED_RTOL iterations 28
    7 SNES Function norm 2.983509528760e-07 
    Linear solve converged due to CONVERGED_RTOL iterations 28
    8 SNES Function norm 7.335469050555e-08 
    Linear solve converged due to CONVERGED_RTOL iterations 28
    9 SNES Function norm 1.804314745028e-08 
    Linear solve converged due to CONVERGED_RTOL iterations 28
   10 SNES Function norm 4.440266265140e-09 
    Linear solve converged due to CONVERGED_RTOL iterations 28
   11 SNES Function norm 1.093274617316e-09 
    Linear solve converged due to CONVERGED_RTOL iterations 28
   12 SNES Function norm 2.693230469696e-10 
    Linear solve converged due to CONVERGED_RTOL iterations 28
   13 SNES Function norm 6.637965199757e-11 
    Linear solve converged due to CONVERGED_RTOL iterations 28
   14 SNES Function norm 1.637019579073e-11 
    Linear solve converged due to CONVERGED_RTOL iterations 30
   15 SNES Function norm 4.038136876490e-12 
  Nonlinear solve converged due to CONVERGED_SNORM_RELATIVE iterations 15
      TSAdapt none beuler 0: step   9 accepted t=4.5        + 5.000e-01 dt=5.000e-01 
10 TS dt 0.5 time 5.
TS Object: 1 MPI process
  type: beuler
  maximum steps=10
  maximum time=100.
  total number of I function evaluations=169
  total number of I Jacobian evaluations=158
  total number of RHS function evaluations=169
  total number of nonlinear solver iterations=144
  total number of linear solver iterations=4011
  total number of nonlinear solve failures=0
  total number of rejected steps=0
  using relative error tolerance of 0.01,   using absolute error tolerance of 0.0001
  TSAdapt Object: 1 MPI process
    type: none
  SNES Object: 1 MPI process
    type: newtonls
    maximum iterations=50, maximum function evaluations=10000
    tolerances: relative=1e-14, absolute=1e-50, solution=1e-14
    total number of linear solver iterations=415
    total number of function evaluations=16
    norm schedule ALWAYS
    SNESLineSearch Object: 1 MPI process
      type: basic
      maxstep=1.000000e+08, minlambda=1.000000e-12
      tolerances: relative=1.000000e-08, absolute=1.000000e-15, lambda=1.000000e-08
      maximum iterations=40
    KSP Object: 1 MPI process
      type: tfqmr
      maximum iterations=100, initial guess is zero
      tolerances:  relative=1e-08, absolute=1e-50, divergence=10000.
      left preconditioning
      using PRECONDITIONED norm type for convergence test
    PC Object: 1 MPI process
      type: jacobi
        type DIAGONAL
      linear system matrix = precond matrix:
      Mat Object: Jacobian 1 MPI process
        type: seqaijkokkos
        rows=181760, cols=181760
        total: nonzeros=4037120, allocated nonzeros=4037120
        total number of mallocs used during MatSetValues calls=0
          using I-node routines: found 85248 nodes, limit used is 5
****************************************************************************************************************************************************************
***                                WIDEN YOUR WINDOW TO 160 CHARACTERS.  Use 'enscript -r -fCourier9' to print this document                                 ***
****************************************************************************************************************************************************************

------------------------------------------------------------------ PETSc Performance Summary: ------------------------------------------------------------------



      ##########################################################
      #                                                        #
      #                       WARNING!!!                       #
      #                                                        #
      #   This code was compiled with GPU support and you've   #
      #   created PETSc/GPU objects, but you intentionally     #
      #   used -use_gpu_aware_mpi 0, requiring PETSc to copy   #
      #   additional data between the GPU and CPU. To obtain   #
      #   meaningful timing results on multi-rank runs, use    #
      #   GPU-aware MPI instead.                               #
      #                                                        #
      ##########################################################


/gpfs/alpine/csc314/scratch/adams/batch_gmres_paper/mark/crusher/./ex2-2d on a  named crusher121 with 8 processors, by adams Fri Jul 15 09:48:21 2022
Using Petsc Development GIT revision: v3.17.3-760-g6e3d66b0f1  GIT Date: 2022-07-14 21:35:48 +0000

                         Max       Max/Min     Avg       Total
Time (sec):           1.894e+01     1.000   1.894e+01
Objects:              2.547e+04     1.000   2.547e+04
Flops:                9.617e+10     1.000   9.617e+10  7.693e+11
Flops/sec:            5.078e+09     1.000   5.078e+09  4.062e+10
MPI Msg Count:        0.000e+00     0.000   0.000e+00  0.000e+00
MPI Msg Len (bytes):  0.000e+00     0.000   0.000e+00  0.000e+00
MPI Reductions:       2.100e+01     1.000

Flop counting convention: 1 flop = 1 real number operation of type (multiply/divide/add/subtract)
                            e.g., VecAXPY() for real vectors of length N --> 2N flops
                            and VecAXPY() for complex vectors of length N --> 8N flops

Summary of Stages:   ----- Time ------  ----- Flop ------  --- Messages ---  -- Message Lengths --  -- Reductions --
                        Avg     %Total     Avg     %Total    Count   %Total     Avg         %Total    Count   %Total
 0:      Main Stage: 3.4167e+00  18.0%  1.7885e+08   0.0%  0.000e+00   0.0%  0.000e+00        0.0%  2.000e+00   9.5%
 1:          Warmup: 1.4207e+00   7.5%  6.5688e+10   8.5%  0.000e+00   0.0%  0.000e+00        0.0%  0.000e+00   0.0%
 2:           Solve: 1.4102e+01  74.5%  7.0348e+11  91.4%  0.000e+00   0.0%  0.000e+00        0.0%  0.000e+00   0.0%

------------------------------------------------------------------------------------------------------------------------
See the 'Profiling' chapter of the users' manual for details on interpreting output.
Phase summary info:
   Count: number of times phase was executed
   Time and Flop: Max - maximum over all processors
                  Ratio - ratio of maximum to minimum over all processors
   Mess: number of messages sent
   AvgLen: average message length (bytes)
   Reduct: number of global reductions
   Global: entire computation
   Stage: stages of a computation. Set stages with PetscLogStagePush() and PetscLogStagePop().
      %T - percent time in this phase         %F - percent flop in this phase
      %M - percent messages in this phase     %L - percent message lengths in this phase
      %R - percent reductions in this phase
   Total Mflop/s: 10e-6 * (sum of flop over all processors)/(max time over all processors)
   GPU Mflop/s: 10e-6 * (sum of flop on GPU over all processors)/(max GPU time over all processors)
   CpuToGpu Count: total number of CPU to GPU copies per processor
   CpuToGpu Size (Mbytes): 10e-6 * (total size of CPU to GPU copies per processor)
   GpuToCpu Count: total number of GPU to CPU copies per processor
   GpuToCpu Size (Mbytes): 10e-6 * (total size of GPU to CPU copies per processor)
   GPU %F: percent flops on GPU in this event
------------------------------------------------------------------------------------------------------------------------
Event                Count      Time (sec)     Flop                              --- Global ---  --- Stage ----  Total   GPU    - CpuToGpu -   - GpuToCpu - GPU
                   Max Ratio  Max     Ratio   Max  Ratio  Mess   AvgLen  Reduct  %T %F %M %L %R  %T %F %M %L %R Mflop/s Mflop/s Count   Size   Count   Size  %F
---------------------------------------------------------------------------------------------------------------------------------------------------------------

--- Event Stage 0: Main Stage

BuildTwoSided       1575 1.0 6.1041e-04 1.0 0.00e+00 0.0 0.0e+00 0.0e+00 0.0e+00  0  0  0  0  0   0  0  0  0  0     0       0      0 0.00e+00    0 0.00e+00  0
MatMult            71340 1.0 6.4142e-03 1.0 5.03e+05 1.0 0.0e+00 0.0e+00 0.0e+00  0  0  0  0  0   0  2  0  0  0   628       0      0 0.00e+00    0 0.00e+00  0
MatLUFactor           30 1.0 2.4886e-04 1.0 8.19e+04 1.0 0.0e+00 0.0e+00 0.0e+00  0  0  0  0  0   0  0  0  0  0  2633       0      0 0.00e+00    0 0.00e+00  0
MatCopy              120 1.0 8.3018e-05 1.0 0.00e+00 0.0 0.0e+00 0.0e+00 0.0e+00  0  0  0  0  0   0  0  0  0  0     0       0      0 0.00e+00    0 0.00e+00  0
MatConvert            60 1.0 4.1951e-04 1.0 0.00e+00 0.0 0.0e+00 0.0e+00 0.0e+00  0  0  0  0  0   0  0  0  0  0     0       0      0 0.00e+00    0 0.00e+00  0
MatAssemblyBegin    1445 1.0 1.1624e-04 1.1 0.00e+00 0.0 0.0e+00 0.0e+00 0.0e+00  0  0  0  0  0   0  0  0  0  0     0       0      0 0.00e+00    0 0.00e+00  0
MatAssemblyEnd      1445 1.0 1.1652e-01 1.1 0.00e+00 0.0 0.0e+00 0.0e+00 0.0e+00  1  0  0  0  0   3  0  0  0  0     0       0      0 0.00e+00    0 0.00e+00  0
MatGetRowIJ           15 1.0 1.8140e-06 1.1 0.00e+00 0.0 0.0e+00 0.0e+00 0.0e+00  0  0  0  0  0   0  0  0  0  0     0       0      0 0.00e+00    0 0.00e+00  0
MatZeroEntries         6 1.0 4.6373e-04 1.1 0.00e+00 0.0 0.0e+00 0.0e+00 0.0e+00  0  0  0  0  0   0  0  0  0  0     0       0      0 0.00e+00    0 0.00e+00  0
MatMatSolve          120 1.0 4.3821e-04 1.0 9.52e+05 1.0 0.0e+00 0.0e+00 0.0e+00  0  0  0  0  0   0  4  0  0  0 17386       0      0 0.00e+00    0 0.00e+00  0
MatSetPreallCOO        1 1.0 5.4310e-01 1.0 0.00e+00 0.0 0.0e+00 0.0e+00 0.0e+00  3  0  0  0  0  16  0  0  0  0     0       0      0 0.00e+00    0 0.00e+00  0
DMConvert             18 1.0 1.0183e-03 1.0 0.00e+00 0.0 0.0e+00 0.0e+00 0.0e+00  0  0  0  0  0   0  0  0  0  0     0       0      0 0.00e+00    0 0.00e+00  0
DMCreateMat            8 1.0 1.9405e+00 1.0 0.00e+00 0.0 0.0e+00 0.0e+00 0.0e+00 10  0  0  0  0  56  0  0  0  0     0       0      0 0.00e+00    0 0.00e+00  0
DMPlexInterp         166 1.0 1.6647e-03 1.0 0.00e+00 0.0 0.0e+00 0.0e+00 0.0e+00  0  0  0  0  0   0  0  0  0  0     0       0      0 0.00e+00    0 0.00e+00  0
DMPlexStratify       233 1.0 2.1123e-03 1.0 0.00e+00 0.0 0.0e+00 0.0e+00 0.0e+00  0  0  0  0  0   0  0  0  0  0     0       0      0 0.00e+00    0 0.00e+00  0
DMPlexSymmetrize     233 1.0 1.1905e-04 1.0 0.00e+00 0.0 0.0e+00 0.0e+00 0.0e+00  0  0  0  0  0   0  0  0  0  0     0       0      0 0.00e+00    0 0.00e+00  0
DMPlexPrealloc       774 1.0 1.6754e+00 1.0 0.00e+00 0.0 0.0e+00 0.0e+00 0.0e+00  9  0  0  0  0  49  0  0  0  0     0       0      0 0.00e+00    0 0.00e+00  0
DMPlexJacobianFE       6 1.0 4.5186e-02 1.0 1.54e+06 1.0 0.0e+00 0.0e+00 0.0e+00  0  0  0  0  0   1  7  0  0  0   273       0      0 0.00e+00    0 0.00e+00  0
SFSetGraph          3132 1.0 2.4091e-04 1.0 0.00e+00 0.0 0.0e+00 0.0e+00 0.0e+00  0  0  0  0  0   0  0  0  0  0     0       0      0 0.00e+00    0 0.00e+00  0
SFSetUp             1575 1.0 2.7525e-03 1.0 0.00e+00 0.0 0.0e+00 0.0e+00 0.0e+00  0  0  0  0  0   0  0  0  0  0     0       0      0 0.00e+00    0 0.00e+00  0
SFBcastBegin        3162 1.0 3.7310e-03 1.1 0.00e+00 0.0 0.0e+00 0.0e+00 0.0e+00  0  0  0  0  0   0  0  0  0  0     0       0      0 0.00e+00    0 0.00e+00  0
SFBcastEnd          3162 1.0 9.0321e-04 1.1 0.00e+00 0.0 0.0e+00 0.0e+00 0.0e+00  0  0  0  0  0   0  0  0  0  0     0       0      0 0.00e+00    0 0.00e+00  0
SFReduceBegin         54 1.0 7.2365e-05 1.1 0.00e+00 0.0 0.0e+00 0.0e+00 0.0e+00  0  0  0  0  0   0  0  0  0  0     0       0      0 0.00e+00    0 0.00e+00  0
SFReduceEnd           54 1.0 1.5434e-05 1.0 0.00e+00 0.0 0.0e+00 0.0e+00 0.0e+00  0  0  0  0  0   0  0  0  0  0     0       0      0 0.00e+00    0 0.00e+00  0
SFCreateEmbed       1548 1.0 6.5377e-03 1.0 0.00e+00 0.0 0.0e+00 0.0e+00 0.0e+00  0  0  0  0  0   0  0  0  0  0     0       0      0 0.00e+00    0 0.00e+00  0
SFSectionSF         1548 1.0 3.1056e-03 1.0 0.00e+00 0.0 0.0e+00 0.0e+00 0.0e+00  0  0  0  0  0   0  0  0  0  0     0       0      0 0.00e+00    0 0.00e+00  0
SFRemoteOff         1548 1.0 1.3839e-02 1.0 0.00e+00 0.0 0.0e+00 0.0e+00 0.0e+00  0  0  0  0  0   0  0  0  0  0     0       0      0 0.00e+00    0 0.00e+00  0
SFPack              3216 1.0 2.0981e-04 1.1 0.00e+00 0.0 0.0e+00 0.0e+00 0.0e+00  0  0  0  0  0   0  0  0  0  0     0       0      0 0.00e+00    0 0.00e+00  0
SFUnpack            3216 1.0 2.0168e-04 1.0 0.00e+00 0.0 0.0e+00 0.0e+00 0.0e+00  0  0  0  0  0   0  0  0  0  0     0       0      0 0.00e+00    0 0.00e+00  0
Landau Create          1 1.0 2.1058e+00 1.0 2.15e+07 1.0 0.0e+00 0.0e+00 0.0e+00 11  0  0  0  0  61 96  0  0  0    82       0      0 0.00e+00    0 0.00e+00  0
 GPU ass. setup        1 1.0 6.5403e-01 1.0 0.00e+00 0.0 0.0e+00 0.0e+00 0.0e+00  3  0  0  0  0  19  0  0  0  0     0       0      0 0.00e+00    0 0.00e+00  0
 Build matrix          1 1.0 1.2810e-01 1.1 6.80e+05 1.0 0.0e+00 0.0e+00 0.0e+00  1  0  0  0  0   4  3  0  0  0    42       0      0 0.00e+00    0 0.00e+00  0
 Assembly maps         1 1.0 1.3325e+00 1.0 2.08e+07 1.0 0.0e+00 0.0e+00 0.0e+00  7  0  0  0  0  39 93  0  0  0   125       0      0 0.00e+00    0 0.00e+00  0
Landau Mass mat        1 1.0 1.1846e+00 1.0 8.60e+05 1.0 0.0e+00 0.0e+00 0.0e+00  6  0  0  0  0  34  4  0  0  0     6       0      0 0.00e+00    0 0.00e+00  0
 static IP Data        1 1.0 1.0862e-03 1.5 5.38e+03 1.0 0.0e+00 0.0e+00 0.0e+00  0  0  0  0  0   0  0  0  0  0    40       0      0 0.00e+00    0 0.00e+00  0
VecCopy                1 1.0 1.4807e-04 1.4 0.00e+00 0.0 0.0e+00 0.0e+00 0.0e+00  0  0  0  0  0   0  0  0  0  0     0       0      0 0.00e+00    0 0.00e+00  0
VecSet               393 1.0 8.1623e-03 1.3 0.00e+00 0.0 0.0e+00 0.0e+00 0.0e+00  0  0  0  0  0   0  0  0  0  0     0       0      0 0.00e+00    0 0.00e+00  0
DualSpaceSetUp        28 1.0 1.4388e-02 1.0 9.92e+02 1.0 0.0e+00 0.0e+00 0.0e+00  0  0  0  0  0   0  0  0  0  0     1       0      0 0.00e+00    0 0.00e+00  0
FESetUp               40 1.0 2.0466e-03 1.0 0.00e+00 0.0 0.0e+00 0.0e+00 0.0e+00  0  0  0  0  0   0  0  0  0  0     0       0      0 0.00e+00    0 0.00e+00  0

--- Event Stage 1: Warmup

MatMult              763 1.0 8.7945e-01 1.0 6.16e+09 1.0 0.0e+00 0.0e+00 0.0e+00  5  6  0  0  0  61 75  0  0  0 56041       0      0 0.00e+00    0 0.00e+00 100
MatMultAdd            15 1.0 1.9567e-02 1.0 1.21e+08 1.0 0.0e+00 0.0e+00 0.0e+00  0  0  0  0  0   1  1  0  0  0 49518       0      0 0.00e+00    0 0.00e+00 100
MatAssemblyBegin      58 1.0 5.7630e-06 1.5 0.00e+00 0.0 0.0e+00 0.0e+00 0.0e+00  0  0  0  0  0   0  0  0  0  0     0       0      0 0.00e+00    0 0.00e+00  0
MatAssemblyEnd        58 1.0 2.6180e-03 1.0 0.00e+00 0.0 0.0e+00 0.0e+00 0.0e+00  0  0  0  0  0   0  0  0  0  0     0       0      0 0.00e+00    0 0.00e+00  0
MatZeroEntries        15 1.0 9.8273e-04 1.2 0.00e+00 0.0 0.0e+00 0.0e+00 0.0e+00  0  0  0  0  0   0  0  0  0  0     0       0      0 0.00e+00    0 0.00e+00  0
MatView                1 0.0 2.5590e-05 0.0 0.00e+00 0.0 0.0e+00 0.0e+00 0.0e+00  0  0  0  0  0   0  0  0  0  0     0       0      0 0.00e+00    0 0.00e+00  0
MatSetValuesCOO       29 1.0 3.1402e-03 1.1 0.00e+00 0.0 0.0e+00 0.0e+00 0.0e+00  0  0  0  0  0   0  0  0  0  0     0       0      0 0.00e+00    0 0.00e+00  0
Landau Operator       29 1.0 5.2082e-01 1.0 2.42e+08 1.0 0.0e+00 0.0e+00 0.0e+00  3  0  0  0  0  37  3  0  0  0  3721       0      0 0.00e+00    0 0.00e+00 100
Landau Jacobian       15 1.0 4.9290e-01 1.0 2.42e+08 1.0 0.0e+00 0.0e+00 0.0e+00  3  0  0  0  0  35  3  0  0  0  3931       0      0 0.00e+00    0 0.00e+00 100
Landau Mass           14 1.0 2.7921e-02 1.0 0.00e+00 0.0 0.0e+00 0.0e+00 0.0e+00  0  0  0  0  0   2  0  0  0  0     0       0      0 0.00e+00    0 0.00e+00  0
 Preamble             29 1.0 5.8329e-05 1.5 0.00e+00 0.0 0.0e+00 0.0e+00 0.0e+00  0  0  0  0  0   0  0  0  0  0     0       0      0 0.00e+00    0 0.00e+00  0
 dynamic IP-Jac       30 1.0 1.3888e-05 1.2 0.00e+00 0.0 0.0e+00 0.0e+00 0.0e+00  0  0  0  0  0   0  0  0  0  0     0       0      0 0.00e+00    0 0.00e+00  0
 Kernel-init          29 1.0 1.3221e-04 1.1 0.00e+00 0.0 0.0e+00 0.0e+00 0.0e+00  0  0  0  0  0   0  0  0  0  0     0       0      0 0.00e+00    0 0.00e+00  0
 Jac-f-df (GPU)       15 1.0 8.1603e-03 1.1 0.00e+00 0.0 0.0e+00 0.0e+00 0.0e+00  0  0  0  0  0   1  0  0  0  0     0       0      0 0.00e+00    0 0.00e+00  0
 J Kernel (GPU)       15 1.0 3.9759e-01 1.0 0.00e+00 0.0 0.0e+00 0.0e+00 0.0e+00  2  0  0  0  0  28  0  0  0  0     0       0      0 0.00e+00    0 0.00e+00  0
 M Kernel (GPU)       14 1.0 2.1410e-02 1.0 0.00e+00 0.0 0.0e+00 0.0e+00 0.0e+00  0  0  0  0  0   2  0  0  0  0     0       0      0 0.00e+00    0 0.00e+00  0
VecDot               748 1.0 3.1827e-02 1.0 2.72e+08 1.0 0.0e+00 0.0e+00 0.0e+00  0  0  0  0  0   2  3  0  0  0 68347       0      0 0.00e+00    0 0.00e+00 100
VecNorm              389 1.0 1.6683e-02 1.1 1.41e+08 1.0 0.0e+00 0.0e+00 0.0e+00  0  0  0  0  0   1  2  0  0  0 67808       0      0 0.00e+00    0 0.00e+00 100
VecCopy               73 1.0 1.5066e-03 1.1 0.00e+00 0.0 0.0e+00 0.0e+00 0.0e+00  0  0  0  0  0   0  0  0  0  0     0       0      0 0.00e+00    0 0.00e+00  0
VecSet                43 1.0 1.0321e-03 1.1 0.00e+00 0.0 0.0e+00 0.0e+00 0.0e+00  0  0  0  0  0   0  0  0  0  0     0       0      0 0.00e+00    0 0.00e+00  0
VecAXPY             1491 1.0 4.5264e-03 1.2 5.42e+08 1.0 0.0e+00 0.0e+00 0.0e+00  0  1  0  0  0   0  7  0  0  0 957958       0      0 0.00e+00    0 0.00e+00 100
VecAYPX              741 1.0 1.9412e-03 1.3 2.67e+08 1.0 0.0e+00 0.0e+00 0.0e+00  0  0  0  0  0   0  3  0  0  0 1099604       0      0 0.00e+00    0 0.00e+00 100
VecAXPBYCZ            16 1.0 2.2464e-03 1.1 1.45e+07 1.0 0.0e+00 0.0e+00 0.0e+00  0  0  0  0  0   0  0  0  0  0 51783       0      0 0.00e+00    0 0.00e+00 100
VecWAXPY            1482 1.0 4.0758e-03 1.3 5.39e+08 1.0 0.0e+00 0.0e+00 0.0e+00  0  1  0  0  0   0  7  0  0  0 1057448       0      0 0.00e+00    0 0.00e+00 100
VecPointwiseMult     762 1.0 6.7320e-03 1.1 1.39e+08 1.0 0.0e+00 0.0e+00 0.0e+00  0  0  0  0  0   0  2  0  0  0 164589       0      0 0.00e+00    0 0.00e+00 100
VecReduceArith        42 1.0 1.3405e-03 1.1 1.53e+07 1.0 0.0e+00 0.0e+00 0.0e+00  0  0  0  0  0   0  0  0  0  0 91120       0      0 0.00e+00    0 0.00e+00 100
VecReduceComm         14 1.0 3.8150e-06 2.0 0.00e+00 0.0 0.0e+00 0.0e+00 0.0e+00  0  0  0  0  0   0  0  0  0  0     0       0      0 0.00e+00    0 0.00e+00  0
TSStep                 1 1.0 1.4319e+00 1.0 8.21e+09 1.0 0.0e+00 0.0e+00 0.0e+00  7  9  0  0  0 100100  0  0  0 45873       0      0 0.00e+00    0 0.00e+00 100
TSFunctionEval        15 1.0 4.9401e-01 1.0 2.48e+08 1.0 0.0e+00 0.0e+00 0.0e+00  3  0  0  0  0  35  3  0  0  0  4011       0      0 0.00e+00    0 0.00e+00 100
TSJacobianEval        14 1.0 2.7932e-02 1.0 0.00e+00 0.0 0.0e+00 0.0e+00 0.0e+00  0  0  0  0  0   2  0  0  0  0     0       0      0 0.00e+00    0 0.00e+00  0
KSPSetUp              14 1.0 3.7977e-03 1.3 0.00e+00 0.0 0.0e+00 0.0e+00 0.0e+00  0  0  0  0  0   0  0  0  0  0     0       0      0 0.00e+00    0 0.00e+00  0
KSPSolve              14 1.0 8.9466e-01 1.0 7.93e+09 1.0 0.0e+00 0.0e+00 0.0e+00  5  8  0  0  0  62 97  0  0  0 70888       0      0 0.00e+00    0 0.00e+00 100
SNESSolve              1 1.0 1.4306e+00 1.0 8.21e+09 1.0 0.0e+00 0.0e+00 0.0e+00  7  9  0  0  0 100100  0  0  0 45909       0      0 0.00e+00    0 0.00e+00 100
SNESSetUp              1 1.0 4.8958e-04 1.2 0.00e+00 0.0 0.0e+00 0.0e+00 0.0e+00  0  0  0  0  0   0  0  0  0  0     0       0      0 0.00e+00    0 0.00e+00  0
SNESFunctionEval      15 1.0 4.9592e-01 1.0 2.61e+08 1.0 0.0e+00 0.0e+00 0.0e+00  3  0  0  0  0  35  3  0  0  0  4215       0      0 0.00e+00    0 0.00e+00 100
SNESJacobianEval      14 1.0 2.7943e-02 1.0 0.00e+00 0.0 0.0e+00 0.0e+00 0.0e+00  0  0  0  0  0   2  0  0  0  0     0       0      0 0.00e+00    0 0.00e+00  0
SNESLineSearch        14 1.0 4.1625e-01 1.0 2.64e+08 1.0 0.0e+00 0.0e+00 0.0e+00  2  0  0  0  0  29  3  0  0  0  5079       0      0 0.00e+00    0 0.00e+00 100
PCSetUp               14 1.0 5.9093e-03 1.1 0.00e+00 0.0 0.0e+00 0.0e+00 0.0e+00  0  0  0  0  0   0  0  0  0  0     0       0      0 0.00e+00    0 0.00e+00  0
PCApply              762 1.0 9.3533e-03 1.1 1.39e+08 1.0 0.0e+00 0.0e+00 0.0e+00  0  0  0  0  0   1  2  0  0  0 118462       0      0 0.00e+00    0 0.00e+00 100

--- Event Stage 2: Solve

MatMult             8176 1.0 8.9983e+00 1.0 6.60e+10 1.0 0.0e+00 0.0e+00 0.0e+00 47 69  0  0  0  63 75  0  0  0 58691       0      0 0.00e+00    0 0.00e+00 100
MatMultAdd           154 1.0 1.6907e-01 1.0 1.24e+09 1.0 0.0e+00 0.0e+00 0.0e+00  1  1  0  0  0   1  1  0  0  0 58837       0      0 0.00e+00    0 0.00e+00 100
MatAssemblyBegin     578 1.0 5.3614e-05 1.4 0.00e+00 0.0 0.0e+00 0.0e+00 0.0e+00  0  0  0  0  0   0  0  0  0  0     0       0      0 0.00e+00    0 0.00e+00  0
MatAssemblyEnd       578 1.0 1.1660e-04 1.3 0.00e+00 0.0 0.0e+00 0.0e+00 0.0e+00  0  0  0  0  0   0  0  0  0  0     0       0      0 0.00e+00    0 0.00e+00  0
MatZeroEntries       145 1.0 9.7570e-03 1.2 0.00e+00 0.0 0.0e+00 0.0e+00 0.0e+00  0  0  0  0  0   0  0  0  0  0     0       0      0 0.00e+00    0 0.00e+00  0
MatView                1 0.0 1.7664e-05 0.0 0.00e+00 0.0 0.0e+00 0.0e+00 0.0e+00  0  0  0  0  0   0  0  0  0  0     0       0      0 0.00e+00    0 0.00e+00  0
MatSetValuesCOO      289 1.0 1.3254e-03 1.4 0.00e+00 0.0 0.0e+00 0.0e+00 0.0e+00  0  0  0  0  0   0  0  0  0  0     0       0      0 0.00e+00    0 0.00e+00  0
Landau Operator      298 1.0 4.5931e+00 1.0 2.49e+09 1.0 0.0e+00 0.0e+00 0.0e+00 24  3  0  0  0  33  3  0  0  0  4331       0      0 0.00e+00    0 0.00e+00 100
Landau Jacobian      154 1.0 4.3087e+00 1.0 2.49e+09 1.0 0.0e+00 0.0e+00 0.0e+00 23  3  0  0  0  31  3  0  0  0  4617       0      0 0.00e+00    0 0.00e+00 100
Landau Mass          144 1.0 2.8635e-01 1.0 0.00e+00 0.0 0.0e+00 0.0e+00 0.0e+00  2  0  0  0  0   2  0  0  0  0     0       0      0 0.00e+00    0 0.00e+00  0
 Preamble            289 1.0 4.5060e-04 1.5 0.00e+00 0.0 0.0e+00 0.0e+00 0.0e+00  0  0  0  0  0   0  0  0  0  0     0       0      0 0.00e+00    0 0.00e+00  0
 dynamic IP-Jac      290 1.0 7.6629e-05 1.2 0.00e+00 0.0 0.0e+00 0.0e+00 0.0e+00  0  0  0  0  0   0  0  0  0  0     0       0      0 0.00e+00    0 0.00e+00  0
 Kernel-init         289 1.0 1.2033e-03 1.2 0.00e+00 0.0 0.0e+00 0.0e+00 0.0e+00  0  0  0  0  0   0  0  0  0  0     0       0      0 0.00e+00    0 0.00e+00  0
 Jac-f-df (GPU)      145 1.0 4.6934e-02 1.0 0.00e+00 0.0 0.0e+00 0.0e+00 0.0e+00  0  0  0  0  0   0  0  0  0  0     0       0      0 0.00e+00    0 0.00e+00  0
 J Kernel (GPU)      145 1.0 3.8428e+00 1.0 0.00e+00 0.0 0.0e+00 0.0e+00 0.0e+00 20  0  0  0  0  27  0  0  0  0     0       0      0 0.00e+00    0 0.00e+00  0
 M Kernel (GPU)      144 1.0 2.1949e-01 1.0 0.00e+00 0.0 0.0e+00 0.0e+00 0.0e+00  1  0  0  0  0   2  0  0  0  0     0       0      0 0.00e+00    0 0.00e+00  0
VecDot              8022 1.0 3.3533e-01 1.0 2.92e+09 1.0 0.0e+00 0.0e+00 0.0e+00  2  3  0  0  0   2  3  0  0  0 69572       0      0 0.00e+00    0 0.00e+00 100
VecNorm             4165 1.0 1.7458e-01 1.1 1.51e+09 1.0 0.0e+00 0.0e+00 0.0e+00  1  2  0  0  0   1  2  0  0  0 69382       0      0 0.00e+00    0 0.00e+00 100
VecCopy              740 1.0 1.2994e-02 1.1 0.00e+00 0.0 0.0e+00 0.0e+00 0.0e+00  0  0  0  0  0   0  0  0  0  0     0       0      0 0.00e+00    0 0.00e+00  0
VecSet               442 1.0 1.0249e-02 1.1 0.00e+00 0.0 0.0e+00 0.0e+00 0.0e+00  0  0  0  0  0   0  0  0  0  0     0       0      0 0.00e+00    0 0.00e+00  0
VecAXPY            15990 1.0 4.2045e-02 1.3 5.81e+09 1.0 0.0e+00 0.0e+00 0.0e+00  0  6  0  0  0   0  7  0  0  0 1105984       0      0 0.00e+00    0 0.00e+00 100
VecAYPX             7948 1.0 2.0647e-02 1.3 2.86e+09 1.0 0.0e+00 0.0e+00 0.0e+00  0  3  0  0  0   0  3  0  0  0 1109353       0      0 0.00e+00    0 0.00e+00 100
VecAXPBYCZ           164 1.0 1.6419e-03 1.1 1.49e+08 1.0 0.0e+00 0.0e+00 0.0e+00  0  0  0  0  0   0  0  0  0  0 726210       0      0 0.00e+00    0 0.00e+00 100
VecWAXPY           15900 1.0 4.3523e-02 1.4 5.78e+09 1.0 0.0e+00 0.0e+00 0.0e+00  0  6  0  0  0   0  7  0  0  0 1062425       0      0 0.00e+00    0 0.00e+00 100
VecPointwiseMult    8166 1.0 6.8466e-02 1.1 1.48e+09 1.0 0.0e+00 0.0e+00 0.0e+00  0  2  0  0  0   0  2  0  0  0 173430       0      0 0.00e+00    0 0.00e+00 100
VecReduceArith       432 1.0 1.3794e-02 1.1 1.57e+08 1.0 0.0e+00 0.0e+00 0.0e+00  0  0  0  0  0   0  0  0  0  0 91075       0      0 0.00e+00    0 0.00e+00 100
VecReduceComm        144 1.0 4.7450e-05 2.4 0.00e+00 0.0 0.0e+00 0.0e+00 0.0e+00  0  0  0  0  0   0  0  0  0  0     0       0      0 0.00e+00    0 0.00e+00  0
TSStep                10 1.0 1.4219e+01 1.0 8.79e+10 1.0 0.0e+00 0.0e+00 0.0e+00 74 91  0  0  0 100100  0  0  0 49473       0      0 0.00e+00    0 0.00e+00 100
TSFunctionEval       154 1.0 4.3119e+00 1.0 2.54e+09 1.0 0.0e+00 0.0e+00 0.0e+00 23  3  0  0  0  31  3  0  0  0  4718       0      0 0.00e+00    0 0.00e+00 100
TSJacobianEval       144 1.0 2.8642e-01 1.0 0.00e+00 0.0 0.0e+00 0.0e+00 0.0e+00  2  0  0  0  0   2  0  0  0  0     0       0      0 0.00e+00    0 0.00e+00  0
KSPSetUp             144 1.0 2.3400e-05 1.1 0.00e+00 0.0 0.0e+00 0.0e+00 0.0e+00  0  0  0  0  0   0  0  0  0  0     0       0      0 0.00e+00    0 0.00e+00  0
KSPSolve             144 1.0 9.5385e+00 1.0 8.50e+10 1.0 0.0e+00 0.0e+00 0.0e+00 50 88  0  0  0  67 97  0  0  0 71312       0      0 0.00e+00    0 0.00e+00 100
SNESSolve             10 1.0 1.4218e+01 1.0 8.79e+10 1.0 0.0e+00 0.0e+00 0.0e+00 74 91  0  0  0 100100  0  0  0 49470       0      0 0.00e+00    0 0.00e+00 100
SNESFunctionEval     154 1.0 4.3133e+00 1.0 2.68e+09 1.0 0.0e+00 0.0e+00 0.0e+00 23  3  0  0  0  31  3  0  0  0  4976       0      0 0.00e+00    0 0.00e+00 100
SNESJacobianEval     144 1.0 2.8649e-01 1.0 0.00e+00 0.0 0.0e+00 0.0e+00 0.0e+00  2  0  0  0  0   2  0  0  0  0     0       0      0 0.00e+00    0 0.00e+00  0
SNESLineSearch       144 1.0 4.2797e+00 1.0 2.72e+09 1.0 0.0e+00 0.0e+00 0.0e+00 23  3  0  0  0  30  3  0  0  0  5081       0      0 0.00e+00    0 0.00e+00 100
PCSetUp              144 1.0 6.4831e-02 1.0 0.00e+00 0.0 0.0e+00 0.0e+00 0.0e+00  0  0  0  0  0   0  0  0  0  0     0       0      0 0.00e+00    0 0.00e+00  0
PCApply             8166 1.0 7.0916e-02 1.1 1.48e+09 1.0 0.0e+00 0.0e+00 0.0e+00  0  2  0  0  0   0  2  0  0  0 167437       0      0 0.00e+00    0 0.00e+00 100
---------------------------------------------------------------------------------------------------------------------------------------------------------------

Object Type          Creations   Destructions. Reports information only for process 0.

--- Event Stage 0: Main Stage

           Container   254            254
    Distributed Mesh   629            629
            DM Label  1327           1327
          Quadrature  1389           1389
              Matrix  1480           1480
           Index Set  6071           6071
   IS L to G Mapping   779            779
             Section  5977           5977
    Section Symmetry    80             80
   Star Forest Graph  4381           4381
     Discrete System  1048           1048
           Weak Form  1048           1048
    GraphPartitioner   242            242
              Vector   344            363
       p4est logging     1              0
        Linear Space    86             86
          Dual Space   240            240
            FE Space    40             40
       Field over DM    18             18
             TSAdapt     1              1
                  TS     1              1
                DMTS     1              1
                SNES     1              1
              DMSNES     3              3
      SNESLineSearch     1              1
       Krylov Solver     1              1
     DMKSP interface     0              1
      Preconditioner     1              1
              Viewer     2              1

--- Event Stage 1: Warmup

              Vector    19              0
     DMKSP interface     1              0

--- Event Stage 2: Solve

========================================================================================================================
Average time to get PetscTime(): 3.51e-08
Average time for MPI_Barrier(): 3.595e-06
Average time for zero size MPI_Send(): 1.85159e-05
#PETSc Option Table entries:
-dim 2
-dm_landau_amr_levels_max 2,2,2
-dm_landau_batch_size 128
-dm_landau_coo_assembly
-dm_landau_device_type kokkos
-dm_landau_Ez 0
-dm_landau_ion_charges 1,2,3,4,5,6,7,8,9
-dm_landau_ion_masses 2,182,182,182,182,182,182,182,182
-dm_landau_n 1.0000044,1,1e-7,1e-7,1e-7,1e-7,1e-7,1e-7,1e-7,1e-7
-dm_landau_num_species_grid 1,1,8
-dm_landau_thermal_temps 2,1,1,1,1,1,1,1,1,1
-dm_landau_type p4est
-dm_landau_verbose 1
-dm_mat_type aijkokkos
-dm_preallocate_only false
-dm_vec_type kokkos
-ex2_test_type none
-ksp_converged_reason
-ksp_max_it 100
-ksp_rtol 1.e-8
-ksp_type tfqmr
-log_view
-pc_type jacobi
-petscspace_degree 3
-snes_converged_reason
-snes_linesearch_type basic
-snes_max_it 50
-snes_monitor
-snes_rtol 1e-14
-snes_stol 1e-14
-ts_adapt_clip .5,1.1
-ts_adapt_dt_max 1
-ts_adapt_monitor
-ts_adapt_scale_solve_failed 0.5
-ts_adapt_time_step_increase_delay 5
-ts_dt .5
-ts_exact_final_time stepover
-ts_max_snes_failures -1
-ts_max_steps 10
-ts_max_time 100
-ts_monitor
-ts_rtol 1e-2
-ts_type beuler
-ts_view
-use_gpu_aware_mpi 0
#End of PETSc Option Table entries
Compiled without FORTRAN kernels
Compiled with full precision matrices (default)
sizeof(short) 2 sizeof(int) 4 sizeof(long) 8 sizeof(void*) 8 sizeof(PetscScalar) 8 sizeof(PetscInt) 4
Configure options: --with-cc=cc --with-cxx=CC --with-fc=ftn LIBS="-L/opt/cray/pe/mpich/8.1.16/gtl/lib -lmpi_gtl_hsa" --with-debugging=0 --COPTFLAGS="-g -ggdb -O -DLAND_SUPPORT_CPU_ASSXXX" --CXXOPTFLAGS="-g -ggdb -O -DLAND_SUPPORT_CPU_ASSXXX" --FOPTFLAGS=-g --with-dmlandau-2d --with-mpiexec="srun --gpu-bind=closest" --with-hip --with-hipc=hipcc --download-hypre --download-kokkos --download-kokkos-kernels --with-kokkos-kernels-tpl=1 --download-p4est=1 --with-zlib-dir=/sw/crusher/spack-envs/base/opt/cray-sles15-zen3/clang-14.0.0-rocm5.1.0/zlib-1.2.11-j3ogymf5vmwlxvblzxxqdkrjkdvfccyx --prefix=/gpfs/alpine/world-shared/geo127/petsc/arch-crusher-opt-amd PETSC_ARCH=arch-olcf-crusher-kokkos
-----------------------------------------
Libraries compiled on 2022-07-14 23:12:22 on login2 
Machine characteristics: Linux-5.3.18-150300.59.68_11.0.76-cray_shasta_c-x86_64-with-glibc2.3.4
Using PETSc directory: /gpfs/alpine/world-shared/geo127/petsc/arch-crusher-opt-amd
Using PETSc arch: 
-----------------------------------------

Using C compiler: cc  -fPIC -g -ggdb -O -DLAND_SUPPORT_CPU_ASSXXX   
Using Fortran compiler: ftn  -fPIC -g     
-----------------------------------------

Using include paths: -I/gpfs/alpine/world-shared/geo127/petsc/arch-crusher-opt-amd/include -I/sw/crusher/spack-envs/base/opt/cray-sles15-zen3/clang-14.0.0-rocm5.1.0/zlib-1.2.11-j3ogymf5vmwlxvblzxxqdkrjkdvfccyx/include -I/opt/rocm-5.1.0/include
-----------------------------------------

Using C linker: cc
Using Fortran linker: ftn
Using libraries: -Wl,-rpath,/gpfs/alpine/world-shared/geo127/petsc/arch-crusher-opt-amd/lib -L/gpfs/alpine/world-shared/geo127/petsc/arch-crusher-opt-amd/lib -lpetsc -Wl,-rpath,/gpfs/alpine/world-shared/geo127/petsc/arch-crusher-opt-amd/lib -L/gpfs/alpine/world-shared/geo127/petsc/arch-crusher-opt-amd/lib -Wl,-rpath,/sw/crusher/spack-envs/base/opt/cray-sles15-zen3/clang-14.0.0-rocm5.1.0/zlib-1.2.11-j3ogymf5vmwlxvblzxxqdkrjkdvfccyx/lib -L/sw/crusher/spack-envs/base/opt/cray-sles15-zen3/clang-14.0.0-rocm5.1.0/zlib-1.2.11-j3ogymf5vmwlxvblzxxqdkrjkdvfccyx/lib -Wl,-rpath,/opt/rocm-5.1.0/lib -L/opt/rocm-5.1.0/lib -Wl,-rpath,/opt/cray/pe/mpich/8.1.16/gtl/lib -L/opt/cray/pe/mpich/8.1.16/gtl/lib -Wl,-rpath,/opt/cray/pe/mpich/8.1.16/ofi/amd/5.0/lib -L/opt/cray/pe/mpich/8.1.16/ofi/amd/5.0/lib -Wl,-rpath,/opt/cray/pe/libsci/21.08.1.2/AMD/4.0/x86_64/lib -L/opt/cray/pe/libsci/21.08.1.2/AMD/4.0/x86_64/lib -Wl,-rpath,/opt/cray/pe/dsmml/0.2.2/dsmml/lib -L/opt/cray/pe/dsmml/0.2.2/dsmml/lib -Wl,-rpath,/opt/cray/pe/pmi/6.1.2/lib -L/opt/cray/pe/pmi/6.1.2/lib -Wl,-rpath,/opt/cray/xpmem/2.4.4-2.3_2.12__gff0e1d9.shasta/lib64 -L/opt/cray/xpmem/2.4.4-2.3_2.12__gff0e1d9.shasta/lib64 -Wl,-rpath,/usr/lib64/gcc/x86_64-suse-linux/7 -L/usr/lib64/gcc/x86_64-suse-linux/7 -Wl,-rpath,/usr/x86_64-suse-linux/lib -L/usr/x86_64-suse-linux/lib -Wl,-rpath,/opt/rocm-5.1.0/llvm/lib -L/opt/rocm-5.1.0/llvm/lib -lHYPRE -lkokkoskernels -lkokkoscontainers -lkokkoscore -lp4est -lsc -lpthread -lm -lz -lX11 -lhipsparse -lhipblas -lrocsparse -lrocsolver -lrocblas -lrocrand -lamdhip64 -lstdc++ -ldl -lmpi_gtl_hsa -lsci_amd_mpi -lsci_amd -lmpifort_amd -lmpi_amd -ldsmml -lpmi -lpmi2 -lxpmem -lflangmain -lpgmath -lflang -lflangrti -lompstub -lm -lrt -lpthread -lgcc_s -lstdc++ -ldl -lmpi_gtl_hsa
-----------------------------------------



      ##########################################################
      #                                                        #
      #                       WARNING!!!                       #
      #                                                        #
      #   This code was compiled with GPU support and you've   #
      #   created PETSc/GPU objects, but you intentionally     #
      #   used -use_gpu_aware_mpi 0, requiring PETSc to copy   #
      #   additional data between the GPU and CPU. To obtain   #
      #   meaningful timing results on multi-rank runs, use    #
      #   GPU-aware MPI instead.                               #
      #                                                        #
      ##########################################################


