masses:        e= 9.109e-31; ions in proton mass units:    2.000e+00  1.820e+02 ...
charges:       e=-1.602e-19; charges in elementary units:  1.000e+00  2.000e+00
n:             e:  1.000e+00                           i:  1.000e+00  1.000e-07
thermal T (K): e= 2.321e+07 i= 1.160e+07  1.160e+07. v_0= 1.876e+07 ( 6.256e-02c) n_0= 1.000e+20 t_0= 1.637e-05, classical, Intuitive, 8 batched
Domain radius (AMR levels) grid 0:  5.000e+00 (2) , 1:  5.835e-02 (2) , 2:  6.117e-03 (2) 
Using default Plex order for all matrices
0) FormLandau 672 IPs, 42 cells total, Nb=16, Nq=16, dim=2, Tab: Nb=16 Nf=10 Np=16 cdim=2 N=11360
0 TS dt 0.5 time 0.
    0 SNES Function norm 1.834492311020e-02 
    Linear solve converged due to CONVERGED_RTOL_NORMAL iterations 23, batch 2, specie 0
    1 SNES Function norm 1.963835036950e-04 
    Linear solve converged due to CONVERGED_RTOL_NORMAL iterations 27, batch 2, specie 0
    2 SNES Function norm 2.859047688674e-05 
    Linear solve converged due to CONVERGED_RTOL_NORMAL iterations 26, batch 0, specie 0
    3 SNES Function norm 7.459797882492e-06 
    Linear solve converged due to CONVERGED_RTOL_NORMAL iterations 25, batch 1, specie 0
    4 SNES Function norm 1.857179788275e-06 
    Linear solve converged due to CONVERGED_RTOL_NORMAL iterations 25, batch 4, specie 0
    5 SNES Function norm 4.545200091085e-07 
    Linear solve converged due to CONVERGED_RTOL_NORMAL iterations 25, batch 2, specie 0
    6 SNES Function norm 1.106349951971e-07 
    Linear solve converged due to CONVERGED_RTOL_NORMAL iterations 25, batch 3, specie 0
    7 SNES Function norm 2.688640533092e-08 
    Linear solve converged due to CONVERGED_RTOL_NORMAL iterations 25, batch 4, specie 0
    8 SNES Function norm 6.531888194512e-09 
    Linear solve converged due to CONVERGED_RTOL_NORMAL iterations 25, batch 2, specie 0
    9 SNES Function norm 1.587169904446e-09 
    Linear solve converged due to CONVERGED_RTOL_NORMAL iterations 25, batch 2, specie 0
   10 SNES Function norm 3.858068896611e-10 
    Linear solve converged due to CONVERGED_RTOL_NORMAL iterations 25, batch 2, specie 0
   11 SNES Function norm 9.382463923430e-11 
    Linear solve converged due to CONVERGED_RTOL_NORMAL iterations 25, batch 3, specie 0
   12 SNES Function norm 2.282789110657e-11 
    Linear solve converged due to CONVERGED_RTOL_NORMAL iterations 25, batch 0, specie 0
   13 SNES Function norm 5.557643685728e-12 
    Linear solve converged due to CONVERGED_RTOL_NORMAL iterations 25, batch 2, specie 0
   14 SNES Function norm 1.352311327589e-12 
  Nonlinear solve converged due to CONVERGED_SNORM_RELATIVE iterations 14
      TSAdapt none beuler 0: step   0 accepted t=0          + 5.000e-01 dt=5.000e-01 
1 TS dt 0.5 time 0.5
TS Object: 1 MPI process
  type: beuler
  maximum steps=1
  maximum time=100.
  total number of I function evaluations=15
  total number of I Jacobian evaluations=14
  total number of RHS function evaluations=15
  total number of nonlinear solver iterations=14
  total number of linear solver iterations=351
  total number of nonlinear solve failures=0
  total number of rejected steps=0
  using relative error tolerance of 0.01,   using absolute error tolerance of 0.0001
  TSAdapt Object: 1 MPI process
    type: none
  SNES Object: 1 MPI process
    type: newtonls
    maximum iterations=50, maximum function evaluations=10000
    tolerances: relative=1e-14, absolute=1e-50, solution=1e-14
    total number of linear solver iterations=351
    total number of function evaluations=15
    norm schedule ALWAYS
    SNESLineSearch Object: 1 MPI process
      type: basic
      maxstep=1.000000e+08, minlambda=1.000000e-12
      tolerances: relative=1.000000e-08, absolute=1.000000e-15, lambda=1.000000e-08
      maximum iterations=40
    KSP Object: 1 MPI process
      type: preonly
      maximum iterations=10000, initial guess is zero
      tolerances:  relative=1e-05, absolute=1e-50, divergence=10000.
      left preconditioning
      using NONE norm type for convergence test
    PC Object: 1 MPI process
      type: bjkokkos
        Batched device linear solver: Krylov (KSP) method with Jacobi preconditioning
      		nwork = 10, rel tol = 1.000000e-08, abs tol = 1.000000e-50, div tol = 1.000000e+04, max it =100, type = tfqmr
      linear system matrix = precond matrix:
      Mat Object: Jacobian 1 MPI process
        type: seqaijkokkos
        rows=11360, cols=11360
        total: nonzeros=252320, allocated nonzeros=252320
        total number of mallocs used during MatSetValues calls=0
          using I-node routines: found 5328 nodes, limit used is 5
0 TS dt 0.5 time 0.
    0 SNES Function norm 1.834492311020e-02 
    Linear solve converged due to CONVERGED_RTOL_NORMAL iterations 23, batch 2, specie 0
    1 SNES Function norm 1.963835036950e-04 
    Linear solve converged due to CONVERGED_RTOL_NORMAL iterations 27, batch 2, specie 0
    2 SNES Function norm 2.859047688674e-05 
    Linear solve converged due to CONVERGED_RTOL_NORMAL iterations 26, batch 0, specie 0
    3 SNES Function norm 7.459797882492e-06 
    Linear solve converged due to CONVERGED_RTOL_NORMAL iterations 25, batch 1, specie 0
    4 SNES Function norm 1.857179788275e-06 
    Linear solve converged due to CONVERGED_RTOL_NORMAL iterations 25, batch 4, specie 0
    5 SNES Function norm 4.545200091085e-07 
    Linear solve converged due to CONVERGED_RTOL_NORMAL iterations 25, batch 2, specie 0
    6 SNES Function norm 1.106349951971e-07 
    Linear solve converged due to CONVERGED_RTOL_NORMAL iterations 25, batch 3, specie 0
    7 SNES Function norm 2.688640533092e-08 
    Linear solve converged due to CONVERGED_RTOL_NORMAL iterations 25, batch 4, specie 0
    8 SNES Function norm 6.531888194512e-09 
    Linear solve converged due to CONVERGED_RTOL_NORMAL iterations 25, batch 2, specie 0
    9 SNES Function norm 1.587169904446e-09 
    Linear solve converged due to CONVERGED_RTOL_NORMAL iterations 25, batch 2, specie 0
   10 SNES Function norm 3.858068896611e-10 
    Linear solve converged due to CONVERGED_RTOL_NORMAL iterations 25, batch 2, specie 0
   11 SNES Function norm 9.382463923430e-11 
    Linear solve converged due to CONVERGED_RTOL_NORMAL iterations 25, batch 3, specie 0
   12 SNES Function norm 2.282789110657e-11 
    Linear solve converged due to CONVERGED_RTOL_NORMAL iterations 25, batch 0, specie 0
   13 SNES Function norm 5.557643685728e-12 
    Linear solve converged due to CONVERGED_RTOL_NORMAL iterations 25, batch 2, specie 0
   14 SNES Function norm 1.352311327589e-12 
  Nonlinear solve converged due to CONVERGED_SNORM_RELATIVE iterations 14
      TSAdapt none beuler 0: step   0 accepted t=0          + 5.000e-01 dt=5.000e-01 
1 TS dt 0.5 time 0.5
    0 SNES Function norm 6.288086229543e-03 
    Linear solve converged due to CONVERGED_RTOL_NORMAL iterations 26, batch 1, specie 0
    1 SNES Function norm 1.362941003282e-04 
    Linear solve converged due to CONVERGED_RTOL_NORMAL iterations 25, batch 0, specie 0
    2 SNES Function norm 2.681587113946e-05 
    Linear solve converged due to CONVERGED_RTOL_NORMAL iterations 28, batch 7, specie 0
    3 SNES Function norm 6.670464028955e-06 
    Linear solve converged due to CONVERGED_RTOL_NORMAL iterations 25, batch 0, specie 0
    4 SNES Function norm 1.648100996864e-06 
    Linear solve converged due to CONVERGED_RTOL_NORMAL iterations 25, batch 3, specie 0
    5 SNES Function norm 4.034838617689e-07 
    Linear solve converged due to CONVERGED_RTOL_NORMAL iterations 25, batch 4, specie 0
    6 SNES Function norm 9.835129712947e-08 
    Linear solve converged due to CONVERGED_RTOL_NORMAL iterations 25, batch 6, specie 0
    7 SNES Function norm 2.393269710015e-08 
    Linear solve converged due to CONVERGED_RTOL_NORMAL iterations 25, batch 1, specie 0
    8 SNES Function norm 5.821009220150e-09 
    Linear solve converged due to CONVERGED_RTOL_NORMAL iterations 25, batch 4, specie 0
    9 SNES Function norm 1.415924441526e-09 
    Linear solve converged due to CONVERGED_RTOL_NORMAL iterations 25, batch 1, specie 0
   10 SNES Function norm 3.445251470039e-10 
    Linear solve converged due to CONVERGED_RTOL_NORMAL iterations 25, batch 4, specie 0
   11 SNES Function norm 8.386686199835e-11 
    Linear solve converged due to CONVERGED_RTOL_NORMAL iterations 25, batch 2, specie 0
   12 SNES Function norm 2.042229641611e-11 
    Linear solve converged due to CONVERGED_RTOL_NORMAL iterations 25, batch 1, specie 0
   13 SNES Function norm 4.976625830477e-12 
    Linear solve converged due to CONVERGED_RTOL_NORMAL iterations 25, batch 2, specie 0
   14 SNES Function norm 1.213030463788e-12 
  Nonlinear solve converged due to CONVERGED_SNORM_RELATIVE iterations 14
      TSAdapt none beuler 0: step   1 accepted t=0.5        + 5.000e-01 dt=5.000e-01 
2 TS dt 0.5 time 1.
    0 SNES Function norm 4.066281506201e-03 
    Linear solve converged due to CONVERGED_RTOL_NORMAL iterations 26, batch 0, specie 0
    1 SNES Function norm 1.541639694625e-04 
    Linear solve converged due to CONVERGED_RTOL_NORMAL iterations 27, batch 0, specie 0
    2 SNES Function norm 3.411796983921e-05 
    Linear solve converged due to CONVERGED_RTOL_NORMAL iterations 25, batch 0, specie 0
    3 SNES Function norm 8.462538175626e-06 
    Linear solve converged due to CONVERGED_RTOL_NORMAL iterations 25, batch 0, specie 0
    4 SNES Function norm 2.085042999563e-06 
    Linear solve converged due to CONVERGED_RTOL_NORMAL iterations 25, batch 4, specie 0
    5 SNES Function norm 5.100915486081e-07 
    Linear solve converged due to CONVERGED_RTOL_NORMAL iterations 25, batch 0, specie 0
    6 SNES Function norm 1.243607540165e-07 
    Linear solve converged due to CONVERGED_RTOL_NORMAL iterations 25, batch 0, specie 0
    7 SNES Function norm 3.027899562415e-08 
    Linear solve converged due to CONVERGED_RTOL_NORMAL iterations 25, batch 1, specie 0
    8 SNES Function norm 7.369962421092e-09 
    Linear solve converged due to CONVERGED_RTOL_NORMAL iterations 25, batch 3, specie 0
    9 SNES Function norm 1.794129198240e-09 
    Linear solve converged due to CONVERGED_RTOL_NORMAL iterations 25, batch 1, specie 0
   10 SNES Function norm 4.369137844726e-10 
    Linear solve converged due to CONVERGED_RTOL_NORMAL iterations 25, batch 0, specie 0
   11 SNES Function norm 1.064434932687e-10 
    Linear solve converged due to CONVERGED_RTOL_NORMAL iterations 25, batch 1, specie 0
   12 SNES Function norm 2.594535457920e-11 
    Linear solve converged due to CONVERGED_RTOL_NORMAL iterations 25, batch 2, specie 0
   13 SNES Function norm 6.327963683771e-12 
    Linear solve converged due to CONVERGED_RTOL_NORMAL iterations 25, batch 3, specie 0
   14 SNES Function norm 1.543585467613e-12 
  Nonlinear solve converged due to CONVERGED_SNORM_RELATIVE iterations 14
      TSAdapt none beuler 0: step   2 accepted t=1          + 5.000e-01 dt=5.000e-01 
3 TS dt 0.5 time 1.5
    0 SNES Function norm 3.054675800542e-03 
    Linear solve converged due to CONVERGED_RTOL_NORMAL iterations 23, batch 0, specie 0
    1 SNES Function norm 1.855098082581e-04 
    Linear solve converged due to CONVERGED_RTOL_NORMAL iterations 27, batch 2, specie 0
    2 SNES Function norm 4.406883307759e-05 
    Linear solve converged due to CONVERGED_RTOL_NORMAL iterations 25, batch 0, specie 0
    3 SNES Function norm 1.093850233039e-05 
    Linear solve converged due to CONVERGED_RTOL_NORMAL iterations 25, batch 4, specie 0
    4 SNES Function norm 2.690799172331e-06 
    Linear solve converged due to CONVERGED_RTOL_NORMAL iterations 25, batch 1, specie 0
    5 SNES Function norm 6.579094457606e-07 
    Linear solve converged due to CONVERGED_RTOL_NORMAL iterations 25, batch 3, specie 0
    6 SNES Function norm 1.604210629381e-07 
    Linear solve converged due to CONVERGED_RTOL_NORMAL iterations 25, batch 0, specie 0
    7 SNES Function norm 3.907833540332e-08 
    Linear solve converged due to CONVERGED_RTOL_NORMAL iterations 25, batch 3, specie 0
    8 SNES Function norm 9.518083219815e-09 
    Linear solve converged due to CONVERGED_RTOL_NORMAL iterations 25, batch 1, specie 0
    9 SNES Function norm 2.318791857465e-09 
    Linear solve converged due to CONVERGED_RTOL_NORMAL iterations 25, batch 2, specie 0
   10 SNES Function norm 5.651193036153e-10 
    Linear solve converged due to CONVERGED_RTOL_NORMAL iterations 25, batch 0, specie 0
   11 SNES Function norm 1.377874400242e-10 
    Linear solve converged due to CONVERGED_RTOL_NORMAL iterations 25, batch 3, specie 0
   12 SNES Function norm 3.361300254487e-11 
    Linear solve converged due to CONVERGED_RTOL_NORMAL iterations 25, batch 4, specie 0
   13 SNES Function norm 8.202928083636e-12 
    Linear solve converged due to CONVERGED_RTOL_NORMAL iterations 25, batch 1, specie 0
   14 SNES Function norm 2.001798700292e-12 
  Nonlinear solve converged due to CONVERGED_SNORM_RELATIVE iterations 14
      TSAdapt none beuler 0: step   3 accepted t=1.5        + 5.000e-01 dt=5.000e-01 
4 TS dt 0.5 time 2.
    0 SNES Function norm 2.510477397215e-03 
    Linear solve converged due to CONVERGED_RTOL_NORMAL iterations 24, batch 1, specie 0
    1 SNES Function norm 2.209180763949e-04 
    Linear solve converged due to CONVERGED_RTOL_NORMAL iterations 27, batch 4, specie 0
    2 SNES Function norm 5.411144744863e-05 
    Linear solve converged due to CONVERGED_RTOL_NORMAL iterations 25, batch 0, specie 0
    3 SNES Function norm 1.342091790775e-05 
    Linear solve converged due to CONVERGED_RTOL_NORMAL iterations 25, batch 5, specie 0
    4 SNES Function norm 3.297884262792e-06 
    Linear solve converged due to CONVERGED_RTOL_NORMAL iterations 25, batch 7, specie 0
    5 SNES Function norm 8.062005365610e-07 
    Linear solve converged due to CONVERGED_RTOL_NORMAL iterations 25, batch 4, specie 0
    6 SNES Function norm 1.966526175383e-07 
    Linear solve converged due to CONVERGED_RTOL_NORMAL iterations 25, batch 5, specie 0
    7 SNES Function norm 4.793505207910e-08 
    Linear solve converged due to CONVERGED_RTOL_NORMAL iterations 25, batch 1, specie 0
    8 SNES Function norm 1.168423262144e-08 
    Linear solve converged due to CONVERGED_RTOL_NORMAL iterations 25, batch 2, specie 0
    9 SNES Function norm 2.848862139740e-09 
    Linear solve converged due to CONVERGED_RTOL_NORMAL iterations 25, batch 1, specie 0
   10 SNES Function norm 6.948998194726e-10 
    Linear solve converged due to CONVERGED_RTOL_NORMAL iterations 25, batch 2, specie 0
   11 SNES Function norm 1.695781511092e-10 
    Linear solve converged due to CONVERGED_RTOL_NORMAL iterations 25, batch 3, specie 0
   12 SNES Function norm 4.140456677982e-11 
    Linear solve converged due to CONVERGED_RTOL_NORMAL iterations 25, batch 2, specie 0
   13 SNES Function norm 1.011307119706e-11 
    Linear solve converged due to CONVERGED_RTOL_NORMAL iterations 25, batch 1, specie 0
   14 SNES Function norm 2.470433929132e-12 
  Nonlinear solve converged due to CONVERGED_SNORM_RELATIVE iterations 14
      TSAdapt none beuler 0: step   4 accepted t=2          + 5.000e-01 dt=5.000e-01 
5 TS dt 0.5 time 2.5
    0 SNES Function norm 2.195853578121e-03 
    Linear solve converged due to CONVERGED_RTOL_NORMAL iterations 24, batch 5, specie 0
    1 SNES Function norm 2.538644409442e-04 
    Linear solve converged due to CONVERGED_RTOL_NORMAL iterations 27, batch 6, specie 0
    2 SNES Function norm 6.293804139566e-05 
    Linear solve converged due to CONVERGED_RTOL_NORMAL iterations 25, batch 2, specie 0
    3 SNES Function norm 1.559254974555e-05 
    Linear solve converged due to CONVERGED_RTOL_NORMAL iterations 25, batch 7, specie 0
    4 SNES Function norm 3.829322393217e-06 
    Linear solve converged due to CONVERGED_RTOL_NORMAL iterations 25, batch 2, specie 0
    5 SNES Function norm 9.362908548281e-07 
    Linear solve converged due to CONVERGED_RTOL_NORMAL iterations 25, batch 2, specie 0
    6 SNES Function norm 2.285214322586e-07 
    Linear solve converged due to CONVERGED_RTOL_NORMAL iterations 25, batch 1, specie 0
    7 SNES Function norm 5.574744950241e-08 
    Linear solve converged due to CONVERGED_RTOL_NORMAL iterations 25, batch 3, specie 0
    8 SNES Function norm 1.360054145615e-08 
    Linear solve converged due to CONVERGED_RTOL_NORMAL iterations 25, batch 1, specie 0
    9 SNES Function norm 3.319175753933e-09 
    Linear solve converged due to CONVERGED_RTOL_NORMAL iterations 25, batch 0, specie 0
   10 SNES Function norm 8.103882288733e-10 
    Linear solve converged due to CONVERGED_RTOL_NORMAL iterations 25, batch 0, specie 0
   11 SNES Function norm 1.979532985445e-10 
    Linear solve converged due to CONVERGED_RTOL_NORMAL iterations 25, batch 1, specie 0
   12 SNES Function norm 4.837861755971e-11 
    Linear solve converged due to CONVERGED_RTOL_NORMAL iterations 25, batch 1, specie 0
   13 SNES Function norm 1.182818318192e-11 
    Linear solve converged due to CONVERGED_RTOL_NORMAL iterations 25, batch 1, specie 0
   14 SNES Function norm 2.894801065990e-12 
  Nonlinear solve converged due to CONVERGED_SNORM_RELATIVE iterations 14
      TSAdapt none beuler 0: step   5 accepted t=2.5        + 5.000e-01 dt=5.000e-01 
6 TS dt 0.5 time 3.
    0 SNES Function norm 2.005354044163e-03 
    Linear solve converged due to CONVERGED_RTOL_NORMAL iterations 25, batch 4, specie 0
    1 SNES Function norm 2.810372396820e-04 
    Linear solve converged due to CONVERGED_RTOL_NORMAL iterations 26, batch 6, specie 0
    2 SNES Function norm 6.999320407948e-05 
    Linear solve converged due to CONVERGED_RTOL_NORMAL iterations 26, batch 7, specie 0
    3 SNES Function norm 1.732427368138e-05 
    Linear solve converged due to CONVERGED_RTOL_NORMAL iterations 25, batch 6, specie 0
    4 SNES Function norm 4.253972630330e-06 
    Linear solve converged due to CONVERGED_RTOL_NORMAL iterations 25, batch 2, specie 0
    5 SNES Function norm 1.040597129171e-06 
    Linear solve converged due to CONVERGED_RTOL_NORMAL iterations 25, batch 1, specie 0
    6 SNES Function norm 2.541740442968e-07 
    Linear solve converged due to CONVERGED_RTOL_NORMAL iterations 25, batch 3, specie 0
    7 SNES Function norm 6.206174880451e-08 
    Linear solve converged due to CONVERGED_RTOL_NORMAL iterations 25, batch 2, specie 0
    8 SNES Function norm 1.515580443547e-08 
    Linear solve converged due to CONVERGED_RTOL_NORMAL iterations 25, batch 3, specie 0
    9 SNES Function norm 3.702463693745e-09 
    Linear solve converged due to CONVERGED_RTOL_NORMAL iterations 25, batch 1, specie 0
   10 SNES Function norm 9.048955240989e-10 
    Linear solve converged due to CONVERGED_RTOL_NORMAL iterations 25, batch 3, specie 0
   11 SNES Function norm 2.212688225980e-10 
    Linear solve converged due to CONVERGED_RTOL_NORMAL iterations 25, batch 2, specie 0
   12 SNES Function norm 5.413056358534e-11 
    Linear solve converged due to CONVERGED_RTOL_NORMAL iterations 25, batch 0, specie 0
   13 SNES Function norm 1.325085607765e-11 
    Linear solve converged due to CONVERGED_RTOL_NORMAL iterations 25, batch 3, specie 0
   14 SNES Function norm 3.246038390739e-12 
    Linear solve converged due to CONVERGED_RTOL_NORMAL iterations 25, batch 0, specie 0
   15 SNES Function norm 7.932929053018e-13 
  Nonlinear solve converged due to CONVERGED_SNORM_RELATIVE iterations 15
      TSAdapt none beuler 0: step   6 accepted t=3          + 5.000e-01 dt=5.000e-01 
7 TS dt 0.5 time 3.5
    0 SNES Function norm 1.882834043004e-03 
    Linear solve converged due to CONVERGED_RTOL_NORMAL iterations 28, batch 7, specie 0
    1 SNES Function norm 3.013054602470e-04 
    Linear solve converged due to CONVERGED_RTOL_NORMAL iterations 25, batch 0, specie 0
    2 SNES Function norm 7.515593064010e-05 
    Linear solve converged due to CONVERGED_RTOL_NORMAL iterations 25, batch 0, specie 0
    3 SNES Function norm 1.859069376833e-05 
    Linear solve converged due to CONVERGED_RTOL_NORMAL iterations 25, batch 2, specie 0
    4 SNES Function norm 4.565682378384e-06 
    Linear solve converged due to CONVERGED_RTOL_NORMAL iterations 25, batch 2, specie 0
    5 SNES Function norm 1.117567449822e-06 
    Linear solve converged due to CONVERGED_RTOL_NORMAL iterations 25, batch 4, specie 0
    6 SNES Function norm 2.732143856369e-07 
    Linear solve converged due to CONVERGED_RTOL_NORMAL iterations 25, batch 2, specie 0
    7 SNES Function norm 6.677659841214e-08 
    Linear solve converged due to CONVERGED_RTOL_NORMAL iterations 25, batch 2, specie 0
    8 SNES Function norm 1.632408989064e-08 
    Linear solve converged due to CONVERGED_RTOL_NORMAL iterations 25, batch 0, specie 0
    9 SNES Function norm 3.992097118321e-09 
    Linear solve converged due to CONVERGED_RTOL_NORMAL iterations 25, batch 1, specie 0
   10 SNES Function norm 9.767329882068e-10 
    Linear solve converged due to CONVERGED_RTOL_NORMAL iterations 25, batch 2, specie 0
   11 SNES Function norm 2.390927487446e-10 
    Linear solve converged due to CONVERGED_RTOL_NORMAL iterations 25, batch 6, specie 0
   12 SNES Function norm 5.855688925282e-11 
    Linear solve converged due to CONVERGED_RTOL_NORMAL iterations 25, batch 0, specie 0
   13 SNES Function norm 1.434688864038e-11 
    Linear solve converged due to CONVERGED_RTOL_NORMAL iterations 25, batch 1, specie 0
   14 SNES Function norm 3.518308454862e-12 
    Linear solve converged due to CONVERGED_RTOL_NORMAL iterations 25, batch 1, specie 0
   15 SNES Function norm 8.620509300036e-13 
  Nonlinear solve converged due to CONVERGED_SNORM_RELATIVE iterations 15
      TSAdapt none beuler 0: step   7 accepted t=3.5        + 5.000e-01 dt=5.000e-01 
8 TS dt 0.5 time 4.
    0 SNES Function norm 1.795972842147e-03 
    Linear solve converged due to CONVERGED_RTOL_NORMAL iterations 28, batch 5, specie 0
    1 SNES Function norm 3.147426276083e-04 
    Linear solve converged due to CONVERGED_RTOL_NORMAL iterations 25, batch 1, specie 0
    2 SNES Function norm 7.853281366854e-05 
    Linear solve converged due to CONVERGED_RTOL_NORMAL iterations 24, batch 3, specie 0
    3 SNES Function norm 1.941979961062e-05 
    Linear solve converged due to CONVERGED_RTOL_NORMAL iterations 25, batch 2, specie 0
    4 SNES Function norm 4.771118398713e-06 
    Linear solve converged due to CONVERGED_RTOL_NORMAL iterations 25, batch 1, specie 0
    5 SNES Function norm 1.168747904082e-06 
    Linear solve converged due to CONVERGED_RTOL_NORMAL iterations 25, batch 4, specie 0
    6 SNES Function norm 2.859969551248e-07 
    Linear solve converged due to CONVERGED_RTOL_NORMAL iterations 25, batch 3, specie 0
    7 SNES Function norm 6.997269575573e-08 
    Linear solve converged due to CONVERGED_RTOL_NORMAL iterations 25, batch 0, specie 0
    8 SNES Function norm 1.712365489166e-08 
    Linear solve converged due to CONVERGED_RTOL_NORMAL iterations 25, batch 1, specie 0
    9 SNES Function norm 4.192185479027e-09 
    Linear solve converged due to CONVERGED_RTOL_NORMAL iterations 25, batch 1, specie 0
   10 SNES Function norm 1.026813107653e-09 
    Linear solve converged due to CONVERGED_RTOL_NORMAL iterations 25, batch 2, specie 0
   11 SNES Function norm 2.516279950188e-10 
    Linear solve converged due to CONVERGED_RTOL_NORMAL iterations 25, batch 2, specie 0
   12 SNES Function norm 6.169518154727e-11 
    Linear solve converged due to CONVERGED_RTOL_NORMAL iterations 25, batch 2, specie 0
   13 SNES Function norm 1.513481105978e-11 
    Linear solve converged due to CONVERGED_RTOL_NORMAL iterations 25, batch 2, specie 0
   14 SNES Function norm 3.714349440749e-12 
    Linear solve converged due to CONVERGED_RTOL_NORMAL iterations 25, batch 6, specie 0
   15 SNES Function norm 9.116826361975e-13 
  Nonlinear solve converged due to CONVERGED_SNORM_RELATIVE iterations 15
      TSAdapt none beuler 0: step   8 accepted t=4          + 5.000e-01 dt=5.000e-01 
9 TS dt 0.5 time 4.5
    0 SNES Function norm 1.726122837590e-03 
    Linear solve converged due to CONVERGED_RTOL_NORMAL iterations 28, batch 5, specie 0
    1 SNES Function norm 3.220017375562e-04 
    Linear solve converged due to CONVERGED_RTOL_NORMAL iterations 25, batch 0, specie 0
    2 SNES Function norm 8.033327122186e-05 
    Linear solve converged due to CONVERGED_RTOL_NORMAL iterations 25, batch 3, specie 0
    3 SNES Function norm 1.986335640346e-05 
    Linear solve converged due to CONVERGED_RTOL_NORMAL iterations 25, batch 5, specie 0
    4 SNES Function norm 4.882665337434e-06 
    Linear solve converged due to CONVERGED_RTOL_NORMAL iterations 25, batch 2, specie 0
    5 SNES Function norm 1.197075209463e-06 
    Linear solve converged due to CONVERGED_RTOL_NORMAL iterations 25, batch 0, specie 0
    6 SNES Function norm 2.932158161789e-07 
    Linear solve converged due to CONVERGED_RTOL_NORMAL iterations 25, batch 1, specie 0
    7 SNES Function norm 7.181380464192e-08 
    Linear solve converged due to CONVERGED_RTOL_NORMAL iterations 25, batch 5, specie 0
    8 SNES Function norm 1.759309988458e-08 
    Linear solve converged due to CONVERGED_RTOL_NORMAL iterations 25, batch 0, specie 0
    9 SNES Function norm 4.311809252412e-09 
    Linear solve converged due to CONVERGED_RTOL_NORMAL iterations 25, batch 0, specie 0
   10 SNES Function norm 1.057273922898e-09 
    Linear solve converged due to CONVERGED_RTOL_NORMAL iterations 25, batch 0, specie 0
   11 SNES Function norm 2.593799660643e-10 
    Linear solve converged due to CONVERGED_RTOL_NORMAL iterations 25, batch 1, specie 0
   12 SNES Function norm 6.366732532651e-11 
    Linear solve converged due to CONVERGED_RTOL_NORMAL iterations 25, batch 1, specie 0
   13 SNES Function norm 1.563461926413e-11 
    Linear solve converged due to CONVERGED_RTOL_NORMAL iterations 25, batch 1, specie 0
   14 SNES Function norm 3.841414459223e-12 
    Linear solve converged due to CONVERGED_RTOL_NORMAL iterations 25, batch 2, specie 0
   15 SNES Function norm 9.443557074431e-13 
  Nonlinear solve converged due to CONVERGED_SNORM_RELATIVE iterations 15
      TSAdapt none beuler 0: step   9 accepted t=4.5        + 5.000e-01 dt=5.000e-01 
10 TS dt 0.5 time 5.
TS Object: 1 MPI process
  type: beuler
  maximum steps=10
  maximum time=100.
  total number of I function evaluations=169
  total number of I Jacobian evaluations=158
  total number of RHS function evaluations=169
  total number of nonlinear solver iterations=144
  total number of linear solver iterations=3620
  total number of nonlinear solve failures=0
  total number of rejected steps=0
  using relative error tolerance of 0.01,   using absolute error tolerance of 0.0001
  TSAdapt Object: 1 MPI process
    type: none
  SNES Object: 1 MPI process
    type: newtonls
    maximum iterations=50, maximum function evaluations=10000
    tolerances: relative=1e-14, absolute=1e-50, solution=1e-14
    total number of linear solver iterations=378
    total number of function evaluations=16
    norm schedule ALWAYS
    SNESLineSearch Object: 1 MPI process
      type: basic
      maxstep=1.000000e+08, minlambda=1.000000e-12
      tolerances: relative=1.000000e-08, absolute=1.000000e-15, lambda=1.000000e-08
      maximum iterations=40
    KSP Object: 1 MPI process
      type: preonly
      maximum iterations=10000, initial guess is zero
      tolerances:  relative=1e-05, absolute=1e-50, divergence=10000.
      left preconditioning
      using NONE norm type for convergence test
    PC Object: 1 MPI process
      type: bjkokkos
        Batched device linear solver: Krylov (KSP) method with Jacobi preconditioning
      		nwork = 10, rel tol = 1.000000e-08, abs tol = 1.000000e-50, div tol = 1.000000e+04, max it =100, type = tfqmr
      linear system matrix = precond matrix:
      Mat Object: Jacobian 1 MPI process
        type: seqaijkokkos
        rows=11360, cols=11360
        total: nonzeros=252320, allocated nonzeros=252320
        total number of mallocs used during MatSetValues calls=0
          using I-node routines: found 5328 nodes, limit used is 5
****************************************************************************************************************************************************************
***                                WIDEN YOUR WINDOW TO 160 CHARACTERS.  Use 'enscript -r -fCourier9' to print this document                                 ***
****************************************************************************************************************************************************************

------------------------------------------------------------------ PETSc Performance Summary: ------------------------------------------------------------------



      ##########################################################
      #                                                        #
      #                       WARNING!!!                       #
      #                                                        #
      #   This code was compiled with GPU support and you've   #
      #   created PETSc/GPU objects, but you intentionally     #
      #   used -use_gpu_aware_mpi 0, requiring PETSc to copy   #
      #   additional data between the GPU and CPU. To obtain   #
      #   meaningful timing results on multi-rank runs, use    #
      #   GPU-aware MPI instead.                               #
      #                                                        #
      ##########################################################


/gpfs/alpine/csc314/scratch/adams/batch_gmres_paper/mark/crusher/./ex2-2d on a  named crusher121 with 8 processors, by adams Fri Jul 15 09:40:41 2022
Using Petsc Development GIT revision: v3.17.3-760-g6e3d66b0f1  GIT Date: 2022-07-14 21:35:48 +0000

                         Max       Max/Min     Avg       Total
Time (sec):           1.428e+00     1.000   1.428e+00
Objects:              1.505e+04     1.000   1.505e+04
Flops:                2.696e+09     1.000   2.696e+09  2.157e+10
Flops/sec:            1.887e+09     1.000   1.887e+09  1.510e+10
MPI Msg Count:        0.000e+00     0.000   0.000e+00  0.000e+00
MPI Msg Len (bytes):  0.000e+00     0.000   0.000e+00  0.000e+00
MPI Reductions:       2.100e+01     1.000

Flop counting convention: 1 flop = 1 real number operation of type (multiply/divide/add/subtract)
                            e.g., VecAXPY() for real vectors of length N --> 2N flops
                            and VecAXPY() for complex vectors of length N --> 8N flops

Summary of Stages:   ----- Time ------  ----- Flop ------  --- Messages ---  -- Message Lengths --  -- Reductions --
                        Avg     %Total     Avg     %Total    Count   %Total     Avg         %Total    Count   %Total
 0:      Main Stage: 6.2606e-01  43.8%  3.7333e+07   0.2%  0.000e+00   0.0%  0.000e+00        0.0%  2.000e+00   9.5%
 1:          Warmup: 1.3505e-01   9.5%  1.9167e+09   8.9%  0.000e+00   0.0%  0.000e+00        0.0%  0.000e+00   0.0%
 2:           Solve: 6.6727e-01  46.7%  1.9613e+10  90.9%  0.000e+00   0.0%  0.000e+00        0.0%  0.000e+00   0.0%

------------------------------------------------------------------------------------------------------------------------
See the 'Profiling' chapter of the users' manual for details on interpreting output.
Phase summary info:
   Count: number of times phase was executed
   Time and Flop: Max - maximum over all processors
                  Ratio - ratio of maximum to minimum over all processors
   Mess: number of messages sent
   AvgLen: average message length (bytes)
   Reduct: number of global reductions
   Global: entire computation
   Stage: stages of a computation. Set stages with PetscLogStagePush() and PetscLogStagePop().
      %T - percent time in this phase         %F - percent flop in this phase
      %M - percent messages in this phase     %L - percent message lengths in this phase
      %R - percent reductions in this phase
   Total Mflop/s: 10e-6 * (sum of flop over all processors)/(max time over all processors)
   GPU Mflop/s: 10e-6 * (sum of flop on GPU over all processors)/(max GPU time over all processors)
   CpuToGpu Count: total number of CPU to GPU copies per processor
   CpuToGpu Size (Mbytes): 10e-6 * (total size of CPU to GPU copies per processor)
   GpuToCpu Count: total number of GPU to CPU copies per processor
   GpuToCpu Size (Mbytes): 10e-6 * (total size of GPU to CPU copies per processor)
   GPU %F: percent flops on GPU in this event
------------------------------------------------------------------------------------------------------------------------
Event                Count      Time (sec)     Flop                              --- Global ---  --- Stage ----  Total   GPU    - CpuToGpu -   - GpuToCpu - GPU
                   Max Ratio  Max     Ratio   Max  Ratio  Mess   AvgLen  Reduct  %T %F %M %L %R  %T %F %M %L %R Mflop/s Mflop/s Count   Size   Count   Size  %F
---------------------------------------------------------------------------------------------------------------------------------------------------------------

--- Event Stage 0: Main Stage

BuildTwoSided        135 1.0 7.9305e-05 1.2 0.00e+00 0.0 0.0e+00 0.0e+00 0.0e+00  0  0  0  0  0   0  0  0  0  0     0       0      0 0.00e+00    0 0.00e+00  0
MatMult             5340 1.0 4.9124e-04 1.0 3.77e+04 1.0 0.0e+00 0.0e+00 0.0e+00  0  0  0  0  0   0  1  0  0  0   614       0      0 0.00e+00    0 0.00e+00  0
MatLUFactor           30 1.0 2.4735e-04 1.0 8.19e+04 1.0 0.0e+00 0.0e+00 0.0e+00  0  0  0  0  0   0  2  0  0  0  2650       0      0 0.00e+00    0 0.00e+00  0
MatCopy              120 1.0 8.3575e-05 1.0 0.00e+00 0.0 0.0e+00 0.0e+00 0.0e+00  0  0  0  0  0   0  0  0  0  0     0       0      0 0.00e+00    0 0.00e+00  0
MatConvert            60 1.0 4.3312e-04 1.0 0.00e+00 0.0 0.0e+00 0.0e+00 0.0e+00  0  0  0  0  0   0  0  0  0  0     0       0      0 0.00e+00    0 0.00e+00  0
MatAssemblyBegin     725 1.0 1.0622e-04 1.2 0.00e+00 0.0 0.0e+00 0.0e+00 0.0e+00  0  0  0  0  0   0  0  0  0  0     0       0      0 0.00e+00    0 0.00e+00  0
MatAssemblyEnd       725 1.0 8.2664e-03 1.1 0.00e+00 0.0 0.0e+00 0.0e+00 0.0e+00  1  0  0  0  0   1  0  0  0  0     0       0      0 0.00e+00    0 0.00e+00  0
MatGetRowIJ           15 1.0 2.0220e-06 1.2 0.00e+00 0.0 0.0e+00 0.0e+00 0.0e+00  0  0  0  0  0   0  0  0  0  0     0       0      0 0.00e+00    0 0.00e+00  0
MatZeroEntries         6 1.0 1.1127e-04 1.1 0.00e+00 0.0 0.0e+00 0.0e+00 0.0e+00  0  0  0  0  0   0  0  0  0  0     0       0      0 0.00e+00    0 0.00e+00  0
MatMatSolve          120 1.0 4.5014e-04 1.0 9.52e+05 1.0 0.0e+00 0.0e+00 0.0e+00  0  0  0  0  0   0 20  0  0  0 16925       0      0 0.00e+00    0 0.00e+00  0
MatSetPreallCOO        1 1.0 3.4363e-02 1.0 0.00e+00 0.0 0.0e+00 0.0e+00 0.0e+00  2  0  0  0  0   5  0  0  0  0     0       0      0 0.00e+00    0 0.00e+00  0
DMConvert             18 1.0 1.1002e-03 1.0 0.00e+00 0.0 0.0e+00 0.0e+00 0.0e+00  0  0  0  0  0   0  0  0  0  0     0       0      0 0.00e+00    0 0.00e+00  0
DMCreateMat            8 1.0 1.3260e-01 1.0 0.00e+00 0.0 0.0e+00 0.0e+00 0.0e+00  9  0  0  0  0  21  0  0  0  0     0       0      0 0.00e+00    0 0.00e+00  0
DMPlexInterp         166 1.0 1.8180e-03 1.0 0.00e+00 0.0 0.0e+00 0.0e+00 0.0e+00  0  0  0  0  0   0  0  0  0  0     0       0      0 0.00e+00    0 0.00e+00  0
DMPlexStratify       233 1.0 2.1570e-03 1.0 0.00e+00 0.0 0.0e+00 0.0e+00 0.0e+00  0  0  0  0  0   0  0  0  0  0     0       0      0 0.00e+00    0 0.00e+00  0
DMPlexSymmetrize     233 1.0 1.1944e-04 1.0 0.00e+00 0.0 0.0e+00 0.0e+00 0.0e+00  0  0  0  0  0   0  0  0  0  0     0       0      0 0.00e+00    0 0.00e+00  0
DMPlexPrealloc        54 1.0 1.1562e-01 1.0 0.00e+00 0.0 0.0e+00 0.0e+00 0.0e+00  8  0  0  0  0  18  0  0  0  0     0       0      0 0.00e+00    0 0.00e+00  0
DMPlexJacobianFE       6 1.0 4.5712e-02 1.0 1.54e+06 1.0 0.0e+00 0.0e+00 0.0e+00  3  0  0  0  0   7 33  0  0  0   269       0      0 0.00e+00    0 0.00e+00  0
SFSetGraph           252 1.0 4.7713e-05 1.0 0.00e+00 0.0 0.0e+00 0.0e+00 0.0e+00  0  0  0  0  0   0  0  0  0  0     0       0      0 0.00e+00    0 0.00e+00  0
SFSetUp              135 1.0 3.7917e-04 1.1 0.00e+00 0.0 0.0e+00 0.0e+00 0.0e+00  0  0  0  0  0   0  0  0  0  0     0       0      0 0.00e+00    0 0.00e+00  0
SFBcastBegin         282 1.0 5.3668e-04 1.1 0.00e+00 0.0 0.0e+00 0.0e+00 0.0e+00  0  0  0  0  0   0  0  0  0  0     0       0      0 0.00e+00    0 0.00e+00  0
SFBcastEnd           282 1.0 9.4163e-05 1.2 0.00e+00 0.0 0.0e+00 0.0e+00 0.0e+00  0  0  0  0  0   0  0  0  0  0     0       0      0 0.00e+00    0 0.00e+00  0
SFReduceBegin         54 1.0 1.0590e-04 1.3 0.00e+00 0.0 0.0e+00 0.0e+00 0.0e+00  0  0  0  0  0   0  0  0  0  0     0       0      0 0.00e+00    0 0.00e+00  0
SFReduceEnd           54 1.0 1.5529e-05 1.0 0.00e+00 0.0 0.0e+00 0.0e+00 0.0e+00  0  0  0  0  0   0  0  0  0  0     0       0      0 0.00e+00    0 0.00e+00  0
SFCreateEmbed        108 1.0 4.9328e-04 1.1 0.00e+00 0.0 0.0e+00 0.0e+00 0.0e+00  0  0  0  0  0   0  0  0  0  0     0       0      0 0.00e+00    0 0.00e+00  0
SFSectionSF          108 1.0 2.3149e-04 1.0 0.00e+00 0.0 0.0e+00 0.0e+00 0.0e+00  0  0  0  0  0   0  0  0  0  0     0       0      0 0.00e+00    0 0.00e+00  0
SFRemoteOff          108 1.0 1.0278e-03 1.0 0.00e+00 0.0 0.0e+00 0.0e+00 0.0e+00  0  0  0  0  0   0  0  0  0  0     0       0      0 0.00e+00    0 0.00e+00  0
SFPack               336 1.0 2.4029e-05 1.1 0.00e+00 0.0 0.0e+00 0.0e+00 0.0e+00  0  0  0  0  0   0  0  0  0  0     0       0      0 0.00e+00    0 0.00e+00  0
SFUnpack             336 1.0 2.1630e-05 1.0 0.00e+00 0.0 0.0e+00 0.0e+00 0.0e+00  0  0  0  0  0   0  0  0  0  0     0       0      0 0.00e+00    0 0.00e+00  0
Landau Create          1 1.0 4.7154e-01 1.0 3.81e+06 1.0 0.0e+00 0.0e+00 0.0e+00 33  0  0  0  0  75 82  0  0  0    65       0      0 0.00e+00    0 0.00e+00  0
 GPU ass. setup        1 1.0 1.0934e-01 1.0 0.00e+00 0.0 0.0e+00 0.0e+00 0.0e+00  8  0  0  0  0  17  0  0  0  0     0       0      0 0.00e+00    0 0.00e+00  0
 Build matrix          1 1.0 3.1072e-02 1.0 6.80e+05 1.0 0.0e+00 0.0e+00 0.0e+00  2  0  0  0  0   5 15  0  0  0   175       0      0 0.00e+00    0 0.00e+00  0
 Assembly maps         1 1.0 3.3041e-01 1.0 3.12e+06 1.0 0.0e+00 0.0e+00 0.0e+00 23  0  0  0  0  53 67  0  0  0    76       0      0 0.00e+00    0 0.00e+00  0
Landau Mass mat        1 1.0 1.0618e-01 1.0 8.60e+05 1.0 0.0e+00 0.0e+00 0.0e+00  7  0  0  0  0  17 18  0  0  0    65       0      0 0.00e+00    0 0.00e+00  0
 static IP Data        1 1.0 7.6396e-04 1.2 5.38e+03 1.0 0.0e+00 0.0e+00 0.0e+00  0  0  0  0  0   0  0  0  0  0    56       0      0 0.00e+00    0 0.00e+00  0
VecCopy                1 1.0 4.3855e-05 2.9 0.00e+00 0.0 0.0e+00 0.0e+00 0.0e+00  0  0  0  0  0   0  0  0  0  0     0       0      0 0.00e+00    0 0.00e+00  0
VecSet                33 1.0 3.1175e-03 1.1 0.00e+00 0.0 0.0e+00 0.0e+00 0.0e+00  0  0  0  0  0   0  0  0  0  0     0       0      0 0.00e+00    0 0.00e+00  0
DualSpaceSetUp        28 1.0 1.5119e-02 1.0 9.92e+02 1.0 0.0e+00 0.0e+00 0.0e+00  1  0  0  0  0   2  0  0  0  0     1       0      0 0.00e+00    0 0.00e+00  0
FESetUp               40 1.0 2.2002e-03 1.0 0.00e+00 0.0 0.0e+00 0.0e+00 0.0e+00  0  0  0  0  0   0  0  0  0  0     0       0      0 0.00e+00    0 0.00e+00  0

--- Event Stage 1: Warmup

MatMult               15 1.0 6.7415e-02 1.6 7.57e+06 1.0 0.0e+00 0.0e+00 0.0e+00  3  0  0  0  0  37  3  0  0  0   898       0      0 0.00e+00    0 0.00e+00 100
MatMultAdd            15 1.0 3.1921e-03 1.4 7.57e+06 1.0 0.0e+00 0.0e+00 0.0e+00  0  0  0  0  0   2  3  0  0  0 18971       0      0 0.00e+00    0 0.00e+00 100
MatAssemblyBegin      59 1.0 5.8320e-06 1.5 0.00e+00 0.0 0.0e+00 0.0e+00 0.0e+00  0  0  0  0  0   0  0  0  0  0     0       0      0 0.00e+00    0 0.00e+00  0
MatAssemblyEnd        59 1.0 8.7203e-04 1.4 0.00e+00 0.0 0.0e+00 0.0e+00 0.0e+00  0  0  0  0  0   1  0  0  0  0     0       0      0 0.00e+00    0 0.00e+00  0
MatGetRowIJ            1 1.0 4.3379e-04 1.4 0.00e+00 0.0 0.0e+00 0.0e+00 0.0e+00  0  0  0  0  0   0  0  0  0  0     0       0      0 0.00e+00    0 0.00e+00  0
MatCreateSubMats       1 1.0 4.9154e-03 1.5 0.00e+00 0.0 0.0e+00 0.0e+00 0.0e+00  0  0  0  0  0   3  0  0  0  0     0       0      0 0.00e+00    0 0.00e+00  0
MatGetOrdering         1 1.0 1.0539e-03 1.5 0.00e+00 0.0 0.0e+00 0.0e+00 0.0e+00  0  0  0  0  0   1  0  0  0  0     0       0      0 0.00e+00    0 0.00e+00  0
MatZeroEntries        15 1.0 4.6894e-04 1.2 0.00e+00 0.0 0.0e+00 0.0e+00 0.0e+00  0  0  0  0  0   0  0  0  0  0     0       0      0 0.00e+00    0 0.00e+00  0
MatView                1 0.0 5.2843e-05 0.0 0.00e+00 0.0 0.0e+00 0.0e+00 0.0e+00  0  0  0  0  0   0  0  0  0  0     0       0      0 0.00e+00    0 0.00e+00  0
MatSetValuesCOO       29 1.0 5.9165e-03 1.4 0.00e+00 0.0 0.0e+00 0.0e+00 0.0e+00  0  0  0  0  0   3  0  0  0  0     0       0      0 0.00e+00    0 0.00e+00  0
Landau Operator       29 1.0 1.2562e-01 1.3 1.51e+07 1.0 0.0e+00 0.0e+00 0.0e+00  7  1  0  0  0  79  6  0  0  0   964       0      0 0.00e+00    0 0.00e+00 100
Landau Jacobian       15 1.0 1.1993e-01 1.3 1.51e+07 1.0 0.0e+00 0.0e+00 0.0e+00  7  1  0  0  0  75  6  0  0  0  1010       0      0 0.00e+00    0 0.00e+00 100
Landau Mass           14 1.0 5.6815e-03 1.0 0.00e+00 0.0 0.0e+00 0.0e+00 0.0e+00  0  0  0  0  0   4  0  0  0  0     0       0      0 0.00e+00    0 0.00e+00  0
 Preamble             29 1.0 3.3203e-05 1.3 0.00e+00 0.0 0.0e+00 0.0e+00 0.0e+00  0  0  0  0  0   0  0  0  0  0     0       0      0 0.00e+00    0 0.00e+00  0
 dynamic IP-Jac       30 1.0 3.4536e-05 3.3 0.00e+00 0.0 0.0e+00 0.0e+00 0.0e+00  0  0  0  0  0   0  0  0  0  0     0       0      0 0.00e+00    0 0.00e+00  0
 Kernel-init          29 1.0 1.5968e-04 1.4 0.00e+00 0.0 0.0e+00 0.0e+00 0.0e+00  0  0  0  0  0   0  0  0  0  0     0       0      0 0.00e+00    0 0.00e+00  0
 Jac-f-df (GPU)       15 1.0 5.4351e-03 1.3 0.00e+00 0.0 0.0e+00 0.0e+00 0.0e+00  0  0  0  0  0   4  0  0  0  0     0       0      0 0.00e+00    0 0.00e+00  0
 J Kernel (GPU)       15 1.0 3.7767e-02 1.0 0.00e+00 0.0 0.0e+00 0.0e+00 0.0e+00  3  0  0  0  0  28  0  0  0  0     0       0      0 0.00e+00    0 0.00e+00  0
 M Kernel (GPU)       14 1.0 4.6918e-03 1.0 0.00e+00 0.0 0.0e+00 0.0e+00 0.0e+00  0  0  0  0  0   3  0  0  0  0     0       0      0 0.00e+00    0 0.00e+00  0
VecNorm                1 1.0 5.7036e-04 1.4 2.27e+04 1.0 0.0e+00 0.0e+00 0.0e+00  0  0  0  0  0   0  0  0  0  0   319       0      0 0.00e+00    0 0.00e+00 100
VecCopy               17 1.0 3.2266e-04 1.2 0.00e+00 0.0 0.0e+00 0.0e+00 0.0e+00  0  0  0  0  0   0  0  0  0  0     0       0      0 0.00e+00    0 0.00e+00  0
VecSet                29 1.0 9.1989e-04 1.2 0.00e+00 0.0 0.0e+00 0.0e+00 0.0e+00  0  0  0  0  0   1  0  0  0  0     0       0      0 0.00e+00    0 0.00e+00  0
VecAXPY               16 1.0 8.6106e-04 1.5 3.64e+05 1.0 0.0e+00 0.0e+00 0.0e+00  0  0  0  0  0   0  0  0  0  0  3377       0      0 0.00e+00    0 0.00e+00 100
VecAXPBYCZ            16 1.0 1.1664e-03 1.2 9.09e+05 1.0 0.0e+00 0.0e+00 0.0e+00  0  0  0  0  0   1  0  0  0  0  6233       0      0 0.00e+00    0 0.00e+00 100
VecWAXPY              14 1.0 6.7190e-05 1.5 3.18e+05 1.0 0.0e+00 0.0e+00 0.0e+00  0  0  0  0  0   0  0  0  0  0 37872       0      0 0.00e+00    0 0.00e+00 100
VecReduceArith        42 1.0 1.1023e-03 1.1 9.54e+05 1.0 0.0e+00 0.0e+00 0.0e+00  0  0  0  0  0   1  0  0  0  0  6925       0      0 0.00e+00    0 0.00e+00 100
VecReduceComm         14 1.0 4.9770e-06 2.7 0.00e+00 0.0 0.0e+00 0.0e+00 0.0e+00  0  0  0  0  0   0  0  0  0  0     0       0      0 0.00e+00    0 0.00e+00  0
TSStep                 1 1.0 1.5609e-01 1.2 2.40e+08 1.0 0.0e+00 0.0e+00 0.0e+00  9  9  0  0  0 100100  0  0  0 12279       0      0 0.00e+00    0 0.00e+00 100
TSFunctionEval        15 1.0 1.2112e-01 1.3 1.55e+07 1.0 0.0e+00 0.0e+00 0.0e+00  7  1  0  0  0  76  6  0  0  0  1022       0      0 0.00e+00    0 0.00e+00 100
TSJacobianEval        14 1.0 5.6920e-03 1.0 0.00e+00 0.0 0.0e+00 0.0e+00 0.0e+00  0  0  0  0  0   4  0  0  0  0     0       0      0 0.00e+00    0 0.00e+00  0
KSPSetUp              14 1.0 9.1500e-06 2.1 0.00e+00 0.0 0.0e+00 0.0e+00 0.0e+00  0  0  0  0  0   0  0  0  0  0     0       0      0 0.00e+00    0 0.00e+00  0
KSPSolve              14 1.0 1.6855e-02 1.0 2.22e+08 1.0 0.0e+00 0.0e+00 0.0e+00  1  8  0  0  0  12 93  0  0  0 105311       0      0 0.00e+00    0 0.00e+00 100
SNESSolve              1 1.0 1.5594e-01 1.2 2.40e+08 1.0 0.0e+00 0.0e+00 0.0e+00  9  9  0  0  0 100100  0  0  0 12287       0      0 0.00e+00    0 0.00e+00 100
SNESSetUp              1 1.0 7.2210e-05 1.8 0.00e+00 0.0 0.0e+00 0.0e+00 0.0e+00  0  0  0  0  0   0  0  0  0  0     0       0      0 0.00e+00    0 0.00e+00  0
SNESFunctionEval      15 1.0 1.2209e-01 1.3 1.63e+07 1.0 0.0e+00 0.0e+00 0.0e+00  7  1  0  0  0  76  7  0  0  0  1070       0      0 0.00e+00    0 0.00e+00 100
SNESJacobianEval      14 1.0 5.7013e-03 1.0 0.00e+00 0.0 0.0e+00 0.0e+00 0.0e+00  0  0  0  0  0   4  0  0  0  0     0       0      0 0.00e+00    0 0.00e+00  0
SNESLineSearch        14 1.0 4.3965e-02 1.1 1.65e+07 1.0 0.0e+00 0.0e+00 0.0e+00  3  1  0  0  0  32  7  0  0  0  3005       0      0 0.00e+00    0 0.00e+00 100
PCSetUp               14 1.0 9.0595e-03 1.5 0.00e+00 0.0 0.0e+00 0.0e+00 0.0e+00  0  0  0  0  0   5  0  0  0  0     0       0      0 0.00e+00    0 0.00e+00  0
PCApply               14 1.0 1.6134e-02 1.0 2.22e+08 1.0 0.0e+00 0.0e+00 0.0e+00  1  8  0  0  0  12 93  0  0  0 110015       0      0 0.00e+00    0 0.00e+00 100

--- Event Stage 2: Solve

MatMult              154 1.0 2.8522e-02 1.5 7.77e+07 1.0 0.0e+00 0.0e+00 0.0e+00  2  3  0  0  0   3  3  0  0  0 21798       0      0 0.00e+00    0 0.00e+00 100
MatMultAdd           154 1.0 2.7353e-02 1.5 7.77e+07 1.0 0.0e+00 0.0e+00 0.0e+00  1  3  0  0  0   3  3  0  0  0 22729       0      0 0.00e+00    0 0.00e+00 100
MatAssemblyBegin     578 1.0 5.1945e-05 1.4 0.00e+00 0.0 0.0e+00 0.0e+00 0.0e+00  0  0  0  0  0   0  0  0  0  0     0       0      0 0.00e+00    0 0.00e+00  0
MatAssemblyEnd       578 1.0 9.8096e-05 1.3 0.00e+00 0.0 0.0e+00 0.0e+00 0.0e+00  0  0  0  0  0   0  0  0  0  0     0       0      0 0.00e+00    0 0.00e+00  0
MatZeroEntries       145 1.0 4.0935e-03 1.1 0.00e+00 0.0 0.0e+00 0.0e+00 0.0e+00  0  0  0  0  0   1  0  0  0  0     0       0      0 0.00e+00    0 0.00e+00  0
MatView                1 0.0 2.5409e-05 0.0 0.00e+00 0.0 0.0e+00 0.0e+00 0.0e+00  0  0  0  0  0   0  0  0  0  0     0       0      0 0.00e+00    0 0.00e+00  0
MatSetValuesCOO      289 1.0 1.1874e-03 1.5 0.00e+00 0.0 0.0e+00 0.0e+00 0.0e+00  0  0  0  0  0   0  0  0  0  0     0       0      0 0.00e+00    0 0.00e+00  0
Landau Operator      298 1.0 4.9196e-01 1.0 1.55e+08 1.0 0.0e+00 0.0e+00 0.0e+00 33  6  0  0  0  72  6  0  0  0  2528       0      0 0.00e+00    0 0.00e+00 100
Landau Jacobian      154 1.0 4.3585e-01 1.0 1.55e+08 1.0 0.0e+00 0.0e+00 0.0e+00 30  6  0  0  0  63  6  0  0  0  2853       0      0 0.00e+00    0 0.00e+00 100
Landau Mass          144 1.0 5.6058e-02 1.0 0.00e+00 0.0 0.0e+00 0.0e+00 0.0e+00  4  0  0  0  0   8  0  0  0  0     0       0      0 0.00e+00    0 0.00e+00  0
 Preamble            289 1.0 2.7659e-04 1.6 0.00e+00 0.0 0.0e+00 0.0e+00 0.0e+00  0  0  0  0  0   0  0  0  0  0     0       0      0 0.00e+00    0 0.00e+00  0
 dynamic IP-Jac      290 1.0 6.2364e-05 1.5 0.00e+00 0.0 0.0e+00 0.0e+00 0.0e+00  0  0  0  0  0   0  0  0  0  0     0       0      0 0.00e+00    0 0.00e+00  0
 Kernel-init         289 1.0 1.1668e-03 1.2 0.00e+00 0.0 0.0e+00 0.0e+00 0.0e+00  0  0  0  0  0   0  0  0  0  0     0       0      0 0.00e+00    0 0.00e+00  0
 Jac-f-df (GPU)      145 1.0 6.8938e-03 1.0 0.00e+00 0.0 0.0e+00 0.0e+00 0.0e+00  0  0  0  0  0   1  0  0  0  0     0       0      0 0.00e+00    0 0.00e+00  0
 J Kernel (GPU)      145 1.0 3.5913e-01 1.0 0.00e+00 0.0 0.0e+00 0.0e+00 0.0e+00 25  0  0  0  0  54  0  0  0  0     0       0      0 0.00e+00    0 0.00e+00  0
 M Kernel (GPU)      144 1.0 4.6073e-02 1.0 0.00e+00 0.0 0.0e+00 0.0e+00 0.0e+00  3  0  0  0  0   7  0  0  0  0     0       0      0 0.00e+00    0 0.00e+00  0
VecNorm               10 1.0 2.5937e-04 1.0 2.27e+05 1.0 0.0e+00 0.0e+00 0.0e+00  0  0  0  0  0   0  0  0  0  0  7007       0      0 0.00e+00    0 0.00e+00 100
VecCopy              164 1.0 2.6661e-03 1.1 0.00e+00 0.0 0.0e+00 0.0e+00 0.0e+00  0  0  0  0  0   0  0  0  0  0     0       0      0 0.00e+00    0 0.00e+00  0
VecSet               298 1.0 9.3301e-03 1.2 0.00e+00 0.0 0.0e+00 0.0e+00 0.0e+00  1  0  0  0  0   1  0  0  0  0     0       0      0 0.00e+00    0 0.00e+00  0
VecAXPY              164 1.0 6.6713e-04 1.4 3.73e+06 1.0 0.0e+00 0.0e+00 0.0e+00  0  0  0  0  0   0  0  0  0  0 44682       0      0 0.00e+00    0 0.00e+00 100
VecAXPBYCZ           164 1.0 8.3896e-04 1.6 9.32e+06 1.0 0.0e+00 0.0e+00 0.0e+00  0  0  0  0  0   0  0  0  0  0 88826       0      0 0.00e+00    0 0.00e+00 100
VecWAXPY             144 1.0 5.9370e-04 1.5 3.27e+06 1.0 0.0e+00 0.0e+00 0.0e+00  0  0  0  0  0   0  0  0  0  0 44085       0      0 0.00e+00    0 0.00e+00 100
VecReduceArith       432 1.0 1.1134e-02 1.1 9.81e+06 1.0 0.0e+00 0.0e+00 0.0e+00  1  0  0  0  0   2  0  0  0  0  7052       0      0 0.00e+00    0 0.00e+00 100
VecReduceComm        144 1.0 4.2106e-05 2.4 0.00e+00 0.0 0.0e+00 0.0e+00 0.0e+00  0  0  0  0  0   0  0  0  0  0     0       0      0 0.00e+00    0 0.00e+00  0
TSStep                10 1.0 6.8739e-01 1.0 2.45e+09 1.0 0.0e+00 0.0e+00 0.0e+00 47 91  0  0  0 100100  0  0  0 28533       0      0 0.00e+00    0 0.00e+00 100
TSFunctionEval       154 1.0 4.3900e-01 1.1 1.59e+08 1.0 0.0e+00 0.0e+00 0.0e+00 30  6  0  0  0  64  6  0  0  0  2896       0      0 0.00e+00    0 0.00e+00 100
TSJacobianEval       144 1.0 5.6147e-02 1.0 0.00e+00 0.0 0.0e+00 0.0e+00 0.0e+00  4  0  0  0  0   8  0  0  0  0     0       0      0 0.00e+00    0 0.00e+00  0
KSPSetUp             144 1.0 2.6817e-05 1.3 0.00e+00 0.0 0.0e+00 0.0e+00 0.0e+00  0  0  0  0  0   0  0  0  0  0     0       0      0 0.00e+00    0 0.00e+00  0
KSPSolve             144 1.0 1.7267e-01 1.0 2.27e+09 1.0 0.0e+00 0.0e+00 0.0e+00 12 84  0  0  0  25 93  0  0  0 105169       0      0 0.00e+00    0 0.00e+00 100
SNESSolve             10 1.0 6.8681e-01 1.0 2.45e+09 1.0 0.0e+00 0.0e+00 0.0e+00 47 91  0  0  0 100100  0  0  0 28548       0      0 0.00e+00    0 0.00e+00 100
SNESFunctionEval     154 1.0 4.3994e-01 1.1 1.68e+08 1.0 0.0e+00 0.0e+00 0.0e+00 30  6  0  0  0  64  7  0  0  0  3049       0      0 0.00e+00    0 0.00e+00 100
SNESJacobianEval     144 1.0 5.6224e-02 1.0 0.00e+00 0.0 0.0e+00 0.0e+00 0.0e+00  4  0  0  0  0   8  0  0  0  0     0       0      0 0.00e+00    0 0.00e+00  0
SNESLineSearch       144 1.0 4.4749e-01 1.0 1.70e+08 1.0 0.0e+00 0.0e+00 0.0e+00 30  6  0  0  0  65  7  0  0  0  3037       0      0 0.00e+00    0 0.00e+00 100
PCSetUp              144 1.0 6.6231e-04 1.4 0.00e+00 0.0 0.0e+00 0.0e+00 0.0e+00  0  0  0  0  0   0  0  0  0  0     0       0      0 0.00e+00    0 0.00e+00  0
PCApply              144 1.0 1.6546e-01 1.0 2.27e+09 1.0 0.0e+00 0.0e+00 0.0e+00 11 84  0  0  0  24 93  0  0  0 109752       0      0 0.00e+00    0 0.00e+00 100
---------------------------------------------------------------------------------------------------------------------------------------------------------------

Object Type          Creations   Destructions. Reports information only for process 0.

--- Event Stage 0: Main Stage

           Container   254            254
    Distributed Mesh   629            629
            DM Label  1327           1327
          Quadrature  1029           1029
              Matrix   760            760
           Index Set  3911           3911
   IS L to G Mapping    59             59
             Section  2377           2377
    Section Symmetry    80             80
   Star Forest Graph  1501           1501
     Discrete System  1048           1048
           Weak Form  1048           1048
    GraphPartitioner   242            242
              Vector   344            375
       p4est logging     1              0
        Linear Space    86             86
          Dual Space   240            240
            FE Space    40             40
       Field over DM    18             18
             TSAdapt     1              1
                  TS     1              1
                DMTS     1              1
                SNES     1              1
              DMSNES     3              3
      SNESLineSearch     1              1
       Krylov Solver     1              2
     DMKSP interface     0              1
      Preconditioner     1              2
              Viewer     2              1

--- Event Stage 1: Warmup

              Matrix     1              1
           Index Set     5              5
              Vector    31              0
       Krylov Solver     1              0
     DMKSP interface     1              0
      Preconditioner     1              0

--- Event Stage 2: Solve

========================================================================================================================
Average time to get PetscTime(): 3.91e-08
Average time for MPI_Barrier(): 2.7674e-06
Average time for zero size MPI_Send(): 1.92798e-05
#PETSc Option Table entries:
-dim 2
-dm_landau_amr_levels_max 2,2,2
-dm_landau_batch_size 8
-dm_landau_coo_assembly
-dm_landau_device_type kokkos
-dm_landau_Ez 0
-dm_landau_ion_charges 1,2,3,4,5,6,7,8,9
-dm_landau_ion_masses 2,182,182,182,182,182,182,182,182
-dm_landau_n 1.0000044,1,1e-7,1e-7,1e-7,1e-7,1e-7,1e-7,1e-7,1e-7
-dm_landau_num_species_grid 1,1,8
-dm_landau_thermal_temps 2,1,1,1,1,1,1,1,1,1
-dm_landau_type p4est
-dm_landau_verbose 1
-dm_mat_type aijkokkos
-dm_preallocate_only false
-dm_vec_type kokkos
-ex2_test_type none
-ksp_type preonly
-log_view
-pc_bjkokkos_ksp_converged_reason
-pc_bjkokkos_ksp_max_it 100
-pc_bjkokkos_ksp_rtol 1.e-8
-pc_bjkokkos_ksp_type tfqmr
-pc_bjkokkos_pc_type jacobi
-pc_type bjkokkos
-petscspace_degree 3
-snes_converged_reason
-snes_linesearch_type basic
-snes_max_it 50
-snes_monitor
-snes_rtol 1e-14
-snes_stol 1e-14
-ts_adapt_clip .5,1.1
-ts_adapt_dt_max 1
-ts_adapt_monitor
-ts_adapt_scale_solve_failed 0.5
-ts_adapt_time_step_increase_delay 5
-ts_dt .5
-ts_exact_final_time stepover
-ts_max_snes_failures -1
-ts_max_steps 10
-ts_max_time 100
-ts_monitor
-ts_rtol 1e-2
-ts_type beuler
-ts_view
-use_gpu_aware_mpi 0
#End of PETSc Option Table entries
Compiled without FORTRAN kernels
Compiled with full precision matrices (default)
sizeof(short) 2 sizeof(int) 4 sizeof(long) 8 sizeof(void*) 8 sizeof(PetscScalar) 8 sizeof(PetscInt) 4
Configure options: --with-cc=cc --with-cxx=CC --with-fc=ftn LIBS="-L/opt/cray/pe/mpich/8.1.16/gtl/lib -lmpi_gtl_hsa" --with-debugging=0 --COPTFLAGS="-g -ggdb -O -DLAND_SUPPORT_CPU_ASSXXX" --CXXOPTFLAGS="-g -ggdb -O -DLAND_SUPPORT_CPU_ASSXXX" --FOPTFLAGS=-g --with-dmlandau-2d --with-mpiexec="srun --gpu-bind=closest" --with-hip --with-hipc=hipcc --download-hypre --download-kokkos --download-kokkos-kernels --with-kokkos-kernels-tpl=1 --download-p4est=1 --with-zlib-dir=/sw/crusher/spack-envs/base/opt/cray-sles15-zen3/clang-14.0.0-rocm5.1.0/zlib-1.2.11-j3ogymf5vmwlxvblzxxqdkrjkdvfccyx --prefix=/gpfs/alpine/world-shared/geo127/petsc/arch-crusher-opt-amd PETSC_ARCH=arch-olcf-crusher-kokkos
-----------------------------------------
Libraries compiled on 2022-07-14 23:12:22 on login2 
Machine characteristics: Linux-5.3.18-150300.59.68_11.0.76-cray_shasta_c-x86_64-with-glibc2.3.4
Using PETSc directory: /gpfs/alpine/world-shared/geo127/petsc/arch-crusher-opt-amd
Using PETSc arch: 
-----------------------------------------

Using C compiler: cc  -fPIC -g -ggdb -O -DLAND_SUPPORT_CPU_ASSXXX   
Using Fortran compiler: ftn  -fPIC -g     
-----------------------------------------

Using include paths: -I/gpfs/alpine/world-shared/geo127/petsc/arch-crusher-opt-amd/include -I/sw/crusher/spack-envs/base/opt/cray-sles15-zen3/clang-14.0.0-rocm5.1.0/zlib-1.2.11-j3ogymf5vmwlxvblzxxqdkrjkdvfccyx/include -I/opt/rocm-5.1.0/include
-----------------------------------------

Using C linker: cc
Using Fortran linker: ftn
Using libraries: -Wl,-rpath,/gpfs/alpine/world-shared/geo127/petsc/arch-crusher-opt-amd/lib -L/gpfs/alpine/world-shared/geo127/petsc/arch-crusher-opt-amd/lib -lpetsc -Wl,-rpath,/gpfs/alpine/world-shared/geo127/petsc/arch-crusher-opt-amd/lib -L/gpfs/alpine/world-shared/geo127/petsc/arch-crusher-opt-amd/lib -Wl,-rpath,/sw/crusher/spack-envs/base/opt/cray-sles15-zen3/clang-14.0.0-rocm5.1.0/zlib-1.2.11-j3ogymf5vmwlxvblzxxqdkrjkdvfccyx/lib -L/sw/crusher/spack-envs/base/opt/cray-sles15-zen3/clang-14.0.0-rocm5.1.0/zlib-1.2.11-j3ogymf5vmwlxvblzxxqdkrjkdvfccyx/lib -Wl,-rpath,/opt/rocm-5.1.0/lib -L/opt/rocm-5.1.0/lib -Wl,-rpath,/opt/cray/pe/mpich/8.1.16/gtl/lib -L/opt/cray/pe/mpich/8.1.16/gtl/lib -Wl,-rpath,/opt/cray/pe/mpich/8.1.16/ofi/amd/5.0/lib -L/opt/cray/pe/mpich/8.1.16/ofi/amd/5.0/lib -Wl,-rpath,/opt/cray/pe/libsci/21.08.1.2/AMD/4.0/x86_64/lib -L/opt/cray/pe/libsci/21.08.1.2/AMD/4.0/x86_64/lib -Wl,-rpath,/opt/cray/pe/dsmml/0.2.2/dsmml/lib -L/opt/cray/pe/dsmml/0.2.2/dsmml/lib -Wl,-rpath,/opt/cray/pe/pmi/6.1.2/lib -L/opt/cray/pe/pmi/6.1.2/lib -Wl,-rpath,/opt/cray/xpmem/2.4.4-2.3_2.12__gff0e1d9.shasta/lib64 -L/opt/cray/xpmem/2.4.4-2.3_2.12__gff0e1d9.shasta/lib64 -Wl,-rpath,/usr/lib64/gcc/x86_64-suse-linux/7 -L/usr/lib64/gcc/x86_64-suse-linux/7 -Wl,-rpath,/usr/x86_64-suse-linux/lib -L/usr/x86_64-suse-linux/lib -Wl,-rpath,/opt/rocm-5.1.0/llvm/lib -L/opt/rocm-5.1.0/llvm/lib -lHYPRE -lkokkoskernels -lkokkoscontainers -lkokkoscore -lp4est -lsc -lpthread -lm -lz -lX11 -lhipsparse -lhipblas -lrocsparse -lrocsolver -lrocblas -lrocrand -lamdhip64 -lstdc++ -ldl -lmpi_gtl_hsa -lsci_amd_mpi -lsci_amd -lmpifort_amd -lmpi_amd -ldsmml -lpmi -lpmi2 -lxpmem -lflangmain -lpgmath -lflang -lflangrti -lompstub -lm -lrt -lpthread -lgcc_s -lstdc++ -ldl -lmpi_gtl_hsa
-----------------------------------------



      ##########################################################
      #                                                        #
      #                       WARNING!!!                       #
      #                                                        #
      #   This code was compiled with GPU support and you've   #
      #   created PETSc/GPU objects, but you intentionally     #
      #   used -use_gpu_aware_mpi 0, requiring PETSc to copy   #
      #   additional data between the GPU and CPU. To obtain   #
      #   meaningful timing results on multi-rank runs, use    #
      #   GPU-aware MPI instead.                               #
      #                                                        #
      ##########################################################


