masses:        e= 9.109e-31; ions in proton mass units:    2.000e+00  1.820e+02 ...
charges:       e=-1.602e-19; charges in elementary units:  1.000e+00  2.000e+00
n:             e:  1.000e+00                           i:  1.000e+00  1.000e-07
thermal T (K): e= 2.321e+07 i= 1.160e+07  1.160e+07. v_0= 1.876e+07 ( 6.256e-02c) n_0= 1.000e+20 t_0= 1.637e-05, classical, Intuitive, 512 batched
Domain radius (AMR levels) grid 0:  5.000e+00 (2) , 1:  5.835e-02 (2) , 2:  6.117e-03 (2) 
Using default Plex order for all matrices
0) FormLandau 672 IPs, 42 cells total, Nb=16, Nq=16, dim=2, Tab: Nb=16 Nf=10 Np=16 cdim=2 N=727040
0 TS dt 0.5 time 0.
    0 SNES Function norm 1.484959562804e-01 
    Linear solve converged due to CONVERGED_RTOL_NORMAL iterations 24, batch 294, specie 0
    1 SNES Function norm 1.593745454537e-03 
    Linear solve converged due to CONVERGED_RTOL_NORMAL iterations 27, batch 0, specie 0
    2 SNES Function norm 2.335093861584e-04 
    Linear solve converged due to CONVERGED_RTOL_NORMAL iterations 26, batch 0, specie 0
    3 SNES Function norm 6.116293264954e-05 
    Linear solve converged due to CONVERGED_RTOL_NORMAL iterations 25, batch 0, specie 0
    4 SNES Function norm 1.528510111663e-05 
    Linear solve converged due to CONVERGED_RTOL_NORMAL iterations 26, batch 414, specie 0
    5 SNES Function norm 3.754958102391e-06 
    Linear solve converged due to CONVERGED_RTOL_NORMAL iterations 25, batch 2, specie 0
    6 SNES Function norm 9.174288869273e-07 
    Linear solve converged due to CONVERGED_RTOL_NORMAL iterations 25, batch 5, specie 0
    7 SNES Function norm 2.237871646362e-07 
    Linear solve converged due to CONVERGED_RTOL_NORMAL iterations 25, batch 6, specie 0
    8 SNES Function norm 5.457096864602e-08 
    Linear solve converged due to CONVERGED_RTOL_NORMAL iterations 25, batch 10, specie 0
    9 SNES Function norm 1.330964147141e-08 
    Linear solve converged due to CONVERGED_RTOL_NORMAL iterations 26, batch 191, specie 0
   10 SNES Function norm 3.247388838896e-09 
    Linear solve converged due to CONVERGED_RTOL_NORMAL iterations 26, batch 504, specie 0
   11 SNES Function norm 7.926824052011e-10 
    Linear solve converged due to CONVERGED_RTOL_NORMAL iterations 25, batch 10, specie 0
   12 SNES Function norm 1.935843194706e-10 
    Linear solve converged due to CONVERGED_RTOL_NORMAL iterations 25, batch 1, specie 0
   13 SNES Function norm 4.729897191625e-11 
    Linear solve converged due to CONVERGED_RTOL_NORMAL iterations 25, batch 2, specie 0
   14 SNES Function norm 1.156178531086e-11 
  Nonlinear solve converged due to CONVERGED_SNORM_RELATIVE iterations 14
      TSAdapt none beuler 0: step   0 accepted t=0          + 5.000e-01 dt=5.000e-01 
1 TS dt 0.5 time 0.5
TS Object: 1 MPI process
  type: beuler
  maximum steps=1
  maximum time=100.
  total number of I function evaluations=15
  total number of I Jacobian evaluations=14
  total number of RHS function evaluations=15
  total number of nonlinear solver iterations=14
  total number of linear solver iterations=355
  total number of nonlinear solve failures=0
  total number of rejected steps=0
  using relative error tolerance of 0.01,   using absolute error tolerance of 0.0001
  TSAdapt Object: 1 MPI process
    type: none
  SNES Object: 1 MPI process
    type: newtonls
    maximum iterations=50, maximum function evaluations=10000
    tolerances: relative=1e-14, absolute=1e-50, solution=1e-14
    total number of linear solver iterations=355
    total number of function evaluations=15
    norm schedule ALWAYS
    SNESLineSearch Object: 1 MPI process
      type: basic
      maxstep=1.000000e+08, minlambda=1.000000e-12
      tolerances: relative=1.000000e-08, absolute=1.000000e-15, lambda=1.000000e-08
      maximum iterations=40
    KSP Object: 1 MPI process
      type: preonly
      maximum iterations=10000, initial guess is zero
      tolerances:  relative=1e-05, absolute=1e-50, divergence=10000.
      left preconditioning
      using NONE norm type for convergence test
    PC Object: 1 MPI process
      type: bjkokkos
        Batched device linear solver: Krylov (KSP) method with Jacobi preconditioning
      		nwork = 10, rel tol = 1.000000e-08, abs tol = 1.000000e-50, div tol = 1.000000e+04, max it =100, type = tfqmr
      linear system matrix = precond matrix:
      Mat Object: Jacobian 1 MPI process
        type: seqaijkokkos
        rows=727040, cols=727040
        total: nonzeros=16148480, allocated nonzeros=16148480
        total number of mallocs used during MatSetValues calls=0
          using I-node routines: found 340992 nodes, limit used is 5
0 TS dt 0.5 time 0.
    0 SNES Function norm 1.484959562804e-01 
    Linear solve converged due to CONVERGED_RTOL_NORMAL iterations 24, batch 294, specie 0
    1 SNES Function norm 1.593745454537e-03 
    Linear solve converged due to CONVERGED_RTOL_NORMAL iterations 27, batch 0, specie 0
    2 SNES Function norm 2.335093861584e-04 
    Linear solve converged due to CONVERGED_RTOL_NORMAL iterations 26, batch 0, specie 0
    3 SNES Function norm 6.116293264954e-05 
    Linear solve converged due to CONVERGED_RTOL_NORMAL iterations 25, batch 0, specie 0
    4 SNES Function norm 1.528510111663e-05 
    Linear solve converged due to CONVERGED_RTOL_NORMAL iterations 26, batch 414, specie 0
    5 SNES Function norm 3.754958102391e-06 
    Linear solve converged due to CONVERGED_RTOL_NORMAL iterations 25, batch 2, specie 0
    6 SNES Function norm 9.174288869273e-07 
    Linear solve converged due to CONVERGED_RTOL_NORMAL iterations 25, batch 5, specie 0
    7 SNES Function norm 2.237871646362e-07 
    Linear solve converged due to CONVERGED_RTOL_NORMAL iterations 25, batch 6, specie 0
    8 SNES Function norm 5.457096864602e-08 
    Linear solve converged due to CONVERGED_RTOL_NORMAL iterations 25, batch 10, specie 0
    9 SNES Function norm 1.330964147141e-08 
    Linear solve converged due to CONVERGED_RTOL_NORMAL iterations 26, batch 191, specie 0
   10 SNES Function norm 3.247388838896e-09 
    Linear solve converged due to CONVERGED_RTOL_NORMAL iterations 26, batch 504, specie 0
   11 SNES Function norm 7.926824052011e-10 
    Linear solve converged due to CONVERGED_RTOL_NORMAL iterations 25, batch 10, specie 0
   12 SNES Function norm 1.935843194706e-10 
    Linear solve converged due to CONVERGED_RTOL_NORMAL iterations 25, batch 1, specie 0
   13 SNES Function norm 4.729897191625e-11 
    Linear solve converged due to CONVERGED_RTOL_NORMAL iterations 25, batch 2, specie 0
   14 SNES Function norm 1.156178531086e-11 
  Nonlinear solve converged due to CONVERGED_SNORM_RELATIVE iterations 14
      TSAdapt none beuler 0: step   0 accepted t=0          + 5.000e-01 dt=5.000e-01 
1 TS dt 0.5 time 0.5
    0 SNES Function norm 5.078609037274e-02 
    Linear solve converged due to CONVERGED_RTOL_NORMAL iterations 26, batch 12, specie 0
    1 SNES Function norm 1.109932701709e-03 
    Linear solve converged due to CONVERGED_RTOL_NORMAL iterations 26, batch 313, specie 0
    2 SNES Function norm 2.198342441655e-04 
    Linear solve converged due to CONVERGED_RTOL_NORMAL iterations 29, batch 449, specie 0
    3 SNES Function norm 5.491272610344e-05 
    Linear solve converged due to CONVERGED_RTOL_NORMAL iterations 25, batch 0, specie 0
    4 SNES Function norm 1.362002629544e-05 
    Linear solve converged due to CONVERGED_RTOL_NORMAL iterations 25, batch 2, specie 0
    5 SNES Function norm 3.347043023514e-06 
    Linear solve converged due to CONVERGED_RTOL_NORMAL iterations 25, batch 1, specie 0
    6 SNES Function norm 8.189231374776e-07 
    Linear solve converged due to CONVERGED_RTOL_NORMAL iterations 26, batch 260, specie 0
    7 SNES Function norm 2.000222440636e-07 
    Linear solve converged due to CONVERGED_RTOL_NORMAL iterations 25, batch 4, specie 0
    8 SNES Function norm 4.883233695686e-08 
    Linear solve converged due to CONVERGED_RTOL_NORMAL iterations 25, batch 1, specie 0
    9 SNES Function norm 1.192262877024e-08 
    Linear solve converged due to CONVERGED_RTOL_NORMAL iterations 25, batch 0, specie 0
   10 SNES Function norm 2.911898449830e-09 
    Linear solve converged due to CONVERGED_RTOL_NORMAL iterations 26, batch 186, specie 0
   11 SNES Function norm 7.114814756886e-10 
    Linear solve converged due to CONVERGED_RTOL_NORMAL iterations 25, batch 0, specie 0
   12 SNES Function norm 1.739215854474e-10 
    Linear solve converged due to CONVERGED_RTOL_NORMAL iterations 26, batch 180, specie 0
   13 SNES Function norm 4.253456564380e-11 
    Linear solve converged due to CONVERGED_RTOL_NORMAL iterations 25, batch 0, specie 0
   14 SNES Function norm 1.040705255312e-11 
  Nonlinear solve converged due to CONVERGED_SNORM_RELATIVE iterations 14
      TSAdapt none beuler 0: step   1 accepted t=0.5        + 5.000e-01 dt=5.000e-01 
2 TS dt 0.5 time 1.
    0 SNES Function norm 3.281223577848e-02 
    Linear solve converged due to CONVERGED_RTOL_NORMAL iterations 28, batch 2, specie 0
    1 SNES Function norm 1.257761409746e-03 
    Linear solve converged due to CONVERGED_RTOL_NORMAL iterations 27, batch 0, specie 0
    2 SNES Function norm 2.801586311489e-04 
    Linear solve converged due to CONVERGED_RTOL_NORMAL iterations 26, batch 465, specie 0
    3 SNES Function norm 6.978076250242e-05 
    Linear solve converged due to CONVERGED_RTOL_NORMAL iterations 25, batch 0, specie 0
    4 SNES Function norm 1.725913929459e-05 
    Linear solve converged due to CONVERGED_RTOL_NORMAL iterations 25, batch 9, specie 0
    5 SNES Function norm 4.238251790762e-06 
    Linear solve converged due to CONVERGED_RTOL_NORMAL iterations 25, batch 0, specie 0
    6 SNES Function norm 1.037163761233e-06 
    Linear solve converged due to CONVERGED_RTOL_NORMAL iterations 26, batch 241, specie 0
    7 SNES Function norm 2.534713459623e-07 
    Linear solve converged due to CONVERGED_RTOL_NORMAL iterations 25, batch 2, specie 0
    8 SNES Function norm 6.192645650219e-08 
    Linear solve converged due to CONVERGED_RTOL_NORMAL iterations 25, batch 0, specie 0
    9 SNES Function norm 1.513176061051e-08 
    Linear solve converged due to CONVERGED_RTOL_NORMAL iterations 25, batch 0, specie 0
   10 SNES Function norm 3.698750299173e-09 
    Linear solve converged due to CONVERGED_RTOL_NORMAL iterations 25, batch 3, specie 0
   11 SNES Function norm 9.045005132564e-10 
    Linear solve converged due to CONVERGED_RTOL_NORMAL iterations 25, batch 15, specie 0
   12 SNES Function norm 2.212915851128e-10 
    Linear solve converged due to CONVERGED_RTOL_NORMAL iterations 25, batch 2, specie 0
   13 SNES Function norm 5.416666396930e-11 
    Linear solve converged due to CONVERGED_RTOL_NORMAL iterations 26, batch 487, specie 0
   14 SNES Function norm 1.326445974604e-11 
  Nonlinear solve converged due to CONVERGED_SNORM_RELATIVE iterations 14
      TSAdapt none beuler 0: step   2 accepted t=1          + 5.000e-01 dt=5.000e-01 
3 TS dt 0.5 time 1.5
    0 SNES Function norm 2.464247200065e-02 
    Linear solve converged due to CONVERGED_RTOL_NORMAL iterations 25, batch 502, specie 0
    1 SNES Function norm 1.514907603274e-03 
    Linear solve converged due to CONVERGED_RTOL_NORMAL iterations 27, batch 100, specie 0
    2 SNES Function norm 3.618738621583e-04 
    Linear solve converged due to CONVERGED_RTOL_NORMAL iterations 25, batch 0, specie 0
    3 SNES Function norm 9.018521540330e-05 
    Linear solve converged due to CONVERGED_RTOL_NORMAL iterations 25, batch 27, specie 0
    4 SNES Function norm 2.226961824855e-05 
    Linear solve converged due to CONVERGED_RTOL_NORMAL iterations 26, batch 453, specie 0
    5 SNES Function norm 5.465486711450e-06 
    Linear solve converged due to CONVERGED_RTOL_NORMAL iterations 25, batch 4, specie 0
    6 SNES Function norm 1.337673188647e-06 
    Linear solve converged due to CONVERGED_RTOL_NORMAL iterations 25, batch 2, specie 0
    7 SNES Function norm 3.270769585679e-07 
    Linear solve converged due to CONVERGED_RTOL_NORMAL iterations 25, batch 0, specie 0
    8 SNES Function norm 7.996304293271e-08 
    Linear solve converged due to CONVERGED_RTOL_NORMAL iterations 26, batch 178, specie 0
    9 SNES Function norm 1.955366553038e-08 
    Linear solve converged due to CONVERGED_RTOL_NORMAL iterations 25, batch 0, specie 0
   10 SNES Function norm 4.783381245957e-09 
    Linear solve converged due to CONVERGED_RTOL_NORMAL iterations 26, batch 170, specie 0
   11 SNES Function norm 1.170677523612e-09 
    Linear solve converged due to CONVERGED_RTOL_NORMAL iterations 25, batch 11, specie 0
   12 SNES Function norm 2.866458606389e-10 
    Linear solve converged due to CONVERGED_RTOL_NORMAL iterations 25, batch 1, specie 0
   13 SNES Function norm 7.022080930247e-11 
    Linear solve converged due to CONVERGED_RTOL_NORMAL iterations 25, batch 0, specie 0
   14 SNES Function norm 1.720831437217e-11 
  Nonlinear solve converged due to CONVERGED_SNORM_RELATIVE iterations 14
      TSAdapt none beuler 0: step   3 accepted t=1.5        + 5.000e-01 dt=5.000e-01 
4 TS dt 0.5 time 2.
    0 SNES Function norm 2.025536174235e-02 
    Linear solve converged due to CONVERGED_RTOL_NORMAL iterations 27, batch 294, specie 0
    1 SNES Function norm 1.804006240827e-03 
    Linear solve converged due to CONVERGED_RTOL_NORMAL iterations 27, batch 226, specie 0
    2 SNES Function norm 4.440285516612e-04 
    Linear solve converged due to CONVERGED_RTOL_NORMAL iterations 25, batch 2, specie 0
    3 SNES Function norm 1.105641670687e-04 
    Linear solve converged due to CONVERGED_RTOL_NORMAL iterations 25, batch 2, specie 0
    4 SNES Function norm 2.727181057240e-05 
    Linear solve converged due to CONVERGED_RTOL_NORMAL iterations 25, batch 3, specie 0
    5 SNES Function norm 6.691955474357e-06 
    Linear solve converged due to CONVERGED_RTOL_NORMAL iterations 25, batch 1, specie 0
    6 SNES Function norm 1.638467639083e-06 
    Linear solve converged due to CONVERGED_RTOL_NORMAL iterations 25, batch 1, specie 0
    7 SNES Function norm 4.008846633341e-07 
    Linear solve converged due to CONVERGED_RTOL_NORMAL iterations 25, batch 5, specie 0
    8 SNES Function norm 9.808336951947e-08 
    Linear solve converged due to CONVERGED_RTOL_NORMAL iterations 25, batch 0, specie 0
    9 SNES Function norm 2.400470804628e-08 
    Linear solve converged due to CONVERGED_RTOL_NORMAL iterations 25, batch 2, specie 0
   10 SNES Function norm 5.877301727835e-09 
    Linear solve converged due to CONVERGED_RTOL_NORMAL iterations 26, batch 507, specie 0
   11 SNES Function norm 1.439665118461e-09 
    Linear solve converged due to CONVERGED_RTOL_NORMAL iterations 25, batch 0, specie 0
   12 SNES Function norm 3.528213705135e-10 
    Linear solve converged due to CONVERGED_RTOL_NORMAL iterations 25, batch 34, specie 0
   13 SNES Function norm 8.650878599231e-11 
    Linear solve converged due to CONVERGED_RTOL_NORMAL iterations 25, batch 4, specie 0
   14 SNES Function norm 2.122147785162e-11 
  Nonlinear solve converged due to CONVERGED_SNORM_RELATIVE iterations 14
      TSAdapt none beuler 0: step   4 accepted t=2          + 5.000e-01 dt=5.000e-01 
5 TS dt 0.5 time 2.5
    0 SNES Function norm 1.772371575351e-02 
    Linear solve converged due to CONVERGED_RTOL_NORMAL iterations 27, batch 366, specie 0
    1 SNES Function norm 2.071902289677e-03 
    Linear solve converged due to CONVERGED_RTOL_NORMAL iterations 28, batch 459, specie 0
    2 SNES Function norm 5.159754781458e-04 
    Linear solve converged due to CONVERGED_RTOL_NORMAL iterations 25, batch 2, specie 0
    3 SNES Function norm 1.283278412134e-04 
    Linear solve converged due to CONVERGED_RTOL_NORMAL iterations 25, batch 11, specie 0
    4 SNES Function norm 3.163510547331e-05 
    Linear solve converged due to CONVERGED_RTOL_NORMAL iterations 26, batch 339, specie 0
    5 SNES Function norm 7.764101978073e-06 
    Linear solve converged due to CONVERGED_RTOL_NORMAL iterations 25, batch 0, specie 0
    6 SNES Function norm 1.902122053127e-06 
    Linear solve converged due to CONVERGED_RTOL_NORMAL iterations 25, batch 1, specie 0
    7 SNES Function norm 4.657658430161e-07 
    Linear solve converged due to CONVERGED_RTOL_NORMAL iterations 25, batch 9, specie 0
    8 SNES Function norm 1.140593436034e-07 
    Linear solve converged due to CONVERGED_RTOL_NORMAL iterations 26, batch 158, specie 0
    9 SNES Function norm 2.794074706645e-08 
    Linear solve converged due to CONVERGED_RTOL_NORMAL iterations 25, batch 6, specie 0
   10 SNES Function norm 6.847550379272e-09 
    Linear solve converged due to CONVERGED_RTOL_NORMAL iterations 25, batch 6, specie 0
   11 SNES Function norm 1.678960520019e-09 
    Linear solve converged due to CONVERGED_RTOL_NORMAL iterations 25, batch 1, specie 0
   12 SNES Function norm 4.118689841328e-10 
    Linear solve converged due to CONVERGED_RTOL_NORMAL iterations 25, batch 0, specie 0
   13 SNES Function norm 1.010852205163e-10 
    Linear solve converged due to CONVERGED_RTOL_NORMAL iterations 26, batch 508, specie 0
   14 SNES Function norm 2.482162584168e-11 
  Nonlinear solve converged due to CONVERGED_SNORM_RELATIVE iterations 14
      TSAdapt none beuler 0: step   5 accepted t=2.5        + 5.000e-01 dt=5.000e-01 
6 TS dt 0.5 time 3.
    0 SNES Function norm 1.619291536532e-02 
    Linear solve converged due to CONVERGED_RTOL_NORMAL iterations 26, batch 225, specie 0
    1 SNES Function norm 2.291905607785e-03 
    Linear solve converged due to CONVERGED_RTOL_NORMAL iterations 26, batch 381, specie 0
    2 SNES Function norm 5.732493861470e-04 
    Linear solve converged due to CONVERGED_RTOL_NORMAL iterations 26, batch 382, specie 0
    3 SNES Function norm 1.424355963661e-04 
    Linear solve converged due to CONVERGED_RTOL_NORMAL iterations 25, batch 1, specie 0
    4 SNES Function norm 3.510761669719e-05 
    Linear solve converged due to CONVERGED_RTOL_NORMAL iterations 26, batch 304, specie 0
    5 SNES Function norm 8.620343228568e-06 
    Linear solve converged due to CONVERGED_RTOL_NORMAL iterations 26, batch 212, specie 0
    6 SNES Function norm 2.113522785685e-06 
    Linear solve converged due to CONVERGED_RTOL_NORMAL iterations 25, batch 1, specie 0
    7 SNES Function norm 5.180049179335e-07 
    Linear solve converged due to CONVERGED_RTOL_NORMAL iterations 25, batch 1, specie 0
    8 SNES Function norm 1.269766394518e-07 
    Linear solve converged due to CONVERGED_RTOL_NORMAL iterations 25, batch 6, specie 0
    9 SNES Function norm 3.113663702359e-08 
    Linear solve converged due to CONVERGED_RTOL_NORMAL iterations 25, batch 1, specie 0
   10 SNES Function norm 7.638659450400e-09 
    Linear solve converged due to CONVERGED_RTOL_NORMAL iterations 26, batch 144, specie 0
   11 SNES Function norm 1.874887162632e-09 
    Linear solve converged due to CONVERGED_RTOL_NORMAL iterations 25, batch 0, specie 0
   12 SNES Function norm 4.604121364615e-10 
    Linear solve converged due to CONVERGED_RTOL_NORMAL iterations 25, batch 0, specie 0
   13 SNES Function norm 1.131193618662e-10 
    Linear solve converged due to CONVERGED_RTOL_NORMAL iterations 25, batch 4, specie 0
   14 SNES Function norm 2.780751955842e-11 
    Linear solve converged due to CONVERGED_RTOL_NORMAL iterations 26, batch 267, specie 0
   15 SNES Function norm 6.837988989623e-12 
  Nonlinear solve converged due to CONVERGED_SNORM_RELATIVE iterations 15
      TSAdapt none beuler 0: step   6 accepted t=3          + 5.000e-01 dt=5.000e-01 
7 TS dt 0.5 time 3.5
    0 SNES Function norm 1.520816179436e-02 
    Linear solve converged due to CONVERGED_RTOL_NORMAL iterations 28, batch 389, specie 0
    1 SNES Function norm 2.455119054718e-03 
    Linear solve converged due to CONVERGED_RTOL_NORMAL iterations 25, batch 0, specie 0
    2 SNES Function norm 6.149346270811e-04 
    Linear solve converged due to CONVERGED_RTOL_NORMAL iterations 25, batch 0, specie 0
    3 SNES Function norm 1.526969498590e-04 
    Linear solve converged due to CONVERGED_RTOL_NORMAL iterations 26, batch 481, specie 0
    4 SNES Function norm 3.764299351819e-05 
    Linear solve converged due to CONVERGED_RTOL_NORMAL iterations 25, batch 9, specie 0
    5 SNES Function norm 9.248890706558e-06 
    Linear solve converged due to CONVERGED_RTOL_NORMAL iterations 25, batch 4, specie 0
    6 SNES Function norm 2.269633873865e-06 
    Linear solve converged due to CONVERGED_RTOL_NORMAL iterations 25, batch 5, specie 0
    7 SNES Function norm 5.568179885822e-07 
    Linear solve converged due to CONVERGED_RTOL_NORMAL iterations 25, batch 0, specie 0
    8 SNES Function norm 1.366329625946e-07 
    Linear solve converged due to CONVERGED_RTOL_NORMAL iterations 25, batch 2, specie 0
    9 SNES Function norm 3.354025731867e-08 
    Linear solve converged due to CONVERGED_RTOL_NORMAL iterations 26, batch 137, specie 0
   10 SNES Function norm 8.237219180950e-09 
    Linear solve converged due to CONVERGED_RTOL_NORMAL iterations 25, batch 0, specie 0
   11 SNES Function norm 2.024001274436e-09 
    Linear solve converged due to CONVERGED_RTOL_NORMAL iterations 25, batch 0, specie 0
   12 SNES Function norm 4.975770859265e-10 
    Linear solve converged due to CONVERGED_RTOL_NORMAL iterations 25, batch 2, specie 0
   13 SNES Function norm 1.223845644701e-10 
    Linear solve converged due to CONVERGED_RTOL_NORMAL iterations 25, batch 6, specie 0
   14 SNES Function norm 3.011724573305e-11 
    Linear solve converged due to CONVERGED_RTOL_NORMAL iterations 25, batch 5, specie 0
   15 SNES Function norm 7.414350318226e-12 
  Nonlinear solve converged due to CONVERGED_SNORM_RELATIVE iterations 15
      TSAdapt none beuler 0: step   7 accepted t=3.5        + 5.000e-01 dt=5.000e-01 
8 TS dt 0.5 time 4.
    0 SNES Function norm 1.450823736473e-02 
    Linear solve converged due to CONVERGED_RTOL_NORMAL iterations 28, batch 310, specie 0
    1 SNES Function norm 2.562403657688e-03 
    Linear solve converged due to CONVERGED_RTOL_NORMAL iterations 25, batch 0, specie 0
    2 SNES Function norm 6.419623423432e-04 
    Linear solve converged due to CONVERGED_RTOL_NORMAL iterations 25, batch 144, specie 0
    3 SNES Function norm 1.593559690713e-04 
    Linear solve converged due to CONVERGED_RTOL_NORMAL iterations 25, batch 1, specie 0
    4 SNES Function norm 3.929961728603e-05 
    Linear solve converged due to CONVERGED_RTOL_NORMAL iterations 25, batch 7, specie 0
    5 SNES Function norm 9.663363647790e-06 
    Linear solve converged due to CONVERGED_RTOL_NORMAL iterations 25, batch 4, specie 0
    6 SNES Function norm 2.373599041898e-06 
    Linear solve converged due to CONVERGED_RTOL_NORMAL iterations 25, batch 1, specie 0
    7 SNES Function norm 5.829260261409e-07 
    Linear solve converged due to CONVERGED_RTOL_NORMAL iterations 25, batch 2, specie 0
    8 SNES Function norm 1.431927577642e-07 
    Linear solve converged due to CONVERGED_RTOL_NORMAL iterations 25, batch 5, specie 0
    9 SNES Function norm 3.518890402774e-08 
    Linear solve converged due to CONVERGED_RTOL_NORMAL iterations 25, batch 0, specie 0
   10 SNES Function norm 8.651638695988e-09 
    Linear solve converged due to CONVERGED_RTOL_NORMAL iterations 26, batch 475, specie 0
   11 SNES Function norm 2.128189753939e-09 
    Linear solve converged due to CONVERGED_RTOL_NORMAL iterations 25, batch 2, specie 0
   12 SNES Function norm 5.237725720779e-10 
    Linear solve converged due to CONVERGED_RTOL_NORMAL iterations 25, batch 1, specie 0
   13 SNES Function norm 1.289729922407e-10 
    Linear solve converged due to CONVERGED_RTOL_NORMAL iterations 34, batch 407, specie 0
   14 SNES Function norm 3.177412694419e-11 
    Linear solve converged due to CONVERGED_RTOL_NORMAL iterations 25, batch 1, specie 0
   15 SNES Function norm 7.831851233352e-12 
  Nonlinear solve converged due to CONVERGED_SNORM_RELATIVE iterations 15
      TSAdapt none beuler 0: step   8 accepted t=4          + 5.000e-01 dt=5.000e-01 
9 TS dt 0.5 time 4.5
    0 SNES Function norm 1.394301926168e-02 
    Linear solve converged due to CONVERGED_RTOL_NORMAL iterations 28, batch 256, specie 0
    1 SNES Function norm 2.619272449440e-03 
    Linear solve converged due to CONVERGED_RTOL_NORMAL iterations 25, batch 0, specie 0
    2 SNES Function norm 6.560884485232e-04 
    Linear solve converged due to CONVERGED_RTOL_NORMAL iterations 25, batch 39, specie 0
    3 SNES Function norm 1.628479656943e-04 
    Linear solve converged due to CONVERGED_RTOL_NORMAL iterations 26, batch 403, specie 0
    4 SNES Function norm 4.018204065444e-05 
    Linear solve converged due to CONVERGED_RTOL_NORMAL iterations 25, batch 0, specie 0
    5 SNES Function norm 9.888657600130e-06 
    Linear solve converged due to CONVERGED_RTOL_NORMAL iterations 25, batch 13, specie 0
    6 SNES Function norm 2.431327350621e-06 
    Linear solve converged due to CONVERGED_RTOL_NORMAL iterations 26, batch 141, specie 0
    7 SNES Function norm 5.977293174810e-07 
    Linear solve converged due to CONVERGED_RTOL_NORMAL iterations 25, batch 2, specie 0
    8 SNES Function norm 1.469874846932e-07 
    Linear solve converged due to CONVERGED_RTOL_NORMAL iterations 25, batch 0, specie 0
    9 SNES Function norm 3.616095882933e-08 
    Linear solve converged due to CONVERGED_RTOL_NORMAL iterations 25, batch 8, specie 0
   10 SNES Function norm 8.900438280161e-09 
    Linear solve converged due to CONVERGED_RTOL_NORMAL iterations 25, batch 1, specie 0
   11 SNES Function norm 2.191819799392e-09 
    Linear solve converged due to CONVERGED_RTOL_NORMAL iterations 25, batch 1, specie 0
   12 SNES Function norm 5.400350802591e-10 
    Linear solve converged due to CONVERGED_RTOL_NORMAL iterations 25, batch 2, specie 0
   13 SNES Function norm 1.331240154185e-10 
    Linear solve converged due to CONVERGED_RTOL_NORMAL iterations 25, batch 5, specie 0
   14 SNES Function norm 3.283410014009e-11 
    Linear solve converged due to CONVERGED_RTOL_NORMAL iterations 28, batch 108, specie 0
   15 SNES Function norm 8.102806246856e-12 
  Nonlinear solve converged due to CONVERGED_SNORM_RELATIVE iterations 15
      TSAdapt none beuler 0: step   9 accepted t=4.5        + 5.000e-01 dt=5.000e-01 
10 TS dt 0.5 time 5.
TS Object: 1 MPI process
  type: beuler
  maximum steps=10
  maximum time=100.
  total number of I function evaluations=169
  total number of I Jacobian evaluations=158
  total number of RHS function evaluations=169
  total number of nonlinear solver iterations=144
  total number of linear solver iterations=3673
  total number of nonlinear solve failures=0
  total number of rejected steps=0
  using relative error tolerance of 0.01,   using absolute error tolerance of 0.0001
  TSAdapt Object: 1 MPI process
    type: none
  SNES Object: 1 MPI process
    type: newtonls
    maximum iterations=50, maximum function evaluations=10000
    tolerances: relative=1e-14, absolute=1e-50, solution=1e-14
    total number of linear solver iterations=383
    total number of function evaluations=16
    norm schedule ALWAYS
    SNESLineSearch Object: 1 MPI process
      type: basic
      maxstep=1.000000e+08, minlambda=1.000000e-12
      tolerances: relative=1.000000e-08, absolute=1.000000e-15, lambda=1.000000e-08
      maximum iterations=40
    KSP Object: 1 MPI process
      type: preonly
      maximum iterations=10000, initial guess is zero
      tolerances:  relative=1e-05, absolute=1e-50, divergence=10000.
      left preconditioning
      using NONE norm type for convergence test
    PC Object: 1 MPI process
      type: bjkokkos
        Batched device linear solver: Krylov (KSP) method with Jacobi preconditioning
      		nwork = 10, rel tol = 1.000000e-08, abs tol = 1.000000e-50, div tol = 1.000000e+04, max it =100, type = tfqmr
      linear system matrix = precond matrix:
      Mat Object: Jacobian 1 MPI process
        type: seqaijkokkos
        rows=727040, cols=727040
        total: nonzeros=16148480, allocated nonzeros=16148480
        total number of mallocs used during MatSetValues calls=0
          using I-node routines: found 340992 nodes, limit used is 5
****************************************************************************************************************************************************************
***                                WIDEN YOUR WINDOW TO 160 CHARACTERS.  Use 'enscript -r -fCourier9' to print this document                                 ***
****************************************************************************************************************************************************************

------------------------------------------------------------------ PETSc Performance Summary: ------------------------------------------------------------------



      ##########################################################
      #                                                        #
      #                       WARNING!!!                       #
      #                                                        #
      #   This code was compiled with GPU support and you've   #
      #   created PETSc/GPU objects, but you intentionally     #
      #   used -use_gpu_aware_mpi 0, requiring PETSc to copy   #
      #   additional data between the GPU and CPU. To obtain   #
      #   meaningful timing results on multi-rank runs, use    #
      #   GPU-aware MPI instead.                               #
      #                                                        #
      ##########################################################


/gpfs/alpine/csc314/scratch/adams/batch_gmres_paper/mark/crusher/./ex2-2d on a  named crusher121 with 8 processors, by adams Fri Jul 15 09:59:58 2022
Using Petsc Development GIT revision: v3.17.3-760-g6e3d66b0f1  GIT Date: 2022-07-14 21:35:48 +0000

                         Max       Max/Min     Avg       Total
Time (sec):           3.427e+01     1.000   3.427e+01
Objects:              6.041e+04     1.000   6.041e+04
Flops:                1.723e+11     1.000   1.723e+11  1.378e+12
Flops/sec:            5.027e+09     1.000   5.027e+09  4.021e+10
MPI Msg Count:        0.000e+00     0.000   0.000e+00  0.000e+00
MPI Msg Len (bytes):  0.000e+00     0.000   0.000e+00  0.000e+00
MPI Reductions:       2.100e+01     1.000

Flop counting convention: 1 flop = 1 real number operation of type (multiply/divide/add/subtract)
                            e.g., VecAXPY() for real vectors of length N --> 2N flops
                            and VecAXPY() for complex vectors of length N --> 8N flops

Summary of Stages:   ----- Time ------  ----- Flop ------  --- Messages ---  -- Message Lengths --  -- Reductions --
                        Avg     %Total     Avg     %Total    Count   %Total     Avg         %Total    Count   %Total
 0:      Main Stage: 1.1997e+01  35.0%  6.3171e+08   0.0%  0.000e+00   0.0%  0.000e+00        0.0%  2.000e+00   9.5%
 1:          Warmup: 2.4013e+00   7.0%  1.2270e+11   8.9%  0.000e+00   0.0%  0.000e+00        0.0%  0.000e+00   0.0%
 2:           Solve: 1.9876e+01  58.0%  1.2550e+12  91.1%  0.000e+00   0.0%  0.000e+00        0.0%  0.000e+00   0.0%

------------------------------------------------------------------------------------------------------------------------
See the 'Profiling' chapter of the users' manual for details on interpreting output.
Phase summary info:
   Count: number of times phase was executed
   Time and Flop: Max - maximum over all processors
                  Ratio - ratio of maximum to minimum over all processors
   Mess: number of messages sent
   AvgLen: average message length (bytes)
   Reduct: number of global reductions
   Global: entire computation
   Stage: stages of a computation. Set stages with PetscLogStagePush() and PetscLogStagePop().
      %T - percent time in this phase         %F - percent flop in this phase
      %M - percent messages in this phase     %L - percent message lengths in this phase
      %R - percent reductions in this phase
   Total Mflop/s: 10e-6 * (sum of flop over all processors)/(max time over all processors)
   GPU Mflop/s: 10e-6 * (sum of flop on GPU over all processors)/(max GPU time over all processors)
   CpuToGpu Count: total number of CPU to GPU copies per processor
   CpuToGpu Size (Mbytes): 10e-6 * (total size of CPU to GPU copies per processor)
   GpuToCpu Count: total number of GPU to CPU copies per processor
   GpuToCpu Size (Mbytes): 10e-6 * (total size of GPU to CPU copies per processor)
   GPU %F: percent flops on GPU in this event
------------------------------------------------------------------------------------------------------------------------
Event                Count      Time (sec)     Flop                              --- Global ---  --- Stage ----  Total   GPU    - CpuToGpu -   - GpuToCpu - GPU
                   Max Ratio  Max     Ratio   Max  Ratio  Mess   AvgLen  Reduct  %T %F %M %L %R  %T %F %M %L %R Mflop/s Mflop/s Count   Size   Count   Size  %F
---------------------------------------------------------------------------------------------------------------------------------------------------------------

--- Event Stage 0: Main Stage

BuildTwoSided       6183 1.0 2.3649e-03 1.0 0.00e+00 0.0 0.0e+00 0.0e+00 0.0e+00  0  0  0  0  0   0  0  0  0  0     0       0      0 0.00e+00    0 0.00e+00  0
MatMult           282540 1.0 2.5334e-02 1.0 1.99e+06 1.0 0.0e+00 0.0e+00 0.0e+00  0  0  0  0  0   0  3  0  0  0   629       0      0 0.00e+00    0 0.00e+00  0
MatLUFactor           30 1.0 2.4842e-04 1.0 8.19e+04 1.0 0.0e+00 0.0e+00 0.0e+00  0  0  0  0  0   0  0  0  0  0  2638       0      0 0.00e+00    0 0.00e+00  0
MatCopy              120 1.0 8.5480e-05 1.1 0.00e+00 0.0 0.0e+00 0.0e+00 0.0e+00  0  0  0  0  0   0  0  0  0  0     0       0      0 0.00e+00    0 0.00e+00  0
MatConvert            60 1.0 4.1391e-04 1.0 0.00e+00 0.0 0.0e+00 0.0e+00 0.0e+00  0  0  0  0  0   0  0  0  0  0     0       0      0 0.00e+00    0 0.00e+00  0
MatAssemblyBegin    3749 1.0 3.2401e-04 1.1 0.00e+00 0.0 0.0e+00 0.0e+00 0.0e+00  0  0  0  0  0   0  0  0  0  0     0       0      0 0.00e+00    0 0.00e+00  0
MatAssemblyEnd      3749 1.0 4.5472e-01 1.1 0.00e+00 0.0 0.0e+00 0.0e+00 0.0e+00  1  0  0  0  0   4  0  0  0  0     0       0      0 0.00e+00    0 0.00e+00  0
MatGetRowIJ           15 1.0 2.2250e-06 1.3 0.00e+00 0.0 0.0e+00 0.0e+00 0.0e+00  0  0  0  0  0   0  0  0  0  0     0       0      0 0.00e+00    0 0.00e+00  0
MatZeroEntries         6 1.0 4.8249e-04 1.1 0.00e+00 0.0 0.0e+00 0.0e+00 0.0e+00  0  0  0  0  0   0  0  0  0  0     0       0      0 0.00e+00    0 0.00e+00  0
MatMatSolve          120 1.0 4.3251e-04 1.0 9.52e+05 1.0 0.0e+00 0.0e+00 0.0e+00  0  0  0  0  0   0  1  0  0  0 17615       0      0 0.00e+00    0 0.00e+00  0
MatSetPreallCOO        1 1.0 2.1558e+00 1.0 0.00e+00 0.0 0.0e+00 0.0e+00 0.0e+00  6  0  0  0  0  18  0  0  0  0     0       0      0 0.00e+00    0 0.00e+00  0
DMConvert             18 1.0 1.0290e-03 1.0 0.00e+00 0.0 0.0e+00 0.0e+00 0.0e+00  0  0  0  0  0   0  0  0  0  0     0       0      0 0.00e+00    0 0.00e+00  0
DMCreateMat            8 1.0 7.7001e+00 1.0 0.00e+00 0.0 0.0e+00 0.0e+00 0.0e+00 22  0  0  0  0  64  0  0  0  0     0       0      0 0.00e+00    0 0.00e+00  0
DMPlexInterp         166 1.0 1.6462e-03 1.0 0.00e+00 0.0 0.0e+00 0.0e+00 0.0e+00  0  0  0  0  0   0  0  0  0  0     0       0      0 0.00e+00    0 0.00e+00  0
DMPlexStratify       233 1.0 2.0935e-03 1.0 0.00e+00 0.0 0.0e+00 0.0e+00 0.0e+00  0  0  0  0  0   0  0  0  0  0     0       0      0 0.00e+00    0 0.00e+00  0
DMPlexSymmetrize     233 1.0 1.1825e-04 1.0 0.00e+00 0.0 0.0e+00 0.0e+00 0.0e+00  0  0  0  0  0   0  0  0  0  0     0       0      0 0.00e+00    0 0.00e+00  0
DMPlexPrealloc      3078 1.0 6.6492e+00 1.0 0.00e+00 0.0 0.0e+00 0.0e+00 0.0e+00 19  0  0  0  0  55  0  0  0  0     0       0      0 0.00e+00    0 0.00e+00  0
DMPlexJacobianFE       6 1.0 4.4643e-02 1.1 1.54e+06 1.0 0.0e+00 0.0e+00 0.0e+00  0  0  0  0  0   0  2  0  0  0   276       0      0 0.00e+00    0 0.00e+00  0
SFSetGraph         12348 1.0 8.5185e-04 1.0 0.00e+00 0.0 0.0e+00 0.0e+00 0.0e+00  0  0  0  0  0   0  0  0  0  0     0       0      0 0.00e+00    0 0.00e+00  0
SFSetUp             6183 1.0 1.0550e-02 1.1 0.00e+00 0.0 0.0e+00 0.0e+00 0.0e+00  0  0  0  0  0   0  0  0  0  0     0       0      0 0.00e+00    0 0.00e+00  0
SFBcastBegin       12378 1.0 1.4378e-02 1.1 0.00e+00 0.0 0.0e+00 0.0e+00 0.0e+00  0  0  0  0  0   0  0  0  0  0     0       0      0 0.00e+00    0 0.00e+00  0
SFBcastEnd         12378 1.0 3.5172e-03 1.1 0.00e+00 0.0 0.0e+00 0.0e+00 0.0e+00  0  0  0  0  0   0  0  0  0  0     0       0      0 0.00e+00    0 0.00e+00  0
SFReduceBegin         54 1.0 7.2031e-05 1.1 0.00e+00 0.0 0.0e+00 0.0e+00 0.0e+00  0  0  0  0  0   0  0  0  0  0     0       0      0 0.00e+00    0 0.00e+00  0
SFReduceEnd           54 1.0 1.5614e-05 1.0 0.00e+00 0.0 0.0e+00 0.0e+00 0.0e+00  0  0  0  0  0   0  0  0  0  0     0       0      0 0.00e+00    0 0.00e+00  0
SFCreateEmbed       6156 1.0 2.6080e-02 1.1 0.00e+00 0.0 0.0e+00 0.0e+00 0.0e+00  0  0  0  0  0   0  0  0  0  0     0       0      0 0.00e+00    0 0.00e+00  0
SFSectionSF         6156 1.0 1.2373e-02 1.1 0.00e+00 0.0 0.0e+00 0.0e+00 0.0e+00  0  0  0  0  0   0  0  0  0  0     0       0      0 0.00e+00    0 0.00e+00  0
SFRemoteOff         6156 1.0 5.4801e-02 1.0 0.00e+00 0.0 0.0e+00 0.0e+00 0.0e+00  0  0  0  0  0   0  0  0  0  0     0       0      0 0.00e+00    0 0.00e+00  0
SFPack             12432 1.0 8.1990e-04 1.1 0.00e+00 0.0 0.0e+00 0.0e+00 0.0e+00  0  0  0  0  0   0  0  0  0  0     0       0      0 0.00e+00    0 0.00e+00  0
SFUnpack           12432 1.0 7.7805e-04 1.0 0.00e+00 0.0 0.0e+00 0.0e+00 0.0e+00  0  0  0  0  0   0  0  0  0  0     0       0      0 0.00e+00    0 0.00e+00  0
Landau Create          1 1.0 7.3437e+00 1.0 7.81e+07 1.0 0.0e+00 0.0e+00 0.0e+00 21  0  0  0  0  61 99  0  0  0    85       0      0 0.00e+00    0 0.00e+00  0
 GPU ass. setup        1 1.0 2.3850e+00 1.0 0.00e+00 0.0 0.0e+00 0.0e+00 0.0e+00  7  0  0  0  0  20  0  0  0  0     0       0      0 0.00e+00    0 0.00e+00  0
 Build matrix          1 1.0 4.0662e-01 1.0 6.80e+05 1.0 0.0e+00 0.0e+00 0.0e+00  1  0  0  0  0   3  1  0  0  0    13       0      0 0.00e+00    0 0.00e+00  0
 Assembly maps         1 1.0 4.5830e+00 1.0 7.74e+07 1.0 0.0e+00 0.0e+00 0.0e+00 13  0  0  0  0  38 98  0  0  0   135       0      0 0.00e+00    0 0.00e+00  0
Landau Mass mat        1 1.0 4.6403e+00 1.0 8.60e+05 1.0 0.0e+00 0.0e+00 0.0e+00 13  0  0  0  0  38  1  0  0  0     1       0      0 0.00e+00    0 0.00e+00  0
 static IP Data        1 1.0 9.9821e-04 1.3 5.38e+03 1.0 0.0e+00 0.0e+00 0.0e+00  0  0  0  0  0   0  0  0  0  0    43       0      0 0.00e+00    0 0.00e+00  0
VecCopy                1 1.0 4.9905e-04 1.2 0.00e+00 0.0 0.0e+00 0.0e+00 0.0e+00  0  0  0  0  0   0  0  0  0  0     0       0      0 0.00e+00    0 0.00e+00  0
VecSet              1545 1.0 2.7542e-02 1.4 0.00e+00 0.0 0.0e+00 0.0e+00 0.0e+00  0  0  0  0  0   0  0  0  0  0     0       0      0 0.00e+00    0 0.00e+00  0
DualSpaceSetUp        28 1.0 1.4265e-02 1.0 9.92e+02 1.0 0.0e+00 0.0e+00 0.0e+00  0  0  0  0  0   0  0  0  0  0     1       0      0 0.00e+00    0 0.00e+00  0
FESetUp               40 1.0 2.1297e-03 1.3 0.00e+00 0.0 0.0e+00 0.0e+00 0.0e+00  0  0  0  0  0   0  0  0  0  0     0       0      0 0.00e+00    0 0.00e+00  0

--- Event Stage 1: Warmup

MatMult               15 1.0 9.9698e-02 1.0 4.84e+08 1.0 0.0e+00 0.0e+00 0.0e+00  0  0  0  0  0   4  3  0  0  0 38874       0      0 0.00e+00    0 0.00e+00 100
MatMultAdd            15 1.0 7.5533e-02 1.0 4.84e+08 1.0 0.0e+00 0.0e+00 0.0e+00  0  0  0  0  0   3  3  0  0  0 51310       0      0 0.00e+00    0 0.00e+00 100
MatAssemblyBegin      59 1.0 6.6010e-06 1.4 0.00e+00 0.0 0.0e+00 0.0e+00 0.0e+00  0  0  0  0  0   0  0  0  0  0     0       0      0 0.00e+00    0 0.00e+00  0
MatAssemblyEnd        59 1.0 3.1342e-02 1.2 0.00e+00 0.0 0.0e+00 0.0e+00 0.0e+00  0  0  0  0  0   1  0  0  0  0     0       0      0 0.00e+00    0 0.00e+00  0
MatGetRowIJ            1 1.0 2.4248e-02 1.0 0.00e+00 0.0 0.0e+00 0.0e+00 0.0e+00  0  0  0  0  0   1  0  0  0  0     0       0      0 0.00e+00    0 0.00e+00  0
MatCreateSubMats       1 1.0 2.0468e-01 1.0 0.00e+00 0.0 0.0e+00 0.0e+00 0.0e+00  1  0  0  0  0   8  0  0  0  0     0       0      0 0.00e+00    0 0.00e+00  0
MatGetOrdering         1 1.0 5.1549e-02 1.0 0.00e+00 0.0 0.0e+00 0.0e+00 0.0e+00  0  0  0  0  0   2  0  0  0  0     0       0      0 0.00e+00    0 0.00e+00  0
MatZeroEntries        15 1.0 2.1643e-03 1.0 0.00e+00 0.0 0.0e+00 0.0e+00 0.0e+00  0  0  0  0  0   0  0  0  0  0     0       0      0 0.00e+00    0 0.00e+00  0
MatView                1 0.0 2.4507e-05 0.0 0.00e+00 0.0 0.0e+00 0.0e+00 0.0e+00  0  0  0  0  0   0  0  0  0  0     0       0      0 0.00e+00    0 0.00e+00  0
MatSetValuesCOO       29 1.0 3.2414e-03 1.2 0.00e+00 0.0 0.0e+00 0.0e+00 0.0e+00  0  0  0  0  0   0  0  0  0  0     0       0      0 0.00e+00    0 0.00e+00  0
Landau Operator       29 1.0 1.9159e+00 1.0 9.69e+08 1.0 0.0e+00 0.0e+00 0.0e+00  6  1  0  0  0  80  6  0  0  0  4046       0      0 0.00e+00    0 0.00e+00 100
Landau Jacobian       15 1.0 1.8150e+00 1.0 9.69e+08 1.0 0.0e+00 0.0e+00 0.0e+00  5  1  0  0  0  75  6  0  0  0  4271       0      0 0.00e+00    0 0.00e+00 100
Landau Mass           14 1.0 1.0144e-01 1.0 0.00e+00 0.0 0.0e+00 0.0e+00 0.0e+00  0  0  0  0  0   4  0  0  0  0     0       0      0 0.00e+00    0 0.00e+00  0
 Preamble             29 1.0 7.1489e-05 1.6 0.00e+00 0.0 0.0e+00 0.0e+00 0.0e+00  0  0  0  0  0   0  0  0  0  0     0       0      0 0.00e+00    0 0.00e+00  0
 dynamic IP-Jac       30 1.0 1.4868e-05 1.3 0.00e+00 0.0 0.0e+00 0.0e+00 0.0e+00  0  0  0  0  0   0  0  0  0  0     0       0      0 0.00e+00    0 0.00e+00  0
 Kernel-init          29 1.0 1.3210e-04 1.1 0.00e+00 0.0 0.0e+00 0.0e+00 0.0e+00  0  0  0  0  0   0  0  0  0  0     0       0      0 0.00e+00    0 0.00e+00  0
 Jac-f-df (GPU)       15 1.0 2.1212e-02 1.0 0.00e+00 0.0 0.0e+00 0.0e+00 0.0e+00  0  0  0  0  0   1  0  0  0  0     0       0      0 0.00e+00    0 0.00e+00  0
 J Kernel (GPU)       15 1.0 1.5782e+00 1.0 0.00e+00 0.0 0.0e+00 0.0e+00 0.0e+00  5  0  0  0  0  66  0  0  0  0     0       0      0 0.00e+00    0 0.00e+00  0
 M Kernel (GPU)       14 1.0 7.7168e-02 1.0 0.00e+00 0.0 0.0e+00 0.0e+00 0.0e+00  0  0  0  0  0   3  0  0  0  0     0       0      0 0.00e+00    0 0.00e+00  0
VecNorm                1 1.0 4.8737e-04 1.3 1.45e+06 1.0 0.0e+00 0.0e+00 0.0e+00  0  0  0  0  0   0  0  0  0  0 23868       0      0 0.00e+00    0 0.00e+00 100
VecCopy               17 1.0 2.6458e-03 1.9 0.00e+00 0.0 0.0e+00 0.0e+00 0.0e+00  0  0  0  0  0   0  0  0  0  0     0       0      0 0.00e+00    0 0.00e+00  0
VecSet                29 1.0 4.2385e-03 1.0 0.00e+00 0.0 0.0e+00 0.0e+00 0.0e+00  0  0  0  0  0   0  0  0  0  0     0       0      0 0.00e+00    0 0.00e+00  0
VecAXPY               16 1.0 6.4092e-04 1.2 2.33e+07 1.0 0.0e+00 0.0e+00 0.0e+00  0  0  0  0  0   0  0  0  0  0 290397       0      0 0.00e+00    0 0.00e+00 100
VecAXPBYCZ            16 1.0 3.8890e-03 1.1 5.82e+07 1.0 0.0e+00 0.0e+00 0.0e+00  0  0  0  0  0   0  0  0  0  0 119645       0      0 0.00e+00    0 0.00e+00 100
VecWAXPY              14 1.0 6.2119e-05 1.2 2.04e+07 1.0 0.0e+00 0.0e+00 0.0e+00  0  0  0  0  0   0  0  0  0  0 2621693       0      0 0.00e+00    0 0.00e+00 100
VecReduceArith        42 1.0 2.3104e-03 1.1 6.11e+07 1.0 0.0e+00 0.0e+00 0.0e+00  0  0  0  0  0   0  0  0  0  0 211466       0      0 0.00e+00    0 0.00e+00 100
VecReduceComm         14 1.0 4.7870e-06 2.2 0.00e+00 0.0 0.0e+00 0.0e+00 0.0e+00  0  0  0  0  0   0  0  0  0  0     0       0      0 0.00e+00    0 0.00e+00  0
TSStep                 1 1.0 2.4071e+00 1.0 1.53e+10 1.0 0.0e+00 0.0e+00 0.0e+00  7  9  0  0  0 100100  0  0  0 50974       0      0 0.00e+00    0 0.00e+00 100
TSFunctionEval        15 1.0 1.8163e+00 1.0 9.91e+08 1.0 0.0e+00 0.0e+00 0.0e+00  5  1  0  0  0  76  6  0  0  0  4364       0      0 0.00e+00    0 0.00e+00 100
TSJacobianEval        14 1.0 1.0145e-01 1.0 0.00e+00 0.0 0.0e+00 0.0e+00 0.0e+00  0  0  0  0  0   4  0  0  0  0     0       0      0 0.00e+00    0 0.00e+00  0
KSPSetUp              14 1.0 7.3850e-06 1.5 0.00e+00 0.0 0.0e+00 0.0e+00 0.0e+00  0  0  0  0  0   0  0  0  0  0     0       0      0 0.00e+00    0 0.00e+00  0
KSPSolve              14 1.0 1.7332e-01 1.0 1.42e+10 1.0 0.0e+00 0.0e+00 0.0e+00  1  8  0  0  0   7 93  0  0  0 655638       0      0 0.00e+00    0 0.00e+00 100
SNESSolve              1 1.0 2.4036e+00 1.0 1.53e+10 1.0 0.0e+00 0.0e+00 0.0e+00  7  9  0  0  0 100100  0  0  0 51032       0      0 0.00e+00    0 0.00e+00 100
SNESSetUp              1 1.0 1.7726e-03 2.2 0.00e+00 0.0 0.0e+00 0.0e+00 0.0e+00  0  0  0  0  0   0  0  0  0  0     0       0      0 0.00e+00    0 0.00e+00  0
SNESFunctionEval      15 1.0 1.8194e+00 1.0 1.05e+09 1.0 0.0e+00 0.0e+00 0.0e+00  5  1  0  0  0  76  7  0  0  0  4596       0      0 0.00e+00    0 0.00e+00 100
SNESJacobianEval      14 1.0 1.0146e-01 1.0 0.00e+00 0.0 0.0e+00 0.0e+00 0.0e+00  0  0  0  0  0   4  0  0  0  0     0       0      0 0.00e+00    0 0.00e+00  0
SNESLineSearch        14 1.0 1.6416e+00 1.0 1.06e+09 1.0 0.0e+00 0.0e+00 0.0e+00  5  1  0  0  0  68  7  0  0  0  5151       0      0 0.00e+00    0 0.00e+00 100
PCSetUp               14 1.0 3.0644e-01 1.0 0.00e+00 0.0 0.0e+00 0.0e+00 0.0e+00  1  0  0  0  0  12  0  0  0  0     0       0      0 0.00e+00    0 0.00e+00  0
PCApply               14 1.0 1.6942e-01 1.0 1.42e+10 1.0 0.0e+00 0.0e+00 0.0e+00  0  8  0  0  0   7 93  0  0  0 670735       0      0 0.00e+00    0 0.00e+00 100

--- Event Stage 2: Solve

MatMult              154 1.0 6.7554e-01 1.0 4.97e+09 1.0 0.0e+00 0.0e+00 0.0e+00  2  3  0  0  0   3  3  0  0  0 58901       0      0 0.00e+00    0 0.00e+00 100
MatMultAdd           154 1.0 6.7460e-01 1.0 4.97e+09 1.0 0.0e+00 0.0e+00 0.0e+00  2  3  0  0  0   3  3  0  0  0 58983       0      0 0.00e+00    0 0.00e+00 100
MatAssemblyBegin     578 1.0 5.2303e-05 1.3 0.00e+00 0.0 0.0e+00 0.0e+00 0.0e+00  0  0  0  0  0   0  0  0  0  0     0       0      0 0.00e+00    0 0.00e+00  0
MatAssemblyEnd       578 1.0 1.1862e-04 1.3 0.00e+00 0.0 0.0e+00 0.0e+00 0.0e+00  0  0  0  0  0   0  0  0  0  0     0       0      0 0.00e+00    0 0.00e+00  0
MatZeroEntries       145 1.0 2.0856e-02 1.0 0.00e+00 0.0 0.0e+00 0.0e+00 0.0e+00  0  0  0  0  0   0  0  0  0  0     0       0      0 0.00e+00    0 0.00e+00  0
MatView                1 0.0 1.7003e-05 0.0 0.00e+00 0.0 0.0e+00 0.0e+00 0.0e+00  0  0  0  0  0   0  0  0  0  0     0       0      0 0.00e+00    0 0.00e+00  0
MatSetValuesCOO      289 1.0 1.4503e-03 1.4 0.00e+00 0.0 0.0e+00 0.0e+00 0.0e+00  0  0  0  0  0   0  0  0  0  0     0       0      0 0.00e+00    0 0.00e+00  0
Landau Operator      298 1.0 1.8084e+01 1.0 9.95e+09 1.0 0.0e+00 0.0e+00 0.0e+00 53  6  0  0  0  91  6  0  0  0  4401       0      0 0.00e+00    0 0.00e+00 100
Landau Jacobian      154 1.0 1.7041e+01 1.0 9.95e+09 1.0 0.0e+00 0.0e+00 0.0e+00 50  6  0  0  0  86  6  0  0  0  4670       0      0 0.00e+00    0 0.00e+00 100
Landau Mass          144 1.0 1.0435e+00 1.0 0.00e+00 0.0 0.0e+00 0.0e+00 0.0e+00  3  0  0  0  0   5  0  0  0  0     0       0      0 0.00e+00    0 0.00e+00  0
 Preamble            289 1.0 5.2458e-04 1.5 0.00e+00 0.0 0.0e+00 0.0e+00 0.0e+00  0  0  0  0  0   0  0  0  0  0     0       0      0 0.00e+00    0 0.00e+00  0
 dynamic IP-Jac      290 1.0 9.4346e-05 1.9 0.00e+00 0.0 0.0e+00 0.0e+00 0.0e+00  0  0  0  0  0   0  0  0  0  0     0       0      0 0.00e+00    0 0.00e+00  0
 Kernel-init         289 1.0 1.4410e-03 1.4 0.00e+00 0.0 0.0e+00 0.0e+00 0.0e+00  0  0  0  0  0   0  0  0  0  0     0       0      0 0.00e+00    0 0.00e+00  0
 Jac-f-df (GPU)      145 1.0 1.7211e-01 1.0 0.00e+00 0.0 0.0e+00 0.0e+00 0.0e+00  1  0  0  0  0   1  0  0  0  0     0       0      0 0.00e+00    0 0.00e+00  0
 J Kernel (GPU)      145 1.0 1.5250e+01 1.0 0.00e+00 0.0 0.0e+00 0.0e+00 0.0e+00 44  0  0  0  0  77  0  0  0  0     0       0      0 0.00e+00    0 0.00e+00  0
 M Kernel (GPU)      144 1.0 7.9406e-01 1.0 0.00e+00 0.0 0.0e+00 0.0e+00 0.0e+00  2  0  0  0  0   4  0  0  0  0     0       0      0 0.00e+00    0 0.00e+00  0
VecNorm               10 1.0 6.8645e-04 1.1 1.45e+07 1.0 0.0e+00 0.0e+00 0.0e+00  0  0  0  0  0   0  0  0  0  0 169460       0      0 0.00e+00    0 0.00e+00 100
VecCopy              164 1.0 5.2273e-03 1.0 0.00e+00 0.0 0.0e+00 0.0e+00 0.0e+00  0  0  0  0  0   0  0  0  0  0     0       0      0 0.00e+00    0 0.00e+00  0
VecSet               298 1.0 4.3500e-02 1.0 0.00e+00 0.0 0.0e+00 0.0e+00 0.0e+00  0  0  0  0  0   0  0  0  0  0     0       0      0 0.00e+00    0 0.00e+00  0
VecAXPY              164 1.0 8.1368e-04 1.4 2.38e+08 1.0 0.0e+00 0.0e+00 0.0e+00  0  0  0  0  0   0  0  0  0  0 2344599       0      0 0.00e+00    0 0.00e+00 100
VecAXPBYCZ           164 1.0 2.8511e-03 1.1 5.96e+08 1.0 0.0e+00 0.0e+00 0.0e+00  0  0  0  0  0   0  0  0  0  0 1672809       0      0 0.00e+00    0 0.00e+00 100
VecWAXPY             144 1.0 5.5611e-04 1.3 2.09e+08 1.0 0.0e+00 0.0e+00 0.0e+00  0  0  0  0  0   0  0  0  0  0 3012158       0      0 0.00e+00    0 0.00e+00 100
VecReduceArith       432 1.0 2.3590e-02 1.0 6.28e+08 1.0 0.0e+00 0.0e+00 0.0e+00  0  0  0  0  0   0  0  0  0  0 213031       0      0 0.00e+00    0 0.00e+00 100
VecReduceComm        144 1.0 4.8785e-05 2.2 0.00e+00 0.0 0.0e+00 0.0e+00 0.0e+00  0  0  0  0  0   0  0  0  0  0     0       0      0 0.00e+00    0 0.00e+00  0
TSStep                10 1.0 1.9887e+01 1.0 1.57e+11 1.0 0.0e+00 0.0e+00 0.0e+00 58 91  0  0  0 100100  0  0  0 63108       0      0 0.00e+00    0 0.00e+00 100
TSFunctionEval       154 1.0 1.7046e+01 1.0 1.02e+10 1.0 0.0e+00 0.0e+00 0.0e+00 50  6  0  0  0  86  6  0  0  0  4774       0      0 0.00e+00    0 0.00e+00 100
TSJacobianEval       144 1.0 1.0436e+00 1.0 0.00e+00 0.0 0.0e+00 0.0e+00 0.0e+00  3  0  0  0  0   5  0  0  0  0     0       0      0 0.00e+00    0 0.00e+00  0
KSPSetUp             144 1.0 2.4372e-05 1.1 0.00e+00 0.0 0.0e+00 0.0e+00 0.0e+00  0  0  0  0  0   0  0  0  0  0     0       0      0 0.00e+00    0 0.00e+00  0
KSPSolve             144 1.0 1.7647e+00 1.0 1.45e+11 1.0 0.0e+00 0.0e+00 0.0e+00  5 84  0  0  0   9 93  0  0  0 658418       0      0 0.00e+00    0 0.00e+00 100
SNESSolve             10 1.0 1.9884e+01 1.0 1.57e+11 1.0 0.0e+00 0.0e+00 0.0e+00 58 91  0  0  0 100100  0  0  0 63095       0      0 0.00e+00    0 0.00e+00 100
SNESFunctionEval     154 1.0 1.7048e+01 1.0 1.07e+10 1.0 0.0e+00 0.0e+00 0.0e+00 50  6  0  0  0  86  7  0  0  0  5036       0      0 0.00e+00    0 0.00e+00 100
SNESJacobianEval     144 1.0 1.0437e+00 1.0 0.00e+00 0.0 0.0e+00 0.0e+00 0.0e+00  3  0  0  0  0   5  0  0  0  0     0       0      0 0.00e+00    0 0.00e+00  0
SNESLineSearch       144 1.0 1.6878e+01 1.0 1.09e+10 1.0 0.0e+00 0.0e+00 0.0e+00 49  6  0  0  0  85  7  0  0  0  5153       0      0 0.00e+00    0 0.00e+00 100
PCSetUp              144 1.0 6.4553e-04 1.2 0.00e+00 0.0 0.0e+00 0.0e+00 0.0e+00  0  0  0  0  0   0  0  0  0  0     0       0      0 0.00e+00    0 0.00e+00  0
PCApply              144 1.0 1.7247e+00 1.0 1.45e+11 1.0 0.0e+00 0.0e+00 0.0e+00  5 84  0  0  0   9 93  0  0  0 673696       0      0 0.00e+00    0 0.00e+00 100
---------------------------------------------------------------------------------------------------------------------------------------------------------------

Object Type          Creations   Destructions. Reports information only for process 0.

--- Event Stage 0: Main Stage

           Container   254            254
    Distributed Mesh   629            629
            DM Label  1327           1327
          Quadrature  2541           2541
              Matrix  3784           3784
           Index Set 12983          12983
   IS L to G Mapping  3083           3083
             Section 17497          17497
    Section Symmetry    80             80
   Star Forest Graph 13597          13597
     Discrete System  1048           1048
           Weak Form  1048           1048
    GraphPartitioner   242            242
              Vector   344            651
       p4est logging     1              0
        Linear Space    86             86
          Dual Space   240            240
            FE Space    40             40
       Field over DM    18             18
             TSAdapt     1              1
                  TS     1              1
                DMTS     1              1
                SNES     1              1
              DMSNES     3              3
      SNESLineSearch     1              1
       Krylov Solver     1              2
     DMKSP interface     0              1
      Preconditioner     1              2
              Viewer     2              1

--- Event Stage 1: Warmup

              Matrix     1              1
           Index Set     5              5
              Vector  1543           1236
       Krylov Solver     1              0
     DMKSP interface     1              0
      Preconditioner     1              0

--- Event Stage 2: Solve

========================================================================================================================
Average time to get PetscTime(): 3.51e-08
Average time for MPI_Barrier(): 2.6652e-06
Average time for zero size MPI_Send(): 1.87276e-05
#PETSc Option Table entries:
-dim 2
-dm_landau_amr_levels_max 2,2,2
-dm_landau_batch_size 512
-dm_landau_coo_assembly
-dm_landau_device_type kokkos
-dm_landau_Ez 0
-dm_landau_ion_charges 1,2,3,4,5,6,7,8,9
-dm_landau_ion_masses 2,182,182,182,182,182,182,182,182
-dm_landau_n 1.0000044,1,1e-7,1e-7,1e-7,1e-7,1e-7,1e-7,1e-7,1e-7
-dm_landau_num_species_grid 1,1,8
-dm_landau_thermal_temps 2,1,1,1,1,1,1,1,1,1
-dm_landau_type p4est
-dm_landau_verbose 1
-dm_mat_type aijkokkos
-dm_preallocate_only false
-dm_vec_type kokkos
-ex2_test_type none
-ksp_type preonly
-log_view
-pc_bjkokkos_ksp_converged_reason
-pc_bjkokkos_ksp_max_it 100
-pc_bjkokkos_ksp_rtol 1.e-8
-pc_bjkokkos_ksp_type tfqmr
-pc_bjkokkos_pc_type jacobi
-pc_type bjkokkos
-petscspace_degree 3
-snes_converged_reason
-snes_linesearch_type basic
-snes_max_it 50
-snes_monitor
-snes_rtol 1e-14
-snes_stol 1e-14
-ts_adapt_clip .5,1.1
-ts_adapt_dt_max 1
-ts_adapt_monitor
-ts_adapt_scale_solve_failed 0.5
-ts_adapt_time_step_increase_delay 5
-ts_dt .5
-ts_exact_final_time stepover
-ts_max_snes_failures -1
-ts_max_steps 10
-ts_max_time 100
-ts_monitor
-ts_rtol 1e-2
-ts_type beuler
-ts_view
-use_gpu_aware_mpi 0
#End of PETSc Option Table entries
Compiled without FORTRAN kernels
Compiled with full precision matrices (default)
sizeof(short) 2 sizeof(int) 4 sizeof(long) 8 sizeof(void*) 8 sizeof(PetscScalar) 8 sizeof(PetscInt) 4
Configure options: --with-cc=cc --with-cxx=CC --with-fc=ftn LIBS="-L/opt/cray/pe/mpich/8.1.16/gtl/lib -lmpi_gtl_hsa" --with-debugging=0 --COPTFLAGS="-g -ggdb -O -DLAND_SUPPORT_CPU_ASSXXX" --CXXOPTFLAGS="-g -ggdb -O -DLAND_SUPPORT_CPU_ASSXXX" --FOPTFLAGS=-g --with-dmlandau-2d --with-mpiexec="srun --gpu-bind=closest" --with-hip --with-hipc=hipcc --download-hypre --download-kokkos --download-kokkos-kernels --with-kokkos-kernels-tpl=1 --download-p4est=1 --with-zlib-dir=/sw/crusher/spack-envs/base/opt/cray-sles15-zen3/clang-14.0.0-rocm5.1.0/zlib-1.2.11-j3ogymf5vmwlxvblzxxqdkrjkdvfccyx --prefix=/gpfs/alpine/world-shared/geo127/petsc/arch-crusher-opt-amd PETSC_ARCH=arch-olcf-crusher-kokkos
-----------------------------------------
Libraries compiled on 2022-07-14 23:12:22 on login2 
Machine characteristics: Linux-5.3.18-150300.59.68_11.0.76-cray_shasta_c-x86_64-with-glibc2.3.4
Using PETSc directory: /gpfs/alpine/world-shared/geo127/petsc/arch-crusher-opt-amd
Using PETSc arch: 
-----------------------------------------

Using C compiler: cc  -fPIC -g -ggdb -O -DLAND_SUPPORT_CPU_ASSXXX   
Using Fortran compiler: ftn  -fPIC -g     
-----------------------------------------

Using include paths: -I/gpfs/alpine/world-shared/geo127/petsc/arch-crusher-opt-amd/include -I/sw/crusher/spack-envs/base/opt/cray-sles15-zen3/clang-14.0.0-rocm5.1.0/zlib-1.2.11-j3ogymf5vmwlxvblzxxqdkrjkdvfccyx/include -I/opt/rocm-5.1.0/include
-----------------------------------------

Using C linker: cc
Using Fortran linker: ftn
Using libraries: -Wl,-rpath,/gpfs/alpine/world-shared/geo127/petsc/arch-crusher-opt-amd/lib -L/gpfs/alpine/world-shared/geo127/petsc/arch-crusher-opt-amd/lib -lpetsc -Wl,-rpath,/gpfs/alpine/world-shared/geo127/petsc/arch-crusher-opt-amd/lib -L/gpfs/alpine/world-shared/geo127/petsc/arch-crusher-opt-amd/lib -Wl,-rpath,/sw/crusher/spack-envs/base/opt/cray-sles15-zen3/clang-14.0.0-rocm5.1.0/zlib-1.2.11-j3ogymf5vmwlxvblzxxqdkrjkdvfccyx/lib -L/sw/crusher/spack-envs/base/opt/cray-sles15-zen3/clang-14.0.0-rocm5.1.0/zlib-1.2.11-j3ogymf5vmwlxvblzxxqdkrjkdvfccyx/lib -Wl,-rpath,/opt/rocm-5.1.0/lib -L/opt/rocm-5.1.0/lib -Wl,-rpath,/opt/cray/pe/mpich/8.1.16/gtl/lib -L/opt/cray/pe/mpich/8.1.16/gtl/lib -Wl,-rpath,/opt/cray/pe/mpich/8.1.16/ofi/amd/5.0/lib -L/opt/cray/pe/mpich/8.1.16/ofi/amd/5.0/lib -Wl,-rpath,/opt/cray/pe/libsci/21.08.1.2/AMD/4.0/x86_64/lib -L/opt/cray/pe/libsci/21.08.1.2/AMD/4.0/x86_64/lib -Wl,-rpath,/opt/cray/pe/dsmml/0.2.2/dsmml/lib -L/opt/cray/pe/dsmml/0.2.2/dsmml/lib -Wl,-rpath,/opt/cray/pe/pmi/6.1.2/lib -L/opt/cray/pe/pmi/6.1.2/lib -Wl,-rpath,/opt/cray/xpmem/2.4.4-2.3_2.12__gff0e1d9.shasta/lib64 -L/opt/cray/xpmem/2.4.4-2.3_2.12__gff0e1d9.shasta/lib64 -Wl,-rpath,/usr/lib64/gcc/x86_64-suse-linux/7 -L/usr/lib64/gcc/x86_64-suse-linux/7 -Wl,-rpath,/usr/x86_64-suse-linux/lib -L/usr/x86_64-suse-linux/lib -Wl,-rpath,/opt/rocm-5.1.0/llvm/lib -L/opt/rocm-5.1.0/llvm/lib -lHYPRE -lkokkoskernels -lkokkoscontainers -lkokkoscore -lp4est -lsc -lpthread -lm -lz -lX11 -lhipsparse -lhipblas -lrocsparse -lrocsolver -lrocblas -lrocrand -lamdhip64 -lstdc++ -ldl -lmpi_gtl_hsa -lsci_amd_mpi -lsci_amd -lmpifort_amd -lmpi_amd -ldsmml -lpmi -lpmi2 -lxpmem -lflangmain -lpgmath -lflang -lflangrti -lompstub -lm -lrt -lpthread -lgcc_s -lstdc++ -ldl -lmpi_gtl_hsa
-----------------------------------------



      ##########################################################
      #                                                        #
      #                       WARNING!!!                       #
      #                                                        #
      #   This code was compiled with GPU support and you've   #
      #   created PETSc/GPU objects, but you intentionally     #
      #   used -use_gpu_aware_mpi 0, requiring PETSc to copy   #
      #   additional data between the GPU and CPU. To obtain   #
      #   meaningful timing results on multi-rank runs, use    #
      #   GPU-aware MPI instead.                               #
      #                                                        #
      ##########################################################


