masses:        e= 9.109e-31; ions in proton mass units:    2.000e+00  1.820e+02 ...
charges:       e=-1.602e-19; charges in elementary units:  1.000e+00  2.000e+00
n:             e:  1.000e+00                           i:  1.000e+00  1.000e-07
thermal T (K): e= 2.321e+07 i= 1.160e+07  1.160e+07. v_0= 1.876e+07 ( 6.256e-02c) n_0= 1.000e+20 t_0= 1.637e-05, classical, Intuitive, 32 batched
Domain radius (AMR levels) grid 0:  5.000e+00 (2) , 1:  5.835e-02 (2) , 2:  6.117e-03 (2) 
Using default Plex order for all matrices
0) FormLandau 9720 IPs, 360 cells total, Nb=27, Nq=27, dim=3, Tab: Nb=27 Nf=10 Np=27 cdim=3 N=334400
0 TS dt 0.5 time 0.
    0 SNES Function norm 1.165196401842e-01 
    Linear solve converged in 24 iteration, batch 0, specie 2
    1 SNES Function norm 3.941349431097e-03 
    Linear solve converged in 24 iteration, batch 1, specie 2
    2 SNES Function norm 7.255109956513e-04 
    Linear solve converged in 24 iteration, batch 1, specie 2
    3 SNES Function norm 1.652758097174e-04 
    Linear solve converged in 23 iteration, batch 3, specie 2
    4 SNES Function norm 3.893327740307e-05 
    Linear solve converged in 22 iteration, batch 8, specie 9
    5 SNES Function norm 9.267740331757e-06 
    Linear solve converged in 21 iteration, batch 0, specie 0
    6 SNES Function norm 2.215372267735e-06 
    Linear solve converged in 21 iteration, batch 0, specie 0
    7 SNES Function norm 5.306401898907e-07 
    Linear solve converged in 21 iteration, batch 0, specie 0
    8 SNES Function norm 1.272517988374e-07 
    Linear solve converged in 21 iteration, batch 0, specie 0
    9 SNES Function norm 3.054094945502e-08 
    Linear solve converged in 21 iteration, batch 0, specie 0
   10 SNES Function norm 7.334794309366e-09 
    Linear solve converged in 21 iteration, batch 0, specie 0
   11 SNES Function norm 1.762578362316e-09 
    Linear solve converged in 21 iteration, batch 0, specie 0
   12 SNES Function norm 4.237888177028e-10 
    Linear solve converged in 21 iteration, batch 0, specie 0
   13 SNES Function norm 1.019486728350e-10 
    Linear solve converged in 22 iteration, batch 16, specie 2
   14 SNES Function norm 2.453743411917e-11 
    Linear solve converged in 25 iteration, batch 16, specie 3
   15 SNES Function norm 5.908781193858e-12 
    Linear solve converged in 27 iteration, batch 16, specie 2
   16 SNES Function norm 1.423570255938e-12 
  Nonlinear solve converged due to CONVERGED_SNORM_RELATIVE iterations 16
      TSAdapt none beuler 0: step   0 accepted t=0          + 5.000e-01 dt=5.000e-01 
1 TS dt 0.5 time 0.5
TS Object: 1 MPI process
  type: beuler
  maximum steps=1
  maximum time=100.
  total number of I function evaluations=17
  total number of I Jacobian evaluations=16
  total number of RHS function evaluations=17
  total number of nonlinear solver iterations=16
  total number of linear solver iterations=359
  total number of nonlinear solve failures=0
  total number of rejected steps=0
  using relative error tolerance of 0.01,   using absolute error tolerance of 0.0001
  TSAdapt Object: 1 MPI process
    type: none
  SNES Object: 1 MPI process
    type: newtonls
    maximum iterations=50, maximum function evaluations=10000
    tolerances: relative=1e-14, absolute=1e-50, solution=1e-14
    total number of linear solver iterations=359
    total number of function evaluations=17
    norm schedule ALWAYS
    SNESLineSearch Object: 1 MPI process
      type: basic
      maxstep=1.000000e+08, minlambda=1.000000e-12
      tolerances: relative=1.000000e-08, absolute=1.000000e-15, lambda=1.000000e-08
      maximum iterations=40
    KSP Object: 1 MPI process
      type: preonly
      maximum iterations=10000, initial guess is zero
      tolerances:  relative=1e-05, absolute=1e-50, divergence=10000.
      left preconditioning
      using NONE norm type for convergence test
    PC Object: 1 MPI process
      type: bjkokkos
        Batched device linear solver: Krylov (KSP) method with Jacobi preconditioning
      		nwork = 0, rel tol = 1.000000e-08, abs tol = 1.000000e-50, div tol = 1.000000e+04, max it =40, type = gmres
      linear system matrix = precond matrix:
      Mat Object: Jacobian 1 MPI process
        type: seqaijkokkos
        rows=334400, cols=334400
        total: nonzeros=18048320, allocated nonzeros=18048320
        total number of mallocs used during MatSetValues calls=0
          not using I-node routines
0 TS dt 0.5 time 0.
    0 SNES Function norm 1.165196401842e-01 
    Linear solve converged in 24 iteration, batch 0, specie 2
    1 SNES Function norm 3.941349431097e-03 
    Linear solve converged in 24 iteration, batch 1, specie 2
    2 SNES Function norm 7.255109956513e-04 
    Linear solve converged in 24 iteration, batch 1, specie 2
    3 SNES Function norm 1.652758097174e-04 
    Linear solve converged in 23 iteration, batch 3, specie 2
    4 SNES Function norm 3.893327740307e-05 
    Linear solve converged in 22 iteration, batch 8, specie 9
    5 SNES Function norm 9.267740331757e-06 
    Linear solve converged in 21 iteration, batch 0, specie 0
    6 SNES Function norm 2.215372267735e-06 
    Linear solve converged in 21 iteration, batch 0, specie 0
    7 SNES Function norm 5.306401898907e-07 
    Linear solve converged in 21 iteration, batch 0, specie 0
    8 SNES Function norm 1.272517988374e-07 
    Linear solve converged in 21 iteration, batch 0, specie 0
    9 SNES Function norm 3.054094945502e-08 
    Linear solve converged in 21 iteration, batch 0, specie 0
   10 SNES Function norm 7.334794309366e-09 
    Linear solve converged in 21 iteration, batch 0, specie 0
   11 SNES Function norm 1.762578362316e-09 
    Linear solve converged in 21 iteration, batch 0, specie 0
   12 SNES Function norm 4.237888177028e-10 
    Linear solve converged in 21 iteration, batch 0, specie 0
   13 SNES Function norm 1.019486728350e-10 
    Linear solve converged in 22 iteration, batch 16, specie 2
   14 SNES Function norm 2.453743411917e-11 
    Linear solve converged in 25 iteration, batch 16, specie 3
   15 SNES Function norm 5.908781193858e-12 
    Linear solve converged in 27 iteration, batch 16, specie 2
   16 SNES Function norm 1.423570255938e-12 
  Nonlinear solve converged due to CONVERGED_SNORM_RELATIVE iterations 16
      TSAdapt none beuler 0: step   0 accepted t=0          + 5.000e-01 dt=5.000e-01 
1 TS dt 0.5 time 0.5
    0 SNES Function norm 1.425753454532e-02 
    Linear solve converged in 24 iteration, batch 0, specie 2
    1 SNES Function norm 1.819499660071e-03 
    Linear solve converged in 24 iteration, batch 1, specie 2
    2 SNES Function norm 4.304538545396e-04 
    Linear solve converged in 24 iteration, batch 1, specie 2
    3 SNES Function norm 1.027822657551e-04 
    Linear solve converged in 23 iteration, batch 0, specie 2
    4 SNES Function norm 2.454359120585e-05 
    Linear solve converged in 22 iteration, batch 0, specie 2
    5 SNES Function norm 5.863828604035e-06 
    Linear solve converged in 21 iteration, batch 0, specie 0
    6 SNES Function norm 1.401907704585e-06 
    Linear solve converged in 21 iteration, batch 0, specie 0
    7 SNES Function norm 3.353836733377e-07 
    Linear solve converged in 21 iteration, batch 0, specie 0
    8 SNES Function norm 8.028392402180e-08 
    Linear solve converged in 21 iteration, batch 0, specie 0
    9 SNES Function norm 1.922936445694e-08 
    Linear solve converged in 21 iteration, batch 0, specie 0
   10 SNES Function norm 4.608307222612e-09 
    Linear solve converged in 21 iteration, batch 0, specie 0
   11 SNES Function norm 1.104973010092e-09 
    Linear solve converged in 21 iteration, batch 0, specie 0
   12 SNES Function norm 2.650869227436e-10 
    Linear solve converged in 21 iteration, batch 0, specie 0
   13 SNES Function norm 6.362920209044e-11 
    Linear solve converged in 23 iteration, batch 8, specie 2
   14 SNES Function norm 1.528061228166e-11 
    Linear solve converged in 25 iteration, batch 8, specie 2
   15 SNES Function norm 3.671002915257e-12 
  Nonlinear solve converged due to CONVERGED_SNORM_RELATIVE iterations 15
      TSAdapt none beuler 0: step   1 accepted t=0.5        + 5.000e-01 dt=5.000e-01 
2 TS dt 0.5 time 1.
    0 SNES Function norm 7.790499008312e-03 
    Linear solve converged in 24 iteration, batch 0, specie 2
    1 SNES Function norm 1.435974694121e-03 
    Linear solve converged in 24 iteration, batch 1, specie 2
    2 SNES Function norm 3.526982841039e-04 
    Linear solve converged in 24 iteration, batch 1, specie 2
    3 SNES Function norm 8.497707064074e-05 
    Linear solve converged in 23 iteration, batch 0, specie 2
    4 SNES Function norm 2.032474236330e-05 
    Linear solve converged in 22 iteration, batch 0, specie 2
    5 SNES Function norm 4.849570196751e-06 
    Linear solve converged in 21 iteration, batch 0, specie 0
    6 SNES Function norm 1.156459703731e-06 
    Linear solve converged in 21 iteration, batch 0, specie 0
    7 SNES Function norm 2.758067781239e-07 
    Linear solve converged in 21 iteration, batch 0, specie 0
    8 SNES Function norm 6.580216845023e-08 
    Linear solve converged in 21 iteration, batch 0, specie 0
    9 SNES Function norm 1.570649651719e-08 
    Linear solve converged in 21 iteration, batch 0, specie 0
   10 SNES Function norm 3.750914977457e-09 
    Linear solve converged in 21 iteration, batch 0, specie 0
   11 SNES Function norm 8.962271649862e-10 
    Linear solve converged in 21 iteration, batch 0, specie 0
   12 SNES Function norm 2.142494425837e-10 
    Linear solve converged in 22 iteration, batch 0, specie 2
   13 SNES Function norm 5.124405467982e-11 
    Linear solve converged in 23 iteration, batch 8, specie 2
   14 SNES Function norm 1.226158794943e-11 
    Linear solve converged in 26 iteration, batch 8, specie 2
   15 SNES Function norm 2.936389435744e-12 
  Nonlinear solve converged due to CONVERGED_SNORM_RELATIVE iterations 15
      TSAdapt none beuler 0: step   2 accepted t=1          + 5.000e-01 dt=5.000e-01 
3 TS dt 0.5 time 1.5
    0 SNES Function norm 6.236277900777e-03 
    Linear solve converged in 24 iteration, batch 0, specie 2
    1 SNES Function norm 1.314261312475e-03 
    Linear solve converged in 24 iteration, batch 1, specie 2
    2 SNES Function norm 3.221506691334e-04 
    Linear solve converged in 24 iteration, batch 1, specie 2
    3 SNES Function norm 7.744396474293e-05 
    Linear solve converged in 23 iteration, batch 0, specie 2
    4 SNES Function norm 1.847042212555e-05 
    Linear solve converged in 22 iteration, batch 0, specie 2
    5 SNES Function norm 4.392454279659e-06 
    Linear solve converged in 21 iteration, batch 0, specie 0
    6 SNES Function norm 1.043683070371e-06 
    Linear solve converged in 21 iteration, batch 0, specie 0
    7 SNES Function norm 2.479817425287e-07 
    Linear solve converged in 21 iteration, batch 0, specie 0
    8 SNES Function norm 5.893926518529e-08 
    Linear solve converged in 21 iteration, batch 0, specie 0
    9 SNES Function norm 1.401460304680e-08 
    Linear solve converged in 21 iteration, batch 0, specie 0
   10 SNES Function norm 3.334027770729e-09 
    Linear solve converged in 21 iteration, batch 0, specie 0
   11 SNES Function norm 7.935544686672e-10 
    Linear solve converged in 21 iteration, batch 0, specie 0
   12 SNES Function norm 1.889745096009e-10 
    Linear solve converged in 22 iteration, batch 0, specie 2
   13 SNES Function norm 4.502369629506e-11 
    Linear solve converged in 23 iteration, batch 0, specie 2
   14 SNES Function norm 1.073208803078e-11 
    Linear solve converged in 25 iteration, batch 0, specie 2
   15 SNES Function norm 2.559635664789e-12 
  Nonlinear solve converged due to CONVERGED_SNORM_RELATIVE iterations 15
      TSAdapt none beuler 0: step   3 accepted t=1.5        + 5.000e-01 dt=5.000e-01 
4 TS dt 0.5 time 2.
    0 SNES Function norm 5.607256855357e-03 
    Linear solve converged in 24 iteration, batch 0, specie 2
    1 SNES Function norm 1.234547089125e-03 
    Linear solve converged in 24 iteration, batch 1, specie 2
    2 SNES Function norm 3.007118589586e-04 
    Linear solve converged in 24 iteration, batch 1, specie 2
    3 SNES Function norm 7.196577404436e-05 
    Linear solve converged in 23 iteration, batch 0, specie 2
    4 SNES Function norm 1.709620044378e-05 
    Linear solve converged in 22 iteration, batch 0, specie 2
    5 SNES Function norm 4.050176521550e-06 
    Linear solve converged in 21 iteration, batch 0, specie 0
    6 SNES Function norm 9.587191252961e-07 
    Linear solve converged in 21 iteration, batch 0, specie 0
    7 SNES Function norm 2.269340125190e-07 
    Linear solve converged in 21 iteration, batch 0, specie 0
    8 SNES Function norm 5.373295968759e-08 
    Linear solve converged in 21 iteration, batch 0, specie 0
    9 SNES Function norm 1.272834519704e-08 
    Linear solve converged in 21 iteration, batch 0, specie 0
   10 SNES Function norm 3.016578166204e-09 
    Linear solve converged in 21 iteration, batch 0, specie 0
   11 SNES Function norm 7.152789933323e-10 
    Linear solve converged in 21 iteration, batch 0, specie 0
   12 SNES Function norm 1.696895504588e-10 
    Linear solve converged in 22 iteration, batch 8, specie 3
   13 SNES Function norm 4.027644780184e-11 
    Linear solve converged in 23 iteration, batch 0, specie 2
   14 SNES Function norm 9.564063508805e-12 
    Linear solve converged in 26 iteration, batch 8, specie 4
   15 SNES Function norm 2.272832637242e-12 
  Nonlinear solve converged due to CONVERGED_SNORM_RELATIVE iterations 15
      TSAdapt none beuler 0: step   4 accepted t=2          + 5.000e-01 dt=5.000e-01 
5 TS dt 0.5 time 2.5
    0 SNES Function norm 5.187333288287e-03 
    Linear solve converged in 24 iteration, batch 0, specie 2
    1 SNES Function norm 1.154850920411e-03 
    Linear solve converged in 24 iteration, batch 1, specie 2
    2 SNES Function norm 2.795502075912e-04 
    Linear solve converged in 24 iteration, batch 1, specie 2
    3 SNES Function norm 6.658781185925e-05 
    Linear solve converged in 23 iteration, batch 0, specie 2
    4 SNES Function norm 1.575551276332e-05 
    Linear solve converged in 22 iteration, batch 0, specie 2
    5 SNES Function norm 3.718673118340e-06 
    Linear solve converged in 21 iteration, batch 0, specie 0
    6 SNES Function norm 8.770608149838e-07 
    Linear solve converged in 21 iteration, batch 0, specie 0
    7 SNES Function norm 2.068608049508e-07 
    Linear solve converged in 21 iteration, batch 0, specie 0
    8 SNES Function norm 4.880516701427e-08 
    Linear solve converged in 21 iteration, batch 0, specie 0
    9 SNES Function norm 1.151982344545e-08 
    Linear solve converged in 21 iteration, batch 0, specie 0
   10 SNES Function norm 2.720435635873e-09 
    Linear solve converged in 21 iteration, batch 0, specie 0
   11 SNES Function norm 6.427614302374e-10 
    Linear solve converged in 21 iteration, batch 0, specie 0
   12 SNES Function norm 1.519423729779e-10 
    Linear solve converged in 22 iteration, batch 8, specie 2
   13 SNES Function norm 3.593588302962e-11 
    Linear solve converged in 23 iteration, batch 0, specie 2
   14 SNES Function norm 8.502900745634e-12 
    Linear solve converged in 26 iteration, batch 24, specie 2
   15 SNES Function norm 2.012702248928e-12 
  Nonlinear solve converged due to CONVERGED_SNORM_RELATIVE iterations 15
      TSAdapt none beuler 0: step   5 accepted t=2.5        + 5.000e-01 dt=5.000e-01 
6 TS dt 0.5 time 3.
    0 SNES Function norm 4.812831549315e-03 
    Linear solve converged in 24 iteration, batch 0, specie 2
    1 SNES Function norm 1.068976887416e-03 
    Linear solve converged in 24 iteration, batch 1, specie 2
    2 SNES Function norm 2.572900215691e-04 
    Linear solve converged in 24 iteration, batch 1, specie 2
    3 SNES Function norm 6.101663577980e-05 
    Linear solve converged in 23 iteration, batch 0, specie 2
    4 SNES Function norm 1.438347294096e-05 
    Linear solve converged in 22 iteration, batch 0, specie 2
    5 SNES Function norm 3.383101292621e-06 
    Linear solve converged in 21 iteration, batch 0, specie 0
    6 SNES Function norm 7.952409556878e-07 
    Linear solve converged in 21 iteration, batch 0, specie 0
    7 SNES Function norm 1.869422941606e-07 
    Linear solve converged in 21 iteration, batch 0, specie 0
    8 SNES Function norm 4.396054336836e-08 
    Linear solve converged in 21 iteration, batch 0, specie 0
    9 SNES Function norm 1.034223488811e-08 
    Linear solve converged in 21 iteration, batch 0, specie 0
   10 SNES Function norm 2.434333953205e-09 
    Linear solve converged in 21 iteration, batch 0, specie 0
   11 SNES Function norm 5.732793892296e-10 
    Linear solve converged in 21 iteration, batch 0, specie 0
   12 SNES Function norm 1.350733986153e-10 
    Linear solve converged in 22 iteration, batch 0, specie 2
   13 SNES Function norm 3.184076415195e-11 
    Linear solve converged in 23 iteration, batch 0, specie 2
   14 SNES Function norm 7.510480902236e-12 
    Linear solve converged in 26 iteration, batch 8, specie 2
   15 SNES Function norm 1.772061932732e-12 
  Nonlinear solve converged due to CONVERGED_SNORM_RELATIVE iterations 15
      TSAdapt none beuler 0: step   6 accepted t=3          + 5.000e-01 dt=5.000e-01 
7 TS dt 0.5 time 3.5
    0 SNES Function norm 4.447228727023e-03 
    Linear solve converged in 24 iteration, batch 0, specie 2
    1 SNES Function norm 9.787354608143e-04 
    Linear solve converged in 24 iteration, batch 1, specie 2
    2 SNES Function norm 2.343572227778e-04 
    Linear solve converged in 24 iteration, batch 1, specie 2
    3 SNES Function norm 5.535636774643e-05 
    Linear solve converged in 23 iteration, batch 0, specie 2
    4 SNES Function norm 1.300484252981e-05 
    Linear solve converged in 22 iteration, batch 0, specie 2
    5 SNES Function norm 3.049203833534e-06 
    Linear solve converged in 21 iteration, batch 0, specie 0
    6 SNES Function norm 7.145679848795e-07 
    Linear solve converged in 21 iteration, batch 0, specie 0
    7 SNES Function norm 1.674724403590e-07 
    Linear solve converged in 21 iteration, batch 0, specie 0
    8 SNES Function norm 3.926426119817e-08 
    Linear solve converged in 21 iteration, batch 0, specie 0
    9 SNES Function norm 9.209820258919e-09 
    Linear solve converged in 21 iteration, batch 0, specie 0
   10 SNES Function norm 2.161332059840e-09 
    Linear solve converged in 21 iteration, batch 0, specie 0
   11 SNES Function norm 5.074743088733e-10 
    Linear solve converged in 21 iteration, batch 0, specie 0
   12 SNES Function norm 1.192134091848e-10 
    Linear solve converged in 22 iteration, batch 8, specie 2
   13 SNES Function norm 2.801906833295e-11 
    Linear solve converged in 24 iteration, batch 16, specie 2
   14 SNES Function norm 6.588348691550e-12 
    Linear solve converged in 28 iteration, batch 8, specie 2
   15 SNES Function norm 1.550154102947e-12 
  Nonlinear solve converged due to CONVERGED_SNORM_RELATIVE iterations 15
      TSAdapt none beuler 0: step   7 accepted t=3.5        + 5.000e-01 dt=5.000e-01 
8 TS dt 0.5 time 4.
    0 SNES Function norm 4.086488061598e-03 
    Linear solve converged in 24 iteration, batch 0, specie 2
    1 SNES Function norm 8.871289022746e-04 
    Linear solve converged in 24 iteration, batch 1, specie 2
    2 SNES Function norm 2.114270161422e-04 
    Linear solve converged in 24 iteration, batch 1, specie 2
    3 SNES Function norm 4.975969997374e-05 
    Linear solve converged in 23 iteration, batch 0, specie 2
    4 SNES Function norm 1.165412074379e-05 
    Linear solve converged in 22 iteration, batch 0, specie 2
    5 SNES Function norm 2.724738699982e-06 
    Linear solve converged in 21 iteration, batch 0, specie 0
    6 SNES Function norm 6.367754941882e-07 
    Linear solve converged in 21 iteration, batch 0, specie 0
    7 SNES Function norm 1.488357748026e-07 
    Linear solve converged in 21 iteration, batch 0, specie 0
    8 SNES Function norm 3.480087976606e-08 
    Linear solve converged in 21 iteration, batch 0, specie 0
    9 SNES Function norm 8.140981540577e-09 
    Linear solve converged in 21 iteration, batch 0, specie 0
   10 SNES Function norm 1.905382554995e-09 
    Linear solve converged in 21 iteration, batch 0, specie 0
   11 SNES Function norm 4.461816852890e-10 
    Linear solve converged in 21 iteration, batch 0, specie 0
   12 SNES Function norm 1.045359156734e-10 
    Linear solve converged in 22 iteration, batch 0, specie 2
   13 SNES Function norm 2.450351959161e-11 
    Linear solve converged in 24 iteration, batch 0, specie 2
   14 SNES Function norm 5.746875726136e-12 
    Linear solve converged in 27 iteration, batch 0, specie 3
   15 SNES Function norm 1.348321499700e-12 
  Nonlinear solve converged due to CONVERGED_SNORM_RELATIVE iterations 15
      TSAdapt none beuler 0: step   8 accepted t=4          + 5.000e-01 dt=5.000e-01 
9 TS dt 0.5 time 4.5
    0 SNES Function norm 3.734446757431e-03 
    Linear solve converged in 24 iteration, batch 0, specie 2
    1 SNES Function norm 7.966459137033e-04 
    Linear solve converged in 23 iteration, batch 0, specie 2
    2 SNES Function norm 1.890390194357e-04 
    Linear solve converged in 23 iteration, batch 0, specie 2
    3 SNES Function norm 4.434406947678e-05 
    Linear solve converged in 23 iteration, batch 0, specie 2
    4 SNES Function norm 1.035692514346e-05 
    Linear solve converged in 22 iteration, batch 0, specie 2
    5 SNES Function norm 2.415271703779e-06 
    Linear solve converged in 21 iteration, batch 0, specie 0
    6 SNES Function norm 5.630625919016e-07 
    Linear solve converged in 21 iteration, batch 0, specie 0
    7 SNES Function norm 1.312875576792e-07 
    Linear solve converged in 21 iteration, batch 0, specie 0
    8 SNES Function norm 3.062387731647e-08 
    Linear solve converged in 21 iteration, batch 0, specie 0
    9 SNES Function norm 7.146685844118e-09 
    Linear solve converged in 21 iteration, batch 0, specie 0
   10 SNES Function norm 1.668672944859e-09 
    Linear solve converged in 21 iteration, batch 0, specie 0
   11 SNES Function norm 3.898196191739e-10 
    Linear solve converged in 21 iteration, batch 0, specie 0
   12 SNES Function norm 9.111385558228e-11 
    Linear solve converged in 22 iteration, batch 1, specie 2
   13 SNES Function norm 2.130699316763e-11 
    Linear solve converged in 24 iteration, batch 1, specie 2
   14 SNES Function norm 4.985271111583e-12 
    Linear solve converged in 27 iteration, batch 8, specie 2
   15 SNES Function norm 1.167024500636e-12 
  Nonlinear solve converged due to CONVERGED_SNORM_RELATIVE iterations 15
      TSAdapt none beuler 0: step   9 accepted t=4.5        + 5.000e-01 dt=5.000e-01 
10 TS dt 0.5 time 5.
TS Object: 1 MPI process
  type: beuler
  maximum steps=10
  maximum time=100.
  total number of I function evaluations=178
  total number of I Jacobian evaluations=167
  total number of RHS function evaluations=178
  total number of nonlinear solver iterations=151
  total number of linear solver iterations=3376
  total number of nonlinear solve failures=0
  total number of rejected steps=0
  using relative error tolerance of 0.01,   using absolute error tolerance of 0.0001
  TSAdapt Object: 1 MPI process
    type: none
  SNES Object: 1 MPI process
    type: newtonls
    maximum iterations=50, maximum function evaluations=10000
    tolerances: relative=1e-14, absolute=1e-50, solution=1e-14
    total number of linear solver iterations=335
    total number of function evaluations=16
    norm schedule ALWAYS
    SNESLineSearch Object: 1 MPI process
      type: basic
      maxstep=1.000000e+08, minlambda=1.000000e-12
      tolerances: relative=1.000000e-08, absolute=1.000000e-15, lambda=1.000000e-08
      maximum iterations=40
    KSP Object: 1 MPI process
      type: preonly
      maximum iterations=10000, initial guess is zero
      tolerances:  relative=1e-05, absolute=1e-50, divergence=10000.
      left preconditioning
      using NONE norm type for convergence test
    PC Object: 1 MPI process
      type: bjkokkos
        Batched device linear solver: Krylov (KSP) method with Jacobi preconditioning
      		nwork = 0, rel tol = 1.000000e-08, abs tol = 1.000000e-50, div tol = 1.000000e+04, max it =40, type = gmres
      linear system matrix = precond matrix:
      Mat Object: Jacobian 1 MPI process
        type: seqaijkokkos
        rows=334400, cols=334400
        total: nonzeros=18048320, allocated nonzeros=18048320
        total number of mallocs used during MatSetValues calls=0
          not using I-node routines
**************************************** ***********************************************************************************************************************
***                                WIDEN YOUR WINDOW TO 160 CHARACTERS.  Use 'enscript -r -fCourier9' to print this document                                 ***
****************************************************************************************************************************************************************

------------------------------------------------------------------ PETSc Performance Summary: -------------------------------------------------------------------



      ##########################################################
      #                                                        #
      #                       WARNING!!!                       #
      #                                                        #
      #   This code was compiled with GPU support and you've   #
      #   created PETSc/GPU objects, but you intentionally     #
      #   used -use_gpu_aware_mpi 0, requiring PETSc to copy   #
      #   additional data between the GPU and CPU. To obtain   #
      #   meaningful timing results on multi-rank runs, use    #
      #   GPU-aware MPI instead.                               #
      #                                                        #
      ##########################################################


/global/u2/m/madams/batch_gmres_paper/mark/perlmutter/./ex2-3d on a arch-perlmutter-opt-gcc-kokkos-cuda-3d named nid003809 with 4 processors, by madams Wed Jun  1 07:33:39 2022
Using Petsc Development GIT revision: v3.17.1-449-ga24ffdf4c3f  GIT Date: 2022-05-31 18:12:35 -0700

                         Max       Max/Min     Avg       Total
Time (sec):           1.086e+02     1.000   1.086e+02
Objects:              2.938e+04     1.000   2.938e+04
Flops:                1.407e+10     1.000   1.407e+10  5.628e+10
Flops/sec:            1.296e+08     1.000   1.296e+08  5.185e+08
MPI Msg Count:        0.000e+00     0.000   0.000e+00  0.000e+00
MPI Msg Len (bytes):  0.000e+00     0.000   0.000e+00  0.000e+00
MPI Reductions:       2.200e+01     1.000

Flop counting convention: 1 flop = 1 real number operation of type (multiply/divide/add/subtract)
                            e.g., VecAXPY() for real vectors of length N --> 2N flops
                            and VecAXPY() for complex vectors of length N --> 8N flops

Summary of Stages:   ----- Time ------  ----- Flop ------  --- Messages ---  -- Message Lengths --  -- Reductions --
                        Avg     %Total     Avg     %Total    Count   %Total     Avg         %Total    Count   %Total
 0:      Main Stage: 6.4981e+01  59.9%  1.2964e+09   2.3%  0.000e+00   0.0%  0.000e+00        0.0%  2.000e+00   9.1%
 1:          Warmup: 4.8730e+00   4.5%  5.2516e+09   9.3%  0.000e+00   0.0%  0.000e+00        0.0%  0.000e+00   0.0%
 2:           Solve: 3.8707e+01  35.7%  4.9736e+10  88.4%  0.000e+00   0.0%  0.000e+00        0.0%  0.000e+00   0.0%

------------------------------------------------------------------------------------------------------------------------
See the 'Profiling' chapter of the users' manual for details on interpreting output.
Phase summary info:
   Count: number of times phase was executed
   Time and Flop: Max - maximum over all processors
                  Ratio - ratio of maximum to minimum over all processors
   Mess: number of messages sent
   AvgLen: average message length (bytes)
   Reduct: number of global reductions
   Global: entire computation
   Stage: stages of a computation. Set stages with PetscLogStagePush() and PetscLogStagePop().
      %T - percent time in this phase         %F - percent flop in this phase
      %M - percent messages in this phase     %L - percent message lengths in this phase
      %R - percent reductions in this phase
   Total Mflop/s: 10e-6 * (sum of flop over all processors)/(max time over all processors)
   GPU Mflop/s: 10e-6 * (sum of flop on GPU over all processors)/(max GPU time over all processors)
   CpuToGpu Count: total number of CPU to GPU copies per processor
   CpuToGpu Size (Mbytes): 10e-6 * (total size of CPU to GPU copies per processor)
   GpuToCpu Count: total number of GPU to CPU copies per processor
   GpuToCpu Size (Mbytes): 10e-6 * (total size of GPU to CPU copies per processor)
   GPU %F: percent flops on GPU in this event
------------------------------------------------------------------------------------------------------------------------
Event                Count      Time (sec)     Flop                              --- Global ---  --- Stage ----  Total   GPU    - CpuToGpu -   - GpuToCpu - GPU
                   Max Ratio  Max     Ratio   Max  Ratio  Mess   AvgLen  Reduct  %T %F %M %L %R  %T %F %M %L %R Mflop/s Mflop/s Count   Size   Count   Size  %F
---------------------------------------------------------------------------------------------------------------------------------------------------------------

--- Event Stage 0: Main Stage

BuildTwoSided        423 1.0 3.7447e-04 1.1 0.00e+00 0.0 0.0e+00 0.0e+00 0.0e+00  0  0  0  0  0   0  0  0  0  0     0       0      0 0.00e+00    0 0.00e+00  0
DMConvert             18 1.0 4.0243e-03 1.0 0.00e+00 0.0 0.0e+00 0.0e+00 0.0e+00  0  0  0  0  0   0  0  0  0  0     0       0      0 0.00e+00    0 0.00e+00  0
DMCreateMat            8 1.0 3.8896e+01 1.0 0.00e+00 0.0 0.0e+00 0.0e+00 0.0e+00 36  0  0  0  0  60  0  0  0  0     0       0      0 0.00e+00    0 0.00e+00  0
DMPlexInterp         294 1.0 6.4340e-03 1.0 0.00e+00 0.0 0.0e+00 0.0e+00 0.0e+00  0  0  0  0  0   0  0  0  0  0     0       0      0 0.00e+00    0 0.00e+00  0
DMPlexStratify       435 1.0 6.6510e-03 1.0 0.00e+00 0.0 0.0e+00 0.0e+00 0.0e+00  0  0  0  0  0   0  0  0  0  0     0       0      0 0.00e+00    0 0.00e+00  0
DMPlexSymmetrize     435 1.0 4.4107e-04 1.0 0.00e+00 0.0 0.0e+00 0.0e+00 0.0e+00  0  0  0  0  0   0  0  0  0  0     0       0      0 0.00e+00    0 0.00e+00  0
DMPlexPrealloc       198 1.0 3.8106e+01 1.0 0.00e+00 0.0 0.0e+00 0.0e+00 0.0e+00 35  0  0  0  0  58  0  0  0  0     0       0      0 0.00e+00    0 0.00e+00  0
DMPlexJacobianFE       6 1.0 2.2017e+00 1.0 1.06e+08 1.0 0.0e+00 0.0e+00 0.0e+00  2  1  0  0  0   3 33  0  0  0   192       0      0 0.00e+00    0 0.00e+00  0
SFSetGraph           828 1.0 2.4541e-04 1.1 0.00e+00 0.0 0.0e+00 0.0e+00 0.0e+00  0  0  0  0  0   0  0  0  0  0     0       0      0 0.00e+00    0 0.00e+00  0
SFSetUp              423 1.0 1.5997e-03 1.1 0.00e+00 0.0 0.0e+00 0.0e+00 0.0e+00  0  0  0  0  0   0  0  0  0  0     0       0      0 0.00e+00    0 0.00e+00  0
SFBcastBegin         858 1.0 1.5587e-03 1.1 0.00e+00 0.0 0.0e+00 0.0e+00 0.0e+00  0  0  0  0  0   0  0  0  0  0     0       0      0 0.00e+00    0 0.00e+00  0
SFBcastEnd           858 1.0 5.3925e-04 1.0 0.00e+00 0.0 0.0e+00 0.0e+00 0.0e+00  0  0  0  0  0   0  0  0  0  0     0       0      0 0.00e+00    0 0.00e+00  0
SFReduceBegin         54 1.0 6.2409e-05 1.1 0.00e+00 0.0 0.0e+00 0.0e+00 0.0e+00  0  0  0  0  0   0  0  0  0  0     0       0      0 0.00e+00    0 0.00e+00  0
SFReduceEnd           54 1.0 2.3899e-05 1.1 0.00e+00 0.0 0.0e+00 0.0e+00 0.0e+00  0  0  0  0  0   0  0  0  0  0     0       0      0 0.00e+00    0 0.00e+00  0
SFCreateEmbed        396 1.0 3.7218e-03 1.1 0.00e+00 0.0 0.0e+00 0.0e+00 0.0e+00  0  0  0  0  0   0  0  0  0  0     0       0      0 0.00e+00    0 0.00e+00  0
SFSectionSF          396 1.0 1.5467e-03 1.1 0.00e+00 0.0 0.0e+00 0.0e+00 0.0e+00  0  0  0  0  0   0  0  0  0  0     0       0      0 0.00e+00    0 0.00e+00  0
SFRemoteOff          396 1.0 8.1515e-03 1.1 0.00e+00 0.0 0.0e+00 0.0e+00 0.0e+00  0  0  0  0  0   0  0  0  0  0     0       0      0 0.00e+00    0 0.00e+00  0
SFPack               912 1.0 6.3660e-05 1.1 0.00e+00 0.0 0.0e+00 0.0e+00 0.0e+00  0  0  0  0  0   0  0  0  0  0     0       0      0 0.00e+00    0 0.00e+00  0
SFUnpack             912 1.0 5.6117e-05 1.1 0.00e+00 0.0 0.0e+00 0.0e+00 0.0e+00  0  0  0  0  0   0  0  0  0  0     0       0      0 0.00e+00    0 0.00e+00  0
Landau Create          1 1.0 4.3102e+01 1.0 2.58e+08 1.0 0.0e+00 0.0e+00 0.0e+00 40  2  0  0  0  66 80  0  0  0    24       0      0 0.00e+00    0 0.00e+00  0
 GPU ass. setup        1 1.0 2.1992e+01 1.0 0.00e+00 0.0 0.0e+00 0.0e+00 0.0e+00 20  0  0  0  0  34  0  0  0  0     0       0      0 0.00e+00    0 0.00e+00  0
 Build matrix          1 1.0 1.4295e+00 1.0 3.98e+07 1.0 0.0e+00 0.0e+00 0.0e+00  1  0  0  0  0   2 12  0  0  0   111       0      0 0.00e+00    0 0.00e+00  0
 Assembly maps         1 1.0 1.9787e+01 1.0 2.18e+08 1.0 0.0e+00 0.0e+00 0.0e+00 18  2  0  0  0  30 67  0  0  0    44       0      0 0.00e+00    0 0.00e+00  0
Landau Mass mat        1 1.0 2.1925e+01 1.0 6.61e+07 1.0 0.0e+00 0.0e+00 0.0e+00 20  0  0  0  0  34 20  0  0  0    12       0      0 0.00e+00    0 0.00e+00  0
 static IP Data        1 1.0 4.0135e-03 1.1 4.76e+05 1.0 0.0e+00 0.0e+00 0.0e+00  0  0  0  0  0   0  0  0  0  0   475       0      0 0.00e+00    0 0.00e+00  0
MatMult           397080 1.0 3.0313e-02 1.0 3.10e+06 1.0 0.0e+00 0.0e+00 0.0e+00  0  0  0  0  0   0  1  0  0  0   409       0      0 0.00e+00    0 0.00e+00  0
MatLUFactor           30 1.0 3.9209e-04 1.0 3.94e+05 1.0 0.0e+00 0.0e+00 0.0e+00  0  0  0  0  0   0  0  0  0  0  4016       0      0 0.00e+00    0 0.00e+00  0
MatCopy              240 1.0 1.5460e-04 1.0 0.00e+00 0.0 0.0e+00 0.0e+00 0.0e+00  0  0  0  0  0   0  0  0  0  0     0       0      0 0.00e+00    0 0.00e+00  0
MatConvert            60 1.0 4.5090e-04 1.1 0.00e+00 0.0 0.0e+00 0.0e+00 0.0e+00  0  0  0  0  0   0  0  0  0  0     0       0      0 0.00e+00    0 0.00e+00  0
MatAssemblyBegin    1275 1.0 1.0935e-04 1.1 0.00e+00 0.0 0.0e+00 0.0e+00 0.0e+00  0  0  0  0  0   0  0  0  0  0     0       0      0 0.00e+00    0 0.00e+00  0
MatAssemblyEnd      1275 1.0 3.0055e-01 1.0 0.00e+00 0.0 0.0e+00 0.0e+00 0.0e+00  0  0  0  0  0   0  0  0  0  0     0       0      0 0.00e+00    0 0.00e+00  0
MatGetRowIJ           15 1.0 1.8050e-06 1.1 0.00e+00 0.0 0.0e+00 0.0e+00 0.0e+00  0  0  0  0  0   0  0  0  0  0     0       0      0 0.00e+00    0 0.00e+00  0
MatZeroEntries         6 1.0 3.0144e-03 1.1 0.00e+00 0.0 0.0e+00 0.0e+00 0.0e+00  0  0  0  0  0   0  0  0  0  0     0       0      0 0.00e+00    0 0.00e+00  0
MatMatSolve          240 1.0 1.9372e-03 1.1 9.27e+06 1.0 0.0e+00 0.0e+00 0.0e+00  0  0  0  0  0   0  3  0  0  0 19147       0      0 0.00e+00    0 0.00e+00  0
MatSetPreallCOO        1 1.0 9.9592e+00 1.0 0.00e+00 0.0 0.0e+00 0.0e+00 0.0e+00  9  0  0  0  0  15  0  0  0  0     0       0      0 0.00e+00    0 0.00e+00  0
VecCopy                1 1.0 2.1642e-04 1.3 0.00e+00 0.0 0.0e+00 0.0e+00 0.0e+00  0  0  0  0  0   0  0  0  0  0     0       0      0 0.00e+00    0 0.00e+00  0
VecSet               105 1.0 1.5579e-03 1.0 0.00e+00 0.0 0.0e+00 0.0e+00 0.0e+00  0  0  0  0  0   0  0  0  0  0     0       0      0 0.00e+00    0 0.00e+00  0
DualSpaceSetUp        28 1.0 3.0909e-02 1.0 2.20e+04 1.0 0.0e+00 0.0e+00 0.0e+00  0  0  0  0  0   0  0  0  0  0     3       0      0 0.00e+00    0 0.00e+00  0
FESetUp               52 1.0 2.7409e-03 1.0 0.00e+00 0.0 0.0e+00 0.0e+00 0.0e+00  0  0  0  0  0   0  0  0  0  0     0       0      0 0.00e+00    0 0.00e+00  0

--- Event Stage 1: Warmup

Landau Operator       33 1.0 3.6628e+00 1.0 1.23e+09 1.0 0.0e+00 0.0e+00 0.0e+00  3  9  0  0  0  75 93  0  0  0  1340       0      0 0.00e+00    0 0.00e+00 100
Landau Jacobian       17 1.0 3.3638e+00 1.0 1.23e+09 1.0 0.0e+00 0.0e+00 0.0e+00  3  9  0  0  0  69 93  0  0  0  1459       0      0 0.00e+00    0 0.00e+00 100
Landau Mass           16 1.0 2.9899e-01 1.0 0.00e+00 0.0 0.0e+00 0.0e+00 0.0e+00  0  0  0  0  0   6  0  0  0  0     0       0      0 0.00e+00    0 0.00e+00  0
 Preamble             33 1.0 6.0465e-05 1.1 0.00e+00 0.0 0.0e+00 0.0e+00 0.0e+00  0  0  0  0  0   0  0  0  0  0     0       0      0 0.00e+00    0 0.00e+00  0
 dynamic IP-Jac       34 1.0 1.3077e-05 1.2 0.00e+00 0.0 0.0e+00 0.0e+00 0.0e+00  0  0  0  0  0   0  0  0  0  0     0       0      0 0.00e+00    0 0.00e+00  0
 Kernel-init          33 1.0 9.1903e-04 1.1 0.00e+00 0.0 0.0e+00 0.0e+00 0.0e+00  0  0  0  0  0   0  0  0  0  0     0       0      0 0.00e+00    0 0.00e+00  0
 Jac-f-df (GPU)       17 1.0 3.7616e-02 1.0 0.00e+00 0.0 0.0e+00 0.0e+00 0.0e+00  0  0  0  0  0   1  0  0  0  0     0       0      0 0.00e+00    0 0.00e+00  0
 J Kernel (GPU)       17 1.0 1.5907e-03 1.0 0.00e+00 0.0 0.0e+00 0.0e+00 0.0e+00  0  0  0  0  0   0  0  0  0  0     0       0      0 0.00e+00    0 0.00e+00  0
 M Kernel (GPU)       16 1.0 8.9074e-05 1.1 0.00e+00 0.0 0.0e+00 0.0e+00 0.0e+00  0  0  0  0  0   0  0  0  0  0     0       0      0 0.00e+00    0 0.00e+00  0
MatMult               17 1.0 1.6355e-04 1.1 6.14e+08 1.0 0.0e+00 0.0e+00 0.0e+00  0  4  0  0  0   0 47  0  0  0 15008447       0      0 0.00e+00    0 0.00e+00 100
MatMultAdd            17 1.0 1.0705e-02 1.0 6.14e+08 1.0 0.0e+00 0.0e+00 0.0e+00  0  4  0  0  0   0 47  0  0  0 229284       0      0 0.00e+00    0 0.00e+00 100
MatAssemblyBegin      67 1.0 5.6750e-06 1.2 0.00e+00 0.0 0.0e+00 0.0e+00 0.0e+00  0  0  0  0  0   0  0  0  0  0     0       0      0 0.00e+00    0 0.00e+00  0
MatAssemblyEnd        67 1.0 1.9347e-02 1.0 0.00e+00 0.0 0.0e+00 0.0e+00 0.0e+00  0  0  0  0  0   0  0  0  0  0     0       0      0 0.00e+00    0 0.00e+00  0
MatGetRowIJ            1 1.0 8.7271e-03 1.0 0.00e+00 0.0 0.0e+00 0.0e+00 0.0e+00  0  0  0  0  0   0  0  0  0  0     0       0      0 0.00e+00    0 0.00e+00  0
MatCreateSubMats       1 1.0 4.4524e-01 1.0 0.00e+00 0.0 0.0e+00 0.0e+00 0.0e+00  0  0  0  0  0   9  0  0  0  0     0       0      0 0.00e+00    0 0.00e+00  0
MatGetOrdering         1 1.0 8.7321e-02 1.0 0.00e+00 0.0 0.0e+00 0.0e+00 0.0e+00  0  0  0  0  0   2  0  0  0  0     0       0      0 0.00e+00    0 0.00e+00  0
MatZeroEntries        17 1.0 2.1100e-03 1.0 0.00e+00 0.0 0.0e+00 0.0e+00 0.0e+00  0  0  0  0  0   0  0  0  0  0     0       0      0 0.00e+00    0 0.00e+00  0
MatView                1 0.0 3.3585e-05 0.0 0.00e+00 0.0 0.0e+00 0.0e+00 0.0e+00  0  0  0  0  0   0  0  0  0  0     0       0      0 0.00e+00    0 0.00e+00  0
MatSetValuesCOO       33 1.0 3.0612e-04 1.2 0.00e+00 0.0 0.0e+00 0.0e+00 0.0e+00  0  0  0  0  0   0  0  0  0  0     0       0      0 0.00e+00    0 0.00e+00  0
VecNorm                1 1.0 6.3703e-05 1.2 6.69e+05 1.0 0.0e+00 0.0e+00 0.0e+00  0  0  0  0  0   0  0  0  0  0 41995       0      0 0.00e+00    0 0.00e+00 100
VecCopy               35 1.0 1.1437e-03 1.0 0.00e+00 0.0 0.0e+00 0.0e+00 0.0e+00  0  0  0  0  0   0  0  0  0  0     0       0      0 0.00e+00    0 0.00e+00  0
VecSet                33 1.0 1.5149e-02 1.0 0.00e+00 0.0 0.0e+00 0.0e+00 0.0e+00  0  0  0  0  0   0  0  0  0  0     0       0      0 0.00e+00    0 0.00e+00  0
VecAXPY               18 1.0 1.4310e-04 1.1 1.20e+07 1.0 0.0e+00 0.0e+00 0.0e+00  0  0  0  0  0   0  1  0  0  0 336510       0      0 0.00e+00    0 0.00e+00 100
VecAXPBYCZ            18 1.0 1.0978e-03 1.0 3.01e+07 1.0 0.0e+00 0.0e+00 0.0e+00  0  0  0  0  0   0  2  0  0  0 109658       0      0 0.00e+00    0 0.00e+00 100
VecWAXPY              16 1.0 1.3887e-04 1.1 1.07e+07 1.0 0.0e+00 0.0e+00 0.0e+00  0  0  0  0  0   0  1  0  0  0 308227       0      0 0.00e+00    0 0.00e+00 100
VecReduceArith        48 1.0 9.4455e-04 1.0 3.21e+07 1.0 0.0e+00 0.0e+00 0.0e+00  0  0  0  0  0   0  2  0  0  0 135948       0      0 0.00e+00    0 0.00e+00 100
VecReduceComm         16 1.0 3.6260e-06 1.3 0.00e+00 0.0 0.0e+00 0.0e+00 0.0e+00  0  0  0  0  0   0  0  0  0  0     0       0      0 0.00e+00    0 0.00e+00  0
TSStep                 1 1.0 4.8848e+00 1.0 1.31e+09 1.0 0.0e+00 0.0e+00 0.0e+00  4  9  0  0  0 100100  0  0  0  1075       0      0 0.00e+00    0 0.00e+00 100
TSFunctionEval        17 1.0 3.3729e+00 1.0 1.24e+09 1.0 0.0e+00 0.0e+00 0.0e+00  3  9  0  0  0  69 94  0  0  0  1469       0      0 0.00e+00    0 0.00e+00 100
TSJacobianEval        16 1.0 2.9900e-01 1.0 0.00e+00 0.0 0.0e+00 0.0e+00 0.0e+00  0  0  0  0  0   6  0  0  0  0     0       0      0 0.00e+00    0 0.00e+00  0
KSPSetUp              16 1.0 4.0490e-06 1.2 0.00e+00 0.0 0.0e+00 0.0e+00 0.0e+00  0  0  0  0  0   0  0  0  0  0     0       0      0 0.00e+00    0 0.00e+00  0
KSPSolve              16 1.0 6.7433e-01 1.0 0.00e+00 0.0 0.0e+00 0.0e+00 0.0e+00  1  0  0  0  0  14  0  0  0  0     0       0      0 0.00e+00    0 0.00e+00  0
SNESSolve              1 1.0 4.8837e+00 1.0 1.31e+09 1.0 0.0e+00 0.0e+00 0.0e+00  4  9  0  0  0 100100  0  0  0  1073       0      0 0.00e+00    0 0.00e+00 100
SNESSetUp              1 1.0 4.2301e-04 1.4 0.00e+00 0.0 0.0e+00 0.0e+00 0.0e+00  0  0  0  0  0   0  0  0  0  0     0       0      0 0.00e+00    0 0.00e+00  0
SNESFunctionEval      17 1.0 3.3738e+00 1.0 1.27e+09 1.0 0.0e+00 0.0e+00 0.0e+00  3  9  0  0  0  69 97  0  0  0  1502       0      0 0.00e+00    0 0.00e+00 100
SNESJacobianEval      16 1.0 2.9901e-01 1.0 0.00e+00 0.0 0.0e+00 0.0e+00 0.0e+00  0  0  0  0  0   6  0  0  0  0     0       0      0 0.00e+00    0 0.00e+00  0
SNESLineSearch        16 1.0 3.1224e+00 1.0 1.24e+09 1.0 0.0e+00 0.0e+00 0.0e+00  3  9  0  0  0  64 94  0  0  0  1583       0      0 0.00e+00    0 0.00e+00 100
PCSetUp               16 1.0 5.3876e-01 1.0 0.00e+00 0.0 0.0e+00 0.0e+00 0.0e+00  0  0  0  0  0  11  0  0  0  0     0       0      0 0.00e+00    0 0.00e+00  0
PCApply               16 1.0 6.6748e-01 1.0 0.00e+00 0.0 0.0e+00 0.0e+00 0.0e+00  1  0  0  0  0  14  0  0  0  0     0       0      0 0.00e+00    0 0.00e+00  0

--- Event Stage 2: Solve

Landau Operator      312 1.0 3.2382e+01 1.0 1.16e+10 1.0 0.0e+00 0.0e+00 0.0e+00 30 83  0  0  0  83 93  0  0  0  1436       0      0 0.00e+00    0 0.00e+00 100
Landau Jacobian      161 1.0 2.9567e+01 1.0 1.16e+10 1.0 0.0e+00 0.0e+00 0.0e+00 27 83  0  0  0  76 93  0  0  0  1572       0      0 0.00e+00    0 0.00e+00 100
Landau Mass          151 1.0 2.8184e+00 1.0 0.00e+00 0.0 0.0e+00 0.0e+00 0.0e+00  3  0  0  0  0   7  0  0  0  0     0       0      0 0.00e+00    0 0.00e+00  0
 Preamble            303 1.0 4.5129e-04 1.2 0.00e+00 0.0 0.0e+00 0.0e+00 0.0e+00  0  0  0  0  0   0  0  0  0  0     0       0      0 0.00e+00    0 0.00e+00  0
 dynamic IP-Jac      304 1.0 6.7871e-05 1.2 0.00e+00 0.0 0.0e+00 0.0e+00 0.0e+00  0  0  0  0  0   0  0  0  0  0     0       0      0 0.00e+00    0 0.00e+00  0
 Kernel-init         303 1.0 7.7847e-03 1.1 0.00e+00 0.0 0.0e+00 0.0e+00 0.0e+00  0  0  0  0  0   0  0  0  0  0     0       0      0 0.00e+00    0 0.00e+00  0
 Jac-f-df (GPU)      152 1.0 3.1116e-01 1.0 0.00e+00 0.0 0.0e+00 0.0e+00 0.0e+00  0  0  0  0  0   1  0  0  0  0     0       0      0 0.00e+00    0 0.00e+00  0
 J Kernel (GPU)      152 1.0 5.5959e-04 1.1 0.00e+00 0.0 0.0e+00 0.0e+00 0.0e+00  0  0  0  0  0   0  0  0  0  0     0       0      0 0.00e+00    0 0.00e+00  0
 M Kernel (GPU)      151 1.0 7.4721e-04 1.2 0.00e+00 0.0 0.0e+00 0.0e+00 0.0e+00  0  0  0  0  0   0  0  0  0  0     0       0      0 0.00e+00    0 0.00e+00  0
MatMult              161 1.0 1.0581e-03 1.1 5.81e+09 1.0 0.0e+00 0.0e+00 0.0e+00  0 41  0  0  0   0 47  0  0  0 21969625       0      0 0.00e+00    0 0.00e+00 100
MatMultAdd           161 1.0 6.7901e-04 1.1 5.81e+09 1.0 0.0e+00 0.0e+00 0.0e+00  0 41  0  0  0   0 47  0  0  0 34235585       0      0 0.00e+00    0 0.00e+00 100
MatAssemblyBegin     606 1.0 4.4396e-05 1.1 0.00e+00 0.0 0.0e+00 0.0e+00 0.0e+00  0  0  0  0  0   0  0  0  0  0     0       0      0 0.00e+00    0 0.00e+00  0
MatAssemblyEnd       606 1.0 1.3173e-04 1.1 0.00e+00 0.0 0.0e+00 0.0e+00 0.0e+00  0  0  0  0  0   0  0  0  0  0     0       0      0 0.00e+00    0 0.00e+00  0
MatZeroEntries       152 1.0 1.8548e-02 1.0 0.00e+00 0.0 0.0e+00 0.0e+00 0.0e+00  0  0  0  0  0   0  0  0  0  0     0       0      0 0.00e+00    0 0.00e+00  0
MatView                1 0.0 2.4598e-05 0.0 0.00e+00 0.0 0.0e+00 0.0e+00 0.0e+00  0  0  0  0  0   0  0  0  0  0     0       0      0 0.00e+00    0 0.00e+00  0
MatSetValuesCOO      303 1.0 2.3283e-03 1.2 0.00e+00 0.0 0.0e+00 0.0e+00 0.0e+00  0  0  0  0  0   0  0  0  0  0     0       0      0 0.00e+00    0 0.00e+00  0
VecNorm               10 1.0 2.0599e-04 1.0 6.69e+06 1.0 0.0e+00 0.0e+00 0.0e+00  0  0  0  0  0   0  0  0  0  0 129872       0      0 0.00e+00    0 0.00e+00 100
VecCopy              322 1.0 8.2496e-03 1.0 0.00e+00 0.0 0.0e+00 0.0e+00 0.0e+00  0  0  0  0  0   0  0  0  0  0     0       0      0 0.00e+00    0 0.00e+00  0
VecSet               312 1.0 1.4783e-01 1.0 0.00e+00 0.0 0.0e+00 0.0e+00 0.0e+00  0  0  0  0  0   0  0  0  0  0     0       0      0 0.00e+00    0 0.00e+00  0
VecAXPY              171 1.0 7.9008e-04 1.1 1.14e+08 1.0 0.0e+00 0.0e+00 0.0e+00  0  1  0  0  0   0  1  0  0  0 579003       0      0 0.00e+00    0 0.00e+00 100
VecAXPBYCZ           171 1.0 6.4709e-03 1.0 2.86e+08 1.0 0.0e+00 0.0e+00 0.0e+00  0  2  0  0  0   0  2  0  0  0 176737       0      0 0.00e+00    0 0.00e+00 100
VecWAXPY             151 1.0 1.2837e-03 1.2 1.01e+08 1.0 0.0e+00 0.0e+00 0.0e+00  0  1  0  0  0   0  1  0  0  0 314674       0      0 0.00e+00    0 0.00e+00 100
VecReduceArith       453 1.0 8.8863e-03 1.0 3.03e+08 1.0 0.0e+00 0.0e+00 0.0e+00  0  2  0  0  0   0  2  0  0  0 136374       0      0 0.00e+00    0 0.00e+00 100
VecReduceComm        151 1.0 3.6177e-05 1.2 0.00e+00 0.0 0.0e+00 0.0e+00 0.0e+00  0  0  0  0  0   0  0  0  0  0     0       0      0 0.00e+00    0 0.00e+00  0
TSStep                10 1.0 3.8755e+01 1.0 1.24e+10 1.0 0.0e+00 0.0e+00 0.0e+00 36 88  0  0  0 100100  0  0  0  1283       0      0 0.00e+00    0 0.00e+00 100
TSFunctionEval       161 1.0 2.9652e+01 1.0 1.17e+10 1.0 0.0e+00 0.0e+00 0.0e+00 27 83  0  0  0  76 94  0  0  0  1582       0      0 0.00e+00    0 0.00e+00 100
TSJacobianEval       151 1.0 2.8185e+00 1.0 0.00e+00 0.0 0.0e+00 0.0e+00 0.0e+00  3  0  0  0  0   7  0  0  0  0     0       0      0 0.00e+00    0 0.00e+00  0
KSPSetUp             151 1.0 1.7772e-05 1.0 0.00e+00 0.0 0.0e+00 0.0e+00 0.0e+00  0  0  0  0  0   0  0  0  0  0     0       0      0 0.00e+00    0 0.00e+00  0
KSPSolve             151 1.0 6.2772e+00 1.0 0.00e+00 0.0 0.0e+00 0.0e+00 0.0e+00  6  0  0  0  0  16  0  0  0  0     0       0      0 0.00e+00    0 0.00e+00  0
SNESSolve             10 1.0 3.8750e+01 1.0 1.24e+10 1.0 0.0e+00 0.0e+00 0.0e+00 36 88  0  0  0 100100  0  0  0  1281       0      0 0.00e+00    0 0.00e+00 100
SNESFunctionEval     161 1.0 2.9656e+01 1.0 1.20e+10 1.0 0.0e+00 0.0e+00 0.0e+00 27 85  0  0  0  76 97  0  0  0  1619       0      0 0.00e+00    0 0.00e+00 100
SNESJacobianEval     151 1.0 2.8186e+00 1.0 0.00e+00 0.0 0.0e+00 0.0e+00 0.0e+00  3  0  0  0  0   7  0  0  0  0     0       0      0 0.00e+00    0 0.00e+00  0
SNESLineSearch       151 1.0 2.9466e+01 1.0 1.17e+10 1.0 0.0e+00 0.0e+00 0.0e+00 27 83  0  0  0  76 94  0  0  0  1583       0      0 0.00e+00    0 0.00e+00 100
PCSetUp              151 1.0 7.5671e-04 1.1 0.00e+00 0.0 0.0e+00 0.0e+00 0.0e+00  0  0  0  0  0   0  0  0  0  0     0       0      0 0.00e+00    0 0.00e+00  0
PCApply              151 1.0 6.2129e+00 1.0 0.00e+00 0.0 0.0e+00 0.0e+00 0.0e+00  6  0  0  0  0  16  0  0  0  0     0       0      0 0.00e+00    0 0.00e+00  0
---------------------------------------------------------------------------------------------------------------------------------------------------------------

Memory usage is given in bytes:

Object Type          Creations   Destructions     Memory  Descendants' Mem.
Reports information only for process 0.

--- Event Stage 0: Main Stage

           Container   428            428       249952     0.
    Distributed Mesh  1017           1017      5582856     0.
            DM Label  2095           2095      1357560     0.
          Quadrature  2281           2281      1368600     0.
           Index Set 10017          10017      9101956     0.
   IS L to G Mapping   203            203      7382220     0.
             Section  4310           4310      3103200     0.
   Star Forest Graph  2853           2853      3155400     0.
     Discrete System  1610           1610      1558492     0.
           Weak Form  1610           1610      1004640     0.
    GraphPartitioner   444            444       309024     0.
              Matrix  1244           1244   5840225568     0.
              Vector   677            688     36795976     0.
       p4est logging     1              0            0     0.
        Linear Space    98             98        69632     0.
          Dual Space   396            396       373824     0.
            FE Space    52             52        41392     0.
       Field over DM    18             18        12816     0.
             TSAdapt     1              1         1264     0.
                  TS     1              1         2432     0.
                DMTS     1              1          768     0.
                SNES     1              1         1556     0.
              DMSNES     3              3         2088     0.
      SNESLineSearch     1              1         1008     0.
       Krylov Solver     1              2         3432     0.
     DMKSP interface     0              1          664     0.
      Preconditioner     1              2         1888     0.
              Viewer     2              1          848     0.

--- Event Stage 1: Warmup

           Index Set     3              3      4015512     0.
              Matrix     1              1    223271252     0.
              Vector    11              0            0     0.
       Krylov Solver     1              0            0     0.
     DMKSP interface     1              0            0     0.
      Preconditioner     1              0            0     0.

--- Event Stage 2: Solve

========================================================================================================================
Average time to get PetscTime(): 3.1e-08
Average time for MPI_Barrier(): 2.8114e-06
Average time for zero size MPI_Send(): 2.1241e-05
#PETSc Option Table entries:
-dim 3
-dm_landau_amr_levels_max 2,2,2
-dm_landau_batch_size 32
-dm_landau_coo_assembly
-dm_landau_device_type kokkos
-dm_landau_Ez 0
-dm_landau_ion_charges 1,2,3,4,5,6,7,8,9
-dm_landau_ion_masses 2,182,182,182,182,182,182,182,182
-dm_landau_n 1.0000044,1,1e-7,1e-7,1e-7,1e-7,1e-7,1e-7,1e-7,1e-7
-dm_landau_num_species_grid 1,1,8
-dm_landau_thermal_temps 2,1,1,1,1,1,1,1,1,1
-dm_landau_type p8est
-dm_landau_verbose 1
-dm_mat_type aijkokkos
-dm_preallocate_only false
-dm_vec_type kokkos
-ex2_test_type none
-ksp_type preonly
-log_view
-pc_bjkokkos_ksp_batch_nsolves_team 1
-pc_bjkokkos_ksp_converged_reason
-pc_bjkokkos_ksp_max_it 40
-pc_bjkokkos_ksp_rtol 1.e-8
-pc_bjkokkos_ksp_type gmres
-pc_bjkokkos_pc_type jacobi
-pc_type bjkokkos
-petscspace_degree 2
-snes_converged_reason
-snes_linesearch_type basic
-snes_max_it 50
-snes_monitor
-snes_rtol 1e-14
-snes_stol 1e-14
-ts_adapt_clip .5,1.1
-ts_adapt_dt_max 1
-ts_adapt_monitor
-ts_adapt_scale_solve_failed 0.5
-ts_adapt_time_step_increase_delay 5
-ts_dt .5
-ts_exact_final_time stepover
-ts_max_snes_failures -1
-ts_max_steps 10
-ts_max_time 100
-ts_monitor
-ts_rtol 1e-2
-ts_type beuler
-ts_view
-use_gpu_aware_mpi 0
#End of PETSc Option Table entries
Compiled without FORTRAN kernels
Compiled with full precision matrices (default)
sizeof(short) 2 sizeof(int) 4 sizeof(long) 8 sizeof(void*) 8 sizeof(PetscScalar) 8 sizeof(PetscInt) 4
Configure options: --CFLAGS="   -g -ggdb" --CXXFLAGS=" -g -ggdb" --CUDAFLAGS="-g -Xcompiler -rdynamic" --LIBS=-lnvToolsExt --with-cc=cc --with-cxx=CC --with-fc=ftn --with-fortran-bindings=0 --LDFLAGS=-lmpifort_gnu_91 --COPTFLAGS="   -O3" --CXXOPTFLAGS=" -O3" --FOPTFLAGS="   -O3" --with-debugging=0 --with-x=0 --with-cuda=1 --with-cuda-arch=80 --with-mpiexec=srun --with-batch=0 --download-p4est=1 --with-zlib=1 --download-kokkos --download-kokkos-kernels --with-kokkos-kernels-tpl=0 --download-kokkos-kernels-commit=origin/develop --with-make-np=8 PETSC_ARCH=arch-perlmutter-opt-gcc-kokkos-cuda-3d
-----------------------------------------
Libraries compiled on 2022-06-01 13:52:39 on login34 
Machine characteristics: Linux-5.3.18-150300.59.43_11.0.51-cray_shasta_c-x86_64-with-glibc2.3.4
Using PETSc directory: /global/homes/m/madams/petsc
Using PETSc arch: arch-perlmutter-opt-gcc-kokkos-cuda-3d
-----------------------------------------

Using C compiler: cc -g -ggdb -fPIC -O3   
Using Fortran compiler: ftn  -fPIC -O3     
-----------------------------------------

Using include paths: -I/global/homes/m/madams/petsc/include -I/global/homes/m/madams/petsc/arch-perlmutter-opt-gcc-kokkos-cuda-3d/include -I/opt/nvidia/hpc_sdk/Linux_x86_64/21.11/cuda/11.5/include -I/opt/nvidia/hpc_sdk/Linux_x86_64/21.11/math_libs/11.5/include
-----------------------------------------

Using C linker: cc
Using Fortran linker: ftn
Using libraries: -Wl,-rpath,/global/homes/m/madams/petsc/arch-perlmutter-opt-gcc-kokkos-cuda-3d/lib -L/global/homes/m/madams/petsc/arch-perlmutter-opt-gcc-kokkos-cuda-3d/lib -lpetsc -Wl,-rpath,/global/homes/m/madams/petsc/arch-perlmutter-opt-gcc-kokkos-cuda-3d/lib -L/global/homes/m/madams/petsc/arch-perlmutter-opt-gcc-kokkos-cuda-3d/lib -Wl,-rpath,/opt/nvidia/hpc_sdk/Linux_x86_64/21.11/cuda/11.5/lib64 -L/opt/nvidia/hpc_sdk/Linux_x86_64/21.11/cuda/11.5/lib64 -L/opt/nvidia/hpc_sdk/Linux_x86_64/21.11/cuda/11.5/lib64/stubs -lkokkoskernels -lkokkoscontainers -lkokkoscore -lp4est -lsc -lcudart -lcufft -lcublas -lcusparse -lcusolver -lcurand -lcuda -lquadmath -lstdc++ -ldl -lnvToolsExt
-----------------------------------------



      ##########################################################
      #                                                        #
      #                       WARNING!!!                       #
      #                                                        #
      #   This code was compiled with GPU support and you've   #
      #   created PETSc/GPU objects, but you intentionally     #
      #   used -use_gpu_aware_mpi 0, requiring PETSc to copy   #
      #   additional data between the GPU and CPU. To obtain   #
      #   meaningful timing results on multi-rank runs, use    #
      #   GPU-aware MPI instead.                               #
      #                                                        #
      ##########################################################


