masses:        e= 9.109e-31; ions in proton mass units:    2.000e+00  1.820e+02 ...
charges:       e=-1.602e-19; charges in elementary units:  1.000e+00  2.000e+00
n:             e:  1.000e+00                           i:  1.000e+00  1.000e-07
thermal T (K): e= 2.321e+07 i= 1.160e+07  1.160e+07. v_0= 1.876e+07 ( 6.256e-02c) n_0= 1.000e+20 t_0= 1.637e-05, classical, Intuitive, 32 batched
Domain radius (AMR levels) grid 0:  5.000e+00 (2) , 1:  5.835e-02 (2) , 2:  6.117e-03 (2) 
Using default Plex order for all matrices
0) FormLandau 672 IPs, 42 cells total, Nb=16, Nq=16, dim=2, Tab: Nb=16 Nf=10 Np=16 cdim=2 N=45440
0 TS dt 0.5 time 0.
    0 SNES Function norm 3.702062137647e-02 
    Linear solve converged in 33 iteration, batch 20, specie 0
    1 SNES Function norm 3.970858312671e-04 
    Linear solve converged in 33 iteration, batch 28, specie 0
    2 SNES Function norm 5.809209619677e-05 
    Linear solve converged in 34 iteration, batch 15, specie 0
    3 SNES Function norm 1.520220735988e-05 
    Linear solve converged in 34 iteration, batch 21, specie 0
    4 SNES Function norm 3.795761888960e-06 
    Linear solve converged in 34 iteration, batch 17, specie 0
    5 SNES Function norm 9.316490863240e-07 
    Linear solve converged in 34 iteration, batch 21, specie 0
    6 SNES Function norm 2.274255865725e-07 
    Linear solve converged in 34 iteration, batch 24, specie 0
    7 SNES Function norm 5.542728952547e-08 
    Linear solve converged in 34 iteration, batch 25, specie 0
    8 SNES Function norm 1.350432414507e-08 
    Linear solve converged in 34 iteration, batch 26, specie 0
    9 SNES Function norm 3.290796961525e-09 
    Linear solve converged in 34 iteration, batch 26, specie 0
   10 SNES Function norm 8.022190623400e-10 
    Linear solve converged in 34 iteration, batch 26, specie 0
   11 SNES Function norm 1.956513395568e-10 
    Linear solve converged in 34 iteration, batch 22, specie 0
   12 SNES Function norm 4.773900911332e-11 
    Linear solve converged in 34 iteration, batch 22, specie 0
   13 SNES Function norm 1.165496621700e-11 
    Linear solve converged in 35 iteration, batch 14, specie 0
   14 SNES Function norm 2.845688420694e-12 
  Nonlinear solve converged due to CONVERGED_SNORM_RELATIVE iterations 14
      TSAdapt none beuler 0: step   0 accepted t=0          + 5.000e-01 dt=5.000e-01 
1 TS dt 0.5 time 0.5
TS Object: 1 MPI process
  type: beuler
  maximum steps=1
  maximum time=100.
  total number of I function evaluations=15
  total number of I Jacobian evaluations=14
  total number of RHS function evaluations=15
  total number of nonlinear solver iterations=14
  total number of linear solver iterations=475
  total number of nonlinear solve failures=0
  total number of rejected steps=0
  using relative error tolerance of 0.01,   using absolute error tolerance of 0.0001
  TSAdapt Object: 1 MPI process
    type: none
  SNES Object: 1 MPI process
    type: newtonls
    maximum iterations=50, maximum function evaluations=10000
    tolerances: relative=1e-14, absolute=1e-50, solution=1e-14
    total number of linear solver iterations=475
    total number of function evaluations=15
    norm schedule ALWAYS
    SNESLineSearch Object: 1 MPI process
      type: basic
      maxstep=1.000000e+08, minlambda=1.000000e-12
      tolerances: relative=1.000000e-08, absolute=1.000000e-15, lambda=1.000000e-08
      maximum iterations=40
    KSP Object: 1 MPI process
      type: preonly
      maximum iterations=10000, initial guess is zero
      tolerances:  relative=1e-05, absolute=1e-50, divergence=10000.
      left preconditioning
      using NONE norm type for convergence test
    PC Object: 1 MPI process
      type: bjkokkos
        Batched device linear solver: Krylov (KSP) method with Jacobi preconditioning
      		nwork = 0, rel tol = 1.000000e-08, abs tol = 1.000000e-50, div tol = 1.000000e+04, max it =40, type = gmres
      linear system matrix = precond matrix:
      Mat Object: Jacobian 1 MPI process
        type: seqaijkokkos
        rows=45440, cols=45440
        total: nonzeros=1009280, allocated nonzeros=1009280
        total number of mallocs used during MatSetValues calls=0
          using I-node routines: found 21312 nodes, limit used is 5
0 TS dt 0.5 time 0.
    0 SNES Function norm 3.702062137647e-02 
    Linear solve converged in 33 iteration, batch 20, specie 0
    1 SNES Function norm 3.970858312671e-04 
    Linear solve converged in 33 iteration, batch 28, specie 0
    2 SNES Function norm 5.809209619677e-05 
    Linear solve converged in 34 iteration, batch 15, specie 0
    3 SNES Function norm 1.520220735988e-05 
    Linear solve converged in 34 iteration, batch 21, specie 0
    4 SNES Function norm 3.795761888960e-06 
    Linear solve converged in 34 iteration, batch 17, specie 0
    5 SNES Function norm 9.316490863240e-07 
    Linear solve converged in 34 iteration, batch 21, specie 0
    6 SNES Function norm 2.274255865725e-07 
    Linear solve converged in 34 iteration, batch 24, specie 0
    7 SNES Function norm 5.542728952547e-08 
    Linear solve converged in 34 iteration, batch 25, specie 0
    8 SNES Function norm 1.350432414507e-08 
    Linear solve converged in 34 iteration, batch 26, specie 0
    9 SNES Function norm 3.290796961525e-09 
    Linear solve converged in 34 iteration, batch 26, specie 0
   10 SNES Function norm 8.022190623400e-10 
    Linear solve converged in 34 iteration, batch 26, specie 0
   11 SNES Function norm 1.956513395568e-10 
    Linear solve converged in 34 iteration, batch 22, specie 0
   12 SNES Function norm 4.773900911332e-11 
    Linear solve converged in 34 iteration, batch 22, specie 0
   13 SNES Function norm 1.165496621700e-11 
    Linear solve converged in 35 iteration, batch 14, specie 0
   14 SNES Function norm 2.845688420694e-12 
  Nonlinear solve converged due to CONVERGED_SNORM_RELATIVE iterations 14
      TSAdapt none beuler 0: step   0 accepted t=0          + 5.000e-01 dt=5.000e-01 
1 TS dt 0.5 time 0.5
    0 SNES Function norm 1.266787884060e-02 
    Linear solve converged in 33 iteration, batch 20, specie 0
    1 SNES Function norm 2.763165651977e-04 
    Linear solve converged in 34 iteration, batch 7, specie 0
    2 SNES Function norm 5.464209504272e-05 
    Linear solve converged in 34 iteration, batch 10, specie 0
    3 SNES Function norm 1.363577079762e-05 
    Linear solve converged in 34 iteration, batch 11, specie 0
    4 SNES Function norm 3.379030388762e-06 
    Linear solve converged in 34 iteration, batch 14, specie 0
    5 SNES Function norm 8.296445907883e-07 
    Linear solve converged in 34 iteration, batch 19, specie 0
    6 SNES Function norm 2.028123106995e-07 
    Linear solve converged in 34 iteration, batch 23, specie 0
    7 SNES Function norm 4.949388275464e-08 
    Linear solve converged in 34 iteration, batch 25, specie 0
    8 SNES Function norm 1.207268123562e-08 
    Linear solve converged in 34 iteration, batch 26, specie 0
    9 SNES Function norm 2.945044661346e-09 
    Linear solve converged in 34 iteration, batch 26, specie 0
   10 SNES Function norm 7.186552232110e-10 
    Linear solve converged in 34 iteration, batch 26, specie 0
   11 SNES Function norm 1.754410562843e-10 
    Linear solve converged in 34 iteration, batch 25, specie 0
   12 SNES Function norm 4.284914492736e-11 
    Linear solve converged in 34 iteration, batch 20, specie 0
   13 SNES Function norm 1.047089455046e-11 
    Linear solve converged in 35 iteration, batch 0, specie 0
   14 SNES Function norm 2.559168649792e-12 
  Nonlinear solve converged due to CONVERGED_SNORM_RELATIVE iterations 14
      TSAdapt none beuler 0: step   1 accepted t=0.5        + 5.000e-01 dt=5.000e-01 
2 TS dt 0.5 time 1.
    0 SNES Function norm 8.186282666229e-03 
    Linear solve converged in 34 iteration, batch 8, specie 0
    1 SNES Function norm 3.129833096127e-04 
    Linear solve converged in 34 iteration, batch 0, specie 0
    2 SNES Function norm 6.960946216241e-05 
    Linear solve converged in 34 iteration, batch 9, specie 0
    3 SNES Function norm 1.732108058404e-05 
    Linear solve converged in 33 iteration, batch 0, specie 0
    4 SNES Function norm 4.280239914250e-06 
    Linear solve converged in 34 iteration, batch 14, specie 0
    5 SNES Function norm 1.050156914247e-06 
    Linear solve converged in 34 iteration, batch 20, specie 0
    6 SNES Function norm 2.567651348304e-07 
    Linear solve converged in 34 iteration, batch 23, specie 0
    7 SNES Function norm 6.269602265621e-08 
    Linear solve converged in 34 iteration, batch 25, specie 0
    8 SNES Function norm 1.530419035925e-08 
    Linear solve converged in 34 iteration, batch 26, specie 0
    9 SNES Function norm 3.736345963625e-09 
    Linear solve converged in 34 iteration, batch 26, specie 0
   10 SNES Function norm 9.125090828503e-10 
    Linear solve converged in 34 iteration, batch 26, specie 0
   11 SNES Function norm 2.229531309514e-10 
    Linear solve converged in 34 iteration, batch 24, specie 0
   12 SNES Function norm 5.449891213838e-11 
    Linear solve converged in 34 iteration, batch 20, specie 0
   13 SNES Function norm 1.332934832498e-11 
    Linear solve converged in 35 iteration, batch 14, specie 0
   14 SNES Function norm 3.261902171393e-12 
  Nonlinear solve converged due to CONVERGED_SNORM_RELATIVE iterations 14
      TSAdapt none beuler 0: step   2 accepted t=1          + 5.000e-01 dt=5.000e-01 
3 TS dt 0.5 time 1.5
    0 SNES Function norm 6.148416917368e-03 
    Linear solve converged in 33 iteration, batch 0, specie 0
    1 SNES Function norm 3.768898709409e-04 
    Linear solve converged in 34 iteration, batch 6, specie 0
    2 SNES Function norm 8.991266362454e-05 
    Linear solve converged in 34 iteration, batch 6, specie 0
    3 SNES Function norm 2.238662409800e-05 
    Linear solve converged in 34 iteration, batch 30, specie 0
    4 SNES Function norm 5.523053166313e-06 
    Linear solve converged in 34 iteration, batch 16, specie 0
    5 SNES Function norm 1.354298765435e-06 
    Linear solve converged in 34 iteration, batch 21, specie 0
    6 SNES Function norm 3.311744118556e-07 
    Linear solve converged in 34 iteration, batch 24, specie 0
    7 SNES Function norm 8.090560964857e-08 
    Linear solve converged in 34 iteration, batch 25, specie 0
    8 SNES Function norm 1.976243627059e-08 
    Linear solve converged in 34 iteration, batch 26, specie 0
    9 SNES Function norm 4.828389408473e-09 
    Linear solve converged in 34 iteration, batch 26, specie 0
   10 SNES Function norm 1.180136589045e-09 
    Linear solve converged in 34 iteration, batch 26, specie 0
   11 SNES Function norm 2.885739058314e-10 
    Linear solve converged in 34 iteration, batch 22, specie 0
   12 SNES Function norm 7.059788903978e-11 
    Linear solve converged in 34 iteration, batch 22, specie 0
   13 SNES Function norm 1.728055343264e-11 
    Linear solve converged in 34 iteration, batch 6, specie 0
   14 SNES Function norm 4.230835309996e-12 
  Nonlinear solve converged due to CONVERGED_SNORM_RELATIVE iterations 14
      TSAdapt none beuler 0: step   3 accepted t=1.5        + 5.000e-01 dt=5.000e-01 
4 TS dt 0.5 time 2.
    0 SNES Function norm 5.053631966878e-03 
    Linear solve converged in 35 iteration, batch 25, specie 0
    1 SNES Function norm 4.488174622957e-04 
    Linear solve converged in 34 iteration, batch 13, specie 0
    2 SNES Function norm 1.103433499773e-04 
    Linear solve converged in 34 iteration, batch 6, specie 0
    3 SNES Function norm 2.745040767414e-05 
    Linear solve converged in 34 iteration, batch 16, specie 0
    4 SNES Function norm 6.764928072589e-06 
    Linear solve converged in 34 iteration, batch 18, specie 0
    5 SNES Function norm 1.658522054740e-06 
    Linear solve converged in 34 iteration, batch 22, specie 0
    6 SNES Function norm 4.057200847682e-07 
    Linear solve converged in 34 iteration, batch 24, specie 0
    7 SNES Function norm 9.918116673365e-08 
    Linear solve converged in 34 iteration, batch 25, specie 0
    8 SNES Function norm 2.424525522739e-08 
    Linear solve converged in 34 iteration, batch 26, specie 0
    9 SNES Function norm 5.928568308645e-09 
    Linear solve converged in 34 iteration, batch 26, specie 0
   10 SNES Function norm 1.450288147121e-09 
    Linear solve converged in 34 iteration, batch 26, specie 0
   11 SNES Function norm 3.549433515088e-10 
    Linear solve converged in 34 iteration, batch 25, specie 0
   12 SNES Function norm 8.691148783075e-11 
    Linear solve converged in 34 iteration, batch 21, specie 0
   13 SNES Function norm 2.129291581368e-11 
    Linear solve converged in 34 iteration, batch 2, specie 0
   14 SNES Function norm 5.217611981705e-12 
  Nonlinear solve converged due to CONVERGED_SNORM_RELATIVE iterations 14
      TSAdapt none beuler 0: step   4 accepted t=2          + 5.000e-01 dt=5.000e-01 
5 TS dt 0.5 time 2.5
    0 SNES Function norm 4.421591101838e-03 
    Linear solve converged in 35 iteration, batch 19, specie 0
    1 SNES Function norm 5.155343606906e-04 
    Linear solve converged in 34 iteration, batch 15, specie 0
    2 SNES Function norm 1.282507147637e-04 
    Linear solve converged in 34 iteration, batch 9, specie 0
    3 SNES Function norm 3.186807435775e-05 
    Linear solve converged in 34 iteration, batch 14, specie 0
    4 SNES Function norm 7.849093242135e-06 
    Linear solve converged in 34 iteration, batch 19, specie 0
    5 SNES Function norm 1.924685819582e-06 
    Linear solve converged in 34 iteration, batch 22, specie 0
    6 SNES Function norm 4.711146280245e-07 
    Linear solve converged in 34 iteration, batch 24, specie 0
    7 SNES Function norm 1.152593264585e-07 
    Linear solve converged in 34 iteration, batch 25, specie 0
    8 SNES Function norm 2.820070856498e-08 
    Linear solve converged in 34 iteration, batch 26, specie 0
    9 SNES Function norm 6.902211706893e-09 
    Linear solve converged in 34 iteration, batch 26, specie 0
   10 SNES Function norm 1.690080109664e-09 
    Linear solve converged in 34 iteration, batch 26, specie 0
   11 SNES Function norm 4.140315852274e-10 
    Linear solve converged in 34 iteration, batch 25, specie 0
   12 SNES Function norm 1.014788059573e-10 
    Linear solve converged in 34 iteration, batch 22, specie 0
   13 SNES Function norm 2.488575438894e-11 
    Linear solve converged in 34 iteration, batch 15, specie 0
   14 SNES Function norm 6.105384554576e-12 
  Nonlinear solve converged due to CONVERGED_SNORM_RELATIVE iterations 14
      TSAdapt none beuler 0: step   5 accepted t=2.5        + 5.000e-01 dt=5.000e-01 
6 TS dt 0.5 time 3.
    0 SNES Function norm 4.039295671602e-03 
    Linear solve converged in 35 iteration, batch 17, specie 0
    1 SNES Function norm 5.703796443631e-04 
    Linear solve converged in 34 iteration, batch 12, specie 0
    2 SNES Function norm 1.425197309098e-04 
    Linear solve converged in 34 iteration, batch 16, specie 0
    3 SNES Function norm 3.537991391477e-05 
    Linear solve converged in 34 iteration, batch 14, specie 0
    4 SNES Function norm 8.712740111637e-06 
    Linear solve converged in 34 iteration, batch 20, specie 0
    5 SNES Function norm 2.137448621089e-06 
    Linear solve converged in 34 iteration, batch 23, specie 0
    6 SNES Function norm 5.235965934130e-07 
    Linear solve converged in 34 iteration, batch 24, specie 0
    7 SNES Function norm 1.282162641610e-07 
    Linear solve converged in 34 iteration, batch 25, specie 0
    8 SNES Function norm 3.140168536661e-08 
    Linear solve converged in 34 iteration, batch 26, specie 0
    9 SNES Function norm 7.693448251872e-09 
    Linear solve converged in 34 iteration, batch 26, specie 0
   10 SNES Function norm 1.885764714205e-09 
    Linear solve converged in 34 iteration, batch 26, specie 0
   11 SNES Function norm 4.624506699466e-10 
    Linear solve converged in 34 iteration, batch 25, specie 0
   12 SNES Function norm 1.134651966192e-10 
    Linear solve converged in 34 iteration, batch 21, specie 0
   13 SNES Function norm 2.785164320196e-11 
    Linear solve converged in 34 iteration, batch 20, specie 0
   14 SNES Function norm 6.842079676638e-12 
    Linear solve converged in 35 iteration, batch 6, specie 0
   15 SNES Function norm 1.680185162138e-12 
  Nonlinear solve converged due to CONVERGED_SNORM_RELATIVE iterations 15
      TSAdapt none beuler 0: step   6 accepted t=3          + 5.000e-01 dt=5.000e-01 
7 TS dt 0.5 time 3.5
    0 SNES Function norm 3.793381504119e-03 
    Linear solve converged in 35 iteration, batch 17, specie 0
    1 SNES Function norm 6.111199727272e-04 
    Linear solve converged in 34 iteration, batch 10, specie 0
    2 SNES Function norm 1.529183485750e-04 
    Linear solve converged in 33 iteration, batch 0, specie 0
    3 SNES Function norm 3.793754515751e-05 
    Linear solve converged in 34 iteration, batch 15, specie 0
    4 SNES Function norm 9.344108657149e-06 
    Linear solve converged in 34 iteration, batch 20, specie 0
    5 SNES Function norm 2.293825613938e-06 
    Linear solve converged in 34 iteration, batch 23, specie 0
    6 SNES Function norm 5.623989921044e-07 
    Linear solve converged in 34 iteration, batch 25, specie 0
    7 SNES Function norm 1.378543800521e-07 
    Linear solve converged in 34 iteration, batch 25, specie 0
    8 SNES Function norm 3.379728971203e-08 
    Linear solve converged in 34 iteration, batch 26, specie 0
    9 SNES Function norm 8.289193411517e-09 
    Linear solve converged in 34 iteration, batch 26, specie 0
   10 SNES Function norm 2.033979248650e-09 
    Linear solve converged in 34 iteration, batch 26, specie 0
   11 SNES Function norm 4.993415386833e-10 
    Linear solve converged in 34 iteration, batch 25, specie 0
   12 SNES Function norm 1.226496252833e-10 
    Linear solve converged in 34 iteration, batch 21, specie 0
   13 SNES Function norm 3.014059797527e-11 
    Linear solve converged in 34 iteration, batch 12, specie 0
   14 SNES Function norm 7.412299380470e-12 
    Linear solve converged in 35 iteration, batch 4, specie 0
   15 SNES Function norm 1.822383515633e-12 
  Nonlinear solve converged due to CONVERGED_SNORM_RELATIVE iterations 15
      TSAdapt none beuler 0: step   7 accepted t=3.5        + 5.000e-01 dt=5.000e-01 
8 TS dt 0.5 time 4.
    0 SNES Function norm 3.618701541561e-03 
    Linear solve converged in 35 iteration, batch 18, specie 0
    1 SNES Function norm 6.379543155767e-04 
    Linear solve converged in 34 iteration, batch 9, specie 0
    2 SNES Function norm 1.596746710928e-04 
    Linear solve converged in 33 iteration, batch 30, specie 0
    3 SNES Function norm 3.960078079316e-05 
    Linear solve converged in 34 iteration, batch 15, specie 0
    4 SNES Function norm 9.757492340384e-06 
    Linear solve converged in 34 iteration, batch 21, specie 0
    5 SNES Function norm 2.397146756513e-06 
    Linear solve converged in 34 iteration, batch 23, specie 0
    6 SNES Function norm 5.882893217351e-07 
    Linear solve converged in 34 iteration, batch 25, specie 0
    7 SNES Function norm 1.443493914713e-07 
    Linear solve converged in 34 iteration, batch 25, specie 0
    8 SNES Function norm 3.542753862426e-08 
    Linear solve converged in 34 iteration, batch 26, specie 0
    9 SNES Function norm 8.698502135124e-09 
    Linear solve converged in 34 iteration, batch 26, specie 0
   10 SNES Function norm 2.136763953266e-09 
    Linear solve converged in 34 iteration, batch 26, specie 0
   11 SNES Function norm 5.251565551444e-10 
    Linear solve converged in 34 iteration, batch 25, specie 0
   12 SNES Function norm 1.291340273652e-10 
    Linear solve converged in 34 iteration, batch 20, specie 0
   13 SNES Function norm 3.177041174414e-11 
    Linear solve converged in 34 iteration, batch 0, specie 0
   14 SNES Function norm 7.819676663679e-12 
    Linear solve converged in 35 iteration, batch 0, specie 0
   15 SNES Function norm 1.925303991678e-12 
  Nonlinear solve converged due to CONVERGED_SNORM_RELATIVE iterations 15
      TSAdapt none beuler 0: step   8 accepted t=4          + 5.000e-01 dt=5.000e-01 
9 TS dt 0.5 time 4.5
    0 SNES Function norm 3.477780720079e-03 
    Linear solve converged in 35 iteration, batch 19, specie 0
    1 SNES Function norm 6.522436953833e-04 
    Linear solve converged in 34 iteration, batch 9, specie 0
    2 SNES Function norm 1.632228706685e-04 
    Linear solve converged in 34 iteration, batch 28, specie 0
    3 SNES Function norm 4.047718366776e-05 
    Linear solve converged in 34 iteration, batch 16, specie 0
    4 SNES Function norm 9.978702265532e-06 
    Linear solve converged in 34 iteration, batch 21, specie 0
    5 SNES Function norm 2.453552145985e-06 
    Linear solve converged in 34 iteration, batch 24, specie 0
    6 SNES Function norm 6.027235217435e-07 
    Linear solve converged in 34 iteration, batch 25, specie 0
    7 SNES Function norm 1.480459779505e-07 
    Linear solve converged in 34 iteration, batch 25, specie 0
    8 SNES Function norm 3.637393389772e-08 
    Linear solve converged in 34 iteration, batch 26, specie 0
    9 SNES Function norm 8.940629586630e-09 
    Linear solve converged in 34 iteration, batch 26, specie 0
   10 SNES Function norm 2.198662006350e-09 
    Linear solve converged in 34 iteration, batch 26, specie 0
   11 SNES Function norm 5.409681991361e-10 
    Linear solve converged in 34 iteration, batch 26, specie 0
   12 SNES Function norm 1.331705251724e-10 
    Linear solve converged in 34 iteration, batch 22, specie 0
   13 SNES Function norm 3.279945053198e-11 
    Linear solve converged in 34 iteration, batch 18, specie 0
   14 SNES Function norm 8.081895443001e-12 
    Linear solve converged in 35 iteration, batch 6, specie 0
   15 SNES Function norm 1.993931664945e-12 
  Nonlinear solve converged due to CONVERGED_SNORM_RELATIVE iterations 15
      TSAdapt none beuler 0: step   9 accepted t=4.5        + 5.000e-01 dt=5.000e-01 
10 TS dt 0.5 time 5.
TS Object: 1 MPI process
  type: beuler
  maximum steps=10
  maximum time=100.
  total number of I function evaluations=169
  total number of I Jacobian evaluations=158
  total number of RHS function evaluations=169
  total number of nonlinear solver iterations=144
  total number of linear solver iterations=4902
  total number of nonlinear solve failures=0
  total number of rejected steps=0
  using relative error tolerance of 0.01,   using absolute error tolerance of 0.0001
  TSAdapt Object: 1 MPI process
    type: none
  SNES Object: 1 MPI process
    type: newtonls
    maximum iterations=50, maximum function evaluations=10000
    tolerances: relative=1e-14, absolute=1e-50, solution=1e-14
    total number of linear solver iterations=512
    total number of function evaluations=16
    norm schedule ALWAYS
    SNESLineSearch Object: 1 MPI process
      type: basic
      maxstep=1.000000e+08, minlambda=1.000000e-12
      tolerances: relative=1.000000e-08, absolute=1.000000e-15, lambda=1.000000e-08
      maximum iterations=40
    KSP Object: 1 MPI process
      type: preonly
      maximum iterations=10000, initial guess is zero
      tolerances:  relative=1e-05, absolute=1e-50, divergence=10000.
      left preconditioning
      using NONE norm type for convergence test
    PC Object: 1 MPI process
      type: bjkokkos
        Batched device linear solver: Krylov (KSP) method with Jacobi preconditioning
      		nwork = 0, rel tol = 1.000000e-08, abs tol = 1.000000e-50, div tol = 1.000000e+04, max it =40, type = gmres
      linear system matrix = precond matrix:
      Mat Object: Jacobian 1 MPI process
        type: seqaijkokkos
        rows=45440, cols=45440
        total: nonzeros=1009280, allocated nonzeros=1009280
        total number of mallocs used during MatSetValues calls=0
          using I-node routines: found 21312 nodes, limit used is 5
**************************************** ***********************************************************************************************************************
***                                WIDEN YOUR WINDOW TO 160 CHARACTERS.  Use 'enscript -r -fCourier9' to print this document                                 ***
****************************************************************************************************************************************************************

------------------------------------------------------------------ PETSc Performance Summary: -------------------------------------------------------------------



      ##########################################################
      #                                                        #
      #                       WARNING!!!                       #
      #                                                        #
      #   This code was compiled with GPU support and you've   #
      #   created PETSc/GPU objects, but you intentionally     #
      #   used -use_gpu_aware_mpi 0, requiring PETSc to copy   #
      #   additional data between the GPU and CPU. To obtain   #
      #   meaningful timing results on multi-rank runs, use    #
      #   GPU-aware MPI instead.                               #
      #                                                        #
      ##########################################################


/global/u2/m/madams/batch_gmres_paper/mark/perlmutter/./ex2-2d on a arch-perlmutter-opt-gcc-kokkos-cuda named nid003809 with 4 processors, by madams Wed Jun  1 07:21:29 2022
Using Petsc Development GIT revision: v3.17.1-448-ge18c93a6ab2  GIT Date: 2022-05-28 15:09:57 -0400

                         Max       Max/Min     Avg       Total
Time (sec):           1.928e+00     1.000   1.928e+00
Objects:              1.716e+04     1.000   1.716e+04
Flops:                8.062e+08     1.000   8.062e+08  3.225e+09
Flops/sec:            4.180e+08     1.000   4.180e+08  1.672e+09
MPI Msg Count:        0.000e+00     0.000   0.000e+00  0.000e+00
MPI Msg Len (bytes):  0.000e+00     0.000   0.000e+00  0.000e+00
MPI Reductions:       2.200e+01     1.000

Flop counting convention: 1 flop = 1 real number operation of type (multiply/divide/add/subtract)
                            e.g., VecAXPY() for real vectors of length N --> 2N flops
                            and VecAXPY() for complex vectors of length N --> 8N flops

Summary of Stages:   ----- Time ------  ----- Flop ------  --- Messages ---  -- Message Lengths --  -- Reductions --
                        Avg     %Total     Avg     %Total    Count   %Total     Avg         %Total    Count   %Total
 0:      Main Stage: 9.7849e-01  50.7%  3.2818e+07   1.0%  0.000e+00   0.0%  0.000e+00        0.0%  2.000e+00   9.1%
 1:          Warmup: 1.2080e-01   6.3%  2.8330e+08   8.8%  0.000e+00   0.0%  0.000e+00        0.0%  0.000e+00   0.0%
 2:           Solve: 8.2913e-01  43.0%  2.9085e+09  90.2%  0.000e+00   0.0%  0.000e+00        0.0%  0.000e+00   0.0%

------------------------------------------------------------------------------------------------------------------------
See the 'Profiling' chapter of the users' manual for details on interpreting output.
Phase summary info:
   Count: number of times phase was executed
   Time and Flop: Max - maximum over all processors
                  Ratio - ratio of maximum to minimum over all processors
   Mess: number of messages sent
   AvgLen: average message length (bytes)
   Reduct: number of global reductions
   Global: entire computation
   Stage: stages of a computation. Set stages with PetscLogStagePush() and PetscLogStagePop().
      %T - percent time in this phase         %F - percent flop in this phase
      %M - percent messages in this phase     %L - percent message lengths in this phase
      %R - percent reductions in this phase
   Total Mflop/s: 10e-6 * (sum of flop over all processors)/(max time over all processors)
   GPU Mflop/s: 10e-6 * (sum of flop on GPU over all processors)/(max GPU time over all processors)
   CpuToGpu Count: total number of CPU to GPU copies per processor
   CpuToGpu Size (Mbytes): 10e-6 * (total size of CPU to GPU copies per processor)
   GpuToCpu Count: total number of GPU to CPU copies per processor
   GpuToCpu Size (Mbytes): 10e-6 * (total size of GPU to CPU copies per processor)
   GPU %F: percent flops on GPU in this event
------------------------------------------------------------------------------------------------------------------------
Event                Count      Time (sec)     Flop                              --- Global ---  --- Stage ----  Total   GPU    - CpuToGpu -   - GpuToCpu - GPU
                   Max Ratio  Max     Ratio   Max  Ratio  Mess   AvgLen  Reduct  %T %F %M %L %R  %T %F %M %L %R Mflop/s Mflop/s Count   Size   Count   Size  %F
---------------------------------------------------------------------------------------------------------------------------------------------------------------

--- Event Stage 0: Main Stage

BuildTwoSided        423 1.0 2.9496e-04 1.1 0.00e+00 0.0 0.0e+00 0.0e+00 0.0e+00  0  0  0  0  0   0  0  0  0  0     0       0      0 0.00e+00    0 0.00e+00  0
DMConvert             18 1.0 1.1339e-03 1.0 0.00e+00 0.0 0.0e+00 0.0e+00 0.0e+00  0  0  0  0  0   0  0  0  0  0     0       0      0 0.00e+00    0 0.00e+00  0
DMCreateMat            8 1.0 5.4483e-01 1.0 0.00e+00 0.0 0.0e+00 0.0e+00 0.0e+00 28  0  0  0  0  56  0  0  0  0     0       0      0 0.00e+00    0 0.00e+00  0
DMPlexInterp         166 1.0 1.9958e-03 1.0 0.00e+00 0.0 0.0e+00 0.0e+00 0.0e+00  0  0  0  0  0   0  0  0  0  0     0       0      0 0.00e+00    0 0.00e+00  0
DMPlexStratify       233 1.0 3.2551e-03 1.0 0.00e+00 0.0 0.0e+00 0.0e+00 0.0e+00  0  0  0  0  0   0  0  0  0  0     0       0      0 0.00e+00    0 0.00e+00  0
DMPlexSymmetrize     233 1.0 1.0635e-04 1.0 0.00e+00 0.0 0.0e+00 0.0e+00 0.0e+00  0  0  0  0  0   0  0  0  0  0     0       0      0 0.00e+00    0 0.00e+00  0
DMPlexPrealloc       198 1.0 4.7287e-01 1.0 0.00e+00 0.0 0.0e+00 0.0e+00 0.0e+00 24  0  0  0  0  48  0  0  0  0     0       0      0 0.00e+00    0 0.00e+00  0
DMPlexJacobianFE       6 1.0 4.2530e-02 1.0 1.54e+06 1.0 0.0e+00 0.0e+00 0.0e+00  2  0  0  0  0   4 19  0  0  0   145       0      0 0.00e+00    0 0.00e+00  0
SFSetGraph           828 1.0 8.7269e-05 1.0 0.00e+00 0.0 0.0e+00 0.0e+00 0.0e+00  0  0  0  0  0   0  0  0  0  0     0       0      0 0.00e+00    0 0.00e+00  0
SFSetUp              423 1.0 1.0284e-03 1.1 0.00e+00 0.0 0.0e+00 0.0e+00 0.0e+00  0  0  0  0  0   0  0  0  0  0     0       0      0 0.00e+00    0 0.00e+00  0
SFBcastBegin         858 1.0 1.0391e-03 1.0 0.00e+00 0.0 0.0e+00 0.0e+00 0.0e+00  0  0  0  0  0   0  0  0  0  0     0       0      0 0.00e+00    0 0.00e+00  0
SFBcastEnd           858 1.0 4.3756e-04 1.0 0.00e+00 0.0 0.0e+00 0.0e+00 0.0e+00  0  0  0  0  0   0  0  0  0  0     0       0      0 0.00e+00    0 0.00e+00  0
SFReduceBegin         54 1.0 5.9706e-05 1.0 0.00e+00 0.0 0.0e+00 0.0e+00 0.0e+00  0  0  0  0  0   0  0  0  0  0     0       0      0 0.00e+00    0 0.00e+00  0
SFReduceEnd           54 1.0 2.4795e-05 1.0 0.00e+00 0.0 0.0e+00 0.0e+00 0.0e+00  0  0  0  0  0   0  0  0  0  0     0       0      0 0.00e+00    0 0.00e+00  0
SFCreateEmbed        396 1.0 1.8062e-03 1.0 0.00e+00 0.0 0.0e+00 0.0e+00 0.0e+00  0  0  0  0  0   0  0  0  0  0     0       0      0 0.00e+00    0 0.00e+00  0
SFSectionSF          396 1.0 1.0322e-03 1.1 0.00e+00 0.0 0.0e+00 0.0e+00 0.0e+00  0  0  0  0  0   0  0  0  0  0     0       0      0 0.00e+00    0 0.00e+00  0
SFRemoteOff          396 1.0 4.2401e-03 1.0 0.00e+00 0.0 0.0e+00 0.0e+00 0.0e+00  0  0  0  0  0   0  0  0  0  0     0       0      0 0.00e+00    0 0.00e+00  0
SFPack               912 1.0 6.4121e-05 1.0 0.00e+00 0.0 0.0e+00 0.0e+00 0.0e+00  0  0  0  0  0   0  0  0  0  0     0       0      0 0.00e+00    0 0.00e+00  0
SFUnpack             912 1.0 6.2898e-05 1.1 0.00e+00 0.0 0.0e+00 0.0e+00 0.0e+00  0  0  0  0  0   0  0  0  0  0     0       0      0 0.00e+00    0 0.00e+00  0
Landau Create          1 1.0 5.8979e-01 1.0 7.34e+06 1.0 0.0e+00 0.0e+00 0.0e+00 31  1  0  0  0  60 90  0  0  0    50       0      0 0.00e+00    0 0.00e+00  0
 GPU ass. setup        1 1.0 2.0503e-01 1.0 0.00e+00 0.0 0.0e+00 0.0e+00 0.0e+00 11  0  0  0  0  21  0  0  0  0     0       0      0 0.00e+00    0 0.00e+00  0
 Build matrix          1 1.0 4.5789e-02 1.0 6.80e+05 1.0 0.0e+00 0.0e+00 0.0e+00  2  0  0  0  0   5  8  0  0  0    59       0      0 0.00e+00    0 0.00e+00  0
 Assembly maps         1 1.0 3.3870e-01 1.0 6.66e+06 1.0 0.0e+00 0.0e+00 0.0e+00 18  1  0  0  0  35 81  0  0  0    79       0      0 0.00e+00    0 0.00e+00  0
Landau Mass mat        1 1.0 3.5816e-01 1.0 8.60e+05 1.0 0.0e+00 0.0e+00 0.0e+00 18  0  0  0  0  36 10  0  0  0    10       0      0 0.00e+00    0 0.00e+00  0
 static IP Data        1 1.0 1.1196e-03 1.1 5.38e+03 1.0 0.0e+00 0.0e+00 0.0e+00  0  0  0  0  0   0  0  0  0  0    19       0      0 0.00e+00    0 0.00e+00  0
MatMult            18540 1.0 1.7110e-03 1.0 1.31e+05 1.0 0.0e+00 0.0e+00 0.0e+00  0  0  0  0  0   0  2  0  0  0   306       0      0 0.00e+00    0 0.00e+00  0
MatLUFactor           30 1.0 2.1359e-04 1.0 8.19e+04 1.0 0.0e+00 0.0e+00 0.0e+00  0  0  0  0  0   0  1  0  0  0  1534       0      0 0.00e+00    0 0.00e+00  0
MatCopy              120 1.0 7.9526e-05 1.0 0.00e+00 0.0 0.0e+00 0.0e+00 0.0e+00  0  0  0  0  0   0  0  0  0  0     0       0      0 0.00e+00    0 0.00e+00  0
MatConvert            60 1.0 4.5228e-04 1.0 0.00e+00 0.0 0.0e+00 0.0e+00 0.0e+00  0  0  0  0  0   0  0  0  0  0     0       0      0 0.00e+00    0 0.00e+00  0
MatAssemblyBegin     869 1.0 6.8392e-05 1.0 0.00e+00 0.0 0.0e+00 0.0e+00 0.0e+00  0  0  0  0  0   0  0  0  0  0     0       0      0 0.00e+00    0 0.00e+00  0
MatAssemblyEnd       869 1.0 4.8195e-02 1.1 0.00e+00 0.0 0.0e+00 0.0e+00 0.0e+00  2  0  0  0  0   5  0  0  0  0     0       0      0 0.00e+00    0 0.00e+00  0
MatGetRowIJ           15 1.0 2.2750e-06 1.1 0.00e+00 0.0 0.0e+00 0.0e+00 0.0e+00  0  0  0  0  0   0  0  0  0  0     0       0      0 0.00e+00    0 0.00e+00  0
MatZeroEntries         6 1.0 2.5465e-04 1.0 0.00e+00 0.0 0.0e+00 0.0e+00 0.0e+00  0  0  0  0  0   0  0  0  0  0     0       0      0 0.00e+00    0 0.00e+00  0
MatMatSolve          120 1.0 3.9926e-04 1.0 9.52e+05 1.0 0.0e+00 0.0e+00 0.0e+00  0  0  0  0  0   0 12  0  0  0  9541       0      0 0.00e+00    0 0.00e+00  0
MatSetPreallCOO        1 1.0 1.1701e-01 1.0 0.00e+00 0.0 0.0e+00 0.0e+00 0.0e+00  6  0  0  0  0  12  0  0  0  0     0       0      0 0.00e+00    0 0.00e+00  0
VecCopy                1 1.0 3.7673e-05 1.2 0.00e+00 0.0 0.0e+00 0.0e+00 0.0e+00  0  0  0  0  0   0  0  0  0  0     0       0      0 0.00e+00    0 0.00e+00  0
VecSet               105 1.0 1.4369e-03 1.1 0.00e+00 0.0 0.0e+00 0.0e+00 0.0e+00  0  0  0  0  0   0  0  0  0  0     0       0      0 0.00e+00    0 0.00e+00  0
DualSpaceSetUp        28 1.0 1.5165e-02 1.0 9.92e+02 1.0 0.0e+00 0.0e+00 0.0e+00  1  0  0  0  0   2  0  0  0  0     0       0      0 0.00e+00    0 0.00e+00  0
FESetUp               40 1.0 1.3081e-03 1.2 0.00e+00 0.0 0.0e+00 0.0e+00 0.0e+00  0  0  0  0  0   0  0  0  0  0     0       0      0 0.00e+00    0 0.00e+00  0

--- Event Stage 1: Warmup

Landau Operator       29 1.0 3.9711e-02 1.2 6.06e+07 1.0 0.0e+00 0.0e+00 0.0e+00  2  8  0  0  0  31 86  0  0  0  6100       0      0 0.00e+00    0 0.00e+00 100
Landau Jacobian       15 1.0 3.4345e-02 1.2 6.06e+07 1.0 0.0e+00 0.0e+00 0.0e+00  2  8  0  0  0  27 86  0  0  0  7053       0      0 0.00e+00    0 0.00e+00 100
Landau Mass           14 1.0 5.3604e-03 1.1 0.00e+00 0.0 0.0e+00 0.0e+00 0.0e+00  0  0  0  0  0   4  0  0  0  0     0       0      0 0.00e+00    0 0.00e+00  0
 Preamble             29 1.0 4.6346e-05 1.1 0.00e+00 0.0 0.0e+00 0.0e+00 0.0e+00  0  0  0  0  0   0  0  0  0  0     0       0      0 0.00e+00    0 0.00e+00  0
 dynamic IP-Jac       30 1.0 1.0400e-05 1.3 0.00e+00 0.0 0.0e+00 0.0e+00 0.0e+00  0  0  0  0  0   0  0  0  0  0     0       0      0 0.00e+00    0 0.00e+00  0
 Kernel-init          29 1.0 7.3278e-04 1.0 0.00e+00 0.0 0.0e+00 0.0e+00 0.0e+00  0  0  0  0  0   1  0  0  0  0     0       0      0 0.00e+00    0 0.00e+00  0
 Jac-f-df (GPU)       15 1.0 3.5323e-03 1.1 0.00e+00 0.0 0.0e+00 0.0e+00 0.0e+00  0  0  0  0  0   3  0  0  0  0     0       0      0 0.00e+00    0 0.00e+00  0
 J Kernel (GPU)       15 1.0 6.5315e-05 1.0 0.00e+00 0.0 0.0e+00 0.0e+00 0.0e+00  0  0  0  0  0   0  0  0  0  0     0       0      0 0.00e+00    0 0.00e+00  0
 M Kernel (GPU)       14 1.0 7.7712e-05 1.1 0.00e+00 0.0 0.0e+00 0.0e+00 0.0e+00  0  0  0  0  0   0  0  0  0  0     0       0      0 0.00e+00    0 0.00e+00  0
MatMult               15 1.0 1.4369e-04 1.0 3.03e+07 1.0 0.0e+00 0.0e+00 0.0e+00  0  4  0  0  0   0 43  0  0  0 842899       0      0 0.00e+00    0 0.00e+00 100
MatMultAdd            15 1.0 8.6638e-04 1.2 3.03e+07 1.0 0.0e+00 0.0e+00 0.0e+00  0  4  0  0  0   1 43  0  0  0 139792       0      0 0.00e+00    0 0.00e+00 100
MatAssemblyBegin      59 1.0 5.0170e-06 1.1 0.00e+00 0.0 0.0e+00 0.0e+00 0.0e+00  0  0  0  0  0   0  0  0  0  0     0       0      0 0.00e+00    0 0.00e+00  0
MatAssemblyEnd        59 1.0 2.6607e-03 1.2 0.00e+00 0.0 0.0e+00 0.0e+00 0.0e+00  0  0  0  0  0   2  0  0  0  0     0       0      0 0.00e+00    0 0.00e+00  0
MatGetRowIJ            1 1.0 1.9645e-03 1.1 0.00e+00 0.0 0.0e+00 0.0e+00 0.0e+00  0  0  0  0  0   2  0  0  0  0     0       0      0 0.00e+00    0 0.00e+00  0
MatCreateSubMats       1 1.0 1.2988e-02 1.1 0.00e+00 0.0 0.0e+00 0.0e+00 0.0e+00  1  0  0  0  0  10  0  0  0  0     0       0      0 0.00e+00    0 0.00e+00  0
MatGetOrdering         1 1.0 3.4881e-03 1.1 0.00e+00 0.0 0.0e+00 0.0e+00 0.0e+00  0  0  0  0  0   3  0  0  0  0     0       0      0 0.00e+00    0 0.00e+00  0
MatZeroEntries        15 1.0 3.8483e-04 1.2 0.00e+00 0.0 0.0e+00 0.0e+00 0.0e+00  0  0  0  0  0   0  0  0  0  0     0       0      0 0.00e+00    0 0.00e+00  0
MatView                1 0.0 3.4266e-05 0.0 0.00e+00 0.0 0.0e+00 0.0e+00 0.0e+00  0  0  0  0  0   0  0  0  0  0     0       0      0 0.00e+00    0 0.00e+00  0
MatSetValuesCOO       29 1.0 1.9894e-04 1.0 0.00e+00 0.0 0.0e+00 0.0e+00 0.0e+00  0  0  0  0  0   0  0  0  0  0     0       0      0 0.00e+00    0 0.00e+00  0
VecNorm                1 1.0 5.6529e-05 1.1 9.09e+04 1.0 0.0e+00 0.0e+00 0.0e+00  0  0  0  0  0   0  0  0  0  0  6431       0      0 0.00e+00    0 0.00e+00 100
VecCopy               31 1.0 4.9970e-04 1.0 0.00e+00 0.0 0.0e+00 0.0e+00 0.0e+00  0  0  0  0  0   0  0  0  0  0     0       0      0 0.00e+00    0 0.00e+00  0
VecSet                29 1.0 1.8568e-03 1.2 0.00e+00 0.0 0.0e+00 0.0e+00 0.0e+00  0  0  0  0  0   1  0  0  0  0     0       0      0 0.00e+00    0 0.00e+00  0
VecAXPY               16 1.0 1.1106e-04 1.0 1.45e+06 1.0 0.0e+00 0.0e+00 0.0e+00  0  0  0  0  0   0  2  0  0  0 52372       0      0 0.00e+00    0 0.00e+00 100
VecAXPBYCZ            16 1.0 3.8434e-04 1.1 3.64e+06 1.0 0.0e+00 0.0e+00 0.0e+00  0  0  0  0  0   0  5  0  0  0 37834       0      0 0.00e+00    0 0.00e+00 100
VecWAXPY              14 1.0 1.5405e-04 1.1 1.27e+06 1.0 0.0e+00 0.0e+00 0.0e+00  0  0  0  0  0   0  2  0  0  0 33037       0      0 0.00e+00    0 0.00e+00 100
VecReduceArith        42 1.0 8.1127e-04 1.1 3.82e+06 1.0 0.0e+00 0.0e+00 0.0e+00  0  0  0  0  0   1  5  0  0  0 18819       0      0 0.00e+00    0 0.00e+00 100
VecReduceComm         14 1.0 2.7760e-06 1.1 0.00e+00 0.0 0.0e+00 0.0e+00 0.0e+00  0  0  0  0  0   0  0  0  0  0     0       0      0 0.00e+00    0 0.00e+00  0
TSStep                 1 1.0 1.2433e-01 1.2 7.08e+07 1.0 0.0e+00 0.0e+00 0.0e+00  6  9  0  0  0  99100  0  0  0  2279       0      0 0.00e+00    0 0.00e+00 100
TSFunctionEval        15 1.0 3.5939e-02 1.2 6.19e+07 1.0 0.0e+00 0.0e+00 0.0e+00  2  8  0  0  0  28 87  0  0  0  6892       0      0 0.00e+00    0 0.00e+00 100
TSJacobianEval        14 1.0 5.3729e-03 1.1 0.00e+00 0.0 0.0e+00 0.0e+00 0.0e+00  0  0  0  0  0   4  0  0  0  0     0       0      0 0.00e+00    0 0.00e+00  0
KSPSetUp              14 1.0 3.7650e-06 1.1 0.00e+00 0.0 0.0e+00 0.0e+00 0.0e+00  0  0  0  0  0   0  0  0  0  0     0       0      0 0.00e+00    0 0.00e+00  0
KSPSolve              14 1.0 6.3638e-02 1.3 0.00e+00 0.0 0.0e+00 0.0e+00 0.0e+00  3  0  0  0  0  50  0  0  0  0     0       0      0 0.00e+00    0 0.00e+00  0
SNESSolve              1 1.0 1.2413e-01 1.2 7.05e+07 1.0 0.0e+00 0.0e+00 0.0e+00  6  9  0  0  0  99100  0  0  0  2272       0      0 0.00e+00    0 0.00e+00 100
SNESSetUp              1 1.0 4.6460e-05 1.0 0.00e+00 0.0 0.0e+00 0.0e+00 0.0e+00  0  0  0  0  0   0  0  0  0  0     0       0      0 0.00e+00    0 0.00e+00  0
SNESFunctionEval      15 1.0 3.6265e-02 1.2 6.53e+07 1.0 0.0e+00 0.0e+00 0.0e+00  2  8  0  0  0  28 92  0  0  0  7206       0      0 0.00e+00    0 0.00e+00 100
SNESJacobianEval      14 1.0 5.3837e-03 1.1 0.00e+00 0.0 0.0e+00 0.0e+00 0.0e+00  0  0  0  0  0   4  0  0  0  0     0       0      0 0.00e+00    0 0.00e+00  0
SNESLineSearch        14 1.0 3.1497e-02 1.2 6.61e+07 1.0 0.0e+00 0.0e+00 0.0e+00  2  8  0  0  0  25 93  0  0  0  8390       0      0 0.00e+00    0 0.00e+00 100
PCSetUp               14 1.0 1.8164e-02 1.1 0.00e+00 0.0 0.0e+00 0.0e+00 0.0e+00  1  0  0  0  0  15  0  0  0  0     0       0      0 0.00e+00    0 0.00e+00  0
PCApply               14 1.0 6.2807e-02 1.3 0.00e+00 0.0 0.0e+00 0.0e+00 0.0e+00  3  0  0  0  0  49  0  0  0  0     0       0      0 0.00e+00    0 0.00e+00  0

--- Event Stage 2: Solve

Landau Operator      298 1.0 2.9719e-01 1.0 6.22e+08 1.0 0.0e+00 0.0e+00 0.0e+00 15 77  0  0  0  35 86  0  0  0  8368       0      0 0.00e+00    0 0.00e+00 100
Landau Jacobian      154 1.0 2.4804e-01 1.0 6.22e+08 1.0 0.0e+00 0.0e+00 0.0e+00 13 77  0  0  0  29 86  0  0  0 10026       0      0 0.00e+00    0 0.00e+00 100
Landau Mass          144 1.0 4.9097e-02 1.0 0.00e+00 0.0 0.0e+00 0.0e+00 0.0e+00  3  0  0  0  0   6  0  0  0  0     0       0      0 0.00e+00    0 0.00e+00  0
 Preamble            289 1.0 3.7371e-04 1.1 0.00e+00 0.0 0.0e+00 0.0e+00 0.0e+00  0  0  0  0  0   0  0  0  0  0     0       0      0 0.00e+00    0 0.00e+00  0
 dynamic IP-Jac      290 1.0 5.8472e-05 1.1 0.00e+00 0.0 0.0e+00 0.0e+00 0.0e+00  0  0  0  0  0   0  0  0  0  0     0       0      0 0.00e+00    0 0.00e+00  0
 Kernel-init         289 1.0 6.9554e-03 1.1 0.00e+00 0.0 0.0e+00 0.0e+00 0.0e+00  0  0  0  0  0   1  0  0  0  0     0       0      0 0.00e+00    0 0.00e+00  0
 Jac-f-df (GPU)      145 1.0 1.3799e-02 1.0 0.00e+00 0.0 0.0e+00 0.0e+00 0.0e+00  1  0  0  0  0   2  0  0  0  0     0       0      0 0.00e+00    0 0.00e+00  0
 J Kernel (GPU)      145 1.0 5.1152e-04 1.0 0.00e+00 0.0 0.0e+00 0.0e+00 0.0e+00  0  0  0  0  0   0  0  0  0  0     0       0      0 0.00e+00    0 0.00e+00  0
 M Kernel (GPU)      144 1.0 6.9325e-04 1.1 0.00e+00 0.0 0.0e+00 0.0e+00 0.0e+00  0  0  0  0  0   0  0  0  0  0     0       0      0 0.00e+00    0 0.00e+00  0
MatMult              154 1.0 9.4116e-04 1.0 3.11e+08 1.0 0.0e+00 0.0e+00 0.0e+00  0 39  0  0  0   0 43  0  0  0 1321173       0      0 0.00e+00    0 0.00e+00 100
MatMultAdd           154 1.0 6.4304e-04 1.0 3.11e+08 1.0 0.0e+00 0.0e+00 0.0e+00  0 39  0  0  0   0 43  0  0  0 1933682       0      0 0.00e+00    0 0.00e+00 100
MatAssemblyBegin     578 1.0 4.7425e-05 1.0 0.00e+00 0.0 0.0e+00 0.0e+00 0.0e+00  0  0  0  0  0   0  0  0  0  0     0       0      0 0.00e+00    0 0.00e+00  0
MatAssemblyEnd       578 1.0 1.0049e-04 1.1 0.00e+00 0.0 0.0e+00 0.0e+00 0.0e+00  0  0  0  0  0   0  0  0  0  0     0       0      0 0.00e+00    0 0.00e+00  0
MatZeroEntries       145 1.0 3.2259e-03 1.0 0.00e+00 0.0 0.0e+00 0.0e+00 0.0e+00  0  0  0  0  0   0  0  0  0  0     0       0      0 0.00e+00    0 0.00e+00  0
MatView                1 0.0 2.4718e-05 0.0 0.00e+00 0.0 0.0e+00 0.0e+00 0.0e+00  0  0  0  0  0   0  0  0  0  0     0       0      0 0.00e+00    0 0.00e+00  0
MatSetValuesCOO      289 1.0 1.5732e-03 1.1 0.00e+00 0.0 0.0e+00 0.0e+00 0.0e+00  0  0  0  0  0   0  0  0  0  0     0       0      0 0.00e+00    0 0.00e+00  0
VecNorm               10 1.0 1.8019e-04 1.0 9.09e+05 1.0 0.0e+00 0.0e+00 0.0e+00  0  0  0  0  0   0  0  0  0  0 20174       0      0 0.00e+00    0 0.00e+00 100
VecCopy              308 1.0 4.5430e-03 1.0 0.00e+00 0.0 0.0e+00 0.0e+00 0.0e+00  0  0  0  0  0   1  0  0  0  0     0       0      0 0.00e+00    0 0.00e+00  0
VecSet               298 1.0 1.7188e-02 1.0 0.00e+00 0.0 0.0e+00 0.0e+00 0.0e+00  1  0  0  0  0   2  0  0  0  0     0       0      0 0.00e+00    0 0.00e+00  0
VecAXPY              164 1.0 7.2300e-04 1.0 1.49e+07 1.0 0.0e+00 0.0e+00 0.0e+00  0  2  0  0  0   0  2  0  0  0 82458       0      0 0.00e+00    0 0.00e+00 100
VecAXPBYCZ           164 1.0 2.2259e-03 1.1 3.73e+07 1.0 0.0e+00 0.0e+00 0.0e+00  0  5  0  0  0   0  5  0  0  0 66959       0      0 0.00e+00    0 0.00e+00 100
VecWAXPY             144 1.0 1.2476e-03 1.1 1.31e+07 1.0 0.0e+00 0.0e+00 0.0e+00  0  2  0  0  0   0  2  0  0  0 41958       0      0 0.00e+00    0 0.00e+00 100
VecReduceArith       432 1.0 7.4040e-03 1.0 3.93e+07 1.0 0.0e+00 0.0e+00 0.0e+00  0  5  0  0  0   1  5  0  0  0 21210       0      0 0.00e+00    0 0.00e+00 100
VecReduceComm        144 1.0 2.9424e-05 1.1 0.00e+00 0.0 0.0e+00 0.0e+00 0.0e+00  0  0  0  0  0   0  0  0  0  0     0       0      0 0.00e+00    0 0.00e+00  0
TSStep                10 1.0 8.4136e-01 1.0 7.27e+08 1.0 0.0e+00 0.0e+00 0.0e+00 43 90  0  0  0  99100  0  0  0  3457       0      0 0.00e+00    0 0.00e+00 100
TSFunctionEval       154 1.0 2.5906e-01 1.0 6.36e+08 1.0 0.0e+00 0.0e+00 0.0e+00 13 79  0  0  0  31 87  0  0  0  9816       0      0 0.00e+00    0 0.00e+00 100
TSJacobianEval       144 1.0 4.9203e-02 1.0 0.00e+00 0.0 0.0e+00 0.0e+00 0.0e+00  3  0  0  0  0   6  0  0  0  0     0       0      0 0.00e+00    0 0.00e+00  0
KSPSetUp             144 1.0 2.0086e-05 1.1 0.00e+00 0.0 0.0e+00 0.0e+00 0.0e+00  0  0  0  0  0   0  0  0  0  0     0       0      0 0.00e+00    0 0.00e+00  0
KSPSolve             144 1.0 5.1700e-01 1.0 0.00e+00 0.0 0.0e+00 0.0e+00 0.0e+00 26  0  0  0  0  61  0  0  0  0     0       0      0 0.00e+00    0 0.00e+00  0
SNESSolve             10 1.0 8.4038e-01 1.0 7.24e+08 1.0 0.0e+00 0.0e+00 0.0e+00 43 90  0  0  0  99100  0  0  0  3446       0      0 0.00e+00    0 0.00e+00 100
SNESFunctionEval     154 1.0 2.6089e-01 1.0 6.71e+08 1.0 0.0e+00 0.0e+00 0.0e+00 13 83  0  0  0  31 92  0  0  0 10283       0      0 0.00e+00    0 0.00e+00 100
SNESJacobianEval     144 1.0 4.9288e-02 1.0 0.00e+00 0.0 0.0e+00 0.0e+00 0.0e+00  3  0  0  0  0   6  0  0  0  0     0       0      0 0.00e+00    0 0.00e+00  0
SNESLineSearch       144 1.0 2.6830e-01 1.0 6.79e+08 1.0 0.0e+00 0.0e+00 0.0e+00 14 84  0  0  0  32 93  0  0  0 10130       0      0 0.00e+00    0 0.00e+00 100
PCSetUp              144 1.0 6.6982e-04 1.0 0.00e+00 0.0 0.0e+00 0.0e+00 0.0e+00  0  0  0  0  0   0  0  0  0  0     0       0      0 0.00e+00    0 0.00e+00  0
PCApply              144 1.0 5.0948e-01 1.0 0.00e+00 0.0 0.0e+00 0.0e+00 0.0e+00 26  0  0  0  0  60  0  0  0  0     0       0      0 0.00e+00    0 0.00e+00  0
---------------------------------------------------------------------------------------------------------------------------------------------------------------

Memory usage is given in bytes:

Object Type          Creations   Destructions     Memory  Descendants' Mem.
Reports information only for process 0.

--- Event Stage 0: Main Stage

           Container   254            254       148336     0.
    Distributed Mesh   629            629      3316920     0.
            DM Label  1315           1315       852120     0.
          Quadrature  1101           1101       660600     0.
           Index Set  4307           4307      3874848     0.
   IS L to G Mapping   203            203       973312     0.
             Section  3097           3097      2229840     0.
    Section Symmetry    80             80        57600     0.
   Star Forest Graph  2077           2077      2329736     0.
     Discrete System  1048           1048      1014476     0.
           Weak Form  1048           1048       653952     0.
    GraphPartitioner   242            242       168432     0.
              Matrix   904            904    331806992     0.
              Vector   437            448      5606592     0.
       p4est logging     1              0            0     0.
        Linear Space    86             86        60416     0.
          Dual Space   240            240       226560     0.
            FE Space    40             40        31840     0.
       Field over DM    18             18        12816     0.
             TSAdapt     1              1         1264     0.
                  TS     1              1         2432     0.
                DMTS     1              1          768     0.
                SNES     1              1         1556     0.
              DMSNES     3              3         2088     0.
      SNESLineSearch     1              1         1008     0.
       Krylov Solver     1              2         3432     0.
     DMKSP interface     0              1          664     0.
      Preconditioner     1              2         1888     0.
              Viewer     2              1          848     0.

--- Event Stage 1: Warmup

           Index Set     5              5       720296     0.
              Matrix     1              1     13023572     0.
              Vector    11              0            0     0.
       Krylov Solver     1              0            0     0.
     DMKSP interface     1              0            0     0.
      Preconditioner     1              0            0     0.

--- Event Stage 2: Solve

========================================================================================================================
Average time to get PetscTime(): 3.31e-08
Average time for MPI_Barrier(): 2.9858e-06
Average time for zero size MPI_Send(): 2.214e-05
#PETSc Option Table entries:
-dim 2
-dm_landau_amr_levels_max 2,2,2
-dm_landau_batch_size 32
-dm_landau_coo_assembly
-dm_landau_device_type kokkos
-dm_landau_Ez 0
-dm_landau_ion_charges 1,2,3,4,5,6,7,8,9
-dm_landau_ion_masses 2,182,182,182,182,182,182,182,182
-dm_landau_n 1.0000044,1,1e-7,1e-7,1e-7,1e-7,1e-7,1e-7,1e-7,1e-7
-dm_landau_num_species_grid 1,1,8
-dm_landau_thermal_temps 2,1,1,1,1,1,1,1,1,1
-dm_landau_type p4est
-dm_landau_verbose 1
-dm_mat_type aijkokkos
-dm_preallocate_only false
-dm_vec_type kokkos
-ex2_test_type none
-ksp_type preonly
-log_view
-pc_bjkokkos_ksp_batch_nsolves_team 4
-pc_bjkokkos_ksp_converged_reason
-pc_bjkokkos_ksp_max_it 40
-pc_bjkokkos_ksp_rtol 1.e-8
-pc_bjkokkos_ksp_type gmres
-pc_bjkokkos_pc_type jacobi
-pc_type bjkokkos
-petscspace_degree 3
-snes_converged_reason
-snes_linesearch_type basic
-snes_max_it 50
-snes_monitor
-snes_rtol 1e-14
-snes_stol 1e-14
-ts_adapt_clip .5,1.1
-ts_adapt_dt_max 1
-ts_adapt_monitor
-ts_adapt_scale_solve_failed 0.5
-ts_adapt_time_step_increase_delay 5
-ts_dt .5
-ts_exact_final_time stepover
-ts_max_snes_failures -1
-ts_max_steps 10
-ts_max_time 100
-ts_monitor
-ts_rtol 1e-2
-ts_type beuler
-ts_view
-use_gpu_aware_mpi 0
#End of PETSc Option Table entries
Compiled without FORTRAN kernels
Compiled with full precision matrices (default)
sizeof(short) 2 sizeof(int) 4 sizeof(long) 8 sizeof(void*) 8 sizeof(PetscScalar) 8 sizeof(PetscInt) 4
Configure options: --CFLAGS="   -g" --CXXFLAGS=" -g" --CUDAFLAGS="-g -Xcompiler -rdynamic" --with-cc=cc --with-cxx=CC --with-fc=ftn --LIBS=-lnvToolsExt --download-amgx=1 --with-fortran-bindings=0 --LDFLAGS=-lmpifort_gnu_91 --COPTFLAGS="   -O" --CXXOPTFLAGS=" -O" --FOPTFLAGS="   -O" --with-debugging=0 --with-dmlandau-2d --download-triangle --with-cuda=1 --with-cuda-arch=80 --with-mpiexec=srun --with-batch=0 --download-p4est=1 --with-zlib=1 --download-kokkos --download-kokkos-kernels --with-kokkos-kernels-tpl=0 --download-kokkos-kernels-commit=origin/develop --with-make-np=8 PETSC_ARCH=arch-perlmutter-opt-gcc-kokkos-cuda
-----------------------------------------
Libraries compiled on 2022-06-01 00:24:28 on login34 
Machine characteristics: Linux-5.3.18-150300.59.43_11.0.51-cray_shasta_c-x86_64-with-glibc2.3.4
Using PETSc directory: /global/homes/m/madams/petsc
Using PETSc arch: arch-perlmutter-opt-gcc-kokkos-cuda
-----------------------------------------

Using C compiler: cc -g -fPIC -O   
Using Fortran compiler: ftn  -fPIC -O     
-----------------------------------------

Using include paths: -I/global/homes/m/madams/petsc/include -I/global/homes/m/madams/petsc/arch-perlmutter-opt-gcc-kokkos-cuda/include -I/opt/nvidia/hpc_sdk/Linux_x86_64/21.11/cuda/11.5/include -I/opt/nvidia/hpc_sdk/Linux_x86_64/21.11/math_libs/11.5/include
-----------------------------------------

Using C linker: cc
Using Fortran linker: ftn
Using libraries: -Wl,-rpath,/global/homes/m/madams/petsc/arch-perlmutter-opt-gcc-kokkos-cuda/lib -L/global/homes/m/madams/petsc/arch-perlmutter-opt-gcc-kokkos-cuda/lib -lpetsc -Wl,-rpath,/global/homes/m/madams/petsc/arch-perlmutter-opt-gcc-kokkos-cuda/lib -L/global/homes/m/madams/petsc/arch-perlmutter-opt-gcc-kokkos-cuda/lib -Wl,-rpath,/opt/nvidia/hpc_sdk/Linux_x86_64/21.11/cuda/11.5/lib64 -L/opt/nvidia/hpc_sdk/Linux_x86_64/21.11/cuda/11.5/lib64 -L/opt/nvidia/hpc_sdk/Linux_x86_64/21.11/cuda/11.5/lib64/stubs -lkokkoskernels -lkokkoscontainers -lkokkoscore -lp4est -lsc -ltriangle -lcudart -lcufft -lcublas -lcusparse -lcusolver -lcurand -lcuda -lX11 -lquadmath -lstdc++ -ldl -lnvToolsExt
-----------------------------------------



      ##########################################################
      #                                                        #
      #                       WARNING!!!                       #
      #                                                        #
      #   This code was compiled with GPU support and you've   #
      #   created PETSc/GPU objects, but you intentionally     #
      #   used -use_gpu_aware_mpi 0, requiring PETSc to copy   #
      #   additional data between the GPU and CPU. To obtain   #
      #   meaningful timing results on multi-rank runs, use    #
      #   GPU-aware MPI instead.                               #
      #                                                        #
      ##########################################################


