masses:        e= 9.109e-31; ions in proton mass units:    2.000e+00  1.820e+02 ...
charges:       e=-1.602e-19; charges in elementary units:  1.000e+00  2.000e+00
n:             e:  1.000e+00                           i:  1.000e+00  1.000e-07
thermal T (K): e= 2.321e+07 i= 1.160e+07  1.160e+07. v_0= 1.876e+07 ( 6.256e-02c) n_0= 1.000e+20 t_0= 1.637e-05, classical, Intuitive, 128 batched
Domain radius (AMR levels) grid 0:  5.000e+00 (2) , 1:  5.835e-02 (2) , 2:  6.117e-03 (2) 
Using default Plex order for all matrices
0) FormLandau 672 IPs, 42 cells total, Nb=16, Nq=16, dim=2, Tab: Nb=16 Nf=10 Np=16 cdim=2 N=181760
0 TS dt 0.5 time 0.
    0 SNES Function norm 7.420663102802e-02 
    Linear solve converged in 33 iteration, batch 77, specie 0
    1 SNES Function norm 7.963324571908e-04 
    Linear solve converged in 33 iteration, batch 109, specie 0
    2 SNES Function norm 1.166405337870e-04 
    Linear solve converged in 34 iteration, batch 60, specie 0
    3 SNES Function norm 3.054603623915e-05 
    Linear solve converged in 34 iteration, batch 82, specie 0
    4 SNES Function norm 7.632338679467e-06 
    Linear solve converged in 34 iteration, batch 67, specie 0
    5 SNES Function norm 1.874640796405e-06 
    Linear solve converged in 34 iteration, batch 84, specie 0
    6 SNES Function norm 4.579411448310e-07 
    Linear solve converged in 34 iteration, batch 95, specie 0
    7 SNES Function norm 1.116855871842e-07 
    Linear solve converged in 34 iteration, batch 100, specie 0
    8 SNES Function norm 2.723005807001e-08 
    Linear solve converged in 34 iteration, batch 103, specie 0
    9 SNES Function norm 6.640157950472e-09 
    Linear solve converged in 34 iteration, batch 104, specie 0
   10 SNES Function norm 1.619838901598e-09 
    Linear solve converged in 34 iteration, batch 104, specie 0
   11 SNES Function norm 3.953321664545e-10 
    Linear solve converged in 34 iteration, batch 92, specie 0
   12 SNES Function norm 9.653039765254e-11 
    Linear solve converged in 34 iteration, batch 80, specie 0
   13 SNES Function norm 2.358077950645e-11 
    Linear solve converged in 35 iteration, batch 22, specie 0
   14 SNES Function norm 5.762662042875e-12 
  Nonlinear solve converged due to CONVERGED_SNORM_RELATIVE iterations 14
      TSAdapt none beuler 0: step   0 accepted t=0          + 5.000e-01 dt=5.000e-01 
1 TS dt 0.5 time 0.5
TS Object: 1 MPI process
  type: beuler
  maximum steps=1
  maximum time=100.
  total number of I function evaluations=15
  total number of I Jacobian evaluations=14
  total number of RHS function evaluations=15
  total number of nonlinear solver iterations=14
  total number of linear solver iterations=475
  total number of nonlinear solve failures=0
  total number of rejected steps=0
  using relative error tolerance of 0.01,   using absolute error tolerance of 0.0001
  TSAdapt Object: 1 MPI process
    type: none
  SNES Object: 1 MPI process
    type: newtonls
    maximum iterations=50, maximum function evaluations=10000
    tolerances: relative=1e-14, absolute=1e-50, solution=1e-14
    total number of linear solver iterations=475
    total number of function evaluations=15
    norm schedule ALWAYS
    SNESLineSearch Object: 1 MPI process
      type: basic
      maxstep=1.000000e+08, minlambda=1.000000e-12
      tolerances: relative=1.000000e-08, absolute=1.000000e-15, lambda=1.000000e-08
      maximum iterations=40
    KSP Object: 1 MPI process
      type: preonly
      maximum iterations=10000, initial guess is zero
      tolerances:  relative=1e-05, absolute=1e-50, divergence=10000.
      left preconditioning
      using NONE norm type for convergence test
    PC Object: 1 MPI process
      type: bjkokkos
        Batched device linear solver: Krylov (KSP) method with Jacobi preconditioning
      		nwork = 0, rel tol = 1.000000e-08, abs tol = 1.000000e-50, div tol = 1.000000e+04, max it =40, type = gmres
      linear system matrix = precond matrix:
      Mat Object: Jacobian 1 MPI process
        type: seqaijkokkos
        rows=181760, cols=181760
        total: nonzeros=4037120, allocated nonzeros=4037120
        total number of mallocs used during MatSetValues calls=0
          using I-node routines: found 85248 nodes, limit used is 5
0 TS dt 0.5 time 0.
    0 SNES Function norm 7.420663102802e-02 
    Linear solve converged in 33 iteration, batch 77, specie 0
    1 SNES Function norm 7.963324571908e-04 
    Linear solve converged in 33 iteration, batch 109, specie 0
    2 SNES Function norm 1.166405337870e-04 
    Linear solve converged in 34 iteration, batch 60, specie 0
    3 SNES Function norm 3.054603623915e-05 
    Linear solve converged in 34 iteration, batch 82, specie 0
    4 SNES Function norm 7.632338679467e-06 
    Linear solve converged in 34 iteration, batch 67, specie 0
    5 SNES Function norm 1.874640796405e-06 
    Linear solve converged in 34 iteration, batch 84, specie 0
    6 SNES Function norm 4.579411448310e-07 
    Linear solve converged in 34 iteration, batch 95, specie 0
    7 SNES Function norm 1.116855871842e-07 
    Linear solve converged in 34 iteration, batch 100, specie 0
    8 SNES Function norm 2.723005807001e-08 
    Linear solve converged in 34 iteration, batch 103, specie 0
    9 SNES Function norm 6.640157950472e-09 
    Linear solve converged in 34 iteration, batch 104, specie 0
   10 SNES Function norm 1.619838901598e-09 
    Linear solve converged in 34 iteration, batch 104, specie 0
   11 SNES Function norm 3.953321664545e-10 
    Linear solve converged in 34 iteration, batch 92, specie 0
   12 SNES Function norm 9.653039765254e-11 
    Linear solve converged in 34 iteration, batch 80, specie 0
   13 SNES Function norm 2.358077950645e-11 
    Linear solve converged in 35 iteration, batch 22, specie 0
   14 SNES Function norm 5.762662042875e-12 
  Nonlinear solve converged due to CONVERGED_SNORM_RELATIVE iterations 14
      TSAdapt none beuler 0: step   0 accepted t=0          + 5.000e-01 dt=5.000e-01 
1 TS dt 0.5 time 0.5
    0 SNES Function norm 2.538158877949e-02 
    Linear solve converged in 33 iteration, batch 78, specie 0
    1 SNES Function norm 5.544995933645e-04 
    Linear solve converged in 34 iteration, batch 27, specie 0
    2 SNES Function norm 1.097904795727e-04 
    Linear solve converged in 34 iteration, batch 39, specie 0
    3 SNES Function norm 2.741937818044e-05 
    Linear solve converged in 34 iteration, batch 44, specie 0
    4 SNES Function norm 6.799615767573e-06 
    Linear solve converged in 34 iteration, batch 53, specie 0
    5 SNES Function norm 1.670672845156e-06 
    Linear solve converged in 34 iteration, batch 76, specie 0
    6 SNES Function norm 4.086935004706e-07 
    Linear solve converged in 34 iteration, batch 91, specie 0
    7 SNES Function norm 9.980624710897e-08 
    Linear solve converged in 34 iteration, batch 98, specie 0
    8 SNES Function norm 2.436194622614e-08 
    Linear solve converged in 34 iteration, batch 101, specie 0
    9 SNES Function norm 5.947051530570e-09 
    Linear solve converged in 34 iteration, batch 103, specie 0
   10 SNES Function norm 1.452217039947e-09 
    Linear solve converged in 34 iteration, batch 102, specie 0
   11 SNES Function norm 3.547665666345e-10 
    Linear solve converged in 34 iteration, batch 88, specie 0
   12 SNES Function norm 8.670894922301e-11 
    Linear solve converged in 34 iteration, batch 73, specie 0
   13 SNES Function norm 2.120257041104e-11 
    Linear solve converged in 35 iteration, batch 0, specie 0
   14 SNES Function norm 5.185989022827e-12 
  Nonlinear solve converged due to CONVERGED_SNORM_RELATIVE iterations 14
      TSAdapt none beuler 0: step   1 accepted t=0.5        + 5.000e-01 dt=5.000e-01 
2 TS dt 0.5 time 1.
    0 SNES Function norm 1.639940821769e-02 
    Linear solve converged in 34 iteration, batch 32, specie 0
    1 SNES Function norm 6.282977243612e-04 
    Linear solve converged in 34 iteration, batch 0, specie 0
    2 SNES Function norm 1.399071673515e-04 
    Linear solve converged in 34 iteration, batch 34, specie 0
    3 SNES Function norm 3.484071114481e-05 
    Linear solve converged in 33 iteration, batch 0, specie 0
    4 SNES Function norm 8.615742813879e-06 
    Linear solve converged in 34 iteration, batch 56, specie 0
    5 SNES Function norm 2.115360630585e-06 
    Linear solve converged in 34 iteration, batch 79, specie 0
    6 SNES Function norm 5.175706736728e-07 
    Linear solve converged in 34 iteration, batch 92, specie 0
    7 SNES Function norm 1.264666804626e-07 
    Linear solve converged in 34 iteration, batch 98, specie 0
    8 SNES Function norm 3.089217954450e-08 
    Linear solve converged in 34 iteration, batch 101, specie 0
    9 SNES Function norm 7.547219493400e-09 
    Linear solve converged in 34 iteration, batch 102, specie 0
   10 SNES Function norm 1.844497703881e-09 
    Linear solve converged in 34 iteration, batch 100, specie 0
   11 SNES Function norm 4.509791975900e-10 
    Linear solve converged in 34 iteration, batch 91, specie 0
   12 SNES Function norm 1.103152722028e-10 
    Linear solve converged in 34 iteration, batch 74, specie 0
   13 SNES Function norm 2.699869233210e-11 
    Linear solve converged in 35 iteration, batch 53, specie 0
   14 SNES Function norm 6.610857855941e-12 
  Nonlinear solve converged due to CONVERGED_SNORM_RELATIVE iterations 14
      TSAdapt none beuler 0: step   2 accepted t=1          + 5.000e-01 dt=5.000e-01 
3 TS dt 0.5 time 1.5
    0 SNES Function norm 1.231635608335e-02 
    Linear solve converged in 34 iteration, batch 125, specie 0
    1 SNES Function norm 7.567187965719e-04 
    Linear solve converged in 34 iteration, batch 22, specie 0
    2 SNES Function norm 1.807145268440e-04 
    Linear solve converged in 34 iteration, batch 23, specie 0
    3 SNES Function norm 4.502870430299e-05 
    Linear solve converged in 34 iteration, batch 117, specie 0
    4 SNES Function norm 1.111705772208e-05 
    Linear solve converged in 34 iteration, batch 63, specie 0
    5 SNES Function norm 2.727910653825e-06 
    Linear solve converged in 34 iteration, batch 83, specie 0
    6 SNES Function norm 6.675379344050e-07 
    Linear solve converged in 34 iteration, batch 94, specie 0
    7 SNES Function norm 1.631926903900e-07 
    Linear solve converged in 34 iteration, batch 99, specie 0
    8 SNES Function norm 3.989009213066e-08 
    Linear solve converged in 34 iteration, batch 101, specie 0
    9 SNES Function norm 9.752792944397e-09 
    Linear solve converged in 34 iteration, batch 102, specie 0
   10 SNES Function norm 2.385398367610e-09 
    Linear solve converged in 34 iteration, batch 102, specie 0
   11 SNES Function norm 5.836975836757e-10 
    Linear solve converged in 34 iteration, batch 90, specie 0
   12 SNES Function norm 1.428974689397e-10 
    Linear solve converged in 34 iteration, batch 79, specie 0
   13 SNES Function norm 3.500065346418e-11 
    Linear solve converged in 34 iteration, batch 10, specie 0
   14 SNES Function norm 8.575846554812e-12 
  Nonlinear solve converged due to CONVERGED_SNORM_RELATIVE iterations 14
      TSAdapt none beuler 0: step   3 accepted t=1.5        + 5.000e-01 dt=5.000e-01 
4 TS dt 0.5 time 2.
    0 SNES Function norm 1.012359772157e-02 
    Linear solve converged in 35 iteration, batch 97, specie 0
    1 SNES Function norm 9.011292962074e-04 
    Linear solve converged in 34 iteration, batch 50, specie 0
    2 SNES Function norm 2.217486746879e-04 
    Linear solve converged in 34 iteration, batch 23, specie 0
    3 SNES Function norm 5.520579600336e-05 
    Linear solve converged in 34 iteration, batch 63, specie 0
    4 SNES Function norm 1.361468345441e-05 
    Linear solve converged in 34 iteration, batch 69, specie 0
    5 SNES Function norm 3.340187028535e-06 
    Linear solve converged in 34 iteration, batch 86, specie 0
    6 SNES Function norm 8.176738248431e-07 
    Linear solve converged in 34 iteration, batch 95, specie 0
    7 SNES Function norm 2.000259449351e-07 
    Linear solve converged in 34 iteration, batch 99, specie 0
    8 SNES Function norm 4.893133362646e-08 
    Linear solve converged in 34 iteration, batch 101, specie 0
    9 SNES Function norm 1.197327599716e-08 
    Linear solve converged in 34 iteration, batch 101, specie 0
   10 SNES Function norm 2.931025679747e-09 
    Linear solve converged in 34 iteration, batch 102, specie 0
   11 SNES Function norm 7.178415992306e-10 
    Linear solve converged in 34 iteration, batch 97, specie 0
   12 SNES Function norm 1.758916706003e-10 
    Linear solve converged in 34 iteration, batch 84, specie 0
   13 SNES Function norm 4.312129632181e-11 
    Linear solve converged in 34 iteration, batch 23, specie 0
   14 SNES Function norm 1.057555047299e-11 
  Nonlinear solve converged due to CONVERGED_SNORM_RELATIVE iterations 14
      TSAdapt none beuler 0: step   4 accepted t=2          + 5.000e-01 dt=5.000e-01 
5 TS dt 0.5 time 2.5
    0 SNES Function norm 8.858122809859e-03 
    Linear solve converged in 35 iteration, batch 75, specie 0
    1 SNES Function norm 1.034974508132e-03 
    Linear solve converged in 34 iteration, batch 58, specie 0
    2 SNES Function norm 2.576903959757e-04 
    Linear solve converged in 34 iteration, batch 34, specie 0
    3 SNES Function norm 6.407833229903e-05 
    Linear solve converged in 34 iteration, batch 53, specie 0
    4 SNES Function norm 1.579366706443e-05 
    Linear solve converged in 34 iteration, batch 73, specie 0
    5 SNES Function norm 3.875510906235e-06 
    Linear solve converged in 34 iteration, batch 88, specie 0
    6 SNES Function norm 9.492933162063e-07 
    Linear solve converged in 34 iteration, batch 96, specie 0
    7 SNES Function norm 2.324096463009e-07 
    Linear solve converged in 34 iteration, batch 99, specie 0
    8 SNES Function norm 5.690389270585e-08 
    Linear solve converged in 34 iteration, batch 101, specie 0
    9 SNES Function norm 1.393714683854e-08 
    Linear solve converged in 34 iteration, batch 101, specie 0
   10 SNES Function norm 3.415040364779e-09 
    Linear solve converged in 34 iteration, batch 101, specie 0
   11 SNES Function norm 8.371933218500e-10 
    Linear solve converged in 34 iteration, batch 96, specie 0
   12 SNES Function norm 2.053380873098e-10 
    Linear solve converged in 34 iteration, batch 83, specie 0
   13 SNES Function norm 5.038875528064e-11 
    Linear solve converged in 34 iteration, batch 2, specie 0
   14 SNES Function norm 1.236975596427e-11 
  Nonlinear solve converged due to CONVERGED_SNORM_RELATIVE iterations 14
      TSAdapt none beuler 0: step   5 accepted t=2.5        + 5.000e-01 dt=5.000e-01 
6 TS dt 0.5 time 3.
    0 SNES Function norm 8.092884448760e-03 
    Linear solve converged in 35 iteration, batch 67, specie 0
    1 SNES Function norm 1.144913994943e-03 
    Linear solve converged in 34 iteration, batch 47, specie 0
    2 SNES Function norm 2.863075753625e-04 
    Linear solve converged in 34 iteration, batch 63, specie 0
    3 SNES Function norm 7.112617190144e-05 
    Linear solve converged in 34 iteration, batch 54, specie 0
    4 SNES Function norm 1.752813047272e-05 
    Linear solve converged in 34 iteration, batch 77, specie 0
    5 SNES Function norm 4.303112486465e-06 
    Linear solve converged in 34 iteration, batch 90, specie 0
    6 SNES Function norm 1.054846358817e-06 
    Linear solve converged in 34 iteration, batch 96, specie 0
    7 SNES Function norm 2.584880349832e-07 
    Linear solve converged in 34 iteration, batch 99, specie 0
    8 SNES Function norm 6.335119665071e-08 
    Linear solve converged in 34 iteration, batch 101, specie 0
    9 SNES Function norm 1.553199398526e-08 
    Linear solve converged in 34 iteration, batch 101, specie 0
   10 SNES Function norm 3.809758766682e-09 
    Linear solve converged in 34 iteration, batch 101, specie 0
   11 SNES Function norm 9.349310971203e-10 
    Linear solve converged in 34 iteration, batch 100, specie 0
   12 SNES Function norm 2.295504334562e-10 
    Linear solve converged in 34 iteration, batch 84, specie 0
   13 SNES Function norm 5.638874439608e-11 
    Linear solve converged in 34 iteration, batch 12, specie 0
   14 SNES Function norm 1.385902292545e-11 
    Linear solve converged in 36 iteration, batch 111, specie 0
   15 SNES Function norm 3.407426452401e-12 
  Nonlinear solve converged due to CONVERGED_SNORM_RELATIVE iterations 15
      TSAdapt none beuler 0: step   6 accepted t=3          + 5.000e-01 dt=5.000e-01 
7 TS dt 0.5 time 3.5
    0 SNES Function norm 7.600617432558e-03 
    Linear solve converged in 35 iteration, batch 68, specie 0
    1 SNES Function norm 1.226495556913e-03 
    Linear solve converged in 34 iteration, batch 39, specie 0
    2 SNES Function norm 3.071411316673e-04 
    Linear solve converged in 33 iteration, batch 0, specie 0
    3 SNES Function norm 7.625376877964e-05 
    Linear solve converged in 34 iteration, batch 57, specie 0
    4 SNES Function norm 1.879482924694e-05 
    Linear solve converged in 34 iteration, batch 79, specie 0
    5 SNES Function norm 4.617082383602e-06 
    Linear solve converged in 34 iteration, batch 91, specie 0
    6 SNES Function norm 1.132811766162e-06 
    Linear solve converged in 34 iteration, batch 97, specie 0
    7 SNES Function norm 2.778685080297e-07 
    Linear solve converged in 34 iteration, batch 99, specie 0
    8 SNES Function norm 6.817196526011e-08 
    Linear solve converged in 34 iteration, batch 101, specie 0
    9 SNES Function norm 1.673174025815e-08 
    Linear solve converged in 34 iteration, batch 101, specie 0
   10 SNES Function norm 4.108468408972e-09 
    Linear solve converged in 34 iteration, batch 101, specie 0
   11 SNES Function norm 1.009333050797e-09 
    Linear solve converged in 34 iteration, batch 96, specie 0
   12 SNES Function norm 2.480895244516e-10 
    Linear solve converged in 34 iteration, batch 85, specie 0
   13 SNES Function norm 6.100921033385e-11 
    Linear solve converged in 34 iteration, batch 11, specie 0
   14 SNES Function norm 1.501135263075e-11 
    Linear solve converged in 36 iteration, batch 90, specie 0
   15 SNES Function norm 3.695599347821e-12 
  Nonlinear solve converged due to CONVERGED_SNORM_RELATIVE iterations 15
      TSAdapt none beuler 0: step   7 accepted t=3.5        + 5.000e-01 dt=5.000e-01 
8 TS dt 0.5 time 4.
    0 SNES Function norm 7.250775819644e-03 
    Linear solve converged in 35 iteration, batch 70, specie 0
    1 SNES Function norm 1.280143187362e-03 
    Linear solve converged in 34 iteration, batch 35, specie 0
    2 SNES Function norm 3.206547611382e-04 
    Linear solve converged in 33 iteration, batch 119, specie 0
    3 SNES Function norm 7.958267455009e-05 
    Linear solve converged in 34 iteration, batch 60, specie 0
    4 SNES Function norm 1.962283312792e-05 
    Linear solve converged in 34 iteration, batch 81, specie 0
    5 SNES Function norm 4.824200225819e-06 
    Linear solve converged in 34 iteration, batch 92, specie 0
    6 SNES Function norm 1.184754008730e-06 
    Linear solve converged in 34 iteration, batch 97, specie 0
    7 SNES Function norm 2.909097366787e-07 
    Linear solve converged in 34 iteration, batch 100, specie 0
    8 SNES Function norm 7.144798570188e-08 
    Linear solve converged in 34 iteration, batch 101, specie 0
    9 SNES Function norm 1.755492026903e-08 
    Linear solve converged in 34 iteration, batch 101, specie 0
   10 SNES Function norm 4.315349294381e-09 
    Linear solve converged in 34 iteration, batch 101, specie 0
   11 SNES Function norm 1.061334658481e-09 
    Linear solve converged in 34 iteration, batch 100, specie 0
   12 SNES Function norm 2.611623925097e-10 
    Linear solve converged in 34 iteration, batch 84, specie 0
   13 SNES Function norm 6.429671289756e-11 
    Linear solve converged in 34 iteration, batch 0, specie 0
   14 SNES Function norm 1.583837671192e-11 
    Linear solve converged in 35 iteration, batch 0, specie 0
   15 SNES Function norm 3.902098305021e-12 
  Nonlinear solve converged due to CONVERGED_SNORM_RELATIVE iterations 15
      TSAdapt none beuler 0: step   8 accepted t=4          + 5.000e-01 dt=5.000e-01 
9 TS dt 0.5 time 4.5
    0 SNES Function norm 6.968320415970e-03 
    Linear solve converged in 35 iteration, batch 73, specie 0
    1 SNES Function norm 1.308606506673e-03 
    Linear solve converged in 34 iteration, batch 35, specie 0
    2 SNES Function norm 3.277244983163e-04 
    Linear solve converged in 34 iteration, batch 112, specie 0
    3 SNES Function norm 8.133003853278e-05 
    Linear solve converged in 34 iteration, batch 62, specie 0
    4 SNES Function norm 2.006428754218e-05 
    Linear solve converged in 34 iteration, batch 82, specie 0
    5 SNES Function norm 4.936880246403e-06 
    Linear solve converged in 34 iteration, batch 93, specie 0
    6 SNES Function norm 1.213619086127e-06 
    Linear solve converged in 34 iteration, batch 98, specie 0
    7 SNES Function norm 2.983097052570e-07 
    Linear solve converged in 34 iteration, batch 100, specie 0
    8 SNES Function norm 7.334443656085e-08 
    Linear solve converged in 34 iteration, batch 101, specie 0
    9 SNES Function norm 1.804059501250e-08 
    Linear solve converged in 34 iteration, batch 101, specie 0
   10 SNES Function norm 4.439630019056e-09 
    Linear solve converged in 34 iteration, batch 101, specie 0
   11 SNES Function norm 1.093110578518e-09 
    Linear solve converged in 34 iteration, batch 99, specie 0
   12 SNES Function norm 2.692810510754e-10 
    Linear solve converged in 34 iteration, batch 82, specie 0
   13 SNES Function norm 6.636899320743e-11 
    Linear solve converged in 34 iteration, batch 18, specie 0
   14 SNES Function norm 1.636714485533e-11 
    Linear solve converged in 35 iteration, batch 10, specie 0
   15 SNES Function norm 4.038146121308e-12 
  Nonlinear solve converged due to CONVERGED_SNORM_RELATIVE iterations 15
      TSAdapt none beuler 0: step   9 accepted t=4.5        + 5.000e-01 dt=5.000e-01 
10 TS dt 0.5 time 5.
TS Object: 1 MPI process
  type: beuler
  maximum steps=10
  maximum time=100.
  total number of I function evaluations=169
  total number of I Jacobian evaluations=158
  total number of RHS function evaluations=169
  total number of nonlinear solver iterations=144
  total number of linear solver iterations=4905
  total number of nonlinear solve failures=0
  total number of rejected steps=0
  using relative error tolerance of 0.01,   using absolute error tolerance of 0.0001
  TSAdapt Object: 1 MPI process
    type: none
  SNES Object: 1 MPI process
    type: newtonls
    maximum iterations=50, maximum function evaluations=10000
    tolerances: relative=1e-14, absolute=1e-50, solution=1e-14
    total number of linear solver iterations=512
    total number of function evaluations=16
    norm schedule ALWAYS
    SNESLineSearch Object: 1 MPI process
      type: basic
      maxstep=1.000000e+08, minlambda=1.000000e-12
      tolerances: relative=1.000000e-08, absolute=1.000000e-15, lambda=1.000000e-08
      maximum iterations=40
    KSP Object: 1 MPI process
      type: preonly
      maximum iterations=10000, initial guess is zero
      tolerances:  relative=1e-05, absolute=1e-50, divergence=10000.
      left preconditioning
      using NONE norm type for convergence test
    PC Object: 1 MPI process
      type: bjkokkos
        Batched device linear solver: Krylov (KSP) method with Jacobi preconditioning
      		nwork = 0, rel tol = 1.000000e-08, abs tol = 1.000000e-50, div tol = 1.000000e+04, max it =40, type = gmres
      linear system matrix = precond matrix:
      Mat Object: Jacobian 1 MPI process
        type: seqaijkokkos
        rows=181760, cols=181760
        total: nonzeros=4037120, allocated nonzeros=4037120
        total number of mallocs used during MatSetValues calls=0
          using I-node routines: found 85248 nodes, limit used is 5
**************************************** ***********************************************************************************************************************
***                                WIDEN YOUR WINDOW TO 160 CHARACTERS.  Use 'enscript -r -fCourier9' to print this document                                 ***
****************************************************************************************************************************************************************

------------------------------------------------------------------ PETSc Performance Summary: -------------------------------------------------------------------



      ##########################################################
      #                                                        #
      #                       WARNING!!!                       #
      #                                                        #
      #   This code was compiled with GPU support and you've   #
      #   created PETSc/GPU objects, but you intentionally     #
      #   used -use_gpu_aware_mpi 0, requiring PETSc to copy   #
      #   additional data between the GPU and CPU. To obtain   #
      #   meaningful timing results on multi-rank runs, use    #
      #   GPU-aware MPI instead.                               #
      #                                                        #
      ##########################################################


/global/u2/m/madams/batch_gmres_paper/mark/perlmutter/./ex2-2d on a arch-perlmutter-opt-gcc-kokkos-cuda named nid003809 with 4 processors, by madams Wed Jun  1 07:25:46 2022
Using Petsc Development GIT revision: v3.17.1-448-ge18c93a6ab2  GIT Date: 2022-05-28 15:09:57 -0400

                         Max       Max/Min     Avg       Total
Time (sec):           5.646e+00     1.000   5.646e+00
Objects:              2.698e+04     1.000   2.697e+04
Flops:                3.214e+09     1.000   3.214e+09  1.286e+10
Flops/sec:            5.693e+08     1.000   5.693e+08  2.277e+09
MPI Msg Count:        0.000e+00     0.000   0.000e+00  0.000e+00
MPI Msg Len (bytes):  0.000e+00     0.000   0.000e+00  0.000e+00
MPI Reductions:       2.200e+01     1.000

Flop counting convention: 1 flop = 1 real number operation of type (multiply/divide/add/subtract)
                            e.g., VecAXPY() for real vectors of length N --> 2N flops
                            and VecAXPY() for complex vectors of length N --> 8N flops

Summary of Stages:   ----- Time ------  ----- Flop ------  --- Messages ---  -- Message Lengths --  -- Reductions --
                        Avg     %Total     Avg     %Total    Count   %Total     Avg         %Total    Count   %Total
 0:      Main Stage: 3.3414e+00  59.2%  8.9426e+07   0.7%  0.000e+00   0.0%  0.000e+00        0.0%  2.000e+00   9.1%
 1:          Warmup: 3.1150e-01   5.5%  1.1332e+09   8.8%  0.000e+00   0.0%  0.000e+00        0.0%  0.000e+00   0.0%
 2:           Solve: 1.9934e+00  35.3%  1.1634e+10  90.5%  0.000e+00   0.0%  0.000e+00        0.0%  0.000e+00   0.0%

------------------------------------------------------------------------------------------------------------------------
See the 'Profiling' chapter of the users' manual for details on interpreting output.
Phase summary info:
   Count: number of times phase was executed
   Time and Flop: Max - maximum over all processors
                  Ratio - ratio of maximum to minimum over all processors
   Mess: number of messages sent
   AvgLen: average message length (bytes)
   Reduct: number of global reductions
   Global: entire computation
   Stage: stages of a computation. Set stages with PetscLogStagePush() and PetscLogStagePop().
      %T - percent time in this phase         %F - percent flop in this phase
      %M - percent messages in this phase     %L - percent message lengths in this phase
      %R - percent reductions in this phase
   Total Mflop/s: 10e-6 * (sum of flop over all processors)/(max time over all processors)
   GPU Mflop/s: 10e-6 * (sum of flop on GPU over all processors)/(max GPU time over all processors)
   CpuToGpu Count: total number of CPU to GPU copies per processor
   CpuToGpu Size (Mbytes): 10e-6 * (total size of CPU to GPU copies per processor)
   GpuToCpu Count: total number of GPU to CPU copies per processor
   GpuToCpu Size (Mbytes): 10e-6 * (total size of GPU to CPU copies per processor)
   GPU %F: percent flops on GPU in this event
------------------------------------------------------------------------------------------------------------------------
Event                Count      Time (sec)     Flop                              --- Global ---  --- Stage ----  Total   GPU    - CpuToGpu -   - GpuToCpu - GPU
                   Max Ratio  Max     Ratio   Max  Ratio  Mess   AvgLen  Reduct  %T %F %M %L %R  %T %F %M %L %R Mflop/s Mflop/s Count   Size   Count   Size  %F
---------------------------------------------------------------------------------------------------------------------------------------------------------------

--- Event Stage 0: Main Stage

BuildTwoSided       1575 1.0 1.0808e-03 1.1 0.00e+00 0.0 0.0e+00 0.0e+00 0.0e+00  0  0  0  0  0   0  0  0  0  0     0       0      0 0.00e+00    0 0.00e+00  0
DMConvert             18 1.0 1.2792e-03 1.1 0.00e+00 0.0 0.0e+00 0.0e+00 0.0e+00  0  0  0  0  0   0  0  0  0  0     0       0      0 0.00e+00    0 0.00e+00  0
DMCreateMat            8 1.0 2.1937e+00 1.0 0.00e+00 0.0 0.0e+00 0.0e+00 0.0e+00 39  0  0  0  0  65  0  0  0  0     0       0      0 0.00e+00    0 0.00e+00  0
DMPlexInterp         166 1.0 2.1964e-03 1.1 0.00e+00 0.0 0.0e+00 0.0e+00 0.0e+00  0  0  0  0  0   0  0  0  0  0     0       0      0 0.00e+00    0 0.00e+00  0
DMPlexStratify       233 1.0 3.5597e-03 1.0 0.00e+00 0.0 0.0e+00 0.0e+00 0.0e+00  0  0  0  0  0   0  0  0  0  0     0       0      0 0.00e+00    0 0.00e+00  0
DMPlexSymmetrize     233 1.0 1.1833e-04 1.1 0.00e+00 0.0 0.0e+00 0.0e+00 0.0e+00  0  0  0  0  0   0  0  0  0  0     0       0      0 0.00e+00    0 0.00e+00  0
DMPlexPrealloc       774 1.0 1.9114e+00 1.0 0.00e+00 0.0 0.0e+00 0.0e+00 0.0e+00 34  0  0  0  0  57  0  0  0  0     0       0      0 0.00e+00    0 0.00e+00  0
DMPlexJacobianFE       6 1.0 4.4501e-02 1.0 1.54e+06 1.0 0.0e+00 0.0e+00 0.0e+00  1  0  0  0  0   1  7  0  0  0   138       0      0 0.00e+00    0 0.00e+00  0
SFSetGraph          3132 1.0 2.7958e-04 1.0 0.00e+00 0.0 0.0e+00 0.0e+00 0.0e+00  0  0  0  0  0   0  0  0  0  0     0       0      0 0.00e+00    0 0.00e+00  0
SFSetUp             1575 1.0 3.7463e-03 1.0 0.00e+00 0.0 0.0e+00 0.0e+00 0.0e+00  0  0  0  0  0   0  0  0  0  0     0       0      0 0.00e+00    0 0.00e+00  0
SFBcastBegin        3162 1.0 4.0819e-03 1.1 0.00e+00 0.0 0.0e+00 0.0e+00 0.0e+00  0  0  0  0  0   0  0  0  0  0     0       0      0 0.00e+00    0 0.00e+00  0
SFBcastEnd          3162 1.0 1.6858e-03 1.0 0.00e+00 0.0 0.0e+00 0.0e+00 0.0e+00  0  0  0  0  0   0  0  0  0  0     0       0      0 0.00e+00    0 0.00e+00  0
SFReduceBegin         54 1.0 6.2462e-05 1.0 0.00e+00 0.0 0.0e+00 0.0e+00 0.0e+00  0  0  0  0  0   0  0  0  0  0     0       0      0 0.00e+00    0 0.00e+00  0
SFReduceEnd           54 1.0 2.6447e-05 1.0 0.00e+00 0.0 0.0e+00 0.0e+00 0.0e+00  0  0  0  0  0   0  0  0  0  0     0       0      0 0.00e+00    0 0.00e+00  0
SFCreateEmbed       1548 1.0 7.5681e-03 1.1 0.00e+00 0.0 0.0e+00 0.0e+00 0.0e+00  0  0  0  0  0   0  0  0  0  0     0       0      0 0.00e+00    0 0.00e+00  0
SFSectionSF         1548 1.0 4.1280e-03 1.0 0.00e+00 0.0 0.0e+00 0.0e+00 0.0e+00  0  0  0  0  0   0  0  0  0  0     0       0      0 0.00e+00    0 0.00e+00  0
SFRemoteOff         1548 1.0 1.8501e-02 1.1 0.00e+00 0.0 0.0e+00 0.0e+00 0.0e+00  0  0  0  0  0   1  0  0  0  0     0       0      0 0.00e+00    0 0.00e+00  0
SFPack              3216 1.0 2.3629e-04 1.0 0.00e+00 0.0 0.0e+00 0.0e+00 0.0e+00  0  0  0  0  0   0  0  0  0  0     0       0      0 0.00e+00    0 0.00e+00  0
SFUnpack            3216 1.0 2.1606e-04 1.0 0.00e+00 0.0 0.0e+00 0.0e+00 0.0e+00  0  0  0  0  0   0  0  0  0  0     0       0      0 0.00e+00    0 0.00e+00  0
Landau Create          1 1.0 2.0006e+00 1.0 2.15e+07 1.0 0.0e+00 0.0e+00 0.0e+00 35  1  0  0  0  59 96  0  0  0    43       0      0 0.00e+00    0 0.00e+00  0
 GPU ass. setup        1 1.0 5.9460e-01 1.0 0.00e+00 0.0 0.0e+00 0.0e+00 0.0e+00 11  0  0  0  0  18  0  0  0  0     0       0      0 0.00e+00    0 0.00e+00  0
 Build matrix          1 1.0 1.1690e-01 1.0 6.80e+05 1.0 0.0e+00 0.0e+00 0.0e+00  2  0  0  0  0   3  3  0  0  0    23       0      0 0.00e+00    0 0.00e+00  0
 Assembly maps         1 1.0 1.2903e+00 1.0 2.08e+07 1.0 0.0e+00 0.0e+00 0.0e+00 23  1  0  0  0  38 93  0  0  0    65       0      0 0.00e+00    0 0.00e+00  0
Landau Mass mat        1 1.0 1.3134e+00 1.0 8.60e+05 1.0 0.0e+00 0.0e+00 0.0e+00 23  0  0  0  0  39  4  0  0  0     3       0      0 0.00e+00    0 0.00e+00  0
 static IP Data        1 1.0 1.5573e-03 1.3 5.38e+03 1.0 0.0e+00 0.0e+00 0.0e+00  0  0  0  0  0   0  0  0  0  0    14       0      0 0.00e+00    0 0.00e+00  0
MatMult            71340 1.0 7.1770e-03 1.0 5.03e+05 1.0 0.0e+00 0.0e+00 0.0e+00  0  0  0  0  0   0  2  0  0  0   280       0      0 0.00e+00    0 0.00e+00  0
MatLUFactor           30 1.0 2.5667e-04 1.1 8.19e+04 1.0 0.0e+00 0.0e+00 0.0e+00  0  0  0  0  0   0  0  0  0  0  1277       0      0 0.00e+00    0 0.00e+00  0
MatCopy              120 1.0 9.0847e-05 1.1 0.00e+00 0.0 0.0e+00 0.0e+00 0.0e+00  0  0  0  0  0   0  0  0  0  0     0       0      0 0.00e+00    0 0.00e+00  0
MatConvert            60 1.0 5.0190e-04 1.0 0.00e+00 0.0 0.0e+00 0.0e+00 0.0e+00  0  0  0  0  0   0  0  0  0  0     0       0      0 0.00e+00    0 0.00e+00  0
MatAssemblyBegin    1445 1.0 1.2942e-04 1.0 0.00e+00 0.0 0.0e+00 0.0e+00 0.0e+00  0  0  0  0  0   0  0  0  0  0     0       0      0 0.00e+00    0 0.00e+00  0
MatAssemblyEnd      1445 1.0 1.7409e-01 1.0 0.00e+00 0.0 0.0e+00 0.0e+00 0.0e+00  3  0  0  0  0   5  0  0  0  0     0       0      0 0.00e+00    0 0.00e+00  0
MatGetRowIJ           15 1.0 2.4830e-06 1.2 0.00e+00 0.0 0.0e+00 0.0e+00 0.0e+00  0  0  0  0  0   0  0  0  0  0     0       0      0 0.00e+00    0 0.00e+00  0
MatZeroEntries         6 1.0 4.2679e-04 1.1 0.00e+00 0.0 0.0e+00 0.0e+00 0.0e+00  0  0  0  0  0   0  0  0  0  0     0       0      0 0.00e+00    0 0.00e+00  0
MatMatSolve          120 1.0 4.5298e-04 1.1 9.52e+05 1.0 0.0e+00 0.0e+00 0.0e+00  0  0  0  0  0   0  4  0  0  0  8409       0      0 0.00e+00    0 0.00e+00  0
MatSetPreallCOO        1 1.0 4.7199e-01 1.0 0.00e+00 0.0 0.0e+00 0.0e+00 0.0e+00  8  0  0  0  0  14  0  0  0  0     0       0      0 0.00e+00    0 0.00e+00  0
VecCopy                1 1.0 1.4342e-04 1.1 0.00e+00 0.0 0.0e+00 0.0e+00 0.0e+00  0  0  0  0  0   0  0  0  0  0     0       0      0 0.00e+00    0 0.00e+00  0
VecSet               393 1.0 5.3572e-03 1.0 0.00e+00 0.0 0.0e+00 0.0e+00 0.0e+00  0  0  0  0  0   0  0  0  0  0     0       0      0 0.00e+00    0 0.00e+00  0
DualSpaceSetUp        28 1.0 1.6516e-02 1.0 9.92e+02 1.0 0.0e+00 0.0e+00 0.0e+00  0  0  0  0  0   0  0  0  0  0     0       0      0 0.00e+00    0 0.00e+00  0
FESetUp               40 1.0 1.4571e-03 1.0 0.00e+00 0.0 0.0e+00 0.0e+00 0.0e+00  0  0  0  0  0   0  0  0  0  0     0       0      0 0.00e+00    0 0.00e+00  0

--- Event Stage 1: Warmup

Landau Operator       29 1.0 1.2563e-01 1.1 2.42e+08 1.0 0.0e+00 0.0e+00 0.0e+00  2  8  0  0  0  39 86  0  0  0  7712       0      0 0.00e+00    0 0.00e+00 100
Landau Jacobian       15 1.0 1.0986e-01 1.1 2.42e+08 1.0 0.0e+00 0.0e+00 0.0e+00  2  8  0  0  0  34 86  0  0  0  8820       0      0 0.00e+00    0 0.00e+00 100
Landau Mass           14 1.0 1.5767e-02 1.1 0.00e+00 0.0 0.0e+00 0.0e+00 0.0e+00  0  0  0  0  0   5  0  0  0  0     0       0      0 0.00e+00    0 0.00e+00  0
 Preamble             29 1.0 4.9649e-05 1.1 0.00e+00 0.0 0.0e+00 0.0e+00 0.0e+00  0  0  0  0  0   0  0  0  0  0     0       0      0 0.00e+00    0 0.00e+00  0
 dynamic IP-Jac       30 1.0 9.2230e-06 1.2 0.00e+00 0.0 0.0e+00 0.0e+00 0.0e+00  0  0  0  0  0   0  0  0  0  0     0       0      0 0.00e+00    0 0.00e+00  0
 Kernel-init          29 1.0 7.6810e-04 1.1 0.00e+00 0.0 0.0e+00 0.0e+00 0.0e+00  0  0  0  0  0   0  0  0  0  0     0       0      0 0.00e+00    0 0.00e+00  0
 Jac-f-df (GPU)       15 1.0 6.6930e-03 1.1 0.00e+00 0.0 0.0e+00 0.0e+00 0.0e+00  0  0  0  0  0   2  0  0  0  0     0       0      0 0.00e+00    0 0.00e+00  0
 J Kernel (GPU)       15 1.0 7.1867e-05 1.1 0.00e+00 0.0 0.0e+00 0.0e+00 0.0e+00  0  0  0  0  0   0  0  0  0  0     0       0      0 0.00e+00    0 0.00e+00  0
 M Kernel (GPU)       14 1.0 7.2573e-05 1.1 0.00e+00 0.0 0.0e+00 0.0e+00 0.0e+00  0  0  0  0  0   0  0  0  0  0     0       0      0 0.00e+00    0 0.00e+00  0
MatMult               15 1.0 1.5253e-04 1.1 1.21e+08 1.0 0.0e+00 0.0e+00 0.0e+00  0  4  0  0  0   0 43  0  0  0 3176042       0      0 0.00e+00    0 0.00e+00 100
MatMultAdd            15 1.0 2.7793e-03 1.0 1.21e+08 1.0 0.0e+00 0.0e+00 0.0e+00  0  4  0  0  0   1 43  0  0  0 174305       0      0 0.00e+00    0 0.00e+00 100
MatAssemblyBegin      59 1.0 5.2340e-06 1.1 0.00e+00 0.0 0.0e+00 0.0e+00 0.0e+00  0  0  0  0  0   0  0  0  0  0     0       0      0 0.00e+00    0 0.00e+00  0
MatAssemblyEnd        59 1.0 6.6404e-03 1.0 0.00e+00 0.0 0.0e+00 0.0e+00 0.0e+00  0  0  0  0  0   2  0  0  0  0     0       0      0 0.00e+00    0 0.00e+00  0
MatGetRowIJ            1 1.0 7.3533e-03 1.0 0.00e+00 0.0 0.0e+00 0.0e+00 0.0e+00  0  0  0  0  0   2  0  0  0  0     0       0      0 0.00e+00    0 0.00e+00  0
MatCreateSubMats       1 1.0 4.7307e-02 1.0 0.00e+00 0.0 0.0e+00 0.0e+00 0.0e+00  1  0  0  0  0  15  0  0  0  0     0       0      0 0.00e+00    0 0.00e+00  0
MatGetOrdering         1 1.0 1.3125e-02 1.0 0.00e+00 0.0 0.0e+00 0.0e+00 0.0e+00  0  0  0  0  0   4  0  0  0  0     0       0      0 0.00e+00    0 0.00e+00  0
MatZeroEntries        15 1.0 7.1522e-04 1.1 0.00e+00 0.0 0.0e+00 0.0e+00 0.0e+00  0  0  0  0  0   0  0  0  0  0     0       0      0 0.00e+00    0 0.00e+00  0
MatView                1 0.0 3.0389e-05 0.0 0.00e+00 0.0 0.0e+00 0.0e+00 0.0e+00  0  0  0  0  0   0  0  0  0  0     0       0      0 0.00e+00    0 0.00e+00  0
MatSetValuesCOO       29 1.0 2.0831e-04 1.1 0.00e+00 0.0 0.0e+00 0.0e+00 0.0e+00  0  0  0  0  0   0  0  0  0  0     0       0      0 0.00e+00    0 0.00e+00  0
VecNorm                1 1.0 6.5517e-05 1.1 3.64e+05 1.0 0.0e+00 0.0e+00 0.0e+00  0  0  0  0  0   0  0  0  0  0 22194       0      0 0.00e+00    0 0.00e+00 100
VecCopy               31 1.0 8.0554e-04 1.2 0.00e+00 0.0 0.0e+00 0.0e+00 0.0e+00  0  0  0  0  0   0  0  0  0  0     0       0      0 0.00e+00    0 0.00e+00  0
VecSet                29 1.0 4.1832e-03 1.1 0.00e+00 0.0 0.0e+00 0.0e+00 0.0e+00  0  0  0  0  0   1  0  0  0  0     0       0      0 0.00e+00    0 0.00e+00  0
VecAXPY               16 1.0 1.1894e-04 1.1 5.82e+06 1.0 0.0e+00 0.0e+00 0.0e+00  0  0  0  0  0   0  2  0  0  0 195600       0      0 0.00e+00    0 0.00e+00 100
VecAXPBYCZ            16 1.0 7.5106e-04 1.1 1.45e+07 1.0 0.0e+00 0.0e+00 0.0e+00  0  0  0  0  0   0  5  0  0  0 77441       0      0 0.00e+00    0 0.00e+00 100
VecWAXPY              14 1.0 1.4476e-04 1.0 5.09e+06 1.0 0.0e+00 0.0e+00 0.0e+00  0  0  0  0  0   0  2  0  0  0 140627       0      0 0.00e+00    0 0.00e+00 100
VecReduceArith        42 1.0 8.5057e-04 1.0 1.53e+07 1.0 0.0e+00 0.0e+00 0.0e+00  0  0  0  0  0   0  5  0  0  0 71800       0      0 0.00e+00    0 0.00e+00 100
VecReduceComm         14 1.0 2.8660e-06 1.2 0.00e+00 0.0 0.0e+00 0.0e+00 0.0e+00  0  0  0  0  0   0  0  0  0  0     0       0      0 0.00e+00    0 0.00e+00  0
TSStep                 1 1.0 3.1019e-01 1.1 2.83e+08 1.0 0.0e+00 0.0e+00 0.0e+00  5  9  0  0  0  97100  0  0  0  3653       0      0 0.00e+00    0 0.00e+00 100
TSFunctionEval        15 1.0 1.1349e-01 1.1 2.48e+08 1.0 0.0e+00 0.0e+00 0.0e+00  2  8  0  0  0  35 87  0  0  0  8730       0      0 0.00e+00    0 0.00e+00 100
TSJacobianEval        14 1.0 1.5780e-02 1.1 0.00e+00 0.0 0.0e+00 0.0e+00 0.0e+00  0  0  0  0  0   5  0  0  0  0     0       0      0 0.00e+00    0 0.00e+00  0
KSPSetUp              14 1.0 4.3290e-06 1.1 0.00e+00 0.0 0.0e+00 0.0e+00 0.0e+00  0  0  0  0  0   0  0  0  0  0     0       0      0 0.00e+00    0 0.00e+00  0
KSPSolve              14 1.0 1.0814e-01 1.1 0.00e+00 0.0 0.0e+00 0.0e+00 0.0e+00  2  0  0  0  0  33  0  0  0  0     0       0      0 0.00e+00    0 0.00e+00  0
SNESSolve              1 1.0 3.0879e-01 1.1 2.82e+08 1.0 0.0e+00 0.0e+00 0.0e+00  5  9  0  0  0  96100  0  0  0  3653       0      0 0.00e+00    0 0.00e+00 100
SNESSetUp              1 1.0 6.3277e-04 1.3 0.00e+00 0.0 0.0e+00 0.0e+00 0.0e+00  0  0  0  0  0   0  0  0  0  0     0       0      0 0.00e+00    0 0.00e+00  0
SNESFunctionEval      15 1.0 1.1404e-01 1.1 2.61e+08 1.0 0.0e+00 0.0e+00 0.0e+00  2  8  0  0  0  35 92  0  0  0  9165       0      0 0.00e+00    0 0.00e+00 100
SNESJacobianEval      14 1.0 1.5793e-02 1.1 0.00e+00 0.0 0.0e+00 0.0e+00 0.0e+00  0  0  0  0  0   5  0  0  0  0     0       0      0 0.00e+00    0 0.00e+00  0
SNESLineSearch        14 1.0 1.0008e-01 1.1 2.64e+08 1.0 0.0e+00 0.0e+00 0.0e+00  2  8  0  0  0  31 93  0  0  0 10561       0      0 0.00e+00    0 0.00e+00 100
PCSetUp               14 1.0 6.7853e-02 1.0 0.00e+00 0.0 0.0e+00 0.0e+00 0.0e+00  1  0  0  0  0  22  0  0  0  0     0       0      0 0.00e+00    0 0.00e+00  0
PCApply               14 1.0 1.0660e-01 1.1 0.00e+00 0.0 0.0e+00 0.0e+00 0.0e+00  2  0  0  0  0  33  0  0  0  0     0       0      0 0.00e+00    0 0.00e+00  0

--- Event Stage 2: Solve

Landau Operator      298 1.0 9.7076e-01 1.0 2.49e+09 1.0 0.0e+00 0.0e+00 0.0e+00 17 77  0  0  0  48 86  0  0  0 10247       0      0 0.00e+00    0 0.00e+00 100
Landau Jacobian      154 1.0 8.2787e-01 1.0 2.49e+09 1.0 0.0e+00 0.0e+00 0.0e+00 15 77  0  0  0  41 86  0  0  0 12016       0      0 0.00e+00    0 0.00e+00 100
Landau Mass          144 1.0 1.4283e-01 1.0 0.00e+00 0.0 0.0e+00 0.0e+00 0.0e+00  3  0  0  0  0   7  0  0  0  0     0       0      0 0.00e+00    0 0.00e+00  0
 Preamble            289 1.0 4.1204e-04 1.1 0.00e+00 0.0 0.0e+00 0.0e+00 0.0e+00  0  0  0  0  0   0  0  0  0  0     0       0      0 0.00e+00    0 0.00e+00  0
 dynamic IP-Jac      290 1.0 5.9267e-05 1.1 0.00e+00 0.0 0.0e+00 0.0e+00 0.0e+00  0  0  0  0  0   0  0  0  0  0     0       0      0 0.00e+00    0 0.00e+00  0
 Kernel-init         289 1.0 7.1526e-03 1.1 0.00e+00 0.0 0.0e+00 0.0e+00 0.0e+00  0  0  0  0  0   0  0  0  0  0     0       0      0 0.00e+00    0 0.00e+00  0
 Jac-f-df (GPU)      145 1.0 4.0062e-02 1.0 0.00e+00 0.0 0.0e+00 0.0e+00 0.0e+00  1  0  0  0  0   2  0  0  0  0     0       0      0 0.00e+00    0 0.00e+00  0
 J Kernel (GPU)      145 1.0 5.1527e-04 1.1 0.00e+00 0.0 0.0e+00 0.0e+00 0.0e+00  0  0  0  0  0   0  0  0  0  0     0       0      0 0.00e+00    0 0.00e+00  0
 M Kernel (GPU)      144 1.0 6.4456e-04 1.1 0.00e+00 0.0 0.0e+00 0.0e+00 0.0e+00  0  0  0  0  0   0  0  0  0  0     0       0      0 0.00e+00    0 0.00e+00  0
MatMult              154 1.0 9.1631e-04 1.0 1.24e+09 1.0 0.0e+00 0.0e+00 0.0e+00  0 39  0  0  0   0 43  0  0  0 5427983       0      0 0.00e+00    0 0.00e+00 100
MatMultAdd           154 1.0 6.2732e-04 1.0 1.24e+09 1.0 0.0e+00 0.0e+00 0.0e+00  0 39  0  0  0   0 43  0  0  0 7928490       0      0 0.00e+00    0 0.00e+00 100
MatAssemblyBegin     578 1.0 4.5659e-05 1.1 0.00e+00 0.0 0.0e+00 0.0e+00 0.0e+00  0  0  0  0  0   0  0  0  0  0     0       0      0 0.00e+00    0 0.00e+00  0
MatAssemblyEnd       578 1.0 1.0210e-04 1.1 0.00e+00 0.0 0.0e+00 0.0e+00 0.0e+00  0  0  0  0  0   0  0  0  0  0     0       0      0 0.00e+00    0 0.00e+00  0
MatZeroEntries       145 1.0 6.1024e-03 1.0 0.00e+00 0.0 0.0e+00 0.0e+00 0.0e+00  0  0  0  0  0   0  0  0  0  0     0       0      0 0.00e+00    0 0.00e+00  0
MatView                1 0.0 2.2984e-05 0.0 0.00e+00 0.0 0.0e+00 0.0e+00 0.0e+00  0  0  0  0  0   0  0  0  0  0     0       0      0 0.00e+00    0 0.00e+00  0
MatSetValuesCOO      289 1.0 1.6234e-03 1.1 0.00e+00 0.0 0.0e+00 0.0e+00 0.0e+00  0  0  0  0  0   0  0  0  0  0     0       0      0 0.00e+00    0 0.00e+00  0
VecNorm               10 1.0 1.9231e-04 1.0 3.64e+06 1.0 0.0e+00 0.0e+00 0.0e+00  0  0  0  0  0   0  0  0  0  0 75610       0      0 0.00e+00    0 0.00e+00 100
VecCopy              308 1.0 5.8681e-03 1.0 0.00e+00 0.0 0.0e+00 0.0e+00 0.0e+00  0  0  0  0  0   0  0  0  0  0     0       0      0 0.00e+00    0 0.00e+00  0
VecSet               298 1.0 4.0519e-02 1.0 0.00e+00 0.0 0.0e+00 0.0e+00 0.0e+00  1  0  0  0  0   2  0  0  0  0     0       0      0 0.00e+00    0 0.00e+00  0
VecAXPY              164 1.0 7.1995e-04 1.1 5.96e+07 1.0 0.0e+00 0.0e+00 0.0e+00  0  2  0  0  0   0  2  0  0  0 331229       0      0 0.00e+00    0 0.00e+00 100
VecAXPBYCZ           164 1.0 4.5198e-03 1.0 1.49e+08 1.0 0.0e+00 0.0e+00 0.0e+00  0  5  0  0  0   0  5  0  0  0 131901       0      0 0.00e+00    0 0.00e+00 100
VecWAXPY             144 1.0 1.1943e-03 1.1 5.23e+07 1.0 0.0e+00 0.0e+00 0.0e+00  0  2  0  0  0   0  2  0  0  0 175321       0      0 0.00e+00    0 0.00e+00 100
VecReduceArith       432 1.0 7.8308e-03 1.0 1.57e+08 1.0 0.0e+00 0.0e+00 0.0e+00  0  5  0  0  0   0  5  0  0  0 80217       0      0 0.00e+00    0 0.00e+00 100
VecReduceComm        144 1.0 3.1254e-05 1.3 0.00e+00 0.0 0.0e+00 0.0e+00 0.0e+00  0  0  0  0  0   0  0  0  0  0     0       0      0 0.00e+00    0 0.00e+00  0
TSStep                10 1.0 1.9515e+00 1.0 2.91e+09 1.0 0.0e+00 0.0e+00 0.0e+00 34 90  0  0  0  98100  0  0  0  5962       0      0 0.00e+00    0 0.00e+00 100
TSFunctionEval       154 1.0 8.5570e-01 1.0 2.54e+09 1.0 0.0e+00 0.0e+00 0.0e+00 15 79  0  0  0  43 87  0  0  0 11887       0      0 0.00e+00    0 0.00e+00 100
TSJacobianEval       144 1.0 1.4293e-01 1.0 0.00e+00 0.0 0.0e+00 0.0e+00 0.0e+00  3  0  0  0  0   7  0  0  0  0     0       0      0 0.00e+00    0 0.00e+00  0
KSPSetUp             144 1.0 1.9900e-05 1.1 0.00e+00 0.0 0.0e+00 0.0e+00 0.0e+00  0  0  0  0  0   0  0  0  0  0     0       0      0 0.00e+00    0 0.00e+00  0
KSPSolve             144 1.0 9.4135e-01 1.0 0.00e+00 0.0 0.0e+00 0.0e+00 0.0e+00 17  0  0  0  0  47  0  0  0  0     0       0      0 0.00e+00    0 0.00e+00  0
SNESSolve             10 1.0 1.9487e+00 1.0 2.90e+09 1.0 0.0e+00 0.0e+00 0.0e+00 34 90  0  0  0  98100  0  0  0  5944       0      0 0.00e+00    0 0.00e+00 100
SNESFunctionEval     154 1.0 8.5903e-01 1.0 2.68e+09 1.0 0.0e+00 0.0e+00 0.0e+00 15 83  0  0  0  43 92  0  0  0 12492       0      0 0.00e+00    0 0.00e+00 100
SNESJacobianEval     144 1.0 1.4302e-01 1.0 0.00e+00 0.0 0.0e+00 0.0e+00 0.0e+00  3  0  0  0  0   7  0  0  0  0     0       0      0 0.00e+00    0 0.00e+00  0
SNESLineSearch       144 1.0 8.6062e-01 1.0 2.72e+09 1.0 0.0e+00 0.0e+00 0.0e+00 15 85  0  0  0  43 93  0  0  0 12633       0      0 0.00e+00    0 0.00e+00 100
PCSetUp              144 1.0 6.6243e-04 1.1 0.00e+00 0.0 0.0e+00 0.0e+00 0.0e+00  0  0  0  0  0   0  0  0  0  0     0       0      0 0.00e+00    0 0.00e+00  0
PCApply              144 1.0 9.2731e-01 1.0 0.00e+00 0.0 0.0e+00 0.0e+00 0.0e+00 16  0  0  0  0  46  0  0  0  0     0       0      0 0.00e+00    0 0.00e+00  0
---------------------------------------------------------------------------------------------------------------------------------------------------------------

Memory usage is given in bytes:

Object Type          Creations   Destructions     Memory  Descendants' Mem.
Reports information only for process 0.

--- Event Stage 0: Main Stage

           Container   254            254       148336     0.
    Distributed Mesh   629            629      3316920     0.
            DM Label  1315           1315       852120     0.
          Quadrature  1389           1389       833400     0.
           Index Set  6035           6035      5423136     0.
   IS L to G Mapping   779            779      3853312     0.
             Section  5977           5977      4303440     0.
    Section Symmetry    80             80        57600     0.
   Star Forest Graph  4381           4381      5112968     0.
     Discrete System  1048           1048      1014476     0.
           Weak Form  1048           1048       653952     0.
    GraphPartitioner   242            242       168432     0.
              Matrix  1480           1480   1303897616     0.
              Vector   725            736     20279232     0.
       p4est logging     1              0            0     0.
        Linear Space    86             86        60416     0.
          Dual Space   240            240       226560     0.
            FE Space    40             40        31840     0.
       Field over DM    18             18        12816     0.
             TSAdapt     1              1         1264     0.
                  TS     1              1         2432     0.
                DMTS     1              1          768     0.
                SNES     1              1         1556     0.
              DMSNES     3              3         2088     0.
      SNESLineSearch     1              1         1008     0.
       Krylov Solver     1              2         3432     0.
     DMKSP interface     0              1          664     0.
      Preconditioner     1              2         1888     0.
              Viewer     2              1          848     0.

--- Event Stage 1: Warmup

           Index Set     5              5      2867624     0.
              Matrix     1              1     52084052     0.
              Vector   263            252      1387680     0.
       Krylov Solver     1              0            0     0.
     DMKSP interface     1              0            0     0.
      Preconditioner     1              0            0     0.

--- Event Stage 2: Solve

              Vector   924            924      5088160     0.
========================================================================================================================
Average time to get PetscTime(): 3.4e-08
Average time for MPI_Barrier(): 2.9858e-06
Average time for zero size MPI_Send(): 2.24585e-05
#PETSc Option Table entries:
-dim 2
-dm_landau_amr_levels_max 2,2,2
-dm_landau_batch_size 128
-dm_landau_coo_assembly
-dm_landau_device_type kokkos
-dm_landau_Ez 0
-dm_landau_ion_charges 1,2,3,4,5,6,7,8,9
-dm_landau_ion_masses 2,182,182,182,182,182,182,182,182
-dm_landau_n 1.0000044,1,1e-7,1e-7,1e-7,1e-7,1e-7,1e-7,1e-7,1e-7
-dm_landau_num_species_grid 1,1,8
-dm_landau_thermal_temps 2,1,1,1,1,1,1,1,1,1
-dm_landau_type p4est
-dm_landau_verbose 1
-dm_mat_type aijkokkos
-dm_preallocate_only false
-dm_vec_type kokkos
-ex2_test_type none
-ksp_type preonly
-log_view
-pc_bjkokkos_ksp_batch_nsolves_team 4
-pc_bjkokkos_ksp_converged_reason
-pc_bjkokkos_ksp_max_it 40
-pc_bjkokkos_ksp_rtol 1.e-8
-pc_bjkokkos_ksp_type gmres
-pc_bjkokkos_pc_type jacobi
-pc_type bjkokkos
-petscspace_degree 3
-snes_converged_reason
-snes_linesearch_type basic
-snes_max_it 50
-snes_monitor
-snes_rtol 1e-14
-snes_stol 1e-14
-ts_adapt_clip .5,1.1
-ts_adapt_dt_max 1
-ts_adapt_monitor
-ts_adapt_scale_solve_failed 0.5
-ts_adapt_time_step_increase_delay 5
-ts_dt .5
-ts_exact_final_time stepover
-ts_max_snes_failures -1
-ts_max_steps 10
-ts_max_time 100
-ts_monitor
-ts_rtol 1e-2
-ts_type beuler
-ts_view
-use_gpu_aware_mpi 0
#End of PETSc Option Table entries
Compiled without FORTRAN kernels
Compiled with full precision matrices (default)
sizeof(short) 2 sizeof(int) 4 sizeof(long) 8 sizeof(void*) 8 sizeof(PetscScalar) 8 sizeof(PetscInt) 4
Configure options: --CFLAGS="   -g" --CXXFLAGS=" -g" --CUDAFLAGS="-g -Xcompiler -rdynamic" --with-cc=cc --with-cxx=CC --with-fc=ftn --LIBS=-lnvToolsExt --download-amgx=1 --with-fortran-bindings=0 --LDFLAGS=-lmpifort_gnu_91 --COPTFLAGS="   -O" --CXXOPTFLAGS=" -O" --FOPTFLAGS="   -O" --with-debugging=0 --with-dmlandau-2d --download-triangle --with-cuda=1 --with-cuda-arch=80 --with-mpiexec=srun --with-batch=0 --download-p4est=1 --with-zlib=1 --download-kokkos --download-kokkos-kernels --with-kokkos-kernels-tpl=0 --download-kokkos-kernels-commit=origin/develop --with-make-np=8 PETSC_ARCH=arch-perlmutter-opt-gcc-kokkos-cuda
-----------------------------------------
Libraries compiled on 2022-06-01 00:24:28 on login34 
Machine characteristics: Linux-5.3.18-150300.59.43_11.0.51-cray_shasta_c-x86_64-with-glibc2.3.4
Using PETSc directory: /global/homes/m/madams/petsc
Using PETSc arch: arch-perlmutter-opt-gcc-kokkos-cuda
-----------------------------------------

Using C compiler: cc -g -fPIC -O   
Using Fortran compiler: ftn  -fPIC -O     
-----------------------------------------

Using include paths: -I/global/homes/m/madams/petsc/include -I/global/homes/m/madams/petsc/arch-perlmutter-opt-gcc-kokkos-cuda/include -I/opt/nvidia/hpc_sdk/Linux_x86_64/21.11/cuda/11.5/include -I/opt/nvidia/hpc_sdk/Linux_x86_64/21.11/math_libs/11.5/include
-----------------------------------------

Using C linker: cc
Using Fortran linker: ftn
Using libraries: -Wl,-rpath,/global/homes/m/madams/petsc/arch-perlmutter-opt-gcc-kokkos-cuda/lib -L/global/homes/m/madams/petsc/arch-perlmutter-opt-gcc-kokkos-cuda/lib -lpetsc -Wl,-rpath,/global/homes/m/madams/petsc/arch-perlmutter-opt-gcc-kokkos-cuda/lib -L/global/homes/m/madams/petsc/arch-perlmutter-opt-gcc-kokkos-cuda/lib -Wl,-rpath,/opt/nvidia/hpc_sdk/Linux_x86_64/21.11/cuda/11.5/lib64 -L/opt/nvidia/hpc_sdk/Linux_x86_64/21.11/cuda/11.5/lib64 -L/opt/nvidia/hpc_sdk/Linux_x86_64/21.11/cuda/11.5/lib64/stubs -lkokkoskernels -lkokkoscontainers -lkokkoscore -lp4est -lsc -ltriangle -lcudart -lcufft -lcublas -lcusparse -lcusolver -lcurand -lcuda -lX11 -lquadmath -lstdc++ -ldl -lnvToolsExt
-----------------------------------------



      ##########################################################
      #                                                        #
      #                       WARNING!!!                       #
      #                                                        #
      #   This code was compiled with GPU support and you've   #
      #   created PETSc/GPU objects, but you intentionally     #
      #   used -use_gpu_aware_mpi 0, requiring PETSc to copy   #
      #   additional data between the GPU and CPU. To obtain   #
      #   meaningful timing results on multi-rank runs, use    #
      #   GPU-aware MPI instead.                               #
      #                                                        #
      ##########################################################


